#P0E000000C800AM_RdFreq

2017-10-08 21:51:38, 50,:e,:0,:0,:c8,:0,:a0 @

2017-10-08 21:51:38,*******Measure Period per Event & Freq in MHz*******

2017-10-08 21:51:38,****Period_cnt , Freq, SeqNo, Status,..........

2017-10-08 21:51:38,#P#, 65303, 702792448, 0, 1 

2017-10-08 21:51:38,#P#, 65303, 702792448, 1, 1 

2017-10-08 21:51:38,#P#, 65303, 702792448, 2, 1 

2017-10-08 21:51:38,#P#, 65303, 702792448, 3, 1 

2017-10-08 21:51:38,#P#, 65303, 702792448, 4, 1 

2017-10-08 21:51:38,#P#, 65303, 702792448, 5, 1 

2017-10-08 21:51:38,#P#, 65303, 702792448, 6, 1 

2017-10-08 21:51:38,#P#, 65303, 702792448, 7, 1 

2017-10-08 21:51:38,#P#, 65303, 702792448, 8, 1 

2017-10-08 21:51:38,#P#, 65303, 702792448, 9, 1 

2017-10-08 21:51:38,#P#, 65303, 702792448, 10, 1 

2017-10-08 21:51:38,#P#, 65303, 702792448, 11, 1 

2017-10-08 21:51:38,#P#, 65303, 702792448, 12, 1 

2017-10-08 21:51:38,#P#, 65303, 702792448, 13, 1 

2017-10-08 21:51:38,#P#, 65303, 702792448, 14, 1 

2017-10-08 21:51:38,#P#, 65303, 702792448, 15, 1 

2017-10-08 21:51:38,#P#, 65303, 702792448, 16, 1 

2017-10-08 21:51:38,#P#, 65303, 702792448, 17, 1 

2017-10-08 21:51:38,#P#, 65303, 702792448, 18, 1 

2017-10-08 21:51:38,#P#, 65303, 702792448, 19, 1 

2017-10-08 21:51:38,#P#, 65303, 702792448, 20, 1 

2017-10-08 21:51:38,#P#, 65303, 702792448, 21, 1 

2017-10-08 21:51:38,#P#, 65303, 702792448, 22, 1 

2017-10-08 21:51:38,#P#, 65303, 702792448, 23, 1 

2017-10-08 21:51:38,#P#, 65303, 702792448, 24, 1 

2017-10-08 21:51:38,#P#, 65303, 702792448, 25, 1 

2017-10-08 21:51:38,#P#, 65303, 702792448, 26, 1 

2017-10-08 21:51:38,#P#, 65303, 702792448, 27, 1 

2017-10-08 21:51:38,#P#, 65303, 702792448, 28, 1 

2017-10-08 21:51:38,#P#, 65303, 702792448, 29, 1 

2017-10-08 21:51:38,#P#, 65303, 702792448, 30, 1 

2017-10-08 21:51:38,#P#, 65303, 702792448, 31, 1 

2017-10-08 21:51:38,#P#, 65303, 702792448, 32, 1 

2017-10-08 21:51:38,#P#, 65303, 702792448, 33, 1 

2017-10-08 21:51:38,#P#, 65303, 702792448, 34, 1 

2017-10-08 21:51:38,#P#, 65303, 702792448, 35, 1 

2017-10-08 21:51:38,#P#, 65303, 702792448, 36, 1 

2017-10-08 21:51:38,#P#, 65303, 702792448, 37, 1 

2017-10-08 21:51:38,#P#, 65303, 702792448, 38, 1 

2017-10-08 21:51:38,#P#, 65303, 702792448, 39, 1 

2017-10-08 21:51:38,#P#, 65303, 702792448, 40, 1 

2017-10-08 21:51:38,#P#, 65303, 702792448, 41, 1 

2017-10-08 21:51:38,#P#, 65303, 702792448, 42, 1 

2017-10-08 21:51:38,#P#, 65303, 702792448, 43, 1 

2017-10-08 21:51:38,#P#, 65303, 702792448, 44, 1 

2017-10-08 21:51:38,#P#, 65303, 702792448, 45, 1 

2017-10-08 21:51:38,#P#, 65303, 702792448, 46, 1 

2017-10-08 21:51:38,#P#, 65303, 702792448, 47, 1 

2017-10-08 21:51:38,#P#, 65303, 702792448, 48, 1 

2017-10-08 21:51:38,#P#, 65303, 702792448, 49, 1 

2017-10-08 21:51:38,#P#, 65303, 702792448, 50, 1 

2017-10-08 21:51:38,#P#, 65303, 702792448, 51, 1 

2017-10-08 21:51:38,#P#, 65303, 702792448, 52, 1 

2017-10-08 21:51:38,#P#, 65303, 702792448, 53, 1 

2017-10-08 21:51:38,#P#, 65303, 702792448, 54, 1 

2017-10-08 21:51:38,#P#, 65303, 702792448, 55, 1 

2017-10-08 21:51:38,#P#, 65303, 702792448, 56, 1 

2017-10-08 21:51:38,#P#, 65303, 702792448, 57, 1 

2017-10-08 21:51:38,#P#, 65303, 702792448, 58, 1 

2017-10-08 21:51:38,#P#, 65303, 702792448, 59, 1 

2017-10-08 21:51:38,#P#, 65303, 702792448, 60, 1 

2017-10-08 21:51:38,#P#, 65303, 702792448, 61, 1 

2017-10-08 21:51:38,#P#, 65303, 702792448, 62, 1 

2017-10-08 21:51:38,#P#, 65303, 702792448, 63, 1 

2017-10-08 21:51:38,#P#, 65303, 702792448, 64, 1 

2017-10-08 21:51:38,#P#, 65303, 702792448, 65, 1 

2017-10-08 21:51:38,#P#, 65303, 702792448, 66, 1 

2017-10-08 21:51:38,#P#, 65303, 702792448, 67, 1 

2017-10-08 21:51:38,#P#, 65303, 702792448, 68, 1 

2017-10-08 21:51:38,#P#, 65303, 702792448, 69, 1 

2017-10-08 21:51:38,#P#, 65303, 702792448, 70, 1 

2017-10-08 21:51:38,#P#, 65303, 702792448, 71, 1 

2017-10-08 21:51:38,#P#, 65303, 702792448, 72, 1 

2017-10-08 21:51:38,#P#, 65303, 702792448, 73, 1 

2017-10-08 21:51:38,#P#, 65303, 702792448, 74, 1 

2017-10-08 21:51:38,#P#, 65303, 702792448, 75, 1 

2017-10-08 21:51:38,#P#, 65303, 702792448, 76, 1 

2017-10-08 21:51:38,#P#, 65303, 702792448, 77, 1 

2017-10-08 21:51:38,#P#, 65303, 702792448, 78, 1 

2017-10-08 21:51:38,#P#, 65303, 702792448, 79, 1 

2017-10-08 21:51:38,#P#, 65303, 702792448, 80, 1 

2017-10-08 21:51:38,#P#, 65303, 702792448, 81, 1 

2017-10-08 21:51:38,#P#, 65303, 702792448, 82, 1 

2017-10-08 21:51:38,#P#, 65303, 702792448, 83, 1 

2017-10-08 21:51:38,#P#, 65303, 702792448, 84, 1 

2017-10-08 21:51:38,#P#, 65303, 702792448, 85, 1 

2017-10-08 21:51:38,#P#, 65303, 702792448, 86, 1 

2017-10-08 21:51:38,#P#, 65303, 702792448, 87, 1 

2017-10-08 21:51:38,#P#, 65303, 702792448, 88, 1 

2017-10-08 21:51:38,#P#, 65303, 702792448, 89, 1 

2017-10-08 21:51:38,#P#, 65303, 702792448, 90, 1 

2017-10-08 21:51:38,#P#, 65303, 702792448, 91, 1 

2017-10-08 21:51:38,#P#, 65303, 702792448, 92, 1 

2017-10-08 21:51:38,#P#, 65303, 702792448, 93, 1 

2017-10-08 21:51:39,#P#, 65303, 702792448, 94, 1 

2017-10-08 21:51:39,#P#, 65303, 702792448, 95, 1 

2017-10-08 21:51:39,#P#, 65303, 702792448, 96, 1 

2017-10-08 21:51:39,#P#, 65303, 702792448, 97, 1 

2017-10-08 21:51:39,#P#, 65303, 702792448, 98, 1 

2017-10-08 21:51:39,#P#, 65303, 702792448, 99, 1 

2017-10-08 21:51:39,#P#, 65303, 702792448, 100, 1 

2017-10-08 21:51:39,#P#, 65303, 702792448, 101, 1 

2017-10-08 21:51:39,#P#, 65303, 702792448, 102, 1 

2017-10-08 21:51:39,#P#, 65303, 702792448, 103, 1 

2017-10-08 21:51:39,#P#, 65303, 702792448, 104, 1 

2017-10-08 21:51:39,#P#, 65303, 702792448, 105, 1 

2017-10-08 21:51:39,#P#, 65303, 702792448, 106, 1 

2017-10-08 21:51:39,#P#, 65303, 702792448, 107, 1 

2017-10-08 21:51:39,#P#, 65303, 702792448, 108, 1 

2017-10-08 21:51:39,#P#, 65303, 702792448, 109, 1 

2017-10-08 21:51:39,#P#, 65303, 702792448, 110, 1 

2017-10-08 21:51:39,#P#, 65303, 702792448, 111, 1 

2017-10-08 21:51:39,#P#, 65303, 702792448, 112, 1 

2017-10-08 21:51:39,#P#, 65303, 702792448, 113, 1 

2017-10-08 21:51:39,#P#, 65303, 702792448, 114, 1 

2017-10-08 21:51:39,#P#, 65303, 702792448, 115, 1 

2017-10-08 21:51:39,#P#, 65303, 702792448, 116, 1 

2017-10-08 21:51:39,#P#, 65303, 702792448, 117, 1 

2017-10-08 21:51:39,#P#, 65303, 702792448, 118, 1 

2017-10-08 21:51:39,#P#, 65303, 702792448, 119, 1 

2017-10-08 21:51:39,#P#, 65303, 702792448, 120, 1 

2017-10-08 21:51:39,#P#, 65303, 702792448, 121, 1 

2017-10-08 21:51:39,#P#, 65303, 702792448, 122, 1 

2017-10-08 21:51:39,#P#, 65303, 702792448, 123, 1 

2017-10-08 21:51:39,#P#, 65303, 702792448, 124, 1 

2017-10-08 21:51:39,#P#, 65303, 702792448, 125, 1 

2017-10-08 21:51:39,#P#, 65303, 702792448, 126, 1 

2017-10-08 21:51:39,#P#, 65303, 702792448, 127, 1 

2017-10-08 21:51:39,#P#, 65303, 702792448, 128, 1 

2017-10-08 21:51:39,#P#, 65303, 702792448, 129, 1 

2017-10-08 21:51:39,#P#, 65303, 702792448, 130, 1 

2017-10-08 21:51:39,#P#, 65303, 702792448, 131, 1 

2017-10-08 21:51:39,#P#, 65303, 702792448, 132, 1 

2017-10-08 21:51:39,#P#, 65303, 702792448, 133, 1 

2017-10-08 21:51:39,#P#, 65303, 702792448, 134, 1 

2017-10-08 21:51:39,#P#, 65303, 702792448, 135, 1 

2017-10-08 21:51:39,#P#, 65303, 702792448, 136, 1 

2017-10-08 21:51:39,#P#, 65303, 702792448, 137, 1 

2017-10-08 21:51:39,#P#, 65303, 702792448, 138, 1 

2017-10-08 21:51:39,#P#, 65303, 702792448, 139, 1 

2017-10-08 21:51:39,#P#, 65303, 702792448, 140, 1 

2017-10-08 21:51:39,#P#, 65303, 702792448, 141, 1 

2017-10-08 21:51:39,#P#, 65303, 702792448, 142, 1 

2017-10-08 21:51:39,#P#, 65303, 702792448, 143, 1 

2017-10-08 21:51:39,#P#, 65303, 702792448, 144, 1 

2017-10-08 21:51:39,#P#, 65303, 702792448, 145, 1 

2017-10-08 21:51:39,#P#, 65303, 702792448, 146, 1 

2017-10-08 21:51:39,#P#, 65303, 702792448, 147, 1 

2017-10-08 21:51:39,#P#, 65303, 702792448, 148, 1 

2017-10-08 21:51:39,#P#, 65303, 702792448, 149, 1 

2017-10-08 21:51:39,#P#, 65303, 702792448, 150, 1 

2017-10-08 21:51:39,#P#, 65303, 702792448, 151, 1 

2017-10-08 21:51:39,#P#, 65303, 702792448, 152, 1 

2017-10-08 21:51:39,#P#, 65303, 702792448, 153, 1 

2017-10-08 21:51:39,#P#, 65303, 702792448, 154, 1 

2017-10-08 21:51:39,#P#, 65303, 702792448, 155, 1 

2017-10-08 21:51:39,#P#, 65303, 702792448, 156, 1 

2017-10-08 21:51:39,#P#, 65303, 702792448, 157, 1 

2017-10-08 21:51:39,#P#, 65303, 702792448, 158, 1 

2017-10-08 21:51:39,#P#, 65303, 702792448, 159, 1 

2017-10-08 21:51:39,#P#, 65303, 702792448, 160, 1 

2017-10-08 21:51:39,#P#, 65303, 702792448, 161, 1 

2017-10-08 21:51:39,#P#, 65303, 702792448, 162, 1 

2017-10-08 21:51:39,#P#, 65303, 702792448, 163, 1 

2017-10-08 21:51:39,#P#, 65303, 702792448, 164, 1 

2017-10-08 21:51:39,#P#, 65303, 702792448, 165, 1 

2017-10-08 21:51:39,#P#, 65303, 702792448, 166, 1 

2017-10-08 21:51:39,#P#, 65303, 702792448, 167, 1 

2017-10-08 21:51:39,#P#, 65303, 702792448, 168, 1 

2017-10-08 21:51:39,#P#, 65303, 702792448, 169, 1 

2017-10-08 21:51:39,#P#, 65303, 702792448, 170, 1 

2017-10-08 21:51:39,#P#, 65303, 702792448, 171, 1 

2017-10-08 21:51:39,#P#, 65303, 702792448, 172, 1 

2017-10-08 21:51:39,#P#, 65303, 702792448, 173, 1 

2017-10-08 21:51:39,#P#, 65303, 702792448, 174, 1 

2017-10-08 21:51:39,#P#, 65303, 702792448, 175, 1 

2017-10-08 21:51:39,#P#, 65303, 702792448, 176, 1 

2017-10-08 21:51:39,#P#, 65303, 702792448, 177, 1 

2017-10-08 21:51:39,#P#, 65303, 702792448, 178, 1 

2017-10-08 21:51:39,#P#, 65303, 702792448, 179, 1 

2017-10-08 21:51:39,#P#, 65303, 702792448, 180, 1 

2017-10-08 21:51:39,#P#, 65303, 702792448, 181, 1 

2017-10-08 21:51:39,#P#, 65303, 702792448, 182, 1 

2017-10-08 21:51:39,#P#, 65303, 702792448, 183, 1 

2017-10-08 21:51:39,#P#, 65303, 702792448, 184, 1 

2017-10-08 21:51:39,#P#, 65303, 702792448, 185, 1 

2017-10-08 21:51:39,#P#, 65303, 702792448, 186, 1 

2017-10-08 21:51:39,#P#, 65303, 702792448, 187, 1 

2017-10-08 21:51:39,#P#, 65303, 702792448, 188, 1 

2017-10-08 21:51:39,#P#, 65303, 702792448, 189, 1 

2017-10-08 21:51:39,#P#, 65303, 702792448, 190, 1 

2017-10-08 21:51:39,#P#, 65303, 702792448, 191, 1 

2017-10-08 21:51:39,#P#, 65303, 702792448, 192, 1 

2017-10-08 21:51:39,#P#, 65303, 702792448, 193, 1 

2017-10-08 21:51:39,#P#, 65303, 702792448, 194, 1 

2017-10-08 21:51:39,#P#, 65303, 702792448, 195, 1 

2017-10-08 21:51:39,#P#, 65303, 702792448, 196, 1 

2017-10-08 21:51:39,#P#, 65303, 702792448, 197, 1 

2017-10-08 21:51:39,#P#, 65303, 702792448, 198, 1 

2017-10-08 21:51:39,#P#, 65303, 702792448, 199, 1 

2017-10-08 21:51:39,*******DONE*******#

Exiting PsocAmPreRad
#V0E0000000100GetVlocal

2017-10-08 21:51:41, 56,:e,:0,:0,:1,:0,:0 @

2017-10-08 21:51:41,*******Measure local voltages in mV *******

2017-10-08 21:51:41,*******VI2C,+Vopamps,+Vopamps,Vdacs,Vadc,SeqNo, Status*********

2017-10-08 21:51:41,#V#,65303,5888,0,0,0*******DONE*******#

Exiting PsocAmPreRad
#C0E00126E0000IsOffsets

2017-10-08 21:51:42, 43,:e,:0,:126e,:0,:0,:0 @

2017-10-08 21:51:42,*******DONE*******#

Exiting PsocAmPreRad
#E0E001EB80A0083IS_RAMP

2017-10-08 21:51:43, 45,:e,:0,:1eb8,:a,:0,:83 @

2017-10-08 21:51:43,*SeqNo,Samples,DAC_Cnt,BGapReg,GainReg,AM_VCal,BGO,Isense0,Isense1

2017-10-08 21:51:44,
2017-10-08 21:51:44,#E#,0,0,12,102,131,0,60,0,0,565,88,0,0,111,99

2017-10-08 21:51:44,#E#,0,1,12,102,131,0,60,0,0,565,88,0,0,111,99

2017-10-08 21:51:44,#E#,0,2,12,102,131,0,60,0,0,565,88,0,0,111,99

2017-10-08 21:51:44,#E#,0,3,12,102,131,0,60,0,0,565,88,0,0,111,99

2017-10-08 21:51:44,#E#,0,4,12,102,131,0,60,0,0,565,88,0,0,111,99

2017-10-08 21:51:44,#E#,0,5,12,102,131,0,60,0,0,564,88,0,0,111,99

2017-10-08 21:51:44,#E#,0,6,12,102,131,0,60,0,0,566,88,0,0,111,99

2017-10-08 21:51:44,#E#,0,7,12,102,131,0,60,0,0,565,88,0,0,110,99

2017-10-08 21:51:44,#E#,0,8,12,102,131,0,60,0,0,565,88,0,0,111,99

2017-10-08 21:51:44,#E#,0,9,12,102,131,0,60,0,0,565,88,0,0,111,99

2017-10-08 21:51:45,
2017-10-08 21:51:45,#E#,1,0,12,102,131,131,60,102,603,565,88,7,6,111,99

2017-10-08 21:51:45,#E#,1,1,12,102,131,131,60,102,603,565,88,7,6,111,99

2017-10-08 21:51:45,#E#,1,2,12,102,131,131,60,102,603,565,88,7,6,112,100

2017-10-08 21:51:45,#E#,1,3,12,102,131,131,60,102,603,565,88,7,6,111,99

2017-10-08 21:51:45,#E#,1,4,12,102,131,131,60,102,603,565,88,7,6,127,100

2017-10-08 21:51:45,#E#,1,5,12,102,131,131,60,102,603,565,88,7,6,112,100

2017-10-08 21:51:45,#E#,1,6,12,102,131,131,60,102,603,565,88,7,6,112,100

2017-10-08 21:51:45,#E#,1,7,12,102,131,131,60,102,603,565,88,7,6,111,99

2017-10-08 21:51:45,#E#,1,8,12,102,131,131,60,102,603,565,88,7,6,111,100

2017-10-08 21:51:45,#E#,1,9,12,102,131,131,60,102,603,566,88,7,6,111,99

2017-10-08 21:51:46,
2017-10-08 21:51:46,#E#,2,0,12,102,131,262,60,102,603,565,88,10,10,112,100

2017-10-08 21:51:47,#E#,2,1,12,102,131,262,60,102,603,565,88,10,10,112,100

2017-10-08 21:51:47,#E#,2,2,12,102,131,262,60,102,603,565,88,10,10,112,101

2017-10-08 21:51:47,#E#,2,3,12,102,131,262,60,102,603,565,88,10,10,112,102

2017-10-08 21:51:47,#E#,2,4,12,102,131,262,60,102,603,565,88,10,10,112,99

2017-10-08 21:51:47,#E#,2,5,12,102,131,262,60,102,603,565,88,10,10,112,100

2017-10-08 21:51:47,#E#,2,6,12,102,131,262,60,102,603,566,88,10,10,112,100

2017-10-08 21:51:47,#E#,2,7,12,102,131,262,60,102,603,565,88,10,10,112,100

2017-10-08 21:51:47,#E#,2,8,12,102,131,262,60,102,603,565,88,10,10,112,100

2017-10-08 21:51:47,#E#,2,9,12,102,131,262,60,102,603,565,88,10,10,112,100

2017-10-08 21:51:48,
2017-10-08 21:51:48,#E#,3,0,12,102,131,393,60,102,603,565,88,14,14,112,101

2017-10-08 21:51:48,#E#,3,1,12,102,131,393,60,102,603,565,88,14,14,113,100

2017-10-08 21:51:48,#E#,3,2,12,102,131,393,60,102,603,565,88,14,14,113,101

2017-10-08 21:51:48,#E#,3,3,12,102,131,393,60,102,603,565,88,14,14,112,101

2017-10-08 21:51:48,#E#,3,4,12,102,131,393,60,102,603,565,88,14,14,112,100

2017-10-08 21:51:48,#E#,3,5,12,102,131,393,60,102,603,565,88,14,14,113,101

2017-10-08 21:51:48,#E#,3,6,12,102,131,393,60,102,603,565,88,14,14,113,100

2017-10-08 21:51:48,#E#,3,7,12,102,131,393,60,102,603,565,88,14,14,113,101

2017-10-08 21:51:48,#E#,3,8,12,102,131,393,60,102,603,565,88,14,14,113,101

2017-10-08 21:51:48,#E#,3,9,12,102,131,393,60,102,603,565,88,14,14,113,101

2017-10-08 21:51:49,
2017-10-08 21:51:49,#E#,4,0,12,102,131,524,60,102,603,565,88,18,18,113,101

2017-10-08 21:51:49,#E#,4,1,12,102,131,524,60,102,603,565,88,18,18,113,101

2017-10-08 21:51:49,#E#,4,2,12,102,131,524,60,102,603,565,88,18,18,113,101

2017-10-08 21:51:49,#E#,4,3,12,102,131,524,60,102,603,565,88,18,18,113,101

2017-10-08 21:51:49,#E#,4,4,12,102,131,524,60,102,603,565,88,18,18,113,102

2017-10-08 21:51:49,#E#,4,5,12,102,131,524,60,102,603,565,88,18,18,113,101

2017-10-08 21:51:49,#E#,4,6,12,102,131,524,60,102,603,564,88,18,18,113,101

2017-10-08 21:51:49,#E#,4,7,12,102,131,524,60,102,603,565,88,18,18,113,101

2017-10-08 21:51:49,#E#,4,8,12,102,131,524,60,102,603,565,88,18,18,113,102

2017-10-08 21:51:49,#E#,4,9,12,102,131,524,60,102,603,565,88,18,18,113,102

2017-10-08 21:51:50,
2017-10-08 21:51:51,#E#,5,0,12,102,131,655,60,102,603,564,88,21,21,114,102

2017-10-08 21:51:51,#E#,5,1,12,102,131,655,60,102,603,565,88,21,21,114,102

2017-10-08 21:51:51,#E#,5,2,12,102,131,655,60,102,603,565,88,21,21,113,102

2017-10-08 21:51:51,#E#,5,3,12,102,131,655,60,102,603,565,88,21,21,114,102

2017-10-08 21:51:51,#E#,5,4,12,102,131,655,60,102,603,565,88,21,21,114,102

2017-10-08 21:51:51,#E#,5,5,12,102,131,655,60,102,603,565,88,21,21,114,102

2017-10-08 21:51:51,#E#,5,6,12,102,131,655,60,102,603,565,88,21,21,114,102

2017-10-08 21:51:51,#E#,5,7,12,102,131,655,60,102,603,565,88,21,21,114,103

2017-10-08 21:51:51,#E#,5,8,12,102,131,655,60,102,603,565,88,21,21,114,102

2017-10-08 21:51:51,#E#,5,9,12,102,131,655,60,102,603,565,88,21,21,114,101

2017-10-08 21:51:52,
2017-10-08 21:51:52,#E#,6,0,12,102,131,786,60,102,603,565,88,26,26,114,102

2017-10-08 21:51:52,#E#,6,1,12,102,131,786,60,102,603,565,88,26,26,115,103

2017-10-08 21:51:52,#E#,6,2,12,102,131,786,60,102,603,565,88,26,26,115,103

2017-10-08 21:51:52,#E#,6,3,12,102,131,786,60,102,603,565,88,26,26,115,103

2017-10-08 21:51:52,#E#,6,4,12,102,131,786,60,102,603,565,88,26,26,114,103

2017-10-08 21:51:52,#E#,6,5,12,102,131,786,60,102,603,565,88,26,26,115,103

2017-10-08 21:51:52,#E#,6,6,12,102,131,786,60,102,603,565,88,26,26,114,103

2017-10-08 21:51:52,#E#,6,7,12,102,131,786,60,102,603,565,88,26,26,115,103

2017-10-08 21:51:52,#E#,6,8,12,102,131,786,60,102,603,565,88,26,26,114,103

2017-10-08 21:51:52,#E#,6,9,12,102,131,786,60,102,603,564,88,26,26,115,102

2017-10-08 21:51:53,
2017-10-08 21:51:53,#E#,7,0,12,102,131,917,60,102,603,564,88,29,29,115,104

2017-10-08 21:51:53,#E#,7,1,12,102,131,917,60,102,603,565,88,29,29,115,103

2017-10-08 21:51:53,#E#,7,2,12,102,131,917,60,102,603,565,88,29,29,115,103

2017-10-08 21:51:53,#E#,7,3,12,102,131,917,60,102,603,565,88,29,29,115,103

2017-10-08 21:51:54,#E#,7,4,12,102,131,917,60,102,603,565,88,29,29,115,103

2017-10-08 21:51:54,#E#,7,5,12,102,131,917,60,102,603,564,88,29,29,115,103

2017-10-08 21:51:54,#E#,7,6,12,102,131,917,60,102,603,565,88,29,29,115,104

2017-10-08 21:51:54,#E#,7,7,12,102,131,917,60,102,603,565,88,29,29,115,103

2017-10-08 21:51:54,#E#,7,8,12,102,131,917,60,102,603,565,88,29,29,115,103

2017-10-08 21:51:54,#E#,7,9,12,102,131,917,60,102,603,565,88,29,29,116,103

2017-10-08 21:51:55,
2017-10-08 21:51:55,#E#,8,0,12,102,131,1048,60,102,603,565,88,33,33,116,104

2017-10-08 21:51:55,#E#,8,1,12,102,131,1048,60,102,603,565,88,33,33,116,104

2017-10-08 21:51:55,#E#,8,2,12,102,131,1048,60,102,603,565,88,33,33,116,104

2017-10-08 21:51:55,#E#,8,3,12,102,131,1048,60,102,603,565,88,33,33,116,104

2017-10-08 21:51:55,#E#,8,4,12,102,131,1048,60,102,603,565,88,33,33,116,104

2017-10-08 21:51:55,#E#,8,5,12,102,131,1048,60,102,603,565,88,33,33,116,104

2017-10-08 21:51:55,#E#,8,6,12,102,131,1048,60,102,603,564,88,33,33,116,104

2017-10-08 21:51:55,#E#,8,7,12,102,131,1048,60,102,603,565,88,33,33,116,104

2017-10-08 21:51:55,#E#,8,8,12,102,131,1048,60,102,603,565,88,33,33,116,104

2017-10-08 21:51:55,#E#,8,9,12,102,131,1048,60,102,603,565,88,33,33,116,104

2017-10-08 21:51:56,
2017-10-08 21:51:56,#E#,9,0,12,102,131,1179,60,102,603,565,88,37,37,116,104

2017-10-08 21:51:56,#E#,9,1,12,102,131,1179,60,102,603,565,88,37,37,117,105

2017-10-08 21:51:56,#E#,9,2,12,102,131,1179,60,102,603,565,88,37,37,116,105

2017-10-08 21:51:56,#E#,9,3,12,102,131,1179,60,102,603,565,88,37,37,116,105

2017-10-08 21:51:56,#E#,9,4,12,102,131,1179,60,102,603,565,88,37,37,117,104

2017-10-08 21:51:56,#E#,9,5,12,102,131,1179,60,102,603,564,88,37,37,116,105

2017-10-08 21:51:56,#E#,9,6,12,102,131,1179,60,102,603,565,88,37,37,117,105

2017-10-08 21:51:56,#E#,9,7,12,102,131,1179,60,102,603,565,88,37,37,116,104

2017-10-08 21:51:56,#E#,9,8,12,102,131,1179,60,102,603,565,88,37,37,116,105

2017-10-08 21:51:56,#E#,9,9,12,102,131,1179,60,102,603,565,88,37,37,116,104

2017-10-08 21:51:57,
2017-10-08 21:51:58,#E#,10,0,12,102,131,1310,60,102,603,564,88,41,41,117,105

2017-10-08 21:51:58,#E#,10,1,12,102,131,1310,60,102,603,564,88,41,41,117,105

2017-10-08 21:51:58,#E#,10,2,12,102,131,1310,60,102,603,564,88,41,41,117,105

2017-10-08 21:51:58,#E#,10,3,12,102,131,1310,60,102,603,564,88,41,41,118,105

2017-10-08 21:51:58,#E#,10,4,12,102,131,1310,60,102,603,565,88,41,41,117,105

2017-10-08 21:51:58,#E#,10,5,12,102,131,1310,60,102,603,565,88,41,41,117,105

2017-10-08 21:51:58,#E#,10,6,12,102,131,1310,60,102,603,565,88,41,41,117,105

2017-10-08 21:51:58,#E#,10,7,12,102,131,1310,60,102,603,565,88,41,41,117,105

2017-10-08 21:51:58,#E#,10,8,12,102,131,1310,60,102,603,564,88,41,41,118,105

2017-10-08 21:51:58,#E#,10,9,12,102,131,1310,60,102,603,564,88,41,41,117,105

2017-10-08 21:51:59,
2017-10-08 21:51:59,#E#,11,0,12,102,131,1441,60,102,603,564,88,45,45,118,106

2017-10-08 21:51:59,#E#,11,1,12,102,131,1441,60,102,603,565,88,45,45,118,106

2017-10-08 21:51:59,#E#,11,2,12,102,131,1441,60,102,603,564,88,45,45,118,106

2017-10-08 21:51:59,#E#,11,3,12,102,131,1441,60,102,603,565,88,45,45,118,106

2017-10-08 21:51:59,#E#,11,4,12,102,131,1441,60,102,603,564,88,45,45,118,106

2017-10-08 21:51:59,#E#,11,5,12,102,131,1441,60,102,603,564,88,45,45,118,106

2017-10-08 21:51:59,#E#,11,6,12,102,131,1441,60,102,603,565,88,45,45,118,106

2017-10-08 21:51:59,#E#,11,7,12,102,131,1441,60,102,603,565,88,45,45,118,106

2017-10-08 21:51:59,#E#,11,8,12,102,131,1441,60,102,603,564,88,45,45,118,106

2017-10-08 21:51:59,#E#,11,9,12,102,131,1441,60,102,603,565,88,45,45,118,106

2017-10-08 21:52:00,
2017-10-08 21:52:00,#E#,12,0,12,102,131,1572,60,102,603,564,88,49,48,119,106

2017-10-08 21:52:00,#E#,12,1,12,102,131,1572,60,102,603,564,88,49,48,119,107

2017-10-08 21:52:00,#E#,12,2,12,102,131,1572,60,102,603,564,88,49,48,118,106

2017-10-08 21:52:00,#E#,12,3,12,102,131,1572,60,102,603,565,88,49,48,119,106

2017-10-08 21:52:00,#E#,12,4,12,102,131,1572,60,102,603,564,88,49,48,119,106

2017-10-08 21:52:00,#E#,12,5,12,102,131,1572,60,102,603,565,88,49,48,119,106

2017-10-08 21:52:00,#E#,12,6,12,102,131,1572,60,102,603,565,88,49,48,119,106

2017-10-08 21:52:01,#E#,12,7,12,102,131,1572,60,102,603,565,88,49,48,119,106

2017-10-08 21:52:01,#E#,12,8,12,102,131,1572,60,102,603,565,88,49,48,119,106

2017-10-08 21:52:01,#E#,12,9,12,102,131,1572,60,102,603,564,88,49,48,118,107

2017-10-08 21:52:02,
2017-10-08 21:52:03,
2017-10-08 21:52:04,
2017-10-08 21:52:05,
2017-10-08 21:52:06,
2017-10-08 21:52:07,
2017-10-08 21:52:07,Watch Interrupt or Reset!! BGO Set:0, GAIN Set:0

2017-10-08 21:52:08,
2017-10-08 21:52:09,
2017-10-08 21:52:10,
2017-10-08 21:52:11,
2017-10-08 21:52:12,
2017-10-08 21:52:13,
2017-10-08 21:52:14,
2017-10-08 21:52:15,
2017-10-08 21:52:16,
2017-10-08 21:52:17,
2017-10-08 21:52:18,
2017-10-08 21:52:19,
2017-10-08 21:52:20,
2017-10-08 21:52:21,
2017-10-08 21:52:22,
2017-10-08 21:52:23,
2017-10-08 21:52:24,
2017-10-08 21:52:25,
2017-10-08 21:52:26,
2017-10-08 21:52:27,
2017-10-08 21:52:28,
2017-10-08 21:52:29,
2017-10-08 21:52:30,
2017-10-08 21:52:31,
2017-10-08 21:52:32,
2017-10-08 21:52:33,
2017-10-08 21:52:34,
2017-10-08 21:52:35,
2017-10-08 21:52:36,
2017-10-08 21:52:37,
2017-10-08 21:52:38,
2017-10-08 21:52:39,
2017-10-08 21:52:40,
2017-10-08 21:52:41,
2017-10-08 21:52:42,
2017-10-08 21:52:43,
2017-10-08 21:52:44,
2017-10-08 21:52:45,
2017-10-08 21:52:46,
2017-10-08 21:52:47,
2017-10-08 21:52:48,
2017-10-08 21:52:49,
2017-10-08 21:52:50,
2017-10-08 21:52:51,
2017-10-08 21:52:52,
2017-10-08 21:52:53,
2017-10-08 21:52:54,
2017-10-08 21:52:55,
2017-10-08 21:52:56,
2017-10-08 21:52:57,
2017-10-08 21:52:58,
2017-10-08 21:52:59,
2017-10-08 21:53:00,
2017-10-08 21:53:01,
2017-10-08 21:53:02,
2017-10-08 21:53:03,
2017-10-08 21:53:04,
2017-10-08 21:53:05,
2017-10-08 21:53:06,
2017-10-08 21:53:07,
2017-10-08 21:53:08,
2017-10-08 21:53:09,
2017-10-08 21:53:10,
2017-10-08 21:53:11,
2017-10-08 21:53:12,
2017-10-08 21:53:13,
2017-10-08 21:53:14,
2017-10-08 21:53:15,
2017-10-08 21:53:16,
2017-10-08 21:53:17,
2017-10-08 21:53:18,
2017-10-08 21:53:19,
2017-10-08 21:53:20,
2017-10-08 21:53:21,
2017-10-08 21:53:22,
2017-10-08 21:53:23,
2017-10-08 21:53:24,
2017-10-08 21:53:25,
2017-10-08 21:53:26,
2017-10-08 21:53:27,
2017-10-08 21:53:28,
2017-10-08 21:53:29,
2017-10-08 21:53:30,
2017-10-08 21:53:31,
2017-10-08 21:53:32,
2017-10-08 21:53:33,
2017-10-08 21:53:34,
2017-10-08 21:53:35,
2017-10-08 21:53:36,
2017-10-08 21:53:37,
2017-10-08 21:53:38,
2017-10-08 21:53:39,
2017-10-08 21:53:40,
2017-10-08 21:53:41,
2017-10-08 21:53:42,
2017-10-08 21:53:43,
2017-10-08 21:53:44,
2017-10-08 21:53:45,
2017-10-08 21:53:46,
2017-10-08 21:53:47,
2017-10-08 21:53:48,
2017-10-08 21:53:49,
2017-10-08 21:53:50,
2017-10-08 21:53:51,
2017-10-08 21:53:52,
2017-10-08 21:53:53,
2017-10-08 21:53:54,
2017-10-08 21:53:55,
2017-10-08 21:53:56,
2017-10-08 21:53:57,
2017-10-08 21:53:58,
2017-10-08 21:53:59,
2017-10-08 21:54:00,
2017-10-08 21:54:01,
2017-10-08 21:54:02,
2017-10-08 21:54:03,
2017-10-08 21:54:04,
2017-10-08 21:54:05,
2017-10-08 21:54:06,
2017-10-08 21:54:07,
2017-10-08 21:54:08,
2017-10-08 21:54:09,
2017-10-08 21:54:10,
2017-10-08 21:54:11,
2017-10-08 21:54:12,
2017-10-08 21:54:13,
2017-10-08 21:54:14,
2017-10-08 21:54:15,
2017-10-08 21:54:16,
2017-10-08 21:54:17,
2017-10-08 21:54:18,
2017-10-08 21:54:19,
2017-10-08 21:54:20,
2017-10-08 21:54:21,
2017-10-08 21:54:22,
2017-10-08 21:54:23,
2017-10-08 21:54:24,
2017-10-08 21:54:25,
2017-10-08 21:54:26,
2017-10-08 21:54:27,
2017-10-08 21:54:28,
2017-10-08 21:54:29,
2017-10-08 21:54:30,
2017-10-08 21:54:31,
2017-10-08 21:54:32,
2017-10-08 21:54:33,
2017-10-08 21:54:34,
2017-10-08 21:54:35,
2017-10-08 21:54:36,
2017-10-08 21:54:37,
Over 150 consecutive empty strings. Breaking out of infinite loop (second loop).
Exiting PsocAmPreRad
#D0E01FFFF0A001AAM Ramp

2017-10-08 21:54:40, 44,:e,:1,:ffff,:a,:0,:1a @

2017-10-08 21:54:40,*SeqNo,Samples,DAC_Cnt,BGapReg,GainReg,AM_VCal,BGO,Isense0,Isense1

2017-10-08 21:54:40,Vsense,AM_LCh0,AM_RCh0,AM_Rch1,AM_RCh2,AM_LCh3,AM_RCh3

2017-10-08 21:54:41,
2017-10-08 21:54:42,
2017-10-08 21:54:43,
2017-10-08 21:54:44,
2017-10-08 21:54:45,
2017-10-08 21:54:46,
2017-10-08 21:54:47,
2017-10-08 21:54:47,#D#,0,0,810,329,360,355,4,0,1135,1512,26,0,250,595,603,565,67,67,945,886,9,34,17,29,28,35,29

2017-10-08 21:54:47,#D#,0,1,810,329,360,355,4,0,1135,1512,26,0,250,596,603,566,67,67,942,889,9,34,17,29,28,35,29

2017-10-08 21:54:47,#D#,0,2,810,329,360,355,4,0,1135,1512,26,0,250,596,603,565,67,67,944,889,9,34,17,29,28,35,29

2017-10-08 21:54:47,#D#,0,3,810,329,360,355,4,0,1135,1512,26,0,250,596,603,565,67,67,948,888,9,34,17,29,28,35,29

2017-10-08 21:54:47,#D#,0,4,810,329,360,355,4,0,1135,1512,26,0,250,595,603,565,67,67,949,888,9,34,17,28,28,35,29

2017-10-08 21:54:47,#D#,0,5,810,329,360,355,4,0,1135,1512,26,0,250,595,603,566,67,67,951,889,9,34,17,29,28,35,29

2017-10-08 21:54:47,#D#,0,6,810,329,360,355,4,0,1135,1512,26,0,250,595,603,566,67,67,947,886,9,34,17,29,28,35,29

2017-10-08 21:54:47,#D#,0,7,810,329,360,355,4,0,1135,1512,26,0,250,596,603,565,67,67,946,889,9,34,17,29,28,35,29

2017-10-08 21:54:47,#D#,0,8,810,329,360,355,4,0,1135,1512,26,0,250,595,603,565,67,67,946,886,9,34,17,29,27,35,29

2017-10-08 21:54:47,#D#,0,9,810,329,360,355,4,0,1135,1512,26,0,250,595,603,566,67,67,949,890,9,34,17,29,28,35,29

2017-10-08 21:54:48,
2017-10-08 21:54:48,#D#,1,0,810,329,360,355,4,0,1135,1512,26,0,250,596,603,566,67,67,949,890,9,34,17,29,28,35,29

2017-10-08 21:54:48,#D#,1,1,810,329,360,355,4,0,1135,1512,26,0,250,596,603,565,67,67,945,887,9,34,17,29,28,35,29

2017-10-08 21:54:48,#D#,1,2,810,329,360,355,4,0,1135,1512,26,0,250,595,603,566,67,67,945,891,9,34,17,29,28,35,29

2017-10-08 21:54:48,#D#,1,3,810,329,360,355,4,0,1135,1512,26,0,250,595,603,566,67,67,946,885,9,34,17,28,28,35,29

2017-10-08 21:54:48,#D#,1,4,810,329,360,355,4,0,1135,1512,26,0,250,595,603,566,67,67,945,886,9,34,17,29,28,35,29

2017-10-08 21:54:48,#D#,1,5,810,329,360,355,4,0,1135,1512,26,0,250,596,603,566,67,67,959,887,9,34,17,29,28,35,29

2017-10-08 21:54:48,#D#,1,6,810,329,360,355,4,0,1135,1512,26,0,250,596,603,565,67,67,948,887,9,34,17,29,28,35,29

2017-10-08 21:54:48,#D#,1,7,810,329,360,355,4,0,1135,1512,26,0,250,596,603,566,67,67,953,890,9,34,17,29,28,31,29

2017-10-08 21:54:48,#D#,1,8,810,329,360,355,4,0,1135,1512,26,0,250,595,603,566,67,67,948,887,9,34,17,29,28,35,29

2017-10-08 21:54:48,#D#,1,9,810,329,360,355,4,0,1135,1512,26,0,250,595,603,565,67,67,947,887,9,34,17,29,28,35,29

2017-10-08 21:54:49,
2017-10-08 21:54:50,#D#,2,0,810,329,360,355,4,0,1135,1512,26,0,250,595,603,565,67,67,945,886,9,34,17,29,28,35,29

2017-10-08 21:54:50,#D#,2,1,810,329,360,355,4,0,1135,1512,26,0,250,596,603,565,67,67,947,887,9,34,17,28,28,35,29

2017-10-08 21:54:50,#D#,2,2,810,329,360,355,4,0,1135,1512,26,0,250,596,603,566,67,67,948,887,9,34,17,29,28,35,29

2017-10-08 21:54:50,#D#,2,3,810,329,360,355,4,0,1135,1512,26,0,250,595,603,565,67,67,949,886,9,34,17,29,28,35,29

2017-10-08 21:54:50,#D#,2,4,810,329,360,355,4,0,1135,1512,26,0,250,595,603,566,67,67,948,891,9,34,17,29,28,35,29

2017-10-08 21:54:50,#D#,2,5,810,329,360,355,4,0,1135,1512,26,0,250,596,603,565,67,67,948,890,9,34,17,29,28,35,29

2017-10-08 21:54:50,#D#,2,6,810,329,360,355,4,0,1135,1512,26,0,250,596,603,565,67,67,951,886,9,34,17,28,28,35,29

2017-10-08 21:54:50,#D#,2,7,810,329,360,355,4,0,1135,1512,26,0,250,596,603,565,67,67,946,888,9,34,17,29,28,35,29

2017-10-08 21:54:50,#D#,2,8,810,329,360,355,4,0,1135,1512,26,0,250,595,603,566,67,67,948,886,9,34,17,29,28,35,29

2017-10-08 21:54:50,#D#,2,9,810,329,360,355,4,0,1135,1512,26,0,250,596,603,565,67,67,950,889,9,34,17,28,28,35,29

2017-10-08 21:54:51,
2017-10-08 21:54:51,#D#,3,0,810,329,360,355,4,0,1135,1512,26,0,250,596,603,565,67,67,942,887,9,34,17,28,28,35,29

2017-10-08 21:54:51,#D#,3,1,810,329,360,355,4,0,1135,1512,26,0,250,596,603,565,67,67,948,889,9,34,17,29,28,35,29

2017-10-08 21:54:51,#D#,3,2,810,329,360,355,4,0,1135,1512,26,0,250,596,603,565,67,67,946,889,9,34,17,28,28,35,29

2017-10-08 21:54:51,#D#,3,3,810,329,360,355,4,0,1135,1512,26,0,250,595,603,565,67,67,947,886,9,34,17,29,28,35,29

2017-10-08 21:54:51,#D#,3,4,810,329,360,355,4,0,1135,1512,26,0,250,595,603,566,67,67,945,886,9,34,17,28,28,35,29

2017-10-08 21:54:51,#D#,3,5,810,329,360,355,4,0,1135,1512,26,0,250,595,603,565,67,67,944,889,9,34,17,29,28,35,29

2017-10-08 21:54:51,#D#,3,6,810,329,360,355,4,0,1135,1512,26,0,250,596,603,566,67,67,947,888,9,34,17,29,28,35,29

2017-10-08 21:54:51,#D#,3,7,810,329,360,355,4,0,1135,1512,26,0,250,595,603,565,67,67,959,889,9,34,17,29,28,35,29

2017-10-08 21:54:51,#D#,3,8,810,329,360,355,4,0,1135,1512,26,0,250,596,603,565,67,67,950,889,9,34,17,28,28,35,29

2017-10-08 21:54:51,#D#,3,9,810,329,360,355,4,0,1135,1512,26,0,250,596,603,565,67,67,943,885,9,34,17,29,28,35,29

2017-10-08 21:54:52,
2017-10-08 21:54:53,#D#,4,0,810,329,360,355,4,0,1135,1512,26,0,250,596,603,566,67,67,945,889,9,34,17,29,28,35,29

2017-10-08 21:54:53,#D#,4,1,810,329,360,355,4,0,1135,1512,26,0,250,596,603,566,67,67,945,887,9,34,17,29,28,35,29

2017-10-08 21:54:53,#D#,4,2,810,329,360,355,4,0,1135,1512,26,0,250,596,603,566,67,67,945,885,9,34,17,29,28,35,29

2017-10-08 21:54:53,#D#,4,3,810,329,360,355,4,0,1135,1512,26,0,250,596,603,566,67,67,948,891,9,34,17,28,28,35,29

2017-10-08 21:54:53,#D#,4,4,810,329,360,355,4,0,1135,1512,26,0,250,595,603,565,67,67,948,889,9,34,17,28,28,35,29

2017-10-08 21:54:53,#D#,4,5,810,329,360,355,4,0,1135,1512,26,0,250,596,603,565,67,67,950,891,9,34,17,28,28,35,29

2017-10-08 21:54:53,#D#,4,6,810,329,360,355,4,0,1135,1512,26,0,250,596,603,565,67,67,946,887,9,34,17,29,28,35,29

2017-10-08 21:54:53,#D#,4,7,810,329,360,355,4,0,1135,1512,26,0,250,596,603,566,67,67,947,891,9,34,17,29,28,35,29

2017-10-08 21:54:53,#D#,4,8,810,329,360,355,4,0,1135,1512,26,0,250,596,603,566,67,67,952,888,9,34,17,29,28,35,29

2017-10-08 21:54:53,#D#,4,9,810,329,360,355,4,0,1135,1512,26,0,250,596,603,566,67,67,947,889,9,34,17,29,28,35,29

2017-10-08 21:54:54,
2017-10-08 21:54:54,#D#,5,0,810,329,360,355,4,0,1135,1512,26,0,250,596,603,565,66,66,936,875,9,34,17,29,28,35,29

2017-10-08 21:54:54,#D#,5,1,810,329,360,355,4,0,1135,1512,26,0,250,596,603,566,66,66,942,877,9,34,17,29,28,35,29

2017-10-08 21:54:54,#D#,5,2,810,329,360,355,4,0,1135,1512,26,0,250,596,603,565,66,66,937,873,9,34,17,28,28,35,29

2017-10-08 21:54:54,#D#,5,3,810,329,360,355,4,0,1135,1512,26,0,250,596,603,565,66,66,940,875,9,34,17,28,28,35,29

2017-10-08 21:54:54,#D#,5,4,810,329,360,355,4,0,1135,1512,26,0,250,596,603,565,66,66,939,877,9,34,17,28,28,35,29

2017-10-08 21:54:54,#D#,5,5,810,329,360,355,4,0,1135,1512,26,0,250,596,603,566,66,66,945,873,9,34,17,29,28,35,29

2017-10-08 21:54:54,#D#,5,6,810,329,360,355,4,0,1135,1512,26,0,250,596,603,565,66,66,939,874,9,34,17,29,28,35,29

2017-10-08 21:54:54,#D#,5,7,810,329,360,355,4,0,1135,1512,26,0,250,595,603,565,66,66,937,879,9,34,17,28,28,35,29

2017-10-08 21:54:54,#D#,5,8,810,329,360,355,4,0,1135,1512,26,0,250,596,603,565,66,66,937,879,9,34,17,29,28,35,25

2017-10-08 21:54:54,#D#,5,9,810,329,360,355,4,0,1135,1512,26,0,250,595,603,566,66,66,928,872,9,34,17,29,28,35,29

2017-10-08 21:54:55,
2017-10-08 21:54:55,#D#,6,0,810,329,360,355,4,0,1135,1512,26,0,250,595,603,565,66,66,936,875,9,34,17,29,28,35,29

2017-10-08 21:54:55,#D#,6,1,810,329,360,355,4,0,1135,1512,26,0,250,596,603,565,66,66,937,871,9,34,17,28,28,35,29

2017-10-08 21:54:55,#D#,6,2,810,329,360,355,4,0,1135,1512,26,0,250,596,603,565,66,66,939,877,9,34,17,28,28,35,29

2017-10-08 21:54:55,#D#,6,3,810,329,360,355,4,0,1135,1512,26,0,250,595,603,565,66,66,936,875,9,34,17,28,28,35,29

2017-10-08 21:54:55,#D#,6,4,810,329,360,355,4,0,1135,1512,26,0,250,596,603,565,66,66,940,874,9,34,17,28,28,35,29

2017-10-08 21:54:55,#D#,6,5,810,329,360,355,4,0,1135,1512,26,0,250,596,603,566,66,66,936,879,9,34,17,28,28,35,29

2017-10-08 21:54:56,#D#,6,6,810,329,360,355,4,0,1135,1512,26,0,250,596,603,566,66,66,935,878,9,34,17,29,28,35,29

2017-10-08 21:54:56,#D#,6,7,810,329,360,355,4,0,1135,1512,26,0,250,596,603,565,66,66,939,874,9,34,17,29,28,35,29

2017-10-08 21:54:56,#D#,6,8,810,329,360,355,4,0,1135,1512,26,0,250,595,603,566,66,66,935,874,9,34,17,29,28,35,29

2017-10-08 21:54:56,#D#,6,9,810,329,360,355,4,0,1135,1512,26,0,250,595,603,565,66,66,941,873,9,34,17,28,28,35,29

2017-10-08 21:54:57,
2017-10-08 21:54:57,#D#,7,0,810,329,360,355,4,0,1135,1512,26,0,250,596,603,565,66,66,937,878,9,34,17,29,28,35,29

2017-10-08 21:54:57,#D#,7,1,810,329,360,355,4,0,1135,1512,26,0,250,596,603,565,66,66,937,873,9,34,17,29,28,35,29

2017-10-08 21:54:57,#D#,7,2,810,329,360,355,4,0,1135,1512,26,0,250,596,603,565,66,66,934,876,9,34,17,29,28,35,29

2017-10-08 21:54:57,#D#,7,3,810,329,360,355,4,0,1135,1512,26,0,250,596,603,565,66,66,935,876,9,34,17,28,28,35,29

2017-10-08 21:54:57,#D#,7,4,810,329,360,355,4,0,1135,1512,26,0,250,596,603,565,66,66,931,877,9,34,17,29,28,35,29

2017-10-08 21:54:57,#D#,7,5,810,329,360,355,4,0,1135,1512,26,0,250,596,603,565,66,66,928,875,9,34,17,29,28,35,29

2017-10-08 21:54:57,#D#,7,6,810,329,360,355,4,0,1135,1512,26,0,250,595,603,565,66,66,942,873,9,34,17,28,28,35,29

2017-10-08 21:54:57,#D#,7,7,810,329,360,355,4,0,1135,1512,26,0,250,596,603,565,66,66,939,876,9,34,17,28,27,35,29

2017-10-08 21:54:57,#D#,7,8,810,329,360,355,4,0,1135,1512,26,0,250,596,603,566,66,66,937,877,9,34,17,28,28,35,29

2017-10-08 21:54:57,#D#,7,9,810,329,360,355,4,0,1135,1512,26,0,250,595,603,565,66,66,935,874,9,34,17,29,28,35,29

2017-10-08 21:54:58,
2017-10-08 21:54:58,#D#,8,0,810,329,360,355,4,0,1135,1512,26,0,250,595,603,565,66,66,939,876,9,34,17,29,28,35,29

2017-10-08 21:54:58,#D#,8,1,810,329,360,355,4,0,1135,1512,26,0,250,595,603,565,66,66,938,872,9,34,17,28,27,35,29

2017-10-08 21:54:58,#D#,8,2,810,329,360,355,4,0,1135,1512,26,0,250,596,603,565,66,66,937,876,9,34,17,29,27,35,29

2017-10-08 21:54:58,#D#,8,3,810,329,360,355,4,0,1135,1512,26,0,250,595,603,565,66,66,935,874,9,34,17,29,28,35,29

2017-10-08 21:54:58,#D#,8,4,810,329,360,355,4,0,1135,1512,26,0,250,596,603,565,66,66,941,874,9,34,17,28,28,35,29

2017-10-08 21:54:58,#D#,8,5,810,329,360,355,4,0,1135,1512,26,0,250,596,603,565,66,66,939,875,9,34,17,28,28,35,29

2017-10-08 21:54:58,#D#,8,6,810,329,360,355,4,0,1135,1512,26,0,250,595,603,565,66,66,937,874,9,34,17,29,28,35,29

2017-10-08 21:54:58,#D#,8,7,810,329,360,355,4,0,1135,1512,26,0,250,596,603,565,66,66,938,876,9,34,17,29,28,35,29

2017-10-08 21:54:58,#D#,8,8,810,329,360,355,4,0,1135,1512,26,0,250,595,603,566,66,66,936,875,9,34,17,29,27,35,29

2017-10-08 21:54:58,#D#,8,9,810,329,360,355,4,0,1135,1512,26,0,250,595,603,565,66,66,934,875,9,34,17,28,28,35,25

2017-10-08 21:54:59,
2017-10-08 21:55:00,#D#,9,0,810,329,360,355,4,0,1135,1512,26,0,250,595,603,565,66,66,936,873,9,34,17,29,28,35,29

2017-10-08 21:55:00,#D#,9,1,810,329,360,355,4,0,1135,1512,26,0,250,595,603,565,66,66,936,874,9,34,17,28,28,35,29

2017-10-08 21:55:00,#D#,9,2,810,329,360,355,4,0,1135,1512,26,0,250,595,603,565,66,66,936,875,9,34,17,28,28,35,29

2017-10-08 21:55:00,#D#,9,3,810,329,360,355,4,0,1135,1512,26,0,250,596,603,565,66,66,935,873,9,34,17,28,28,35,29

2017-10-08 21:55:00,#D#,9,4,810,329,360,355,4,0,1135,1512,26,0,250,596,603,565,66,66,938,873,9,34,17,29,28,35,29

2017-10-08 21:55:00,#D#,9,5,810,329,360,355,4,0,1135,1512,26,0,250,595,603,565,66,66,937,874,9,34,17,28,28,35,29

2017-10-08 21:55:00,#D#,9,6,810,329,360,355,4,0,1135,1512,26,0,250,596,603,565,66,66,935,878,9,34,17,28,28,35,29

2017-10-08 21:55:00,#D#,9,7,810,329,360,355,4,0,1135,1512,26,0,250,596,603,565,66,66,937,874,9,34,17,29,28,35,29

2017-10-08 21:55:00,#D#,9,8,810,329,360,355,4,0,1135,1512,26,0,250,595,603,565,66,66,939,879,9,34,17,28,27,35,29

2017-10-08 21:55:00,#D#,9,9,810,329,360,355,4,0,1135,1512,26,0,250,596,603,566,66,66,935,876,9,34,17,29,28,35,29

2017-10-08 21:55:01,
2017-10-08 21:55:02,#D#,10,0,810,329,360,355,4,0,1135,1512,26,0,250,596,603,565,67,67,956,887,9,34,17,29,28,35,29

2017-10-08 21:55:02,#D#,10,1,810,329,360,355,4,0,1135,1512,26,0,250,596,603,565,67,67,948,886,9,34,17,28,28,35,29

2017-10-08 21:55:02,#D#,10,2,810,329,360,355,4,0,1135,1512,26,0,250,596,603,565,67,67,945,892,9,34,17,29,27,35,29

2017-10-08 21:55:02,#D#,10,3,810,329,360,355,4,0,1135,1512,26,0,250,595,603,565,67,67,949,887,9,34,17,28,28,35,29

2017-10-08 21:55:02,#D#,10,4,810,329,360,355,4,0,1135,1512,26,0,250,596,603,565,67,67,944,886,9,34,17,28,28,35,29

2017-10-08 21:55:02,#D#,10,5,810,329,360,355,4,0,1135,1512,26,0,250,595,603,565,67,67,949,887,9,34,17,28,27,35,29

2017-10-08 21:55:02,#D#,10,6,810,329,360,355,4,0,1135,1512,26,0,250,595,603,565,67,67,947,885,9,34,17,28,27,35,29

2017-10-08 21:55:02,#D#,10,7,810,329,360,355,4,0,1135,1512,26,0,250,595,603,565,67,67,949,890,9,34,17,29,28,35,29

2017-10-08 21:55:02,#D#,10,8,810,329,360,355,4,0,1135,1512,26,0,250,595,603,565,67,67,946,889,9,34,17,29,28,35,29

2017-10-08 21:55:02,#D#,10,9,810,329,360,355,4,0,1135,1512,26,0,250,595,603,565,67,67,946,887,9,34,17,29,27,35,29

2017-10-08 21:55:03,
2017-10-08 21:55:03,#D#,11,0,810,329,360,355,4,0,1135,1512,26,0,250,595,603,565,67,67,948,888,9,34,17,29,28,35,29

2017-10-08 21:55:03,#D#,11,1,810,329,360,355,4,0,1135,1512,26,0,250,596,603,565,67,67,952,886,9,34,17,28,28,35,29

2017-10-08 21:55:03,#D#,11,2,810,329,360,355,4,0,1135,1512,26,0,250,595,603,565,67,67,950,888,9,34,17,29,28,35,29

2017-10-08 21:55:03,#D#,11,3,810,329,360,355,4,0,1135,1512,26,0,250,596,603,565,67,67,947,889,9,34,17,28,28,35,29

2017-10-08 21:55:03,#D#,11,4,810,329,360,355,4,0,1135,1512,26,0,250,595,603,565,67,67,946,886,9,34,17,28,28,35,29

2017-10-08 21:55:03,#D#,11,5,810,329,360,355,4,0,1135,1512,26,0,250,596,603,565,67,67,949,884,9,34,17,29,28,35,29

2017-10-08 21:55:03,#D#,11,6,810,329,360,355,4,0,1135,1512,26,0,250,596,603,565,67,67,952,885,9,34,17,29,28,35,29

2017-10-08 21:55:03,#D#,11,7,810,329,360,355,4,0,1135,1512,26,0,250,595,603,565,67,67,946,889,9,34,17,28,28,35,29

2017-10-08 21:55:03,#D#,11,8,810,329,360,355,4,0,1135,1512,26,0,250,596,603,565,67,67,947,887,9,34,17,28,28,35,29

2017-10-08 21:55:03,#D#,11,9,810,329,360,355,4,0,1135,1512,26,0,250,596,603,565,67,67,945,885,9,34,17,29,27,35,29

2017-10-08 21:55:04,
2017-10-08 21:55:05,#D#,12,0,810,329,360,355,4,0,1135,1512,26,0,250,595,603,565,67,67,946,890,9,34,17,29,28,35,29

2017-10-08 21:55:05,#D#,12,1,810,329,360,355,4,0,1135,1512,26,0,250,595,603,565,67,67,945,890,9,34,17,29,28,35,29

2017-10-08 21:55:05,#D#,12,2,810,329,360,355,4,0,1135,1512,26,0,250,595,603,565,67,67,946,887,9,34,17,29,28,35,29

2017-10-08 21:55:05,#D#,12,3,810,329,360,355,4,0,1135,1512,26,0,250,595,603,565,67,67,943,887,9,34,17,29,28,35,29

2017-10-08 21:55:05,#D#,12,4,810,329,360,355,4,0,1135,1512,26,0,250,595,603,565,67,67,945,886,9,34,17,29,28,35,29

2017-10-08 21:55:05,#D#,12,5,810,329,360,355,4,0,1135,1512,26,0,250,595,603,565,67,67,946,889,9,34,17,29,28,35,29

2017-10-08 21:55:05,#D#,12,6,810,329,360,355,4,0,1135,1512,26,0,250,596,603,565,67,67,947,885,9,34,17,29,28,35,29

2017-10-08 21:55:05,#D#,12,7,810,329,360,355,4,0,1135,1512,26,0,250,596,603,565,67,67,948,886,9,34,17,29,28,35,29

2017-10-08 21:55:05,#D#,12,8,810,329,360,355,4,0,1135,1512,26,0,250,596,603,565,67,67,949,885,9,34,17,29,28,35,29

2017-10-08 21:55:05,#D#,12,9,810,329,360,355,4,0,1135,1512,26,0,250,596,603,565,67,67,950,886,9,34,17,29,28,35,29

2017-10-08 21:55:06,
2017-10-08 21:55:06,#D#,13,0,810,329,360,355,4,0,1135,1512,26,0,250,595,603,565,67,67,946,889,9,34,17,29,28,35,29

2017-10-08 21:55:06,#D#,13,1,810,329,360,355,4,0,1135,1512,26,0,250,596,603,565,67,67,945,889,9,34,17,29,28,35,29

2017-10-08 21:55:06,#D#,13,2,810,329,360,355,4,0,1135,1512,26,0,250,596,603,565,67,67,945,888,9,34,17,29,28,35,29

2017-10-08 21:55:06,#D#,13,3,810,329,360,355,4,0,1135,1512,26,0,250,595,603,565,67,67,958,886,9,34,17,29,28,35,29

2017-10-08 21:55:06,#D#,13,4,810,329,360,355,4,0,1135,1512,26,0,250,596,603,565,67,67,945,887,9,34,17,29,28,35,29

2017-10-08 21:55:06,#D#,13,5,810,329,360,355,4,0,1135,1512,26,0,250,595,603,565,67,67,947,887,9,34,17,29,28,35,29

2017-10-08 21:55:06,#D#,13,6,810,329,360,355,4,0,1135,1512,26,0,250,596,603,566,67,67,945,890,9,34,17,29,28,35,29

2017-10-08 21:55:06,#D#,13,7,810,329,360,355,4,0,1135,1512,26,0,250,595,603,565,67,67,947,886,9,34,17,29,28,35,29

2017-10-08 21:55:06,#D#,13,8,810,329,360,355,4,0,1135,1512,26,0,250,596,603,565,67,67,946,886,9,34,17,29,28,35,29

2017-10-08 21:55:06,#D#,13,9,810,329,360,355,4,0,1135,1512,26,0,250,595,603,565,67,67,945,884,9,34,17,29,28,35,29

2017-10-08 21:55:07,
2017-10-08 21:55:07,#D#,14,0,810,329,360,355,4,0,1135,1512,26,0,250,595,603,565,67,67,952,888,9,35,18,29,29,35,29

2017-10-08 21:55:07,#D#,14,1,810,329,360,355,4,0,1135,1512,26,0,250,596,603,565,67,67,949,890,9,35,18,29,29,35,29

2017-10-08 21:55:07,#D#,14,2,810,329,360,355,4,0,1135,1512,26,0,250,595,603,565,67,67,945,889,9,35,18,29,29,35,29

2017-10-08 21:55:07,#D#,14,3,810,329,360,355,4,0,1135,1512,26,0,250,596,603,565,67,67,949,884,9,35,18,30,28,35,29

2017-10-08 21:55:07,#D#,14,4,810,329,360,355,4,0,1135,1512,26,0,250,596,603,565,67,67,945,884,9,35,18,30,29,35,29

2017-10-08 21:55:07,#D#,14,5,810,329,360,355,4,0,1135,1512,26,0,250,595,603,565,67,67,944,889,9,35,18,29,29,35,29

2017-10-08 21:55:07,#D#,14,6,810,329,360,355,4,0,1135,1512,26,0,250,595,603,565,67,67,948,889,9,35,18,30,28,35,29

2017-10-08 21:55:07,#D#,14,7,810,329,360,355,4,0,1135,1512,26,0,250,596,603,565,67,67,946,889,9,35,18,30,29,35,29

2017-10-08 21:55:08,#D#,14,8,810,329,360,355,4,0,1135,1512,26,0,250,595,603,565,67,67,948,888,9,35,18,29,29,35,29

2017-10-08 21:55:08,#D#,14,9,810,329,360,355,4,0,1135,1512,26,0,250,596,603,565,67,67,943,887,9,35,18,29,28,35,29

2017-10-08 21:55:09,
2017-10-08 21:55:09,#D#,15,0,810,329,360,355,4,0,1135,1512,26,0,250,596,603,565,66,66,940,876,9,35,19,30,29,35,29

2017-10-08 21:55:09,#D#,15,1,810,329,360,355,4,0,1135,1512,26,0,250,595,603,565,66,66,953,873,9,35,18,30,29,35,29

2017-10-08 21:55:09,#D#,15,2,810,329,360,355,4,0,1135,1512,26,0,250,596,603,566,66,66,936,874,9,35,19,30,29,35,29

2017-10-08 21:55:09,#D#,15,3,810,329,360,355,4,0,1135,1512,26,0,250,595,603,565,66,66,939,873,9,35,18,30,29,35,29

2017-10-08 21:55:09,#D#,15,4,810,329,360,355,4,0,1135,1512,26,0,250,596,603,565,66,66,940,873,9,35,18,30,29,35,29

2017-10-08 21:55:09,#D#,15,5,810,329,360,355,4,0,1135,1512,26,0,250,596,603,565,66,66,936,875,9,35,18,30,29,35,29

2017-10-08 21:55:09,#D#,15,6,810,329,360,355,4,0,1135,1512,26,0,250,595,603,565,66,66,939,873,9,35,18,30,29,35,29

2017-10-08 21:55:09,#D#,15,7,810,329,360,355,4,0,1135,1512,26,0,250,596,603,565,66,66,936,873,9,35,18,30,29,35,29

2017-10-08 21:55:09,#D#,15,8,810,329,360,355,4,0,1135,1512,26,0,250,596,603,565,66,66,938,876,9,35,18,30,29,35,29

2017-10-08 21:55:09,#D#,15,9,810,329,360,355,4,0,1135,1512,26,0,250,595,603,565,66,66,935,872,9,35,18,30,29,35,29

2017-10-08 21:55:10,
2017-10-08 21:55:10,#D#,16,0,810,329,360,355,4,0,1135,1512,26,0,250,596,603,566,66,66,936,877,9,36,19,30,29,35,29

2017-10-08 21:55:10,#D#,16,1,810,329,360,355,4,0,1135,1512,26,0,250,596,603,565,66,66,939,874,9,36,19,30,29,35,29

2017-10-08 21:55:10,#D#,16,2,810,329,360,355,4,0,1135,1512,26,0,250,596,603,565,66,66,938,872,9,36,19,30,29,35,29

2017-10-08 21:55:10,#D#,16,3,810,329,360,355,4,0,1135,1512,26,0,250,596,603,565,66,66,940,875,9,36,19,30,29,35,29

2017-10-08 21:55:10,#D#,16,4,810,329,360,355,4,0,1135,1512,26,0,250,596,603,566,66,66,935,875,9,36,19,30,29,35,29

2017-10-08 21:55:10,#D#,16,5,810,329,360,355,4,0,1135,1512,26,0,250,596,603,566,66,66,934,874,9,36,19,30,29,35,29

2017-10-08 21:55:10,#D#,16,6,810,329,360,355,4,0,1135,1512,26,0,250,596,603,565,66,66,937,873,9,36,19,30,29,35,29

2017-10-08 21:55:10,#D#,16,7,810,329,360,355,4,0,1135,1512,26,0,250,596,603,565,66,66,937,875,9,36,19,30,29,35,29

2017-10-08 21:55:10,#D#,16,8,810,329,360,355,4,0,1135,1512,26,0,250,596,603,565,66,66,938,871,9,36,19,30,29,35,29

2017-10-08 21:55:10,#D#,16,9,810,329,360,355,4,0,1135,1512,26,0,250,596,603,565,66,66,935,873,9,36,19,30,29,35,29

2017-10-08 21:55:11,
2017-10-08 21:55:12,#D#,17,0,810,329,360,355,4,0,1135,1512,26,0,250,596,603,565,66,66,939,876,9,36,19,31,30,35,29

2017-10-08 21:55:12,#D#,17,1,810,329,360,355,4,0,1135,1512,26,0,250,596,603,565,66,66,938,877,9,36,19,31,30,35,29

2017-10-08 21:55:12,#D#,17,2,810,329,360,355,4,0,1135,1512,26,0,250,596,603,565,66,66,935,876,9,36,19,31,30,35,29

2017-10-08 21:55:12,#D#,17,3,810,329,360,355,4,0,1135,1512,26,0,250,596,603,565,66,66,936,875,9,36,19,31,30,35,29

2017-10-08 21:55:12,#D#,17,4,810,329,360,355,4,0,1135,1512,26,0,250,595,603,565,66,66,936,877,9,36,19,31,30,35,29

2017-10-08 21:55:12,#D#,17,5,810,329,360,355,4,0,1135,1512,26,0,250,596,603,566,66,66,934,879,9,36,19,31,30,35,29

2017-10-08 21:55:12,#D#,17,6,810,329,360,355,4,0,1135,1512,26,0,250,596,603,566,66,66,938,874,9,36,19,31,30,35,29

2017-10-08 21:55:12,#D#,17,7,810,329,360,355,4,0,1135,1512,26,0,250,596,603,565,66,66,937,875,9,36,19,31,30,35,29

2017-10-08 21:55:12,#D#,17,8,810,329,360,355,4,0,1135,1512,26,0,250,596,603,565,66,66,935,873,9,36,19,31,30,35,29

2017-10-08 21:55:12,#D#,17,9,810,329,360,355,4,0,1135,1512,26,0,250,596,603,565,66,66,936,876,9,36,19,31,30,35,29

2017-10-08 21:55:13,
2017-10-08 21:55:13,#D#,18,0,810,329,360,355,4,0,1135,1512,26,0,250,596,603,565,66,66,939,876,9,36,19,31,30,35,29

2017-10-08 21:55:13,#D#,18,1,810,329,360,355,4,0,1135,1512,26,0,250,595,603,565,66,66,937,877,9,36,20,31,30,35,29

2017-10-08 21:55:13,#D#,18,2,810,329,360,355,4,0,1135,1512,26,0,250,596,603,565,66,66,942,876,9,36,20,31,30,35,29

2017-10-08 21:55:13,#D#,18,3,810,329,360,355,4,0,1135,1512,26,0,250,596,603,565,66,66,936,875,9,37,20,31,30,35,29

2017-10-08 21:55:13,#D#,18,4,810,329,360,355,4,0,1135,1512,26,0,250,596,603,565,66,66,935,877,9,36,19,31,30,35,29

2017-10-08 21:55:13,#D#,18,5,810,329,360,355,4,0,1135,1512,26,0,250,596,603,565,66,66,936,875,9,36,20,31,30,35,29

2017-10-08 21:55:13,#D#,18,6,810,329,360,355,4,0,1135,1512,26,0,250,596,603,565,66,66,933,878,9,36,20,31,30,35,29

2017-10-08 21:55:13,#D#,18,7,810,329,360,355,4,0,1135,1512,26,0,250,596,603,565,66,66,938,874,9,36,20,31,30,35,29

2017-10-08 21:55:13,#D#,18,8,810,329,360,355,4,0,1135,1512,26,0,250,596,603,565,66,66,938,876,9,36,20,31,30,35,29

2017-10-08 21:55:13,#D#,18,9,810,329,360,355,4,0,1135,1512,26,0,250,596,603,565,66,66,934,873,9,36,20,31,30,35,29

2017-10-08 21:55:14,
2017-10-08 21:55:14,#D#,19,0,810,329,360,355,4,0,1135,1512,26,0,250,596,603,565,66,66,939,875,9,37,20,32,31,35,29

2017-10-08 21:55:14,#D#,19,1,810,329,360,355,4,0,1135,1512,26,0,250,596,603,565,66,66,932,877,9,37,20,31,31,35,29

2017-10-08 21:55:14,#D#,19,2,810,329,360,355,4,0,1135,1512,26,0,250,596,603,566,66,66,935,876,9,37,20,32,31,35,29

2017-10-08 21:55:15,#D#,19,3,810,329,360,355,4,0,1135,1512,26,0,250,596,603,566,66,66,938,873,9,37,20,32,31,35,29

2017-10-08 21:55:15,#D#,19,4,810,329,360,355,4,0,1135,1512,26,0,250,595,603,565,66,66,935,874,9,37,20,32,31,35,29

2017-10-08 21:55:15,#D#,19,5,810,329,360,355,4,0,1135,1512,26,0,250,595,603,565,66,66,940,876,9,37,20,32,31,35,29

2017-10-08 21:55:15,#D#,19,6,810,329,360,355,4,0,1135,1512,26,0,250,596,603,565,66,66,935,872,9,37,20,32,31,39,29

2017-10-08 21:55:15,#D#,19,7,810,329,360,355,4,0,1135,1512,26,0,250,595,603,565,66,66,936,878,9,37,20,32,31,35,29

2017-10-08 21:55:15,#D#,19,8,810,329,360,355,4,0,1135,1512,26,0,250,596,603,565,66,66,935,877,9,37,20,32,31,35,29

2017-10-08 21:55:15,#D#,19,9,810,329,360,355,4,0,1135,1512,26,0,250,596,603,565,66,66,941,879,9,37,20,32,31,35,29

2017-10-08 21:55:16,
2017-10-08 21:55:16,#D#,20,0,810,329,360,355,4,0,1135,1512,26,0,250,595,603,565,67,67,948,888,13,38,21,32,31,39,29

2017-10-08 21:55:16,#D#,20,1,810,329,360,355,4,0,1135,1512,26,0,250,595,603,565,67,67,948,890,13,38,21,32,31,39,29

2017-10-08 21:55:17,#D#,20,2,810,329,360,355,4,0,1135,1512,26,0,250,596,603,566,67,67,945,885,13,38,21,32,31,39,29

2017-10-08 21:55:17,#D#,20,3,810,329,360,355,4,0,1135,1512,26,0,250,595,603,565,67,67,943,888,13,38,21,32,31,39,29

2017-10-08 21:55:17,#D#,20,4,810,329,360,355,4,0,1135,1512,26,0,250,596,603,565,67,67,947,887,13,38,21,32,31,39,29

2017-10-08 21:55:17,#D#,20,5,810,329,360,355,4,0,1135,1512,26,0,250,596,603,565,67,67,946,886,13,38,21,32,31,39,29

2017-10-08 21:55:17,#D#,20,6,810,329,360,355,4,0,1135,1512,26,0,250,595,603,565,67,67,947,888,13,37,21,32,31,39,29

2017-10-08 21:55:17,#D#,20,7,810,329,360,355,4,0,1135,1512,26,0,250,595,603,565,67,67,944,885,13,37,21,32,31,39,29

2017-10-08 21:55:17,#D#,20,8,810,329,360,355,4,0,1135,1512,26,0,250,596,603,565,67,67,946,886,13,37,21,32,31,39,29

2017-10-08 21:55:17,#D#,20,9,810,329,360,355,4,0,1135,1512,26,0,250,596,603,565,67,67,948,888,13,37,21,32,31,39,29

2017-10-08 21:55:18,
2017-10-08 21:55:18,#D#,21,0,810,329,360,355,4,0,1135,1512,26,0,250,596,603,565,67,67,959,884,13,38,21,32,31,39,29

2017-10-08 21:55:18,#D#,21,1,810,329,360,355,4,0,1135,1512,26,0,250,596,603,565,67,67,953,886,13,38,21,32,32,39,34

2017-10-08 21:55:18,#D#,21,2,810,329,360,355,4,0,1135,1512,26,0,250,595,603,566,67,67,949,889,13,38,21,32,32,39,29

2017-10-08 21:55:18,#D#,21,3,810,329,360,355,4,0,1135,1512,26,0,250,596,603,565,67,67,948,887,13,38,21,32,47,39,34

2017-10-08 21:55:18,#D#,21,4,810,329,360,355,4,0,1135,1512,26,0,250,595,603,565,67,67,945,886,13,38,21,32,31,39,33

2017-10-08 21:55:18,#D#,21,5,810,329,360,355,4,0,1135,1512,26,0,250,595,603,565,67,67,954,887,13,38,21,32,31,39,29

2017-10-08 21:55:18,#D#,21,6,810,329,360,355,4,0,1135,1512,26,0,250,596,603,565,67,67,949,887,13,38,21,32,47,39,33

2017-10-08 21:55:18,#D#,21,7,810,329,360,355,4,0,1135,1512,26,0,250,596,603,566,67,67,947,888,13,38,21,32,31,39,33

2017-10-08 21:55:18,#D#,21,8,810,329,360,355,4,0,1135,1512,26,0,250,596,603,565,67,67,945,886,13,38,21,32,31,39,33

2017-10-08 21:55:18,#D#,21,9,810,329,360,355,4,0,1135,1512,26,0,250,596,603,565,67,67,950,886,13,38,21,32,31,39,34

2017-10-08 21:55:19,
2017-10-08 21:55:19,#D#,22,0,810,329,360,355,4,0,1135,1512,26,0,250,595,603,565,67,67,948,885,13,38,21,33,32,39,34

2017-10-08 21:55:19,#D#,22,1,810,329,360,355,4,0,1135,1512,26,0,250,596,603,565,67,67,946,886,13,38,21,33,32,39,34

2017-10-08 21:55:19,#D#,22,2,810,329,360,355,4,0,1135,1512,26,0,250,595,603,565,67,67,945,891,13,38,21,33,32,39,34

2017-10-08 21:55:19,#D#,22,3,810,329,360,355,4,0,1135,1512,26,0,250,596,603,566,67,67,945,887,13,38,21,33,32,39,34

2017-10-08 21:55:19,#D#,22,4,810,329,360,355,4,0,1135,1512,26,0,250,596,603,565,67,67,949,887,13,38,21,33,32,39,34

2017-10-08 21:55:19,#D#,22,5,810,329,360,355,4,0,1135,1512,26,0,250,596,603,565,67,67,948,890,13,38,21,33,32,39,34

2017-10-08 21:55:19,#D#,22,6,810,329,360,355,4,0,1135,1512,26,0,250,596,603,565,67,67,948,887,13,38,21,33,32,39,34

2017-10-08 21:55:19,#D#,22,7,810,329,360,355,4,0,1135,1512,26,0,250,596,603,566,67,67,946,890,13,38,21,33,32,39,34

2017-10-08 21:55:19,#D#,22,8,810,329,360,355,4,0,1135,1512,26,0,250,596,603,565,67,67,949,885,13,38,21,33,32,39,34

2017-10-08 21:55:19,#D#,22,9,810,329,360,355,4,0,1135,1512,26,0,250,596,603,565,67,67,946,887,13,38,21,33,32,39,34

2017-10-08 21:55:21,
2017-10-08 21:55:21,#D#,23,0,810,329,360,355,4,0,1135,1512,26,0,250,596,603,565,67,67,944,887,13,39,22,33,33,39,34

2017-10-08 21:55:21,#D#,23,1,810,329,360,355,4,0,1135,1512,26,0,250,596,603,565,67,67,946,889,13,39,22,33,33,39,34

2017-10-08 21:55:21,#D#,23,2,810,329,360,355,4,0,1135,1512,26,0,250,596,603,565,67,67,945,886,13,39,22,33,33,39,34

2017-10-08 21:55:21,#D#,23,3,810,329,360,355,4,0,1135,1512,26,0,250,596,603,566,67,67,951,886,13,39,22,33,32,39,34

2017-10-08 21:55:21,#D#,23,4,810,329,360,355,4,0,1135,1512,26,0,250,596,603,565,67,67,930,891,13,39,22,33,33,39,34

2017-10-08 21:55:21,#D#,23,5,810,329,360,355,4,0,1135,1512,26,0,250,595,603,565,67,67,943,886,13,39,22,33,33,39,34

2017-10-08 21:55:21,#D#,23,6,810,329,360,355,4,0,1135,1512,26,0,250,595,603,565,67,67,949,889,13,39,22,34,33,39,34

2017-10-08 21:55:21,#D#,23,7,810,329,360,355,4,0,1135,1512,26,0,250,596,603,565,67,67,948,888,13,39,22,33,33,39,34

2017-10-08 21:55:21,#D#,23,8,810,329,360,355,4,0,1135,1512,26,0,250,596,603,565,67,67,946,892,13,39,22,33,33,39,34

2017-10-08 21:55:21,#D#,23,9,810,329,360,355,4,0,1135,1512,26,0,250,595,603,565,67,67,945,887,13,39,22,34,33,39,34

2017-10-08 21:55:22,
2017-10-08 21:55:22,#D#,24,0,810,329,360,355,4,0,1135,1512,26,0,250,595,603,565,67,67,947,889,13,39,22,34,33,39,34

2017-10-08 21:55:22,#D#,24,1,810,329,360,355,4,0,1135,1512,26,0,250,595,603,565,67,67,945,887,13,39,22,34,33,39,34

2017-10-08 21:55:22,#D#,24,2,810,329,360,355,4,0,1135,1512,26,0,250,596,603,565,67,67,946,892,13,39,22,34,33,39,34

2017-10-08 21:55:22,#D#,24,3,810,329,360,355,4,0,1135,1512,26,0,250,595,603,565,67,67,944,888,13,39,22,34,33,39,34

2017-10-08 21:55:22,#D#,24,4,810,329,360,355,4,0,1135,1512,26,0,250,596,603,565,67,67,946,888,13,39,22,34,33,39,34

2017-10-08 21:55:22,#D#,24,5,810,329,360,355,4,0,1135,1512,26,0,250,596,603,565,67,67,949,886,13,39,22,34,33,39,34

2017-10-08 21:55:22,#D#,24,6,810,329,360,355,4,0,1135,1512,26,0,250,596,603,565,67,67,947,886,13,39,22,34,33,39,34

2017-10-08 21:55:22,#D#,24,7,810,329,360,355,4,0,1135,1512,26,0,250,595,603,565,67,67,947,886,13,39,22,34,33,39,34

2017-10-08 21:55:22,#D#,24,8,810,329,360,355,4,0,1135,1512,26,0,250,596,603,565,67,67,945,889,13,39,22,34,33,39,34

2017-10-08 21:55:22,#D#,24,9,810,329,360,355,4,0,1135,1512,26,0,250,596,603,565,67,67,947,886,13,39,22,34,33,39,34

2017-10-08 21:55:23,
2017-10-08 21:55:24,#D#,25,0,810,329,360,355,4,0,1135,1512,26,0,250,595,603,565,66,66,936,873,13,40,23,34,33,39,34

2017-10-08 21:55:24,#D#,25,1,810,329,360,355,4,0,1135,1512,26,0,250,596,603,565,66,66,937,875,13,40,23,34,33,39,34

2017-10-08 21:55:24,#D#,25,2,810,329,360,355,4,0,1135,1512,26,0,250,595,603,565,66,66,952,873,13,40,23,34,33,39,34

2017-10-08 21:55:24,#D#,25,3,810,329,360,355,4,0,1135,1512,26,0,250,595,603,565,66,66,934,875,13,40,23,34,33,39,34

2017-10-08 21:55:24,#D#,25,4,810,329,360,355,4,0,1135,1512,26,0,250,595,603,565,66,66,935,875,13,40,23,34,33,39,34

2017-10-08 21:55:24,#D#,25,5,810,329,360,355,4,0,1135,1512,26,0,250,596,603,565,66,66,936,874,13,40,23,34,33,39,34

2017-10-08 21:55:24,#D#,25,6,810,329,360,355,4,0,1135,1512,26,0,250,595,603,565,66,66,938,874,13,40,23,34,33,39,34

2017-10-08 21:55:24,#D#,25,7,810,329,360,355,4,0,1135,1512,26,0,250,595,603,566,66,66,941,873,13,40,23,34,33,39,34

2017-10-08 21:55:24,#D#,25,8,810,329,360,355,4,0,1135,1512,26,0,250,595,603,565,66,66,938,875,13,40,23,34,33,39,34

2017-10-08 21:55:24,#D#,25,9,810,329,360,355,4,0,1135,1512,26,0,250,596,603,564,66,66,937,873,13,40,23,34,33,39,34

2017-10-08 21:55:25,
2017-10-08 21:55:25,#D#,26,0,810,329,360,355,4,0,1135,1512,26,0,250,595,603,565,66,66,937,878,13,40,23,34,33,39,34

2017-10-08 21:55:25,#D#,26,1,810,329,360,355,4,0,1135,1512,26,0,250,596,603,565,66,66,935,875,13,40,23,34,34,39,34

2017-10-08 21:55:25,#D#,26,2,810,329,360,355,4,0,1135,1512,26,0,250,596,603,565,66,66,940,877,13,40,23,34,34,39,34

2017-10-08 21:55:25,#D#,26,3,810,329,360,355,4,0,1135,1512,26,0,250,596,603,564,66,66,935,875,13,40,23,34,34,39,34

2017-10-08 21:55:25,#D#,26,4,810,329,360,355,4,0,1135,1512,26,0,250,596,603,565,66,66,938,872,13,40,23,34,34,39,34

2017-10-08 21:55:25,#D#,26,5,810,329,360,355,4,0,1135,1512,26,0,250,596,603,565,66,66,934,874,13,40,23,34,33,39,34

2017-10-08 21:55:25,#D#,26,6,810,329,360,355,4,0,1135,1512,26,0,250,596,603,565,66,66,938,881,13,40,23,34,33,39,34

2017-10-08 21:55:25,#D#,26,7,810,329,360,355,4,0,1135,1512,26,0,250,595,603,565,66,66,934,876,13,40,23,34,34,39,34

2017-10-08 21:55:25,#D#,26,8,810,329,360,355,4,0,1135,1512,26,0,250,596,603,565,66,66,936,877,13,40,23,35,34,39,34

2017-10-08 21:55:25,#D#,26,9,810,329,360,355,4,0,1135,1512,26,0,250,595,603,565,66,66,937,873,13,40,23,34,34,39,34

2017-10-08 21:55:26,
2017-10-08 21:55:26,#D#,27,0,810,329,360,355,4,0,1135,1512,26,0,250,596,603,565,66,66,928,875,13,40,24,35,34,39,34

2017-10-08 21:55:26,#D#,27,1,810,329,360,355,4,0,1135,1512,26,0,250,595,603,565,66,66,936,875,13,41,24,35,34,39,34

2017-10-08 21:55:26,#D#,27,2,810,329,360,355,4,0,1135,1512,26,0,250,595,603,564,66,66,937,876,13,41,23,35,34,39,34

2017-10-08 21:55:26,#D#,27,3,810,329,360,355,4,0,1135,1512,26,0,250,595,603,565,66,66,941,864,13,41,23,35,34,39,34

2017-10-08 21:55:26,#D#,27,4,810,329,360,355,4,0,1135,1512,26,0,250,595,603,565,66,66,939,873,13,41,24,35,34,39,34

2017-10-08 21:55:27,#D#,27,5,810,329,360,355,4,0,1135,1512,26,0,250,596,603,565,66,66,936,874,13,41,23,35,34,39,34

2017-10-08 21:55:27,#D#,27,6,810,329,360,355,4,0,1135,1512,26,0,250,596,603,565,66,66,938,876,13,41,23,35,34,39,34

2017-10-08 21:55:27,#D#,27,7,810,329,360,355,4,0,1135,1512,26,0,250,596,603,565,66,66,936,875,13,41,23,35,34,39,34

2017-10-08 21:55:27,#D#,27,8,810,329,360,355,4,0,1135,1512,26,0,250,595,603,565,66,66,936,874,13,41,23,35,34,39,34

2017-10-08 21:55:27,#D#,27,9,810,329,360,355,4,0,1135,1512,26,0,250,595,603,565,66,66,940,872,13,41,23,35,34,39,34

2017-10-08 21:55:28,
2017-10-08 21:55:28,#D#,28,0,810,329,360,355,4,0,1135,1512,26,0,250,596,603,566,66,66,941,875,13,41,24,35,35,43,34

2017-10-08 21:55:28,#D#,28,1,810,329,360,355,4,0,1135,1512,26,0,250,596,603,565,66,66,933,875,13,41,24,35,35,43,34

2017-10-08 21:55:28,#D#,28,2,810,329,360,355,4,0,1135,1512,26,0,250,596,603,565,66,66,937,873,13,41,24,35,35,39,34

2017-10-08 21:55:28,#D#,28,3,810,329,360,355,4,0,1135,1512,26,0,250,596,603,565,66,66,937,875,13,41,24,35,35,43,34

2017-10-08 21:55:28,#D#,28,4,810,329,360,355,4,0,1135,1512,26,0,250,596,603,565,66,66,936,875,13,41,24,35,35,43,34

2017-10-08 21:55:28,#D#,28,5,810,329,360,355,4,0,1135,1512,26,0,250,596,603,565,66,66,938,874,13,41,24,36,35,43,34

2017-10-08 21:55:28,#D#,28,6,810,329,360,355,4,0,1135,1512,26,0,250,596,603,565,66,66,934,875,13,41,24,35,35,43,34

2017-10-08 21:55:28,#D#,28,7,810,329,360,355,4,0,1135,1512,26,0,250,595,603,565,66,66,936,875,13,41,24,35,35,43,34

2017-10-08 21:55:28,#D#,28,8,810,329,360,355,4,0,1135,1512,26,0,250,595,603,565,66,66,937,871,13,41,24,35,35,39,34

2017-10-08 21:55:28,#D#,28,9,810,329,360,355,4,0,1135,1512,26,0,250,595,603,565,66,66,936,875,13,41,24,35,35,43,34

2017-10-08 21:55:29,
2017-10-08 21:55:29,#D#,29,0,810,329,360,355,4,0,1135,1512,26,0,250,595,603,565,66,66,937,873,13,41,24,36,35,43,34

2017-10-08 21:55:29,#D#,29,1,810,329,360,355,4,0,1135,1512,26,0,250,595,603,565,66,66,937,874,13,41,24,36,35,43,34

2017-10-08 21:55:29,#D#,29,2,810,329,360,355,4,0,1135,1512,26,0,250,596,603,565,66,66,939,872,13,41,24,36,35,43,34

2017-10-08 21:55:29,#D#,29,3,810,329,360,355,4,0,1135,1512,26,0,250,595,603,565,66,66,937,874,13,41,24,36,35,43,34

2017-10-08 21:55:29,#D#,29,4,810,329,360,355,4,0,1135,1512,26,0,250,595,603,565,66,66,936,874,13,41,24,36,35,43,34

2017-10-08 21:55:29,#D#,29,5,810,329,360,355,4,0,1135,1512,26,0,250,596,603,565,66,66,941,875,13,41,24,36,35,43,34

2017-10-08 21:55:29,#D#,29,6,810,329,360,355,4,0,1135,1512,26,0,250,595,603,565,66,66,936,874,13,41,24,36,35,43,34

2017-10-08 21:55:29,#D#,29,7,810,329,360,355,4,0,1135,1512,26,0,250,595,603,565,66,66,928,864,13,41,24,36,35,43,34

2017-10-08 21:55:29,#D#,29,8,810,329,360,355,4,0,1135,1512,26,0,250,596,603,565,66,66,939,874,13,41,24,36,35,43,34

2017-10-08 21:55:29,#D#,29,9,810,329,360,355,4,0,1135,1512,26,0,250,596,603,566,66,66,935,874,13,41,24,36,35,43,34

2017-10-08 21:55:30,
2017-10-08 21:55:31,#D#,30,0,810,329,360,355,4,0,1135,1512,26,0,250,596,603,565,67,67,947,885,18,42,25,36,35,43,34

2017-10-08 21:55:31,#D#,30,1,810,329,360,355,4,0,1135,1512,26,0,250,596,603,565,67,67,946,890,18,42,25,36,35,43,34

2017-10-08 21:55:31,#D#,30,2,810,329,360,355,4,0,1135,1512,26,0,250,595,603,565,67,67,947,886,18,42,25,36,35,43,34

2017-10-08 21:55:31,#D#,30,3,810,329,360,355,4,0,1135,1512,26,0,250,596,603,565,67,67,946,887,18,42,25,36,35,43,38

2017-10-08 21:55:31,#D#,30,4,810,329,360,355,4,0,1135,1512,26,0,250,595,603,565,67,67,945,888,18,42,25,36,35,43,34

2017-10-08 21:55:31,#D#,30,5,810,329,360,355,4,0,1135,1512,26,0,250,595,603,565,67,67,933,889,18,42,25,36,35,43,34

2017-10-08 21:55:31,#D#,30,6,810,329,360,355,4,0,1135,1512,26,0,250,596,603,565,67,67,943,888,18,42,25,36,35,43,34

2017-10-08 21:55:31,#D#,30,7,810,329,360,355,4,0,1135,1512,26,0,250,596,603,565,67,67,945,885,18,42,25,36,35,43,34

2017-10-08 21:55:31,#D#,30,8,810,329,360,355,4,0,1135,1512,26,0,250,596,603,565,67,67,945,889,18,42,25,36,35,43,38

2017-10-08 21:55:31,#D#,30,9,810,329,360,355,4,0,1135,1512,26,0,250,596,603,565,67,67,949,887,18,42,25,36,35,43,34

2017-10-08 21:55:32,
2017-10-08 21:55:33,#D#,31,0,810,329,360,355,4,0,1135,1512,26,0,250,596,603,565,67,67,945,888,18,43,25,37,36,43,38

2017-10-08 21:55:33,#D#,31,1,810,329,360,355,4,0,1135,1512,26,0,250,596,603,565,67,67,928,886,18,42,25,37,36,43,38

2017-10-08 21:55:33,#D#,31,2,810,329,360,355,4,0,1135,1512,26,0,250,596,603,565,67,67,948,888,18,43,25,37,36,43,38

2017-10-08 21:55:33,#D#,31,3,810,329,360,355,4,0,1135,1512,26,0,250,595,603,565,67,67,945,887,18,42,25,37,36,43,38

2017-10-08 21:55:33,#D#,31,4,810,329,360,355,4,0,1135,1512,26,0,250,596,603,565,67,67,947,887,18,43,25,37,36,43,38

2017-10-08 21:55:33,#D#,31,5,810,329,360,355,4,0,1135,1512,26,0,250,596,603,565,67,67,943,888,18,43,25,36,36,43,38

2017-10-08 21:55:33,#D#,31,6,810,329,360,355,4,0,1135,1512,26,0,250,596,603,565,67,67,948,886,18,43,25,37,36,43,38

2017-10-08 21:55:33,#D#,31,7,810,329,360,355,4,0,1135,1512,26,0,250,596,603,565,67,67,948,889,18,42,25,37,36,43,38

2017-10-08 21:55:33,#D#,31,8,810,329,360,355,4,0,1135,1512,26,0,250,596,603,565,67,67,947,888,18,42,25,37,36,43,38

2017-10-08 21:55:33,#D#,31,9,810,329,360,355,4,0,1135,1512,26,0,250,595,603,565,67,67,944,887,18,43,25,37,36,43,38

2017-10-08 21:55:34,
2017-10-08 21:55:34,#D#,32,0,810,329,360,355,4,0,1135,1512,26,0,250,596,603,565,67,67,949,887,18,43,26,37,36,43,38

2017-10-08 21:55:34,#D#,32,1,810,329,360,355,4,0,1135,1512,26,0,250,596,603,565,67,67,949,886,18,43,25,37,36,43,38

2017-10-08 21:55:34,#D#,32,2,810,329,360,355,4,0,1135,1512,26,0,250,596,603,565,67,67,949,888,18,43,26,37,36,43,38

2017-10-08 21:55:34,#D#,32,3,810,329,360,355,4,0,1135,1512,26,0,250,596,603,565,67,67,959,888,18,43,26,37,36,43,38

2017-10-08 21:55:34,#D#,32,4,810,329,360,355,4,0,1135,1512,26,0,250,595,603,565,67,67,947,889,18,43,26,37,36,43,38

2017-10-08 21:55:34,#D#,32,5,810,329,360,355,4,0,1135,1512,26,0,250,596,603,565,67,67,945,888,18,43,25,37,36,43,38

2017-10-08 21:55:34,#D#,32,6,810,329,360,355,4,0,1135,1512,26,0,250,595,603,566,67,67,945,887,18,43,26,37,36,43,38

2017-10-08 21:55:34,#D#,32,7,810,329,360,355,4,0,1135,1512,26,0,250,596,603,565,67,67,943,888,18,43,26,37,36,43,38

2017-10-08 21:55:34,#D#,32,8,810,329,360,355,4,0,1135,1512,26,0,250,596,603,565,67,67,947,888,18,43,26,37,36,43,38

2017-10-08 21:55:34,#D#,32,9,810,329,360,355,4,0,1135,1512,26,0,250,596,603,565,67,67,932,887,18,43,26,37,36,43,38

2017-10-08 21:55:35,
2017-10-08 21:55:36,#D#,33,0,810,329,360,355,4,0,1135,1512,26,0,250,595,603,565,67,67,944,888,18,43,26,37,36,43,38

2017-10-08 21:55:36,#D#,33,1,810,329,360,355,4,0,1135,1512,26,0,250,595,603,565,67,67,947,891,18,43,26,38,37,43,38

2017-10-08 21:55:36,#D#,33,2,810,329,360,355,4,0,1135,1512,26,0,250,595,603,565,67,67,949,886,18,43,26,37,37,43,38

2017-10-08 21:55:36,#D#,33,3,810,329,360,355,4,0,1135,1512,26,0,250,596,603,565,67,67,948,889,18,43,26,38,37,43,38

2017-10-08 21:55:36,#D#,33,4,810,329,360,355,4,0,1135,1512,26,0,250,596,603,565,67,67,951,890,18,43,26,38,37,43,38

2017-10-08 21:55:36,#D#,33,5,810,329,360,355,4,0,1135,1512,26,0,250,596,603,565,67,67,931,891,18,43,26,37,37,43,38

2017-10-08 21:55:36,#D#,33,6,810,329,360,355,4,0,1135,1512,26,0,250,596,603,565,67,67,948,888,18,43,26,38,37,43,38

2017-10-08 21:55:36,#D#,33,7,810,329,360,355,4,0,1135,1512,26,0,250,596,603,565,67,67,946,888,18,43,26,38,37,43,38

2017-10-08 21:55:36,#D#,33,8,810,329,360,355,4,0,1135,1512,26,0,250,596,603,565,67,67,930,885,18,43,26,37,37,43,38

2017-10-08 21:55:36,#D#,33,9,810,329,360,355,4,0,1135,1512,26,0,250,596,603,565,67,67,945,889,18,43,26,37,37,43,38

2017-10-08 21:55:37,
2017-10-08 21:55:37,#D#,34,0,810,329,360,355,4,0,1135,1512,26,0,250,595,603,565,67,67,944,889,18,44,26,38,37,43,38

2017-10-08 21:55:37,#D#,34,1,810,329,360,355,4,0,1135,1512,26,0,250,596,603,565,67,67,946,890,18,44,26,38,37,43,38

2017-10-08 21:55:37,#D#,34,2,810,329,360,355,4,0,1135,1512,26,0,250,596,603,565,67,67,948,889,18,44,26,38,37,43,38

2017-10-08 21:55:37,#D#,34,3,810,329,360,355,4,0,1135,1512,26,0,250,596,603,565,67,67,943,888,18,44,26,38,37,43,38

2017-10-08 21:55:37,#D#,34,4,810,329,360,355,4,0,1135,1512,26,0,250,595,603,565,67,67,948,891,18,44,26,38,37,43,38

2017-10-08 21:55:37,#D#,34,5,810,329,360,355,4,0,1135,1512,26,0,250,596,603,565,67,67,944,887,18,44,26,38,37,43,38

2017-10-08 21:55:37,#D#,34,6,810,329,360,355,4,0,1135,1512,26,0,250,595,603,565,67,67,947,893,18,44,26,38,37,43,38

2017-10-08 21:55:37,#D#,34,7,810,329,360,355,4,0,1135,1512,26,0,250,596,603,564,67,67,944,888,18,44,26,38,37,43,38

2017-10-08 21:55:37,#D#,34,8,810,329,360,355,4,0,1135,1512,26,0,250,595,603,565,67,67,944,889,18,44,26,38,37,43,38

2017-10-08 21:55:37,#D#,34,9,810,329,360,355,4,0,1135,1512,26,0,250,595,603,565,67,67,946,887,18,44,26,38,37,43,38

2017-10-08 21:55:38,
2017-10-08 21:55:39,
2017-10-08 21:55:40,#D#,35,0,810,329,360,355,4,0,1135,1512,26,0,250,596,603,565,66,66,938,873,18,224,27,38,37,43,38

2017-10-08 21:55:40,#D#,35,1,810,329,360,355,4,0,1135,1512,26,0,250,596,603,566,66,66,937,874,18,44,27,38,37,43,38

2017-10-08 21:55:40,#D#,35,2,810,329,360,355,4,0,1135,1512,26,0,250,595,603,566,66,66,938,880,18,44,27,38,37,43,38

2017-10-08 21:55:40,#D#,35,3,810,329,360,355,4,0,1135,1512,26,0,250,595,603,565,66,66,937,875,18,44,27,38,37,43,38

2017-10-08 21:55:40,#D#,35,4,810,329,360,355,4,0,1135,1512,26,0,250,595,603,565,66,66,939,874,18,44,27,38,37,43,38

2017-10-08 21:55:40,#D#,35,5,810,329,360,355,4,0,1135,1512,26,0,250,596,603,565,66,66,939,876,18,44,27,38,37,43,38

2017-10-08 21:55:40,#D#,35,6,810,329,360,355,4,0,1135,1512,26,0,250,596,603,565,66,66,934,875,18,44,27,38,37,43,38

2017-10-08 21:55:40,#D#,35,7,810,329,360,355,4,0,1135,1512,26,0,250,596,603,565,66,66,938,875,18,44,27,38,37,43,38

2017-10-08 21:55:40,#D#,35,8,810,329,360,355,4,0,1135,1512,26,0,250,596,603,565,66,66,941,879,18,44,27,38,37,43,38

2017-10-08 21:55:40,#D#,35,9,810,329,360,355,4,0,1135,1512,26,0,250,595,603,565,66,66,935,875,18,44,27,38,37,43,38

2017-10-08 21:55:41,
2017-10-08 21:55:41,#D#,36,0,810,329,360,355,4,0,1135,1512,26,0,250,595,603,565,66,66,934,876,18,45,27,39,38,43,38

2017-10-08 21:55:41,#D#,36,1,810,329,360,355,4,0,1135,1512,26,0,250,596,603,565,66,66,937,875,18,45,28,39,38,43,38

2017-10-08 21:55:41,#D#,36,2,810,329,360,355,4,0,1135,1512,26,0,250,595,603,565,66,66,938,876,18,45,27,39,38,43,38

2017-10-08 21:55:41,#D#,36,3,810,329,360,355,4,0,1135,1512,26,0,250,596,603,565,66,66,936,877,18,45,28,39,38,43,38

2017-10-08 21:55:41,#D#,36,4,810,329,360,355,4,0,1135,1512,26,0,250,595,603,565,66,66,936,877,18,45,27,39,38,43,38

2017-10-08 21:55:41,#D#,36,5,810,329,360,355,4,0,1135,1512,26,0,250,595,603,565,66,66,938,876,18,45,27,39,38,43,38

2017-10-08 21:55:41,#D#,36,6,810,329,360,355,4,0,1135,1512,26,0,250,596,603,565,66,66,934,877,18,45,27,39,38,43,38

2017-10-08 21:55:41,#D#,36,7,810,329,360,355,4,0,1135,1512,26,0,250,595,603,565,66,66,937,874,18,45,28,39,38,43,38

2017-10-08 21:55:41,#D#,36,8,810,329,360,355,4,0,1135,1512,26,0,250,595,603,565,66,66,935,877,18,45,27,39,38,43,38

2017-10-08 21:55:41,#D#,36,9,810,329,360,355,4,0,1135,1512,26,0,250,595,603,565,66,66,937,876,18,45,27,39,38,43,38

2017-10-08 21:55:42,
2017-10-08 21:55:43,#D#,37,0,810,329,360,355,4,0,1135,1512,26,0,250,596,603,565,66,66,943,872,18,45,28,39,38,47,38

2017-10-08 21:55:43,#D#,37,1,810,329,360,355,4,0,1135,1512,26,0,250,595,603,565,66,66,937,875,18,45,28,39,38,47,38

2017-10-08 21:55:43,#D#,37,2,810,329,360,355,4,0,1135,1512,26,0,250,596,603,565,66,66,942,877,18,45,28,39,38,47,38

2017-10-08 21:55:43,#D#,37,3,810,329,360,355,4,0,1135,1512,26,0,250,596,603,565,66,66,942,873,18,45,28,39,38,47,38

2017-10-08 21:55:43,#D#,37,4,810,329,360,355,4,0,1135,1512,26,0,250,596,603,565,66,66,936,874,18,45,28,39,38,47,38

2017-10-08 21:55:43,#D#,37,5,810,329,360,355,4,0,1135,1512,26,0,250,596,603,565,66,66,939,877,18,45,28,39,38,47,38

2017-10-08 21:55:43,#D#,37,6,810,329,360,355,4,0,1135,1512,26,0,250,596,603,565,66,66,937,877,18,45,28,39,38,47,38

2017-10-08 21:55:43,#D#,37,7,810,329,360,355,4,0,1135,1512,26,0,250,596,603,565,66,66,935,879,18,45,28,39,38,47,38

2017-10-08 21:55:43,#D#,37,8,810,329,360,355,4,0,1135,1512,26,0,250,595,603,566,66,66,939,878,18,45,28,39,38,43,38

2017-10-08 21:55:43,#D#,37,9,810,329,360,355,4,0,1135,1512,26,0,250,596,603,565,66,66,937,876,18,45,28,39,38,47,38

2017-10-08 21:55:44,
2017-10-08 21:55:44,#D#,38,0,810,329,360,355,4,0,1135,1512,26,0,250,596,603,565,66,66,935,875,18,46,28,40,39,47,38

2017-10-08 21:55:44,#D#,38,1,810,329,360,355,4,0,1135,1512,26,0,250,596,603,565,66,66,935,875,18,45,28,40,39,47,38

2017-10-08 21:55:44,#D#,38,2,810,329,360,355,4,0,1135,1512,26,0,250,596,603,565,66,66,940,875,18,45,28,40,39,47,38

2017-10-08 21:55:44,#D#,38,3,810,329,360,355,4,0,1135,1512,26,0,250,596,603,565,66,66,934,875,18,46,28,40,39,47,38

2017-10-08 21:55:44,#D#,38,4,810,329,360,355,4,0,1135,1512,26,0,250,596,603,565,66,66,937,873,18,46,28,40,39,47,38

2017-10-08 21:55:44,#D#,38,5,810,329,360,355,4,0,1135,1512,26,0,250,596,603,565,66,66,933,876,18,45,28,40,39,47,38

2017-10-08 21:55:44,#D#,38,6,810,329,360,355,4,0,1135,1512,26,0,250,595,603,565,66,66,935,876,18,46,28,40,39,47,38

2017-10-08 21:55:44,#D#,38,7,810,329,360,355,4,0,1135,1512,26,0,250,596,603,565,66,66,937,876,18,46,28,40,39,47,38

2017-10-08 21:55:44,#D#,38,8,810,329,360,355,4,0,1135,1512,26,0,250,596,603,565,66,66,933,874,18,45,28,40,39,47,38

2017-10-08 21:55:44,#D#,38,9,810,329,360,355,4,0,1135,1512,26,0,250,595,603,565,66,66,938,875,18,46,28,40,39,47,38

2017-10-08 21:55:45,
2017-10-08 21:55:45,#D#,39,0,810,329,360,355,4,0,1135,1512,26,0,250,595,603,565,66,66,937,876,18,46,29,40,39,47,38

2017-10-08 21:55:45,#D#,39,1,810,329,360,355,4,0,1135,1512,26,0,250,595,603,566,66,66,937,877,18,46,29,40,39,47,38

2017-10-08 21:55:45,#D#,39,2,810,329,360,355,4,0,1135,1512,26,0,250,595,603,565,66,66,939,872,18,46,29,40,39,47,38

2017-10-08 21:55:46,#D#,39,3,810,329,360,355,4,0,1135,1512,26,0,250,595,603,565,66,66,935,874,18,46,29,40,39,47,38

2017-10-08 21:55:46,#D#,39,4,810,329,360,355,4,0,1135,1512,26,0,250,595,603,565,66,66,939,876,18,46,29,40,39,47,38

2017-10-08 21:55:46,#D#,39,5,810,329,360,355,4,0,1135,1512,26,0,250,596,603,565,66,66,941,875,18,46,29,40,39,47,38

2017-10-08 21:55:46,#D#,39,6,810,329,360,355,4,0,1135,1512,26,0,250,596,603,565,66,66,937,879,18,46,29,40,39,47,42

2017-10-08 21:55:46,#D#,39,7,810,329,360,355,4,0,1135,1512,26,0,250,596,603,565,66,66,941,876,18,46,29,40,39,47,38

2017-10-08 21:55:46,#D#,39,8,810,329,360,355,4,0,1135,1512,26,0,250,596,603,565,66,66,928,878,18,46,29,40,39,47,38

2017-10-08 21:55:46,#D#,39,9,810,329,360,355,4,0,1135,1512,26,0,250,595,603,565,66,66,937,878,18,46,29,40,39,47,38

2017-10-08 21:55:47,
2017-10-08 21:55:47,#D#,40,0,810,329,360,355,4,0,1135,1512,26,0,250,595,603,564,67,67,946,885,23,46,29,40,40,47,42

2017-10-08 21:55:47,#D#,40,1,810,329,360,355,4,0,1135,1512,26,0,250,596,603,565,67,67,944,887,23,46,29,40,40,47,42

2017-10-08 21:55:48,#D#,40,2,810,329,360,355,4,0,1135,1512,26,0,250,595,603,565,67,67,955,886,23,47,29,40,39,47,42

2017-10-08 21:55:48,#D#,40,3,810,329,360,355,4,0,1135,1512,26,0,250,596,603,565,67,67,959,887,23,46,29,40,39,47,42

2017-10-08 21:55:48,#D#,40,4,810,329,360,355,4,0,1135,1512,26,0,250,596,603,565,67,67,946,891,23,46,29,40,40,47,42

2017-10-08 21:55:48,#D#,40,5,810,329,360,355,4,0,1135,1512,26,0,250,596,603,565,67,67,950,885,23,46,29,40,40,47,42

2017-10-08 21:55:48,#D#,40,6,810,329,360,355,4,0,1135,1512,26,0,250,596,603,565,67,67,946,889,23,46,29,40,39,47,42

2017-10-08 21:55:48,#D#,40,7,810,329,360,355,4,0,1135,1512,26,0,250,596,603,565,67,67,946,887,23,46,29,40,39,47,42

2017-10-08 21:55:48,#D#,40,8,810,329,360,355,4,0,1135,1512,26,0,250,596,603,565,67,67,943,885,23,46,29,40,40,47,42

2017-10-08 21:55:48,#D#,40,9,810,329,360,355,4,0,1135,1512,26,0,250,596,603,565,67,67,949,886,23,46,29,40,39,47,38

2017-10-08 21:55:49,
2017-10-08 21:55:49,#D#,41,0,810,329,360,355,4,0,1135,1512,26,0,250,595,603,565,67,67,946,894,23,47,30,41,40,47,42

2017-10-08 21:55:49,#D#,41,1,810,329,360,355,4,0,1135,1512,26,0,250,595,603,565,67,67,944,887,23,47,30,41,40,47,42

2017-10-08 21:55:49,#D#,41,2,810,329,360,355,4,0,1135,1512,26,0,250,595,603,565,67,67,947,890,23,47,30,41,40,47,42

2017-10-08 21:55:49,#D#,41,3,810,329,360,355,4,0,1135,1512,26,0,250,595,603,565,67,67,947,888,23,47,30,41,40,47,42

2017-10-08 21:55:49,#D#,41,4,810,329,360,355,4,0,1135,1512,26,0,250,595,603,565,67,67,944,886,23,47,30,41,40,47,42

2017-10-08 21:55:49,#D#,41,5,810,329,360,355,4,0,1135,1512,26,0,250,595,603,564,67,67,945,888,23,47,30,41,40,47,42

2017-10-08 21:55:49,#D#,41,6,810,329,360,355,4,0,1135,1512,26,0,250,595,603,565,67,67,947,893,23,47,29,41,40,47,42

2017-10-08 21:55:49,#D#,41,7,810,329,360,355,4,0,1135,1512,26,0,250,596,603,564,67,67,947,887,23,47,29,41,40,47,42

2017-10-08 21:55:49,#D#,41,8,810,329,360,355,4,0,1135,1512,26,0,250,595,603,565,67,67,950,892,23,47,29,41,40,47,42

2017-10-08 21:55:49,#D#,41,9,810,329,360,355,4,0,1135,1512,26,0,250,595,603,564,67,67,946,886,23,47,30,41,40,47,42

2017-10-08 21:55:50,
2017-10-08 21:55:50,#D#,42,0,810,329,360,355,4,0,1135,1512,26,0,250,596,603,565,67,67,947,888,23,47,30,41,40,47,42

2017-10-08 21:55:50,#D#,42,1,810,329,360,355,4,0,1135,1512,26,0,250,595,603,565,67,67,959,888,23,47,30,41,40,47,42

2017-10-08 21:55:50,#D#,42,2,810,329,360,355,4,0,1135,1512,26,0,250,595,603,566,67,67,944,890,23,47,30,41,40,47,42

2017-10-08 21:55:50,#D#,42,3,810,329,360,355,4,0,1135,1512,26,0,250,595,603,565,67,67,948,889,23,47,30,41,40,47,42

2017-10-08 21:55:50,#D#,42,4,810,329,360,355,4,0,1135,1512,26,0,250,595,603,565,67,67,947,888,23,47,30,41,40,47,42

2017-10-08 21:55:50,#D#,42,5,810,329,360,355,4,0,1135,1512,26,0,250,596,603,565,67,67,947,889,23,47,30,41,40,47,42

2017-10-08 21:55:50,#D#,42,6,810,329,360,355,4,0,1135,1512,26,0,250,595,603,565,67,67,948,888,23,47,30,41,40,47,42

2017-10-08 21:55:50,#D#,42,7,810,329,360,355,4,0,1135,1512,26,0,250,595,603,565,67,67,949,887,23,47,30,41,40,47,42

2017-10-08 21:55:50,#D#,42,8,810,329,360,355,4,0,1135,1512,26,0,250,596,603,565,67,67,948,890,23,47,30,41,40,47,42

2017-10-08 21:55:51,#D#,42,9,810,329,360,355,4,0,1135,1512,26,0,250,595,603,565,67,67,948,888,23,47,30,41,40,47,42

