#P0E000000C800AM_RdFreq

2017-10-08 16:19:24, 50,:e,:0,:0,:c8,:0,:a0 @

2017-10-08 16:19:25,*******Measure Period per Event & Freq in MHz*******

2017-10-08 16:19:25,****Period_cnt , Freq, SeqNo, Status,..........

2017-10-08 16:19:25,#P#, 19, 15200000, 0, 1 

2017-10-08 16:19:25,#P#, 37, 29600000, 1, 0 

2017-10-08 16:19:25,#P#, 39, 31200000, 2, 0 

2017-10-08 16:19:25,#P#, 38, 30400000, 3, 0 

2017-10-08 16:19:25,#P#, 38, 30400000, 4, 0 

2017-10-08 16:19:25,#P#, 39, 31200000, 5, 0 

2017-10-08 16:19:25,#P#, 38, 30400000, 6, 0 

2017-10-08 16:19:25,#P#, 39, 31200000, 7, 0 

2017-10-08 16:19:25,#P#, 38, 30400000, 8, 0 

2017-10-08 16:19:25,#P#, 38, 30400000, 9, 0 

2017-10-08 16:19:25,#P#, 37, 29600000, 10, 0 

2017-10-08 16:19:25,#P#, 39, 31200000, 11, 0 

2017-10-08 16:19:25,#P#, 38, 30400000, 12, 0 

2017-10-08 16:19:25,#P#, 38, 30400000, 13, 0 

2017-10-08 16:19:25,#P#, 39, 31200000, 14, 0 

2017-10-08 16:19:25,#P#, 39, 31200000, 15, 0 

2017-10-08 16:19:25,#P#, 37, 29600000, 16, 0 

2017-10-08 16:19:25,#P#, 38, 30400000, 17, 0 

2017-10-08 16:19:25,#P#, 39, 31200000, 18, 0 

2017-10-08 16:19:25,#P#, 38, 30400000, 19, 0 

2017-10-08 16:19:25,#P#, 39, 31200000, 20, 0 

2017-10-08 16:19:25,#P#, 38, 30400000, 21, 0 

2017-10-08 16:19:25,#P#, 38, 30400000, 22, 0 

2017-10-08 16:19:25,#P#, 37, 29600000, 23, 0 

2017-10-08 16:19:25,#P#, 38, 30400000, 24, 0 

2017-10-08 16:19:25,#P#, 37, 29600000, 25, 0 

2017-10-08 16:19:25,#P#, 37, 29600000, 26, 0 

2017-10-08 16:19:25,#P#, 39, 31200000, 27, 0 

2017-10-08 16:19:25,#P#, 38, 30400000, 28, 0 

2017-10-08 16:19:25,#P#, 37, 29600000, 29, 0 

2017-10-08 16:19:25,#P#, 37, 29600000, 30, 0 

2017-10-08 16:19:25,#P#, 38, 30400000, 31, 0 

2017-10-08 16:19:25,#P#, 38, 30400000, 32, 0 

2017-10-08 16:19:25,#P#, 38, 30400000, 33, 0 

2017-10-08 16:19:25,#P#, 38, 30400000, 34, 0 

2017-10-08 16:19:25,#P#, 38, 30400000, 35, 0 

2017-10-08 16:19:25,#P#, 38, 30400000, 36, 0 

2017-10-08 16:19:25,#P#, 38, 30400000, 37, 0 

2017-10-08 16:19:25,#P#, 38, 30400000, 38, 0 

2017-10-08 16:19:25,#P#, 38, 30400000, 39, 0 

2017-10-08 16:19:25,#P#, 38, 30400000, 40, 0 

2017-10-08 16:19:25,#P#, 38, 30400000, 41, 0 

2017-10-08 16:19:25,#P#, 37, 29600000, 42, 0 

2017-10-08 16:19:25,#P#, 38, 30400000, 43, 0 

2017-10-08 16:19:25,#P#, 39, 31200000, 44, 0 

2017-10-08 16:19:25,#P#, 39, 31200000, 45, 0 

2017-10-08 16:19:25,#P#, 38, 30400000, 46, 0 

2017-10-08 16:19:25,#P#, 38, 30400000, 47, 0 

2017-10-08 16:19:25,#P#, 38, 30400000, 48, 0 

2017-10-08 16:19:25,#P#, 39, 31200000, 49, 0 

2017-10-08 16:19:25,#P#, 38, 30400000, 50, 0 

2017-10-08 16:19:25,#P#, 37, 29600000, 51, 0 

2017-10-08 16:19:25,#P#, 38, 30400000, 52, 0 

2017-10-08 16:19:25,#P#, 38, 30400000, 53, 0 

2017-10-08 16:19:25,#P#, 38, 30400000, 54, 0 

2017-10-08 16:19:25,#P#, 38, 30400000, 55, 0 

2017-10-08 16:19:25,#P#, 38, 30400000, 56, 0 

2017-10-08 16:19:25,#P#, 38, 30400000, 57, 0 

2017-10-08 16:19:25,#P#, 38, 30400000, 58, 0 

2017-10-08 16:19:25,#P#, 38, 30400000, 59, 0 

2017-10-08 16:19:25,#P#, 37, 29600000, 60, 0 

2017-10-08 16:19:25,#P#, 39, 31200000, 61, 0 

2017-10-08 16:19:25,#P#, 37, 29600000, 62, 0 

2017-10-08 16:19:25,#P#, 38, 30400000, 63, 0 

2017-10-08 16:19:25,#P#, 38, 30400000, 64, 0 

2017-10-08 16:19:25,#P#, 38, 30400000, 65, 0 

2017-10-08 16:19:25,#P#, 39, 31200000, 66, 0 

2017-10-08 16:19:25,#P#, 38, 30400000, 67, 0 

2017-10-08 16:19:25,#P#, 39, 31200000, 68, 0 

2017-10-08 16:19:25,#P#, 38, 30400000, 69, 0 

2017-10-08 16:19:25,#P#, 38, 30400000, 70, 0 

2017-10-08 16:19:25,#P#, 38, 30400000, 71, 0 

2017-10-08 16:19:25,#P#, 37, 29600000, 72, 0 

2017-10-08 16:19:25,#P#, 38, 30400000, 73, 0 

2017-10-08 16:19:25,#P#, 38, 30400000, 74, 0 

2017-10-08 16:19:25,#P#, 37, 29600000, 75, 0 

2017-10-08 16:19:25,#P#, 38, 30400000, 76, 0 

2017-10-08 16:19:25,#P#, 38, 30400000, 77, 0 

2017-10-08 16:19:25,#P#, 37, 29600000, 78, 0 

2017-10-08 16:19:25,#P#, 37, 29600000, 79, 0 

2017-10-08 16:19:25,#P#, 39, 31200000, 80, 0 

2017-10-08 16:19:25,#P#, 39, 31200000, 81, 0 

2017-10-08 16:19:25,#P#, 37, 29600000, 82, 0 

2017-10-08 16:19:25,#P#, 39, 31200000, 83, 0 

2017-10-08 16:19:25,#P#, 39, 31200000, 84, 0 

2017-10-08 16:19:25,#P#, 37, 29600000, 85, 0 

2017-10-08 16:19:25,#P#, 38, 30400000, 86, 0 

2017-10-08 16:19:25,#P#, 39, 31200000, 87, 0 

2017-10-08 16:19:25,#P#, 38, 30400000, 88, 0 

2017-10-08 16:19:25,#P#, 37, 29600000, 89, 0 

2017-10-08 16:19:25,#P#, 38, 30400000, 90, 0 

2017-10-08 16:19:25,#P#, 39, 31200000, 91, 0 

2017-10-08 16:19:25,#P#, 38, 30400000, 92, 0 

2017-10-08 16:19:25,#P#, 38, 30400000, 93, 0 

2017-10-08 16:19:25,#P#, 39, 31200000, 94, 0 

2017-10-08 16:19:26,#P#, 38, 30400000, 95, 0 

2017-10-08 16:19:26,#P#, 38, 30400000, 96, 0 

2017-10-08 16:19:26,#P#, 38, 30400000, 97, 0 

2017-10-08 16:19:26,#P#, 38, 30400000, 98, 0 

2017-10-08 16:19:26,#P#, 39, 31200000, 99, 0 

2017-10-08 16:19:26,#P#, 38, 30400000, 100, 0 

2017-10-08 16:19:26,#P#, 38, 30400000, 101, 0 

2017-10-08 16:19:26,#P#, 38, 30400000, 102, 0 

2017-10-08 16:19:26,#P#, 37, 29600000, 103, 0 

2017-10-08 16:19:26,#P#, 38, 30400000, 104, 0 

2017-10-08 16:19:26,#P#, 38, 30400000, 105, 0 

2017-10-08 16:19:26,#P#, 38, 30400000, 106, 0 

2017-10-08 16:19:26,#P#, 38, 30400000, 107, 0 

2017-10-08 16:19:26,#P#, 38, 30400000, 108, 0 

2017-10-08 16:19:26,#P#, 37, 29600000, 109, 0 

2017-10-08 16:19:26,#P#, 39, 31200000, 110, 0 

2017-10-08 16:19:26,#P#, 38, 30400000, 111, 0 

2017-10-08 16:19:26,#P#, 38, 30400000, 112, 0 

2017-10-08 16:19:26,#P#, 37, 29600000, 113, 0 

2017-10-08 16:19:26,#P#, 39, 31200000, 114, 0 

2017-10-08 16:19:26,#P#, 39, 31200000, 115, 0 

2017-10-08 16:19:26,#P#, 38, 30400000, 116, 0 

2017-10-08 16:19:26,#P#, 37, 29600000, 117, 0 

2017-10-08 16:19:26,#P#, 38, 30400000, 118, 0 

2017-10-08 16:19:26,#P#, 38, 30400000, 119, 0 

2017-10-08 16:19:26,#P#, 38, 30400000, 120, 0 

2017-10-08 16:19:26,#P#, 39, 31200000, 121, 0 

2017-10-08 16:19:26,#P#, 37, 29600000, 122, 0 

2017-10-08 16:19:26,#P#, 39, 31200000, 123, 0 

2017-10-08 16:19:26,#P#, 37, 29600000, 124, 0 

2017-10-08 16:19:26,#P#, 37, 29600000, 125, 0 

2017-10-08 16:19:26,#P#, 38, 30400000, 126, 0 

2017-10-08 16:19:26,#P#, 39, 31200000, 127, 0 

2017-10-08 16:19:26,#P#, 37, 29600000, 128, 0 

2017-10-08 16:19:26,#P#, 38, 30400000, 129, 0 

2017-10-08 16:19:26,#P#, 38, 30400000, 130, 0 

2017-10-08 16:19:26,#P#, 39, 31200000, 131, 0 

2017-10-08 16:19:26,#P#, 38, 30400000, 132, 0 

2017-10-08 16:19:26,#P#, 38, 30400000, 133, 0 

2017-10-08 16:19:26,#P#, 38, 30400000, 134, 0 

2017-10-08 16:19:26,#P#, 38, 30400000, 135, 0 

2017-10-08 16:19:26,#P#, 38, 30400000, 136, 0 

2017-10-08 16:19:26,#P#, 39, 31200000, 137, 0 

2017-10-08 16:19:26,#P#, 38, 30400000, 138, 0 

2017-10-08 16:19:26,#P#, 39, 31200000, 139, 0 

2017-10-08 16:19:26,#P#, 37, 29600000, 140, 0 

2017-10-08 16:19:26,#P#, 39, 31200000, 141, 0 

2017-10-08 16:19:26,#P#, 37, 29600000, 142, 0 

2017-10-08 16:19:26,#P#, 37, 29600000, 143, 0 

2017-10-08 16:19:26,#P#, 38, 30400000, 144, 0 

2017-10-08 16:19:26,#P#, 38, 30400000, 145, 0 

2017-10-08 16:19:26,#P#, 38, 30400000, 146, 0 

2017-10-08 16:19:26,#P#, 38, 30400000, 147, 0 

2017-10-08 16:19:26,#P#, 38, 30400000, 148, 0 

2017-10-08 16:19:26,#P#, 39, 31200000, 149, 0 

2017-10-08 16:19:26,#P#, 39, 31200000, 150, 0 

2017-10-08 16:19:26,#P#, 38, 30400000, 151, 0 

2017-10-08 16:19:26,#P#, 38, 30400000, 152, 0 

2017-10-08 16:19:26,#P#, 38, 30400000, 153, 0 

2017-10-08 16:19:26,#P#, 38, 30400000, 154, 0 

2017-10-08 16:19:26,#P#, 38, 30400000, 155, 0 

2017-10-08 16:19:26,#P#, 38, 30400000, 156, 0 

2017-10-08 16:19:26,#P#, 38, 30400000, 157, 0 

2017-10-08 16:19:26,#P#, 38, 30400000, 158, 0 

2017-10-08 16:19:26,#P#, 39, 31200000, 159, 0 

2017-10-08 16:19:26,#P#, 39, 31200000, 160, 0 

2017-10-08 16:19:26,#P#, 39, 31200000, 161, 0 

2017-10-08 16:19:26,#P#, 38, 30400000, 162, 0 

2017-10-08 16:19:26,#P#, 37, 29600000, 163, 0 

2017-10-08 16:19:26,#P#, 37, 29600000, 164, 0 

2017-10-08 16:19:26,#P#, 39, 31200000, 165, 0 

2017-10-08 16:19:26,#P#, 37, 29600000, 166, 0 

2017-10-08 16:19:26,#P#, 39, 31200000, 167, 0 

2017-10-08 16:19:26,#P#, 39, 31200000, 168, 0 

2017-10-08 16:19:26,#P#, 39, 31200000, 169, 0 

2017-10-08 16:19:26,#P#, 37, 29600000, 170, 0 

2017-10-08 16:19:26,#P#, 37, 29600000, 171, 0 

2017-10-08 16:19:26,#P#, 39, 31200000, 172, 0 

2017-10-08 16:19:26,#P#, 39, 31200000, 173, 0 

2017-10-08 16:19:26,#P#, 38, 30400000, 174, 0 

2017-10-08 16:19:26,#P#, 39, 31200000, 175, 0 

2017-10-08 16:19:26,#P#, 37, 29600000, 176, 0 

2017-10-08 16:19:26,#P#, 38, 30400000, 177, 0 

2017-10-08 16:19:26,#P#, 38, 30400000, 178, 0 

2017-10-08 16:19:26,#P#, 38, 30400000, 179, 0 

2017-10-08 16:19:26,#P#, 38, 30400000, 180, 0 

2017-10-08 16:19:26,#P#, 38, 30400000, 181, 0 

2017-10-08 16:19:26,#P#, 38, 30400000, 182, 0 

2017-10-08 16:19:26,#P#, 39, 31200000, 183, 0 

2017-10-08 16:19:26,#P#, 39, 31200000, 184, 0 

2017-10-08 16:19:26,#P#, 39, 31200000, 185, 0 

2017-10-08 16:19:26,#P#, 39, 31200000, 186, 0 

2017-10-08 16:19:26,#P#, 38, 30400000, 187, 0 

2017-10-08 16:19:26,#P#, 39, 31200000, 188, 0 

2017-10-08 16:19:26,#P#, 38, 30400000, 189, 0 

2017-10-08 16:19:26,#P#, 39, 31200000, 190, 0 

2017-10-08 16:19:26,#P#, 39, 31200000, 191, 0 

2017-10-08 16:19:26,#P#, 38, 30400000, 192, 0 

2017-10-08 16:19:26,#P#, 38, 30400000, 193, 0 

2017-10-08 16:19:26,#P#, 39, 31200000, 194, 0 

2017-10-08 16:19:26,#P#, 38, 30400000, 195, 0 

2017-10-08 16:19:27,#P#, 39, 31200000, 196, 0 

2017-10-08 16:19:27,#P#, 38, 30400000, 197, 0 

2017-10-08 16:19:27,#P#, 39, 31200000, 198, 0 

2017-10-08 16:19:27,#P#, 38, 30400000, 199, 0 

2017-10-08 16:19:27,*******DONE*******#

Exiting PsocAmPreRad
#V0E0000000100GetVlocal

2017-10-08 16:19:28, 56,:e,:0,:0,:1,:0,:0 @

2017-10-08 16:19:28,*******Measure local voltages in mV *******

2017-10-08 16:19:28,*******VI2C,+Vopamps,+Vopamps,Vdacs,Vadc,SeqNo, Status*********

2017-10-08 16:19:28,#V#,38,9742,3843,66332,7659*******DONE*******#

Exiting PsocAmPreRad
#C0E00126E0000IsOffsets

2017-10-08 16:19:30, 43,:e,:0,:126e,:0,:0,:0 @

2017-10-08 16:19:30,*******DONE*******#

Exiting PsocAmPreRad
#E0E001EB80A0083IS_RAMP

2017-10-08 16:19:30, 45,:e,:0,:1eb8,:a,:0,:83 @

2017-10-08 16:19:30,*SeqNo,Samples,DAC_Cnt,BGapReg,GainReg,AM_VCal,BGO,Isense0,Isense1

2017-10-08 16:19:31,
2017-10-08 16:19:31,#E#,0,0,12,102,131,0,60,0,0,567,88,0,0,111,99

2017-10-08 16:19:31,#E#,0,1,12,102,131,0,60,0,0,567,88,0,0,111,99

2017-10-08 16:19:31,#E#,0,2,12,102,131,0,60,0,0,567,88,0,0,111,99

2017-10-08 16:19:31,#E#,0,3,12,102,131,0,60,0,0,567,88,0,0,111,99

2017-10-08 16:19:31,#E#,0,4,12,102,131,0,60,0,0,567,88,0,0,111,99

2017-10-08 16:19:31,#E#,0,5,12,102,131,0,60,0,0,567,88,0,0,111,99

2017-10-08 16:19:31,#E#,0,6,12,102,131,0,60,0,0,568,88,0,0,111,99

2017-10-08 16:19:31,#E#,0,7,12,102,131,0,60,0,0,567,88,0,0,111,99

2017-10-08 16:19:31,#E#,0,8,12,102,131,0,60,0,0,568,88,0,0,111,99

2017-10-08 16:19:31,#E#,0,9,12,102,131,0,60,0,0,567,88,0,0,111,99

2017-10-08 16:19:32,
2017-10-08 16:19:33,#E#,1,0,12,102,131,131,60,102,602,567,88,7,6,112,100

2017-10-08 16:19:33,#E#,1,1,12,102,131,131,60,102,602,567,88,7,6,112,100

2017-10-08 16:19:33,#E#,1,2,12,102,131,131,60,102,602,568,88,7,6,112,100

2017-10-08 16:19:33,#E#,1,3,12,102,131,131,60,102,602,567,88,7,6,112,100

2017-10-08 16:19:33,#E#,1,4,12,102,131,131,60,102,602,567,88,7,6,111,99

2017-10-08 16:19:33,#E#,1,5,12,102,131,131,60,102,602,567,88,7,6,112,100

2017-10-08 16:19:33,#E#,1,6,12,102,131,131,60,102,602,567,88,7,6,112,99

2017-10-08 16:19:33,#E#,1,7,12,102,131,131,60,102,602,567,88,7,6,112,101

2017-10-08 16:19:33,#E#,1,8,12,102,131,131,60,102,602,567,88,7,6,112,99

2017-10-08 16:19:33,#E#,1,9,12,102,131,131,60,102,602,567,88,7,6,112,100

