#P0E000000C800AM_RdFreq

2017-10-08 11:44:55, 50,:e,:0,:0,:c8,:0,:a0 @

2017-10-08 11:44:56,*******Measure Period per Event & Freq in MHz*******

2017-10-08 11:44:56,****Period_cnt , Freq, SeqNo, Status,..........

2017-10-08 11:44:56,#P#, 23, 18400000, 0, 1 

2017-10-08 11:44:56,#P#, 23, 18400000, 1, 1 

2017-10-08 11:44:56,#P#, 23, 18400000, 2, 1 

2017-10-08 11:44:56,#P#, 23, 18400000, 3, 1 

2017-10-08 11:44:56,#P#, 23, 18400000, 4, 1 

2017-10-08 11:44:56,#P#, 23, 18400000, 5, 1 

2017-10-08 11:44:56,#P#, 23, 18400000, 6, 1 

2017-10-08 11:44:56,#P#, 23, 18400000, 7, 1 

2017-10-08 11:44:56,#P#, 23, 18400000, 8, 1 

2017-10-08 11:44:56,#P#, 23, 18400000, 9, 1 

2017-10-08 11:44:56,#P#, 23, 18400000, 10, 1 

2017-10-08 11:44:56,#P#, 23, 18400000, 11, 1 

2017-10-08 11:44:56,#P#, 23, 18400000, 12, 1 

2017-10-08 11:44:56,#P#, 23, 18400000, 13, 1 

2017-10-08 11:44:56,#P#, 23, 18400000, 14, 1 

2017-10-08 11:44:56,#P#, 23, 18400000, 15, 1 

2017-10-08 11:44:56,#P#, 23, 18400000, 16, 1 

2017-10-08 11:44:56,#P#, 23, 18400000, 17, 1 

2017-10-08 11:44:56,#P#, 23, 18400000, 18, 1 

2017-10-08 11:44:56,#P#, 23, 18400000, 19, 1 

2017-10-08 11:44:56,#P#, 23, 18400000, 20, 1 

2017-10-08 11:44:56,#P#, 23, 18400000, 21, 1 

2017-10-08 11:44:56,#P#, 23, 18400000, 22, 1 

2017-10-08 11:44:56,#P#, 23, 18400000, 23, 1 

2017-10-08 11:44:56,#P#, 23, 18400000, 24, 1 

2017-10-08 11:44:56,#P#, 23, 18400000, 25, 1 

2017-10-08 11:44:56,#P#, 23, 18400000, 26, 1 

2017-10-08 11:44:56,#P#, 23, 18400000, 27, 1 

2017-10-08 11:44:56,#P#, 23, 18400000, 28, 1 

2017-10-08 11:44:56,#P#, 23, 18400000, 29, 1 

2017-10-08 11:44:56,#P#, 23, 18400000, 30, 1 

2017-10-08 11:44:56,#P#, 23, 18400000, 31, 1 

2017-10-08 11:44:56,#P#, 23, 18400000, 32, 1 

2017-10-08 11:44:56,#P#, 23, 18400000, 33, 1 

2017-10-08 11:44:56,#P#, 23, 18400000, 34, 1 

2017-10-08 11:44:56,#P#, 23, 18400000, 35, 1 

2017-10-08 11:44:56,#P#, 23, 18400000, 36, 1 

2017-10-08 11:44:56,#P#, 23, 18400000, 37, 1 

2017-10-08 11:44:56,#P#, 23, 18400000, 38, 1 

2017-10-08 11:44:56,#P#, 23, 18400000, 39, 1 

2017-10-08 11:44:56,#P#, 23, 18400000, 40, 1 

2017-10-08 11:44:56,#P#, 23, 18400000, 41, 1 

2017-10-08 11:44:56,#P#, 23, 18400000, 42, 1 

2017-10-08 11:44:56,#P#, 23, 18400000, 43, 1 

2017-10-08 11:44:56,#P#, 23, 18400000, 44, 1 

2017-10-08 11:44:56,#P#, 23, 18400000, 45, 1 

2017-10-08 11:44:56,#P#, 23, 18400000, 46, 1 

2017-10-08 11:44:56,#P#, 23, 18400000, 47, 1 

2017-10-08 11:44:56,#P#, 23, 18400000, 48, 1 

2017-10-08 11:44:56,#P#, 23, 18400000, 49, 1 

2017-10-08 11:44:56,#P#, 23, 18400000, 50, 1 

2017-10-08 11:44:56,#P#, 23, 18400000, 51, 1 

2017-10-08 11:44:56,#P#, 23, 18400000, 52, 1 

2017-10-08 11:44:56,#P#, 23, 18400000, 53, 1 

2017-10-08 11:44:56,#P#, 23, 18400000, 54, 1 

2017-10-08 11:44:56,#P#, 23, 18400000, 55, 1 

2017-10-08 11:44:56,#P#, 23, 18400000, 56, 1 

2017-10-08 11:44:56,#P#, 23, 18400000, 57, 1 

2017-10-08 11:44:56,#P#, 23, 18400000, 58, 1 

2017-10-08 11:44:56,#P#, 23, 18400000, 59, 1 

2017-10-08 11:44:56,#P#, 23, 18400000, 60, 1 

2017-10-08 11:44:56,#P#, 23, 18400000, 61, 1 

2017-10-08 11:44:56,#P#, 23, 18400000, 62, 1 

2017-10-08 11:44:56,#P#, 23, 18400000, 63, 1 

2017-10-08 11:44:56,#P#, 23, 18400000, 64, 1 

2017-10-08 11:44:56,#P#, 23, 18400000, 65, 1 

2017-10-08 11:44:56,#P#, 23, 18400000, 66, 1 

2017-10-08 11:44:56,#P#, 23, 18400000, 67, 1 

2017-10-08 11:44:56,#P#, 23, 18400000, 68, 1 

2017-10-08 11:44:56,#P#, 23, 18400000, 69, 1 

2017-10-08 11:44:56,#P#, 23, 18400000, 70, 1 

2017-10-08 11:44:56,#P#, 23, 18400000, 71, 1 

2017-10-08 11:44:56,#P#, 23, 18400000, 72, 1 

2017-10-08 11:44:56,#P#, 23, 18400000, 73, 1 

2017-10-08 11:44:56,#P#, 23, 18400000, 74, 1 

2017-10-08 11:44:56,#P#, 23, 18400000, 75, 1 

2017-10-08 11:44:56,#P#, 23, 18400000, 76, 1 

2017-10-08 11:44:56,#P#, 23, 18400000, 77, 1 

2017-10-08 11:44:56,#P#, 23, 18400000, 78, 1 

2017-10-08 11:44:56,#P#, 23, 18400000, 79, 1 

2017-10-08 11:44:56,#P#, 23, 18400000, 80, 1 

2017-10-08 11:44:56,#P#, 23, 18400000, 81, 1 

2017-10-08 11:44:56,#P#, 23, 18400000, 82, 1 

2017-10-08 11:44:56,#P#, 23, 18400000, 83, 1 

2017-10-08 11:44:56,#P#, 23, 18400000, 84, 1 

2017-10-08 11:44:56,#P#, 23, 18400000, 85, 1 

2017-10-08 11:44:56,#P#, 23, 18400000, 86, 1 

2017-10-08 11:44:56,#P#, 23, 18400000, 87, 1 

2017-10-08 11:44:56,#P#, 23, 18400000, 88, 1 

2017-10-08 11:44:56,#P#, 23, 18400000, 89, 1 

2017-10-08 11:44:56,#P#, 23, 18400000, 90, 1 

2017-10-08 11:44:56,#P#, 23, 18400000, 91, 1 

2017-10-08 11:44:56,#P#, 23, 18400000, 92, 1 

2017-10-08 11:44:56,#P#, 23, 18400000, 93, 1 

2017-10-08 11:44:56,#P#, 23, 18400000, 94, 1 

2017-10-08 11:44:56,#P#, 23, 18400000, 95, 1 

2017-10-08 11:44:56,#P#, 23, 18400000, 96, 1 

2017-10-08 11:44:56,#P#, 23, 18400000, 97, 1 

2017-10-08 11:44:57,#P#, 23, 18400000, 98, 1 

2017-10-08 11:44:57,#P#, 23, 18400000, 99, 1 

2017-10-08 11:44:57,#P#, 23, 18400000, 100, 1 

2017-10-08 11:44:57,#P#, 23, 18400000, 101, 1 

2017-10-08 11:44:57,#P#, 23, 18400000, 102, 1 

2017-10-08 11:44:57,#P#, 23, 18400000, 103, 1 

2017-10-08 11:44:57,#P#, 23, 18400000, 104, 1 

2017-10-08 11:44:57,#P#, 23, 18400000, 105, 1 

2017-10-08 11:44:57,#P#, 23, 18400000, 106, 1 

2017-10-08 11:44:57,#P#, 23, 18400000, 107, 1 

2017-10-08 11:44:57,#P#, 23, 18400000, 108, 1 

2017-10-08 11:44:57,#P#, 23, 18400000, 109, 1 

2017-10-08 11:44:57,#P#, 23, 18400000, 110, 1 

2017-10-08 11:44:57,#P#, 23, 18400000, 111, 1 

2017-10-08 11:44:57,#P#, 23, 18400000, 112, 1 

2017-10-08 11:44:57,#P#, 23, 18400000, 113, 1 

2017-10-08 11:44:57,#P#, 23, 18400000, 114, 1 

2017-10-08 11:44:57,#P#, 23, 18400000, 115, 1 

2017-10-08 11:44:57,#P#, 23, 18400000, 116, 1 

2017-10-08 11:44:57,#P#, 23, 18400000, 117, 1 

2017-10-08 11:44:57,#P#, 23, 18400000, 118, 1 

2017-10-08 11:44:57,#P#, 23, 18400000, 119, 1 

2017-10-08 11:44:57,#P#, 23, 18400000, 120, 1 

2017-10-08 11:44:57,#P#, 23, 18400000, 121, 1 

2017-10-08 11:44:57,#P#, 23, 18400000, 122, 1 

2017-10-08 11:44:57,#P#, 23, 18400000, 123, 1 

2017-10-08 11:44:57,#P#, 23, 18400000, 124, 1 

2017-10-08 11:44:57,#P#, 23, 18400000, 125, 1 

2017-10-08 11:44:57,#P#, 23, 18400000, 126, 1 

2017-10-08 11:44:57,#P#, 23, 18400000, 127, 1 

2017-10-08 11:44:57,#P#, 23, 18400000, 128, 1 

2017-10-08 11:44:57,#P#, 23, 18400000, 129, 1 

2017-10-08 11:44:57,#P#, 23, 18400000, 130, 1 

2017-10-08 11:44:57,#P#, 23, 18400000, 131, 1 

2017-10-08 11:44:57,#P#, 23, 18400000, 132, 1 

2017-10-08 11:44:57,#P#, 23, 18400000, 133, 1 

2017-10-08 11:44:57,#P#, 23, 18400000, 134, 1 

2017-10-08 11:44:57,#P#, 23, 18400000, 135, 1 

2017-10-08 11:44:57,#P#, 23, 18400000, 136, 1 

2017-10-08 11:44:57,#P#, 23, 18400000, 137, 1 

2017-10-08 11:44:57,#P#, 23, 18400000, 138, 1 

2017-10-08 11:44:57,#P#, 23, 18400000, 139, 1 

2017-10-08 11:44:57,#P#, 23, 18400000, 140, 1 

2017-10-08 11:44:57,#P#, 23, 18400000, 141, 1 

2017-10-08 11:44:57,#P#, 23, 18400000, 142, 1 

2017-10-08 11:44:57,#P#, 23, 18400000, 143, 1 

2017-10-08 11:44:57,#P#, 23, 18400000, 144, 1 

2017-10-08 11:44:57,#P#, 23, 18400000, 145, 1 

2017-10-08 11:44:57,#P#, 23, 18400000, 146, 1 

2017-10-08 11:44:57,#P#, 23, 18400000, 147, 1 

2017-10-08 11:44:57,#P#, 23, 18400000, 148, 1 

2017-10-08 11:44:57,#P#, 23, 18400000, 149, 1 

2017-10-08 11:44:57,#P#, 23, 18400000, 150, 1 

2017-10-08 11:44:57,#P#, 23, 18400000, 151, 1 

2017-10-08 11:44:57,#P#, 23, 18400000, 152, 1 

2017-10-08 11:44:57,#P#, 23, 18400000, 153, 1 

2017-10-08 11:44:57,#P#, 23, 18400000, 154, 1 

2017-10-08 11:44:57,#P#, 23, 18400000, 155, 1 

2017-10-08 11:44:57,#P#, 23, 18400000, 156, 1 

2017-10-08 11:44:57,#P#, 23, 18400000, 157, 1 

2017-10-08 11:44:57,#P#, 23, 18400000, 158, 1 

2017-10-08 11:44:57,#P#, 23, 18400000, 159, 1 

2017-10-08 11:44:57,#P#, 23, 18400000, 160, 1 

2017-10-08 11:44:57,#P#, 23, 18400000, 161, 1 

2017-10-08 11:44:57,#P#, 23, 18400000, 162, 1 

2017-10-08 11:44:57,#P#, 23, 18400000, 163, 1 

2017-10-08 11:44:57,#P#, 23, 18400000, 164, 1 

2017-10-08 11:44:57,#P#, 23, 18400000, 165, 1 

2017-10-08 11:44:57,#P#, 23, 18400000, 166, 1 

2017-10-08 11:44:57,#P#, 23, 18400000, 167, 1 

2017-10-08 11:44:57,#P#, 23, 18400000, 168, 1 

2017-10-08 11:44:57,#P#, 23, 18400000, 169, 1 

2017-10-08 11:44:57,#P#, 23, 18400000, 170, 1 

2017-10-08 11:44:57,#P#, 23, 18400000, 171, 1 

2017-10-08 11:44:57,#P#, 23, 18400000, 172, 1 

2017-10-08 11:44:57,#P#, 23, 18400000, 173, 1 

2017-10-08 11:44:57,#P#, 23, 18400000, 174, 1 

2017-10-08 11:44:57,#P#, 23, 18400000, 175, 1 

2017-10-08 11:44:57,#P#, 23, 18400000, 176, 1 

2017-10-08 11:44:57,#P#, 23, 18400000, 177, 1 

2017-10-08 11:44:57,#P#, 23, 18400000, 178, 1 

2017-10-08 11:44:57,#P#, 23, 18400000, 179, 1 

2017-10-08 11:44:57,#P#, 23, 18400000, 180, 1 

2017-10-08 11:44:57,#P#, 23, 18400000, 181, 1 

2017-10-08 11:44:57,#P#, 23, 18400000, 182, 1 

2017-10-08 11:44:57,#P#, 23, 18400000, 183, 1 

2017-10-08 11:44:57,#P#, 23, 18400000, 184, 1 

2017-10-08 11:44:57,#P#, 23, 18400000, 185, 1 

2017-10-08 11:44:57,#P#, 23, 18400000, 186, 1 

2017-10-08 11:44:57,#P#, 23, 18400000, 187, 1 

2017-10-08 11:44:57,#P#, 23, 18400000, 188, 1 

2017-10-08 11:44:57,#P#, 23, 18400000, 189, 1 

2017-10-08 11:44:57,#P#, 23, 18400000, 190, 1 

2017-10-08 11:44:57,#P#, 23, 18400000, 191, 1 

2017-10-08 11:44:57,#P#, 23, 18400000, 192, 1 

2017-10-08 11:44:57,#P#, 23, 18400000, 193, 1 

2017-10-08 11:44:57,#P#, 23, 18400000, 194, 1 

2017-10-08 11:44:57,#P#, 23, 18400000, 195, 1 

2017-10-08 11:44:57,#P#, 23, 18400000, 196, 1 

2017-10-08 11:44:57,#P#, 23, 18400000, 197, 1 

2017-10-08 11:44:57,#P#, 23, 18400000, 198, 1 

2017-10-08 11:44:57,#P#, 23, 18400000, 199, 1 

2017-10-08 11:44:57,*******DONE*******#

Exiting PsocAmPreRad
#C0E00126E0000IsOffsets

2017-10-08 11:44:59, 43,:e,:0,:126e,:0,:0,:0 @

2017-10-08 11:44:59,*******DONE*******#

Exiting PsocAmPreRad
#E0E001EB80A0083IS_RAMP

2017-10-08 11:44:59, 45,:e,:0,:1eb8,:a,:0,:83 @

2017-10-08 11:44:59,*SeqNo,Samples,DAC_Cnt,BGapReg,GainReg,AM_VCal,BGO,Isense0,Isense1

2017-10-08 11:45:00,
2017-10-08 11:45:00,#E#,0,0,12,102,131,0,60,0,0,565,88,0,0,111,99

2017-10-08 11:45:01,#E#,0,1,12,102,131,0,60,0,0,565,88,0,0,110,99

2017-10-08 11:45:01,#E#,0,2,12,102,131,0,60,0,0,565,88,0,0,111,99

2017-10-08 11:45:01,#E#,0,3,12,102,131,0,60,0,0,565,88,0,0,111,99

2017-10-08 11:45:01,#E#,0,4,12,102,131,0,60,0,0,565,88,0,0,111,99

2017-10-08 11:45:01,#E#,0,5,12,102,131,0,60,0,0,565,88,0,0,111,99

2017-10-08 11:45:01,#E#,0,6,12,102,131,0,60,0,0,565,88,0,0,111,99

2017-10-08 11:45:01,#E#,0,7,12,102,131,0,60,0,0,565,88,0,0,110,99

2017-10-08 11:45:01,#E#,0,8,12,102,131,0,60,0,0,565,88,0,0,111,99

2017-10-08 11:45:01,#E#,0,9,12,102,131,0,60,0,0,564,88,0,0,111,99

2017-10-08 11:45:02,
2017-10-08 11:45:02,#E#,1,0,12,102,131,131,60,102,603,565,88,7,6,96,99

2017-10-08 11:45:02,#E#,1,1,12,102,131,131,60,102,603,565,88,7,6,111,100

2017-10-08 11:45:02,#E#,1,2,12,102,131,131,60,102,603,565,88,7,6,112,99

2017-10-08 11:45:02,#E#,1,3,12,102,131,131,60,102,603,565,88,7,6,127,100

2017-10-08 11:45:02,#E#,1,4,12,102,131,131,60,102,603,565,88,7,6,111,99

2017-10-08 11:45:02,#E#,1,5,12,102,131,131,60,102,603,565,88,7,6,127,100

2017-10-08 11:45:02,#E#,1,6,12,102,131,131,60,102,603,565,88,7,6,111,100

2017-10-08 11:45:02,#E#,1,7,12,102,131,131,60,102,603,565,88,7,6,111,100

2017-10-08 11:45:02,#E#,1,8,12,102,131,131,60,102,603,565,88,7,6,111,99

2017-10-08 11:45:02,#E#,1,9,12,102,131,131,60,102,603,565,88,7,6,111,100

2017-10-08 11:45:03,
2017-10-08 11:45:03,#E#,2,0,12,102,131,262,60,102,603,565,88,10,10,112,99

2017-10-08 11:45:03,#E#,2,1,12,102,131,262,60,102,603,564,88,10,10,112,100

2017-10-08 11:45:03,#E#,2,2,12,102,131,262,60,102,603,565,88,10,10,112,99

2017-10-08 11:45:03,#E#,2,3,12,102,131,262,60,102,603,564,88,10,10,112,99

2017-10-08 11:45:03,#E#,2,4,12,102,131,262,60,102,603,564,88,10,10,112,101

2017-10-08 11:45:03,#E#,2,5,12,102,131,262,60,102,603,564,88,10,10,112,100

2017-10-08 11:45:03,#E#,2,6,12,102,131,262,60,102,603,564,88,10,10,112,101

2017-10-08 11:45:03,#E#,2,7,12,102,131,262,60,102,603,565,88,10,10,111,99

2017-10-08 11:45:03,#E#,2,8,12,102,131,262,60,102,603,565,88,10,10,112,99

2017-10-08 11:45:03,#E#,2,9,12,102,131,262,60,102,603,565,88,10,10,112,99

