#P0E0000001900AM_RdFreq

2017-12-12 23:05:18, 50,:e,:0,:0,:19,:0,:a0 @

2017-12-12 23:05:18,*******Measure Period per Event & Freq in MHz*******

2017-12-12 23:05:18,****Period_cnt , Freq, SeqNo, Status,..........

2017-12-12 23:05:19,
2017-12-12 23:05:20,
2017-12-12 23:05:21,
2017-12-12 23:05:22,
2017-12-12 23:05:23,Watch Interrupt or Reset!! BGO Set:0, GAIN Set:0

2017-12-12 23:05:24,
2017-12-12 23:05:25,
2017-12-12 23:05:26,
2017-12-12 23:05:27,
2017-12-12 23:05:28,
2017-12-12 23:05:29,
2017-12-12 23:05:30,
2017-12-12 23:05:31,
2017-12-12 23:05:32,
2017-12-12 23:05:33,
2017-12-12 23:05:34,
2017-12-12 23:05:35,
2017-12-12 23:05:36,
2017-12-12 23:05:37,
2017-12-12 23:05:38,
2017-12-12 23:05:39,
2017-12-12 23:05:40,
2017-12-12 23:05:41,
2017-12-12 23:05:42,
2017-12-12 23:05:43,
2017-12-12 23:05:44,
2017-12-12 23:05:45,
2017-12-12 23:05:46,
2017-12-12 23:05:47,
2017-12-12 23:05:48,
2017-12-12 23:05:49,
2017-12-12 23:05:50,
2017-12-12 23:05:51,
2017-12-12 23:05:52,
2017-12-12 23:05:53,
2017-12-12 23:05:54,
2017-12-12 23:05:55,
2017-12-12 23:05:56,
2017-12-12 23:05:57,
2017-12-12 23:05:58,
2017-12-12 23:05:59,
2017-12-12 23:06:00,
2017-12-12 23:06:01,
2017-12-12 23:06:02,
2017-12-12 23:06:03,
2017-12-12 23:06:04,
2017-12-12 23:06:05,
2017-12-12 23:06:06,
2017-12-12 23:06:07,
2017-12-12 23:06:08,
2017-12-12 23:06:09,
2017-12-12 23:06:10,
2017-12-12 23:06:11,
2017-12-12 23:06:12,
2017-12-12 23:06:13,
2017-12-12 23:06:14,
2017-12-12 23:06:15,
2017-12-12 23:06:16,
2017-12-12 23:06:17,
2017-12-12 23:06:18,
2017-12-12 23:06:19,
2017-12-12 23:06:20,
2017-12-12 23:06:21,
2017-12-12 23:06:22,
2017-12-12 23:06:23,
2017-12-12 23:06:24,
2017-12-12 23:06:25,
2017-12-12 23:06:26,
2017-12-12 23:06:27,
2017-12-12 23:06:28,
2017-12-12 23:06:29,
2017-12-12 23:06:30,
2017-12-12 23:06:31,
2017-12-12 23:06:32,
2017-12-12 23:06:33,
2017-12-12 23:06:34,
2017-12-12 23:06:35,
2017-12-12 23:06:36,
2017-12-12 23:06:37,
2017-12-12 23:06:38,
2017-12-12 23:06:39,
2017-12-12 23:06:40,
2017-12-12 23:06:41,
2017-12-12 23:06:42,
2017-12-12 23:06:43,
2017-12-12 23:06:44,
2017-12-12 23:06:45,
2017-12-12 23:06:46,
2017-12-12 23:06:47,
2017-12-12 23:06:48,
2017-12-12 23:06:49,
2017-12-12 23:06:50,
2017-12-12 23:06:51,
2017-12-12 23:06:52,
2017-12-12 23:06:53,
2017-12-12 23:06:54,
2017-12-12 23:06:55,
2017-12-12 23:06:56,
2017-12-12 23:06:57,
2017-12-12 23:06:58,
2017-12-12 23:06:59,
2017-12-12 23:07:00,
2017-12-12 23:07:01,
2017-12-12 23:07:02,
2017-12-12 23:07:03,
2017-12-12 23:07:04,
2017-12-12 23:07:05,
2017-12-12 23:07:06,
2017-12-12 23:07:07,
2017-12-12 23:07:08,
2017-12-12 23:07:09,
2017-12-12 23:07:10,
2017-12-12 23:07:11,
2017-12-12 23:07:12,
2017-12-12 23:07:13,
2017-12-12 23:07:14,
2017-12-12 23:07:15,
2017-12-12 23:07:16,
2017-12-12 23:07:17,
2017-12-12 23:07:18,
2017-12-12 23:07:19,
2017-12-12 23:07:20,
2017-12-12 23:07:21,
2017-12-12 23:07:22,
2017-12-12 23:07:23,
2017-12-12 23:07:24,
2017-12-12 23:07:25,
2017-12-12 23:07:26,
2017-12-12 23:07:27,
2017-12-12 23:07:28,
2017-12-12 23:07:29,
2017-12-12 23:07:30,
2017-12-12 23:07:31,
2017-12-12 23:07:32,
2017-12-12 23:07:33,
2017-12-12 23:07:34,
2017-12-12 23:07:35,
2017-12-12 23:07:36,
2017-12-12 23:07:37,
2017-12-12 23:07:38,
2017-12-12 23:07:39,
2017-12-12 23:07:40,
2017-12-12 23:07:41,
2017-12-12 23:07:42,
2017-12-12 23:07:43,
2017-12-12 23:07:44,
2017-12-12 23:07:45,
2017-12-12 23:07:46,
2017-12-12 23:07:47,
2017-12-12 23:07:48,
2017-12-12 23:07:49,
2017-12-12 23:07:50,
2017-12-12 23:07:51,
2017-12-12 23:07:52,
2017-12-12 23:07:53,
Over 150 consecutive empty strings. Breaking out of infinite loop (second loop).
Exiting PsocAmPreRad
#A0E0000002B07AM_RegRW.

2017-12-12 23:07:55, 41,:e,:0,:0,:2b,:7,:7a7 @

2017-12-12 23:07:56,
2017-12-12 23:07:57,
2017-12-12 23:07:58,
2017-12-12 23:07:59,
2017-12-12 23:08:00,Watch Interrupt or Reset!! BGO Set:0, GAIN Set:0

2017-12-12 23:08:01,
2017-12-12 23:08:02,
2017-12-12 23:08:03,
2017-12-12 23:08:04,
2017-12-12 23:08:05,
2017-12-12 23:08:06,
2017-12-12 23:08:07,
2017-12-12 23:08:08,
2017-12-12 23:08:09,
2017-12-12 23:08:10,
2017-12-12 23:08:11,
2017-12-12 23:08:12,
2017-12-12 23:08:13,
2017-12-12 23:08:14,
2017-12-12 23:08:15,
2017-12-12 23:08:16,
2017-12-12 23:08:17,
2017-12-12 23:08:18,
2017-12-12 23:08:19,
2017-12-12 23:08:20,
2017-12-12 23:08:21,
2017-12-12 23:08:22,
2017-12-12 23:08:23,
2017-12-12 23:08:24,
2017-12-12 23:08:25,
2017-12-12 23:08:26,
2017-12-12 23:08:27,
2017-12-12 23:08:28,
2017-12-12 23:08:29,
2017-12-12 23:08:30,
2017-12-12 23:08:31,
2017-12-12 23:08:32,
2017-12-12 23:08:33,
2017-12-12 23:08:34,
2017-12-12 23:08:35,
2017-12-12 23:08:36,
2017-12-12 23:08:37,
2017-12-12 23:08:38,
2017-12-12 23:08:39,
2017-12-12 23:08:40,
2017-12-12 23:08:41,
2017-12-12 23:08:42,
2017-12-12 23:08:43,
2017-12-12 23:08:44,
2017-12-12 23:08:45,
2017-12-12 23:08:46,
2017-12-12 23:08:47,
2017-12-12 23:08:48,
2017-12-12 23:08:49,
2017-12-12 23:08:50,
2017-12-12 23:08:51,
2017-12-12 23:08:52,
2017-12-12 23:08:53,
2017-12-12 23:08:54,
2017-12-12 23:08:55,
2017-12-12 23:08:56,
2017-12-12 23:08:57,
2017-12-12 23:08:58,
2017-12-12 23:08:59,
2017-12-12 23:09:00,
2017-12-12 23:09:01,
2017-12-12 23:09:02,
2017-12-12 23:09:03,
2017-12-12 23:09:04,
2017-12-12 23:09:05,
2017-12-12 23:09:06,
2017-12-12 23:09:07,
2017-12-12 23:09:08,
2017-12-12 23:09:09,
2017-12-12 23:09:10,
2017-12-12 23:09:11,
2017-12-12 23:09:12,
2017-12-12 23:09:13,
2017-12-12 23:09:14,
2017-12-12 23:09:15,
2017-12-12 23:09:16,
2017-12-12 23:09:17,
2017-12-12 23:09:18,
2017-12-12 23:09:19,
2017-12-12 23:09:20,
2017-12-12 23:09:21,
2017-12-12 23:09:22,
2017-12-12 23:09:23,
2017-12-12 23:09:24,
2017-12-12 23:09:25,
2017-12-12 23:09:26,
2017-12-12 23:09:27,
2017-12-12 23:09:28,
2017-12-12 23:09:29,
2017-12-12 23:09:30,
2017-12-12 23:09:31,
2017-12-12 23:09:32,
2017-12-12 23:09:33,
2017-12-12 23:09:34,
2017-12-12 23:09:35,
2017-12-12 23:09:36,
2017-12-12 23:09:37,
2017-12-12 23:09:38,
2017-12-12 23:09:39,
2017-12-12 23:09:40,
2017-12-12 23:09:41,
2017-12-12 23:09:42,
2017-12-12 23:09:43,
2017-12-12 23:09:44,
2017-12-12 23:09:45,
2017-12-12 23:09:46,
2017-12-12 23:09:47,
2017-12-12 23:09:48,
2017-12-12 23:09:49,
2017-12-12 23:09:50,
2017-12-12 23:09:51,
2017-12-12 23:09:52,
2017-12-12 23:09:53,
2017-12-12 23:09:54,
2017-12-12 23:09:55,
2017-12-12 23:09:56,
2017-12-12 23:09:57,
2017-12-12 23:09:58,
2017-12-12 23:09:59,
2017-12-12 23:10:00,
2017-12-12 23:10:01,
2017-12-12 23:10:02,
2017-12-12 23:10:03,
2017-12-12 23:10:04,
2017-12-12 23:10:05,
2017-12-12 23:10:06,
2017-12-12 23:10:07,
2017-12-12 23:10:08,
2017-12-12 23:10:09,
2017-12-12 23:10:10,
2017-12-12 23:10:11,
2017-12-12 23:10:12,
2017-12-12 23:10:13,
2017-12-12 23:10:14,
2017-12-12 23:10:15,
2017-12-12 23:10:16,
2017-12-12 23:10:17,
2017-12-12 23:10:18,
2017-12-12 23:10:19,
2017-12-12 23:10:20,
2017-12-12 23:10:21,
2017-12-12 23:10:22,
2017-12-12 23:10:23,
2017-12-12 23:10:24,
2017-12-12 23:10:25,
2017-12-12 23:10:26,
2017-12-12 23:10:27,
2017-12-12 23:10:28,
2017-12-12 23:10:29,
2017-12-12 23:10:30,
Over 150 consecutive empty strings. Breaking out of infinite loop (second loop).
Exiting PsocAmPreRad
#O0E0000002B03AM_VDD_HV

2017-12-12 23:10:32, 4f,:e,:0,:0,:2b,:3,:3a3 @

2017-12-12 23:10:32,0,

2017-12-12 23:10:32, *******DONE*******#

Exiting PsocAmPreRad
