#P0E0000001900AM_RdFreq

2017-11-08 04:05:11, 50,:e,:0,:0,:19,:0,:a0 @

2017-11-08 04:05:11,*******Measure Period per Event & Freq in MHz*******

2017-11-08 04:05:11,****Period_cnt , Freq, SeqNo, Status,..........

2017-11-08 04:05:11,#P#, 38, 30400000, 0, 0 

2017-11-08 04:05:11,#P#, 38, 30400000, 1, 0 

2017-11-08 04:05:11,#P#, 38, 30400000, 2, 0 

2017-11-08 04:05:11,#P#, 39, 31200000, 3, 0 

2017-11-08 04:05:11,#P#, 38, 30400000, 4, 0 

2017-11-08 04:05:11,#P#, 37, 29600000, 5, 0 

2017-11-08 04:05:11,#P#, 37, 29600000, 6, 0 

2017-11-08 04:05:11,#P#, 38, 30400000, 7, 0 

2017-11-08 04:05:11,#P#, 38, 30400000, 8, 0 

2017-11-08 04:05:11,#P#, 38, 30400000, 9, 0 

2017-11-08 04:05:11,#P#, 38, 30400000, 10, 0 

2017-11-08 04:05:11,#P#, 37, 29600000, 11, 0 

2017-11-08 04:05:11,#P#, 39, 31200000, 12, 0 

2017-11-08 04:05:11,#P#, 38, 30400000, 13, 0 

2017-11-08 04:05:11,#P#, 38, 30400000, 14, 0 

2017-11-08 04:05:11,#P#, 38, 30400000, 15, 0 

2017-11-08 04:05:11,#P#, 39, 31200000, 16, 0 

2017-11-08 04:05:11,#P#, 38, 30400000, 17, 0 

2017-11-08 04:05:11,#P#, 38, 30400000, 18, 0 

2017-11-08 04:05:11,#P#, 38, 30400000, 19, 0 

2017-11-08 04:05:11,#P#, 38, 30400000, 20, 0 

2017-11-08 04:05:12,#P#, 37, 29600000, 21, 0 

2017-11-08 04:05:12,#P#, 38, 30400000, 22, 0 

2017-11-08 04:05:12,#P#, 39, 31200000, 23, 0 

2017-11-08 04:05:12,#P#, 39, 31200000, 24, 0 

2017-11-08 04:05:12,*******DONE*******#

Exiting PsocAmPreRad
#M0E0100120022AMAC_PWR 

2017-11-08 04:05:13, 4d,:e,:1,:12,:0,:22,:22a2 @

2017-11-08 04:05:13,*******Measure AMAC PWR *******

2017-11-08 04:05:13,Bg_Reg, BGO, BG_Ref, NTC_Pwr, AM_Temp, Vdd_Out, AM_VDD/2, Dvdd_in, AM_DVDD/2, Idvdd

2017-11-08 04:05:13,AMAC IN RESET STATE(Reset pulled LOW) 

2017-11-08 04:05:14,
2017-11-08 04:05:14,#H#,0,758,546,354,546,1416,546,1487,136,44 

2017-11-08 04:05:14,AMAC IN NON-RESET STATE (Reset pulled HI) 

2017-11-08 04:05:15,
2017-11-08 04:05:16,#H#,0,751,555,352,486,1408,517,1497,560,37 

2017-11-08 04:05:17,
2017-11-08 04:05:18,#H#,1,741,556,348,492,1393,518,1498,569,36 

2017-11-08 04:05:19,
2017-11-08 04:05:19,#H#,2,732,556,344,498,1376,518,1499,577,35 

2017-11-08 04:05:19, Performing AMAC Register Reset !!

2017-11-08 04:05:20, AM_ResetReg before Reset =,255 

2017-11-08 04:05:20, AM_ResetReg After Reset =,255 

2017-11-08 04:05:21,
2017-11-08 04:05:21,#H#,3,759,441,355,383,1420,409,1497,437,37 

2017-11-08 04:05:22,
2017-11-08 04:05:23,#H#,3,759,440,355,382,1420,409,1497,437,37 

2017-11-08 04:05:24,
2017-11-08 04:05:24,#H#,3,759,440,355,382,1420,409,1497,437,37 

2017-11-08 04:05:25,
2017-11-08 04:05:26,#H#,3,759,440,355,382,1420,409,1497,437,37 

2017-11-08 04:05:27,
2017-11-08 04:05:28,#H#,4,710,557,334,511,1337,519,1501,596,34 

2017-11-08 04:05:29,
2017-11-08 04:05:29,#H#,5,696,557,329,519,1314,519,1503,608,33 

2017-11-08 04:05:30,
2017-11-08 04:05:31,#H#,6,683,557,323,528,1290,519,1504,621,32 

2017-11-08 04:05:32,
2017-11-08 04:05:33,#H#,7,669,557,316,538,1264,520,1506,634,31 

2017-11-08 04:05:34,
2017-11-08 04:05:34,#H#,8,655,558,310,548,1238,520,1507,649,30 

2017-11-08 04:05:35,
2017-11-08 04:05:36,#H#,9,641,559,304,558,1211,520,1508,664,29 

2017-11-08 04:05:37,
2017-11-08 04:05:38,#H#,10,627,559,297,569,1185,521,1510,679,28 

2017-11-08 04:05:39,
2017-11-08 04:05:40,#H#,11,614,544,291,580,1158,521,1511,695,27 

2017-11-08 04:05:41,
2017-11-08 04:05:41,#H#,12,600,575,284,592,1132,522,1513,712,25 

2017-11-08 04:05:42,
2017-11-08 04:05:43,#H#,13,586,560,278,605,1106,522,1514,730,24 

2017-11-08 04:05:44,
2017-11-08 04:05:45,#H#,14,572,561,271,616,1079,523,1516,747,23 

2017-11-08 04:05:46,
2017-11-08 04:05:46,#H#,15,557,562,264,630,1051,524,1517,767,23 

2017-11-08 04:05:47,
2017-11-08 04:05:48,#H#,16,543,562,258,643,1025,524,1518,787,22 

2017-11-08 04:05:49,
2017-11-08 04:05:50,#H#,17,543,561,258,643,1025,524,1518,787,22 

2017-11-08 04:05:50,*******DONE*******#

Exiting PsocAmPreRad
