#P0E0000001900AM_RdFreq

2017-11-08 15:40:00, 50,:e,:0,:0,:19,:0,:a0 @

2017-11-08 15:40:00,*******Measure Period per Event & Freq in MHz*******

2017-11-08 15:40:00,****Period_cnt , Freq, SeqNo, Status,..........

2017-11-08 15:40:00,#P#, 39, 31200000, 0, 0 

2017-11-08 15:40:00,#P#, 38, 30400000, 1, 0 

2017-11-08 15:40:00,#P#, 38, 30400000, 2, 0 

2017-11-08 15:40:00,#P#, 38, 30400000, 3, 0 

2017-11-08 15:40:00,#P#, 38, 30400000, 4, 0 

2017-11-08 15:40:00,#P#, 38, 30400000, 5, 0 

2017-11-08 15:40:00,#P#, 40, 32000000, 6, 0 

2017-11-08 15:40:00,#P#, 39, 31200000, 7, 0 

2017-11-08 15:40:00,#P#, 38, 30400000, 8, 0 

2017-11-08 15:40:00,#P#, 38, 30400000, 9, 0 

2017-11-08 15:40:00,#P#, 38, 30400000, 10, 0 

2017-11-08 15:40:00,#P#, 39, 31200000, 11, 0 

2017-11-08 15:40:00,#P#, 39, 31200000, 12, 0 

2017-11-08 15:40:00,#P#, 39, 31200000, 13, 0 

2017-11-08 15:40:00,#P#, 38, 30400000, 14, 0 

2017-11-08 15:40:00,#P#, 39, 31200000, 15, 0 

2017-11-08 15:40:00,#P#, 39, 31200000, 16, 0 

2017-11-08 15:40:00,#P#, 38, 30400000, 17, 0 

2017-11-08 15:40:00,#P#, 39, 31200000, 18, 0 

2017-11-08 15:40:00,#P#, 38, 30400000, 19, 0 

2017-11-08 15:40:00,#P#, 39, 31200000, 20, 0 

2017-11-08 15:40:00,#P#, 38, 30400000, 21, 0 

2017-11-08 15:40:00,#P#, 39, 31200000, 22, 0 

2017-11-08 15:40:00,#P#, 39, 31200000, 23, 0 

2017-11-08 15:40:00,#P#, 38, 30400000, 24, 0 

2017-11-08 15:40:00,*******DONE*******#

Exiting PsocAmPreRad
#A0E0000002B03AM_RegRW.

2017-11-08 15:40:02, 41,:e,:0,:0,:2b,:3,:3a3 @

2017-11-08 15:40:02,Value:3 was written to AMReg:43 

2017-11-08 15:40:02,*******DONE*******#

Exiting PsocAmPreRad
