#P0E0000001900AM_RdFreq

2017-11-08 09:05:10, 50,:e,:0,:0,:19,:0,:a0 @

2017-11-08 09:05:10,*******Measure Period per Event & Freq in MHz*******

2017-11-08 09:05:10,****Period_cnt , Freq, SeqNo, Status,..........

2017-11-08 09:05:10,#P#, 39, 31200000, 0, 0 

2017-11-08 09:05:11,#P#, 37, 29600000, 1, 0 

2017-11-08 09:05:11,#P#, 38, 30400000, 2, 0 

2017-11-08 09:05:11,#P#, 37, 29600000, 3, 0 

2017-11-08 09:05:11,#P#, 38, 30400000, 4, 0 

2017-11-08 09:05:11,#P#, 37, 29600000, 5, 0 

2017-11-08 09:05:11,#P#, 38, 30400000, 6, 0 

2017-11-08 09:05:11,#P#, 38, 30400000, 7, 0 

2017-11-08 09:05:11,#P#, 38, 30400000, 8, 0 

2017-11-08 09:05:11,#P#, 37, 29600000, 9, 0 

2017-11-08 09:05:11,#P#, 37, 29600000, 10, 0 

2017-11-08 09:05:11,#P#, 38, 30400000, 11, 0 

2017-11-08 09:05:11,#P#, 38, 30400000, 12, 0 

2017-11-08 09:05:11,#P#, 39, 31200000, 13, 0 

2017-11-08 09:05:11,#P#, 38, 30400000, 14, 0 

2017-11-08 09:05:11,#P#, 38, 30400000, 15, 0 

2017-11-08 09:05:11,#P#, 38, 30400000, 16, 0 

2017-11-08 09:05:11,#P#, 37, 29600000, 17, 0 

2017-11-08 09:05:11,#P#, 38, 30400000, 18, 0 

2017-11-08 09:05:11,#P#, 38, 30400000, 19, 0 

2017-11-08 09:05:11,#P#, 38, 30400000, 20, 0 

2017-11-08 09:05:11,#P#, 38, 30400000, 21, 0 

2017-11-08 09:05:11,#P#, 37, 29600000, 22, 0 

2017-11-08 09:05:11,#P#, 37, 29600000, 23, 0 

2017-11-08 09:05:11,#P#, 39, 31200000, 24, 0 

2017-11-08 09:05:11,*******DONE*******#

Exiting PsocAmPreRad
#M0E0100120022AMAC_PWR 

2017-11-08 09:05:12, 4d,:e,:1,:12,:0,:22,:22a2 @

2017-11-08 09:05:12,*******Measure AMAC PWR *******

2017-11-08 09:05:12,Bg_Reg, BGO, BG_Ref, NTC_Pwr, AM_Temp, Vdd_Out, AM_VDD/2, Dvdd_in, AM_DVDD/2, Idvdd

2017-11-08 09:05:12,AMAC IN RESET STATE(Reset pulled LOW) 

2017-11-08 09:05:13,
2017-11-08 09:05:14,#H#,0,758,546,353,546,1416,546,1487,136,44 

2017-11-08 09:05:14,AMAC IN NON-RESET STATE (Reset pulled HI) 

2017-11-08 09:05:15,
2017-11-08 09:05:15,#H#,0,751,556,351,486,1408,517,1497,560,37 

2017-11-08 09:05:16,
2017-11-08 09:05:17,#H#,1,741,556,348,492,1393,518,1498,569,36 

2017-11-08 09:05:18,
2017-11-08 09:05:19,#H#,2,732,557,344,498,1376,518,1499,577,35 

2017-11-08 09:05:19, Performing AMAC Register Reset !!

2017-11-08 09:05:19, AM_ResetReg before Reset =,255 

2017-11-08 09:05:19, AM_ResetReg After Reset =,255 

2017-11-08 09:05:20,
2017-11-08 09:05:21,#H#,3,759,440,355,382,1420,409,1497,437,37 

2017-11-08 09:05:22,
2017-11-08 09:05:22,#H#,3,759,440,355,383,1420,409,1497,437,37 

2017-11-08 09:05:23,
2017-11-08 09:05:24,#H#,3,759,440,355,382,1420,409,1497,437,37 

2017-11-08 09:05:25,
2017-11-08 09:05:25,#H#,3,759,440,355,382,1420,409,1497,437,37 

2017-11-08 09:05:26,
2017-11-08 09:05:27,#H#,4,710,557,334,511,1337,519,1501,597,34 

2017-11-08 09:05:28,
2017-11-08 09:05:29,#H#,5,696,557,329,519,1314,519,1503,608,33 

2017-11-08 09:05:30,
2017-11-08 09:05:30,#H#,6,683,558,322,528,1289,520,1504,621,32 

2017-11-08 09:05:31,
2017-11-08 09:05:32,#H#,7,669,558,316,538,1264,520,1505,635,31 

2017-11-08 09:05:33,
2017-11-08 09:05:34,#H#,8,655,558,310,548,1238,520,1507,650,30 

2017-11-08 09:05:35,
2017-11-08 09:05:35,#H#,9,641,559,303,558,1211,521,1508,664,29 

2017-11-08 09:05:36,
2017-11-08 09:05:37,#H#,10,627,559,297,569,1185,521,1510,680,28 

2017-11-08 09:05:38,
2017-11-08 09:05:39,#H#,11,614,560,290,580,1158,522,1511,696,27 

2017-11-08 09:05:40,
2017-11-08 09:05:41,#H#,12,600,560,284,592,1132,522,1513,713,25 

2017-11-08 09:05:42,
2017-11-08 09:05:42,#H#,13,586,561,277,604,1105,523,1514,730,24 

2017-11-08 09:05:43,
2017-11-08 09:05:44,#H#,14,572,561,271,617,1079,523,1516,748,23 

2017-11-08 09:05:45,
2017-11-08 09:05:46,#H#,15,557,562,264,630,1051,524,1517,768,23 

2017-11-08 09:05:47,
2017-11-08 09:05:47,#H#,16,543,562,257,643,1025,525,1518,788,22 

2017-11-08 09:05:48,
2017-11-08 09:05:49,#H#,17,543,562,257,643,1025,525,1518,788,22 

2017-11-08 09:05:49,*******DONE*******#

Exiting PsocAmPreRad
