#P0E0000001900AM_RdFreq

2017-11-07 07:05:15, 50,:e,:0,:0,:19,:0,:a0 @

2017-11-07 07:05:15,*******Measure Period per Event & Freq in MHz*******

2017-11-07 07:05:15,****Period_cnt , Freq, SeqNo, Status,..........

2017-11-07 07:05:16,#P#, 32, 25600000, 0, 0 

2017-11-07 07:05:16,#P#, 38, 30400000, 1, 0 

2017-11-07 07:05:16,#P#, 39, 31200000, 2, 0 

2017-11-07 07:05:16,#P#, 39, 31200000, 3, 0 

2017-11-07 07:05:16,#P#, 38, 30400000, 4, 0 

2017-11-07 07:05:16,#P#, 38, 30400000, 5, 0 

2017-11-07 07:05:16,#P#, 38, 30400000, 6, 0 

2017-11-07 07:05:16,#P#, 38, 30400000, 7, 0 

2017-11-07 07:05:16,#P#, 39, 31200000, 8, 0 

2017-11-07 07:05:16,#P#, 38, 30400000, 9, 0 

2017-11-07 07:05:16,#P#, 38, 30400000, 10, 0 

2017-11-07 07:05:16,#P#, 38, 30400000, 11, 0 

2017-11-07 07:05:16,#P#, 39, 31200000, 12, 0 

2017-11-07 07:05:16,#P#, 38, 30400000, 13, 0 

2017-11-07 07:05:16,#P#, 38, 30400000, 14, 0 

2017-11-07 07:05:16,#P#, 39, 31200000, 15, 0 

2017-11-07 07:05:16,#P#, 37, 29600000, 16, 0 

2017-11-07 07:05:16,#P#, 38, 30400000, 17, 0 

2017-11-07 07:05:16,#P#, 39, 31200000, 18, 0 

2017-11-07 07:05:16,#P#, 38, 30400000, 19, 0 

2017-11-07 07:05:16,#P#, 38, 30400000, 20, 0 

2017-11-07 07:05:16,#P#, 39, 31200000, 21, 0 

2017-11-07 07:05:16,#P#, 39, 31200000, 22, 0 

2017-11-07 07:05:16,#P#, 38, 30400000, 23, 0 

2017-11-07 07:05:16,#P#, 38, 30400000, 24, 0 

2017-11-07 07:05:16,*******DONE*******#

Exiting PsocAmPreRad
#M0E0100120022AMAC_PWR 

2017-11-07 07:05:17, 4d,:e,:1,:12,:0,:22,:22a2 @

2017-11-07 07:05:17,*******Measure AMAC PWR *******

2017-11-07 07:05:17,Bg_Reg, BGO, BG_Ref, NTC_Pwr, AM_Temp, Vdd_Out, AM_VDD/2, Dvdd_in, AM_DVDD/2, Idvdd

2017-11-07 07:05:17,AMAC IN RESET STATE(Reset pulled LOW) 

2017-11-07 07:05:18,
2017-11-07 07:05:19,#H#,0,758,546,344,546,1416,546,1487,136,44 

2017-11-07 07:05:19,AMAC IN NON-RESET STATE (Reset pulled HI) 

2017-11-07 07:05:20,
2017-11-07 07:05:21,#H#,0,751,556,342,485,1408,518,1497,561,37 

2017-11-07 07:05:22,
2017-11-07 07:05:22,#H#,1,741,557,339,491,1393,518,1498,569,36 

2017-11-07 07:05:23,
2017-11-07 07:05:24,#H#,2,732,557,335,497,1375,519,1499,578,35 

2017-11-07 07:05:24, Performing AMAC Register Reset !!

2017-11-07 07:05:24, AM_ResetReg before Reset =,255 

2017-11-07 07:05:24, AM_ResetReg After Reset =,255 

2017-11-07 07:05:25,
2017-11-07 07:05:26,#H#,3,759,441,345,381,1420,409,1497,438,37 

2017-11-07 07:05:27,
2017-11-07 07:05:27,#H#,3,759,441,345,382,1420,409,1497,438,37 

2017-11-07 07:05:28,
2017-11-07 07:05:29,#H#,3,759,441,345,381,1420,409,1497,438,37 

2017-11-07 07:05:30,
2017-11-07 07:05:30,#H#,3,759,441,345,381,1420,409,1497,438,37 

2017-11-07 07:05:31,
2017-11-07 07:05:32,#H#,4,709,558,325,509,1337,519,1501,597,34 

2017-11-07 07:05:33,
2017-11-07 07:05:34,#H#,5,696,558,320,518,1314,520,1503,609,33 

2017-11-07 07:05:35,
2017-11-07 07:05:35,#H#,6,683,558,314,527,1289,520,1504,621,32 

2017-11-07 07:05:36,
2017-11-07 07:05:37,#H#,7,669,559,308,537,1263,520,1505,636,31 

2017-11-07 07:05:38,
2017-11-07 07:05:39,#H#,8,655,559,301,546,1237,521,1507,651,30 

2017-11-07 07:05:40,
2017-11-07 07:05:40,#H#,9,641,559,295,557,1210,521,1508,665,29 

2017-11-07 07:05:41,
2017-11-07 07:05:42,#H#,10,627,560,289,568,1184,522,1510,681,28 

2017-11-07 07:05:43,
2017-11-07 07:05:44,#H#,11,613,560,283,579,1158,522,1511,697,27 

2017-11-07 07:05:45,
2017-11-07 07:05:46,#H#,12,599,561,276,591,1131,522,1513,713,26 

2017-11-07 07:05:47,
2017-11-07 07:05:47,#H#,13,585,562,270,603,1105,523,1514,732,24 

2017-11-07 07:05:48,
2017-11-07 07:05:49,#H#,14,572,562,264,615,1079,524,1515,749,24 

2017-11-07 07:05:50,
2017-11-07 07:05:51,#H#,15,557,562,257,629,1051,524,1517,769,23 

2017-11-07 07:05:52,
2017-11-07 07:05:52,#H#,16,543,563,251,642,1024,525,1518,789,22 

2017-11-07 07:05:53,
2017-11-07 07:05:54,#H#,17,543,563,251,643,1024,525,1518,788,22 

2017-11-07 07:05:54,*******DONE*******#

Exiting PsocAmPreRad
