#D0E0100340A00AM Ramp .

2017-09-27 13:42:46, 44,:e,:1,:0,:34,:a,:0 @

2017-09-27 13:42:46,*SeqNo,Samples,DAC_Cnt,BGapReg,GainReg,AM_VCal,BGO,Isense0,Isense1

2017-09-27 13:42:46,Vsense,AM_LCh0,AM_RCh0,AM_Rch1,AM_RCh2,AM_LCh3,AM_RCh3

2017-09-27 13:42:47,
2017-09-27 13:42:48,
2017-09-27 13:42:49,#D#,0,0,2500,2500,2500,2500,2500,2500,2500,2500,2500,2500,2500,12,102,1004,2500,2500,2500,2500,28,26,23,20,27,29

2017-09-27 13:42:49,#D#,0,1,2500,2500,2500,2500,2500,2500,2500,2500,2500,2500,2500,12,102,1004,2500,2500,2500,2500,28,26,23,20,27,29

2017-09-27 13:42:49,#D#,0,2,2500,2500,2500,2500,2500,2500,2500,2500,2500,2500,2500,12,102,1004,2500,2500,2500,2500,28,26,23,20,27,29

2017-09-27 13:42:49,#D#,0,3,2500,2500,2500,2500,2500,2500,2500,2500,2500,2500,2500,12,102,1004,2500,2500,2500,2500,28,26,23,20,27,29

2017-09-27 13:42:49,#D#,0,4,2500,2500,2500,2500,2500,2500,2500,2500,2500,2500,2500,12,102,1004,2500,2500,2500,2500,28,26,23,20,27,29

2017-09-27 13:42:49,#D#,0,5,2500,2500,2500,2500,2500,2500,2500,2500,2500,2500,2500,12,102,1004,2500,2500,2500,2500,28,26,23,20,27,29

2017-09-27 13:42:49,#D#,0,6,2500,2500,2500,2500,2500,2500,2500,2500,2500,2500,2500,12,102,1004,2500,2500,2500,2500,28,26,23,20,27,29

2017-09-27 13:42:49,#D#,0,7,2500,2500,2500,2500,2500,2500,2500,2500,2500,2500,2500,12,102,1004,2500,2500,2500,2500,28,26,23,20,27,29

2017-09-27 13:42:49,#D#,0,8,2500,2500,2500,2500,2500,2500,2500,2500,2500,2500,2500,12,102,1004,2500,2500,2500,2500,28,26,23,20,27,29

2017-09-27 13:42:49,#D#,0,9,2500,2500,2500,2500,2500,2500,2500,2500,2500,2500,2500,12,102,1004,2500,2500,2500,2500,28,26,23,20,27,29

2017-09-27 13:42:50,
2017-09-27 13:42:51,
2017-09-27 13:42:52,
2017-09-27 13:42:52,#D#,1,0,2500,2500,2500,2500,2500,2500,2500,2500,2500,2500,2500,12,102,1004,2500,2500,2500,2500,28,26,23,20,27,29

2017-09-27 13:42:52,#D#,1,1,2500,2500,2500,2500,2500,2500,2500,2500,2500,2500,2500,12,102,1004,2500,2500,2500,2500,28,26,23,20,27,29

2017-09-27 13:42:52,#D#,1,2,2500,2500,2500,2500,2500,2500,2500,2500,2500,2500,2500,12,102,1004,2500,2500,2500,2500,28,26,23,20,27,29

2017-09-27 13:42:52,#D#,1,3,2500,2500,2500,2500,2500,2500,2500,2500,2500,2500,2500,12,102,1004,2500,2500,2500,2500,28,26,23,20,27,29

2017-09-27 13:42:52,#D#,1,4,2500,2500,2500,2500,2500,2500,2500,2500,2500,2500,2500,12,102,1004,2500,2500,2500,2500,28,26,23,20,27,29

2017-09-27 13:42:52,#D#,1,5,2500,2500,2500,2500,2500,2500,2500,2500,2500,2500,2500,12,102,1004,2500,2500,2500,2500,28,26,23,20,27,29

2017-09-27 13:42:52,#D#,1,6,2500,2500,2500,2500,2500,2500,2500,2500,2500,2500,2500,12,102,1004,2500,2500,2500,2500,28,26,23,20,27,29

2017-09-27 13:42:52,#D#,1,7,2500,2500,2500,2500,2500,2500,2500,2500,2500,2500,2500,12,102,1004,2500,2500,2500,2500,28,26,23,20,27,29

2017-09-27 13:42:52,#D#,1,8,2500,2500,2500,2500,2500,2500,2500,2500,2500,2500,2500,12,102,1004,2500,2500,2500,2500,28,26,23,20,27,29

2017-09-27 13:42:52,#D#,1,9,2500,2500,2500,2500,2500,2500,2500,2500,2500,2500,2500,12,102,1004,2500,2500,2500,2500,28,26,23,20,27,29

2017-09-27 13:42:53,
2017-09-27 13:42:54,
2017-09-27 13:42:55,
2017-09-27 13:42:55,#D#,2,0,2500,2500,2500,2500,2500,2500,2500,2500,2500,2500,2500,12,102,1004,2500,2500,2500,2500,28,26,23,20,27,29

2017-09-27 13:42:55,#D#,2,1,2500,2500,2500,2500,2500,2500,2500,2500,2500,2500,2500,12,102,1004,2500,2500,2500,2500,28,26,23,20,27,29

2017-09-27 13:42:55,#D#,2,2,2500,2500,2500,2500,2500,2500,2500,2500,2500,2500,2500,12,102,1004,2500,2500,2500,2500,28,26,23,20,27,29

2017-09-27 13:42:55,#D#,2,3,2500,2500,2500,2500,2500,2500,2500,2500,2500,2500,2500,12,102,1004,2500,2500,2500,2500,28,26,23,20,27,29

2017-09-27 13:42:55,#D#,2,4,2500,2500,2500,2500,2500,2500,2500,2500,2500,2500,2500,12,102,1004,2500,2500,2500,2500,28,26,23,20,27,29

2017-09-27 13:42:55,#D#,2,5,2500,2500,2500,2500,2500,2500,2500,2500,2500,2500,2500,12,102,1004,2500,2500,2500,2500,28,26,23,20,27,29

2017-09-27 13:42:55,#D#,2,6,2500,2500,2500,2500,2500,2500,2500,2500,2500,2500,2500,12,102,1004,2500,2500,2500,2500,28,26,23,20,27,29

2017-09-27 13:42:55,#D#,2,7,2500,2500,2500,2500,2500,2500,2500,2500,2500,2500,2500,12,102,1004,2500,2500,2500,2500,28,26,23,20,27,29

2017-09-27 13:42:55,#D#,2,8,2500,2500,2500,2500,2500,2500,2500,2500,2500,2500,2500,12,102,1004,2500,2500,2500,2500,28,26,23,20,27,29

2017-09-27 13:42:55,#D#,2,9,2500,2500,2500,2500,2500,2500,2500,2500,2500,2500,2500,12,102,1004,2500,2500,2500,2500,28,26,23,20,27,29

2017-09-27 13:42:56,
2017-09-27 13:42:57,
2017-09-27 13:42:58,
2017-09-27 13:42:58,#D#,3,0,2500,2500,2500,2500,2500,2500,2500,2500,2500,2500,2500,12,102,1004,2500,2500,2500,2500,29,26,23,20,27,29

2017-09-27 13:42:58,#D#,3,1,2500,2500,2500,2500,2500,2500,2500,2500,2500,2500,2500,12,102,1004,2500,2500,2500,2500,28,26,23,20,27,29

2017-09-27 13:42:58,#D#,3,2,2500,2500,2500,2500,2500,2500,2500,2500,2500,2500,2500,12,102,1004,2500,2500,2500,2500,28,26,23,20,27,29

2017-09-27 13:42:58,#D#,3,3,2500,2500,2500,2500,2500,2500,2500,2500,2500,2500,2500,12,102,1004,2500,2500,2500,2500,28,26,23,20,27,29

2017-09-27 13:42:58,#D#,3,4,2500,2500,2500,2500,2500,2500,2500,2500,2500,2500,2500,12,102,1004,2500,2500,2500,2500,28,26,23,20,27,29

2017-09-27 13:42:58,#D#,3,5,2500,2500,2500,2500,2500,2500,2500,2500,2500,2500,2500,12,102,1004,2500,2500,2500,2500,28,26,23,20,27,29

2017-09-27 13:42:58,#D#,3,6,2500,2500,2500,2500,2500,2500,2500,2500,2500,2500,2500,12,102,1004,2500,2500,2500,2500,28,26,23,20,27,29

2017-09-27 13:42:58,#D#,3,7,2500,2500,2500,2500,2500,2500,2500,2500,2500,2500,2500,12,102,1004,2500,2500,2500,2500,28,26,23,20,27,29

2017-09-27 13:42:58,#D#,3,8,2500,2500,2500,2500,2500,2500,2500,2500,2500,2500,2500,12,102,1004,2500,2500,2500,2500,28,26,23,20,27,29

2017-09-27 13:42:58,#D#,3,9,2500,2500,2500,2500,2500,2500,2500,2500,2500,2500,2500,12,102,1004,2500,2500,2500,2500,28,26,23,20,27,29

2017-09-27 13:42:59,
2017-09-27 13:43:00,
2017-09-27 13:43:01,
2017-09-27 13:43:01,#D#,4,0,2500,2500,2500,2500,2500,2500,2500,2500,2500,2500,2500,12,102,1004,2500,2500,2500,2500,28,26,23,20,27,29

2017-09-27 13:43:01,#D#,4,1,2500,2500,2500,2500,2500,2500,2500,2500,2500,2500,2500,12,102,1004,2500,2500,2500,2500,28,26,23,20,27,29

2017-09-27 13:43:01,#D#,4,2,2500,2500,2500,2500,2500,2500,2500,2500,2500,2500,2500,12,102,1004,2500,2500,2500,2500,28,26,23,20,27,29

2017-09-27 13:43:01,#D#,4,3,2500,2500,2500,2500,2500,2500,2500,2500,2500,2500,2500,12,102,1004,2500,2500,2500,2500,28,26,23,20,27,29

2017-09-27 13:43:01,#D#,4,4,2500,2500,2500,2500,2500,2500,2500,2500,2500,2500,2500,12,102,1004,2500,2500,2500,2500,28,26,23,20,27,29

2017-09-27 13:43:01,#D#,4,5,2500,2500,2500,2500,2500,2500,2500,2500,2500,2500,2500,12,102,1004,2500,2500,2500,2500,28,26,23,20,27,29

2017-09-27 13:43:01,#D#,4,6,2500,2500,2500,2500,2500,2500,2500,2500,2500,2500,2500,12,102,1004,2500,2500,2500,2500,28,26,23,20,27,29

2017-09-27 13:43:01,#D#,4,7,2500,2500,2500,2500,2500,2500,2500,2500,2500,2500,2500,12,102,1004,2500,2500,2500,2500,28,26,23,20,27,29

2017-09-27 13:43:01,#D#,4,8,2500,2500,2500,2500,2500,2500,2500,2500,2500,2500,2500,12,102,1004,2500,2500,2500,2500,28,26,23,20,27,29

2017-09-27 13:43:01,#D#,4,9,2500,2500,2500,2500,2500,2500,2500,2500,2500,2500,2500,12,102,1004,2500,2500,2500,2500,28,26,23,20,27,29

2017-09-27 13:43:02,
2017-09-27 13:43:03,
2017-09-27 13:43:04,
2017-09-27 13:43:04,#D#,5,0,2500,2500,2500,2500,2500,2500,2500,2500,2500,2500,2500,12,102,1004,2500,2500,2500,2500,29,26,24,21,27,29

2017-09-27 13:43:04,#D#,5,1,2500,2500,2500,2500,2500,2500,2500,2500,2500,2500,2500,12,102,1004,2500,2500,2500,2500,29,26,23,20,27,29

2017-09-27 13:43:04,#D#,5,2,2500,2500,2500,2500,2500,2500,2500,2500,2500,2500,2500,12,102,1004,2500,2500,2500,2500,29,26,23,21,27,29

2017-09-27 13:43:04,#D#,5,3,2500,2500,2500,2500,2500,2500,2500,2500,2500,2500,2500,12,102,1004,2500,2500,2500,2500,29,26,23,21,27,29

2017-09-27 13:43:04,#D#,5,4,2500,2500,2500,2500,2500,2500,2500,2500,2500,2500,2500,12,102,1004,2500,2500,2500,2500,29,26,24,21,27,29

2017-09-27 13:43:04,#D#,5,5,2500,2500,2500,2500,2500,2500,2500,2500,2500,2500,2500,12,102,1004,2500,2500,2500,2500,29,26,24,21,27,29

2017-09-27 13:43:04,#D#,5,6,2500,2500,2500,2500,2500,2500,2500,2500,2500,2500,2500,12,102,1004,2500,2500,2500,2500,29,26,24,21,27,29

2017-09-27 13:43:04,#D#,5,7,2500,2500,2500,2500,2500,2500,2500,2500,2500,2500,2500,12,102,1004,2500,2500,2500,2500,29,26,24,21,27,29

2017-09-27 13:43:04,#D#,5,8,2500,2500,2500,2500,2500,2500,2500,2500,2500,2500,2500,12,102,1004,2500,2500,2500,2500,29,26,24,20,27,29

2017-09-27 13:43:05,#D#,5,9,2500,2500,2500,2500,2500,2500,2500,2500,2500,2500,2500,12,102,1004,2500,2500,2500,2500,29,26,23,21,27,29

2017-09-27 13:43:06,
2017-09-27 13:43:07,
2017-09-27 13:43:08,
2017-09-27 13:43:08,#D#,6,0,2500,2500,2500,2500,2500,2500,2500,2500,2500,2500,2500,12,102,1004,2500,2500,2500,2500,29,27,24,21,27,29

2017-09-27 13:43:08,#D#,6,1,2500,2500,2500,2500,2500,2500,2500,2500,2500,2500,2500,12,102,1004,2500,2500,2500,2500,30,27,24,21,27,29

2017-09-27 13:43:08,#D#,6,2,2500,2500,2500,2500,2500,2500,2500,2500,2500,2500,2500,12,102,1004,2500,2500,2500,2500,30,27,24,21,27,29

2017-09-27 13:43:08,#D#,6,3,2500,2500,2500,2500,2500,2500,2500,2500,2500,2500,2500,12,102,1004,2500,2500,2500,2500,30,27,24,21,27,29

2017-09-27 13:43:08,#D#,6,4,2500,2500,2500,2500,2500,2500,2500,2500,2500,2500,2500,12,102,1004,2500,2500,2500,2500,30,27,24,21,27,29

2017-09-27 13:43:08,#D#,6,5,2500,2500,2500,2500,2500,2500,2500,2500,2500,2500,2500,12,102,1004,2500,2500,2500,2500,30,27,24,21,27,29

2017-09-27 13:43:08,#D#,6,6,2500,2500,2500,2500,2500,2500,2500,2500,2500,2500,2500,12,102,1004,2500,2500,2500,2500,30,27,24,21,27,29

2017-09-27 13:43:08,#D#,6,7,2500,2500,2500,2500,2500,2500,2500,2500,2500,2500,2500,12,102,1004,2500,2500,2500,2500,30,27,24,22,27,29

2017-09-27 13:43:08,#D#,6,8,2500,2500,2500,2500,2500,2500,2500,2500,2500,2500,2500,12,102,1004,2500,2500,2500,2500,30,27,24,21,31,29

2017-09-27 13:43:08,#D#,6,9,2500,2500,2500,2500,2500,2500,2500,2500,2500,2500,2500,12,102,1004,2500,2500,2500,2500,30,27,24,21,27,29

2017-09-27 13:43:09,
2017-09-27 13:43:10,
2017-09-27 13:43:11,
2017-09-27 13:43:11,#D#,7,0,2500,2500,2500,2500,2500,2500,2500,2500,2500,2500,2500,12,102,1004,2500,2500,2500,2500,31,28,25,23,31,29

2017-09-27 13:43:11,#D#,7,1,2500,2500,2500,2500,2500,2500,2500,2500,2500,2500,2500,12,102,1004,2500,2500,2500,2500,31,28,25,22,31,29

2017-09-27 13:43:11,#D#,7,2,2500,2500,2500,2500,2500,2500,2500,2500,2500,2500,2500,12,102,1004,2500,2500,2500,2500,31,28,25,22,31,29

2017-09-27 13:43:11,#D#,7,3,2500,2500,2500,2500,2500,2500,2500,2500,2500,2500,2500,12,102,1004,2500,2500,2500,2500,31,28,25,22,31,29

2017-09-27 13:43:11,#D#,7,4,2500,2500,2500,2500,2500,2500,2500,2500,2500,2500,2500,12,102,1004,2500,2500,2500,2500,31,28,25,22,31,29

2017-09-27 13:43:11,#D#,7,5,2500,2500,2500,2500,2500,2500,2500,2500,2500,2500,2500,12,102,1004,2500,2500,2500,2500,31,28,25,22,31,29

2017-09-27 13:43:11,#D#,7,6,2500,2500,2500,2500,2500,2500,2500,2500,2500,2500,2500,12,102,1004,2500,2500,2500,2500,31,28,25,22,31,29

2017-09-27 13:43:11,#D#,7,7,2500,2500,2500,2500,2500,2500,2500,2500,2500,2500,2500,12,102,1004,2500,2500,2500,2500,31,28,25,22,31,29

2017-09-27 13:43:11,#D#,7,8,2500,2500,2500,2500,2500,2500,2500,2500,2500,2500,2500,12,102,1004,2500,2500,2500,2500,31,28,25,22,31,29

2017-09-27 13:43:11,#D#,7,9,2500,2500,2500,2500,2500,2500,2500,2500,2500,2500,2500,12,102,1004,2500,2500,2500,2500,31,28,25,22,31,29

2017-09-27 13:43:12,
2017-09-27 13:43:13,
2017-09-27 13:43:14,
2017-09-27 13:43:14,#D#,8,0,2500,2500,2500,2500,2500,2500,2500,2500,2500,2500,2500,12,102,1004,2500,2500,2500,2500,31,29,26,23,31,29

2017-09-27 13:43:14,#D#,8,1,2500,2500,2500,2500,2500,2500,2500,2500,2500,2500,2500,12,102,1004,2500,2500,2500,2500,31,29,26,23,31,29

2017-09-27 13:43:14,#D#,8,2,2500,2500,2500,2500,2500,2500,2500,2500,2500,2500,2500,12,102,1004,2500,2500,2500,2500,31,29,26,23,31,29

2017-09-27 13:43:14,#D#,8,3,2500,2500,2500,2500,2500,2500,2500,2500,2500,2500,2500,12,102,1004,2500,2500,2500,2500,31,29,26,23,31,29

2017-09-27 13:43:14,#D#,8,4,2500,2500,2500,2500,2500,2500,2500,2500,2500,2500,2500,12,102,1004,2500,2500,2500,2500,32,29,26,23,31,29

2017-09-27 13:43:14,#D#,8,5,2500,2500,2500,2500,2500,2500,2500,2500,2500,2500,2500,12,102,1004,2500,2500,2500,2500,31,29,26,23,31,29

2017-09-27 13:43:14,#D#,8,6,2500,2500,2500,2500,2500,2500,2500,2500,2500,2500,2500,12,102,1004,2500,2500,2500,2500,32,29,26,23,31,29

2017-09-27 13:43:14,#D#,8,7,2500,2500,2500,2500,2500,2500,2500,2500,2500,2500,2500,12,102,1004,2500,2500,2500,2500,32,29,26,23,31,29

2017-09-27 13:43:14,#D#,8,8,2500,2500,2500,2500,2500,2500,2500,2500,2500,2500,2500,12,102,1004,2500,2500,2500,2500,32,29,26,23,31,29

2017-09-27 13:43:14,#D#,8,9,2500,2500,2500,2500,2500,2500,2500,2500,2500,2500,2500,12,102,1004,2500,2500,2500,2500,31,29,26,23,31,29

2017-09-27 13:43:15,
2017-09-27 13:43:16,
2017-09-27 13:43:17,
2017-09-27 13:43:17,#D#,9,0,2500,2500,2500,2500,2500,2500,2500,2500,2500,2500,2500,12,102,1004,2500,2500,2500,2500,32,30,27,24,31,33

2017-09-27 13:43:17,#D#,9,1,2500,2500,2500,2500,2500,2500,2500,2500,2500,2500,2500,12,102,1004,2500,2500,2500,2500,32,30,27,24,31,33

2017-09-27 13:43:17,#D#,9,2,2500,2500,2500,2500,2500,2500,2500,2500,2500,2500,2500,12,102,1004,2500,2500,2500,2500,32,30,27,24,31,33

2017-09-27 13:43:17,#D#,9,3,2500,2500,2500,2500,2500,2500,2500,2500,2500,2500,2500,12,102,1004,2500,2500,2500,2500,32,30,27,24,31,33

2017-09-27 13:43:17,#D#,9,4,2500,2500,2500,2500,2500,2500,2500,2500,2500,2500,2500,12,102,1004,2500,2500,2500,2500,32,30,27,24,31,33

2017-09-27 13:43:17,#D#,9,5,2500,2500,2500,2500,2500,2500,2500,2500,2500,2500,2500,12,102,1004,2500,2500,2500,2500,32,30,27,24,31,33

2017-09-27 13:43:17,#D#,9,6,2500,2500,2500,2500,2500,2500,2500,2500,2500,2500,2500,12,102,1004,2500,2500,2500,2500,32,30,27,24,31,33

2017-09-27 13:43:17,#D#,9,7,2500,2500,2500,2500,2500,2500,2500,2500,2500,2500,2500,12,102,1004,2500,2500,2500,2500,32,30,27,24,31,33

2017-09-27 13:43:17,#D#,9,8,2500,2500,2500,2500,2500,2500,2500,2500,2500,2500,2500,12,102,1004,2500,2500,2500,2500,32,30,27,24,31,33

2017-09-27 13:43:17,#D#,9,9,2500,2500,2500,2500,2500,2500,2500,2500,2500,2500,2500,12,102,1004,2500,2500,2500,2500,32,30,27,24,31,33

2017-09-27 13:43:18,
2017-09-27 13:43:19,
2017-09-27 13:43:20,
2017-09-27 13:43:20,#D#,10,0,2500,2500,2500,2500,2500,2500,2500,2500,2500,2500,2500,12,102,1004,2500,2500,2500,2500,33,31,28,25,31,33

2017-09-27 13:43:20,#D#,10,1,2500,2500,2500,2500,2500,2500,2500,2500,2500,2500,2500,12,102,1004,2500,2500,2500,2500,33,31,28,25,31,33

2017-09-27 13:43:20,#D#,10,2,2500,2500,2500,2500,2500,2500,2500,2500,2500,2500,2500,12,102,1004,2500,2500,2500,2500,33,31,28,25,31,33

2017-09-27 13:43:20,#D#,10,3,2500,2500,2500,2500,2500,2500,2500,2500,2500,2500,2500,12,102,1004,2500,2500,2500,2500,33,31,28,25,31,33

2017-09-27 13:43:20,#D#,10,4,2500,2500,2500,2500,2500,2500,2500,2500,2500,2500,2500,12,102,1004,2500,2500,2500,2500,33,30,28,25,31,33

2017-09-27 13:43:20,#D#,10,5,2500,2500,2500,2500,2500,2500,2500,2500,2500,2500,2500,12,102,1004,2500,2500,2500,2500,33,31,28,25,31,33

2017-09-27 13:43:20,#D#,10,6,2500,2500,2500,2500,2500,2500,2500,2500,2500,2500,2500,12,102,1004,2500,2500,2500,2500,33,31,28,25,31,33

2017-09-27 13:43:20,#D#,10,7,2500,2500,2500,2500,2500,2500,2500,2500,2500,2500,2500,12,102,1004,2500,2500,2500,2500,33,31,28,25,31,33

2017-09-27 13:43:20,#D#,10,8,2500,2500,2500,2500,2500,2500,2500,2500,2500,2500,2500,12,102,1004,2500,2500,2500,2500,33,30,27,25,31,33

2017-09-27 13:43:20,#D#,10,9,2500,2500,2500,2500,2500,2500,2500,2500,2500,2500,2500,12,102,1004,2500,2500,2500,2500,33,31,28,25,31,33

2017-09-27 13:43:21,
2017-09-27 13:43:22,
2017-09-27 13:43:23,
2017-09-27 13:43:23,#D#,11,0,2500,2500,2500,2500,2500,2500,2500,2500,2500,2500,2500,12,102,1004,2500,2500,2500,2500,34,32,29,26,35,33

2017-09-27 13:43:23,#D#,11,1,2500,2500,2500,2500,2500,2500,2500,2500,2500,2500,2500,12,102,1004,2500,2500,2500,2500,34,32,29,26,35,33

2017-09-27 13:43:23,#D#,11,2,2500,2500,2500,2500,2500,2500,2500,2500,2500,2500,2500,12,102,1004,2500,2500,2500,2500,34,32,29,26,35,33

2017-09-27 13:43:23,#D#,11,3,2500,2500,2500,2500,2500,2500,2500,2500,2500,2500,2500,12,102,1004,2500,2500,2500,2500,34,32,29,26,35,33

2017-09-27 13:43:23,#D#,11,4,2500,2500,2500,2500,2500,2500,2500,2500,2500,2500,2500,12,102,1004,2500,2500,2500,2500,34,32,29,26,35,33

2017-09-27 13:43:23,#D#,11,5,2500,2500,2500,2500,2500,2500,2500,2500,2500,2500,2500,12,102,1004,2500,2500,2500,2500,34,32,29,26,35,33

2017-09-27 13:43:23,#D#,11,6,2500,2500,2500,2500,2500,2500,2500,2500,2500,2500,2500,12,102,1004,2500,2500,2500,2500,34,32,29,26,35,33

2017-09-27 13:43:23,#D#,11,7,2500,2500,2500,2500,2500,2500,2500,2500,2500,2500,2500,12,102,1004,2500,2500,2500,2500,34,32,29,26,35,33

2017-09-27 13:43:23,#D#,11,8,2500,2500,2500,2500,2500,2500,2500,2500,2500,2500,2500,12,102,1004,2500,2500,2500,2500,34,32,29,26,35,33

2017-09-27 13:43:23,#D#,11,9,2500,2500,2500,2500,2500,2500,2500,2500,2500,2500,2500,12,102,1004,2500,2500,2500,2500,34,32,29,26,35,33

2017-09-27 13:43:24,
2017-09-27 13:43:25,
2017-09-27 13:43:26,
2017-09-27 13:43:27,#D#,12,0,2500,2500,2500,2500,2500,2500,2500,2500,2500,2500,2500,12,102,1004,2500,2500,2500,2500,35,33,30,27,35,33

2017-09-27 13:43:27,#D#,12,1,2500,2500,2500,2500,2500,2500,2500,2500,2500,2500,2500,12,102,1004,2500,2500,2500,2500,35,33,30,27,35,33

2017-09-27 13:43:27,#D#,12,2,2500,2500,2500,2500,2500,2500,2500,2500,2500,2500,2500,12,102,1004,2500,2500,2500,2500,35,32,30,27,35,33

2017-09-27 13:43:27,#D#,12,3,2500,2500,2500,2500,2500,2500,2500,2500,2500,2500,2500,12,102,1004,2500,2500,2500,2500,35,32,30,27,35,33

2017-09-27 13:43:27,#D#,12,4,2500,2500,2500,2500,2500,2500,2500,2500,2500,2500,2500,12,102,1004,2500,2500,2500,2500,35,32,30,27,35,33

2017-09-27 13:43:27,#D#,12,5,2500,2500,2500,2500,2500,2500,2500,2500,2500,2500,2500,12,102,1004,2500,2500,2500,2500,35,32,30,27,35,33

2017-09-27 13:43:27,#D#,12,6,2500,2500,2500,2500,2500,2500,2500,2500,2500,2500,2500,12,102,1004,2500,2500,2500,2500,35,32,30,27,35,33

2017-09-27 13:43:27,#D#,12,7,2500,2500,2500,2500,2500,2500,2500,2500,2500,2500,2500,12,102,1004,2500,2500,2500,2500,35,32,30,27,35,33

2017-09-27 13:43:27,#D#,12,8,2500,2500,2500,2500,2500,2500,2500,2500,2500,2500,2500,12,102,1004,2500,2500,2500,2500,35,32,30,27,35,33

2017-09-27 13:43:27,#D#,12,9,2500,2500,2500,2500,2500,2500,2500,2500,2500,2500,2500,12,102,1004,2500,2500,2500,2500,35,32,30,27,35,33

2017-09-27 13:43:28,
2017-09-27 13:43:29,
2017-09-27 13:43:30,
2017-09-27 13:43:30,#D#,13,0,2500,2500,2500,2500,2500,2500,2500,2500,2500,2500,2500,12,102,1004,2500,2500,2500,2500,36,33,30,28,35,33

2017-09-27 13:43:30,#D#,13,1,2500,2500,2500,2500,2500,2500,2500,2500,2500,2500,2500,12,102,1004,2500,2500,2500,2500,36,33,30,28,35,37

2017-09-27 13:43:30,#D#,13,2,2500,2500,2500,2500,2500,2500,2500,2500,2500,2500,2500,12,102,1004,2500,2500,2500,2500,36,33,30,27,35,37

2017-09-27 13:43:30,#D#,13,3,2500,2500,2500,2500,2500,2500,2500,2500,2500,2500,2500,12,102,1004,2500,2500,2500,2500,36,33,30,27,35,33

2017-09-27 13:43:30,#D#,13,4,2500,2500,2500,2500,2500,2500,2500,2500,2500,2500,2500,12,102,1004,2500,2500,2500,2500,36,33,30,27,35,37

2017-09-27 13:43:30,#D#,13,5,2500,2500,2500,2500,2500,2500,2500,2500,2500,2500,2500,12,102,1004,2500,2500,2500,2500,36,33,31,28,35,33

2017-09-27 13:43:30,#D#,13,6,2500,2500,2500,2500,2500,2500,2500,2500,2500,2500,2500,12,102,1004,2500,2500,2500,2500,36,33,31,28,35,37

2017-09-27 13:43:30,#D#,13,7,2500,2500,2500,2500,2500,2500,2500,2500,2500,2500,2500,12,102,1004,2500,2500,2500,2500,36,33,31,28,35,33

2017-09-27 13:43:30,#D#,13,8,2500,2500,2500,2500,2500,2500,2500,2500,2500,2500,2500,12,102,1004,2500,2500,2500,2500,36,33,30,27,35,37

2017-09-27 13:43:30,#D#,13,9,2500,2500,2500,2500,2500,2500,2500,2500,2500,2500,2500,12,102,1004,2500,2500,2500,2500,36,33,30,27,35,33

2017-09-27 13:43:31,
2017-09-27 13:43:32,
2017-09-27 13:43:33,
2017-09-27 13:43:33,#D#,14,0,2500,2500,2500,2500,2500,2500,2500,2500,2500,2500,2500,12,102,1004,2500,2500,2500,2500,37,34,31,28,35,37

2017-09-27 13:43:33,#D#,14,1,2500,2500,2500,2500,2500,2500,2500,2500,2500,2500,2500,12,102,1004,2500,2500,2500,2500,37,34,31,28,35,37

2017-09-27 13:43:33,#D#,14,2,2500,2500,2500,2500,2500,2500,2500,2500,2500,2500,2500,12,102,1004,2500,2500,2500,2500,37,34,31,28,35,37

2017-09-27 13:43:33,#D#,14,3,2500,2500,2500,2500,2500,2500,2500,2500,2500,2500,2500,12,102,1004,2500,2500,2500,2500,37,34,31,28,35,37

2017-09-27 13:43:33,#D#,14,4,2500,2500,2500,2500,2500,2500,2500,2500,2500,2500,2500,12,102,1004,2500,2500,2500,2500,37,34,31,28,35,37

2017-09-27 13:43:33,#D#,14,5,2500,2500,2500,2500,2500,2500,2500,2500,2500,2500,2500,12,102,1004,2500,2500,2500,2500,37,34,31,28,35,37

2017-09-27 13:43:33,#D#,14,6,2500,2500,2500,2500,2500,2500,2500,2500,2500,2500,2500,12,102,1004,2500,2500,2500,2500,37,34,31,28,35,37

2017-09-27 13:43:33,#D#,14,7,2500,2500,2500,2500,2500,2500,2500,2500,2500,2500,2500,12,102,1004,2500,2500,2500,2500,37,34,31,28,35,37

2017-09-27 13:43:33,#D#,14,8,2500,2500,2500,2500,2500,2500,2500,2500,2500,2500,2500,12,102,1004,2500,2500,2500,2500,37,34,31,28,35,37

2017-09-27 13:43:33,#D#,14,9,2500,2500,2500,2500,2500,2500,2500,2500,2500,2500,2500,12,102,1004,2500,2500,2500,2500,37,34,31,28,35,37

2017-09-27 13:43:34,
2017-09-27 13:43:35,
2017-09-27 13:43:36,
2017-09-27 13:43:36,#D#,15,0,2500,2500,2500,2500,2500,2500,2500,2500,2500,2500,2500,12,102,1004,2500,2500,2500,2500,38,35,32,29,39,37

2017-09-27 13:43:36,#D#,15,1,2500,2500,2500,2500,2500,2500,2500,2500,2500,2500,2500,12,102,1004,2500,2500,2500,2500,38,35,32,29,39,37

2017-09-27 13:43:36,#D#,15,2,2500,2500,2500,2500,2500,2500,2500,2500,2500,2500,2500,12,102,1004,2500,2500,2500,2500,38,35,32,29,39,37

2017-09-27 13:43:36,#D#,15,3,2500,2500,2500,2500,2500,2500,2500,2500,2500,2500,2500,12,102,1004,2500,2500,2500,2500,38,35,32,29,39,37

2017-09-27 13:43:36,#D#,15,4,2500,2500,2500,2500,2500,2500,2500,2500,2500,2500,2500,12,102,1004,2500,2500,2500,2500,38,35,32,29,39,37

2017-09-27 13:43:36,#D#,15,5,2500,2500,2500,2500,2500,2500,2500,2500,2500,2500,2500,12,102,1004,2500,2500,2500,2500,38,35,32,29,39,37

2017-09-27 13:43:36,#D#,15,6,2500,2500,2500,2500,2500,2500,2500,2500,2500,2500,2500,12,102,1004,2500,2500,2500,2500,38,35,32,29,39,37

2017-09-27 13:43:36,#D#,15,7,2500,2500,2500,2500,2500,2500,2500,2500,2500,2500,2500,12,102,1004,2500,2500,2500,2500,38,35,32,29,39,37

2017-09-27 13:43:36,#D#,15,8,2500,2500,2500,2500,2500,2500,2500,2500,2500,2500,2500,12,102,1004,2500,2500,2500,2500,38,35,32,29,39,37

2017-09-27 13:43:36,#D#,15,9,2500,2500,2500,2500,2500,2500,2500,2500,2500,2500,2500,12,102,1004,2500,2500,2500,2500,38,35,32,29,39,37

2017-09-27 13:43:37,
2017-09-27 13:43:38,
2017-09-27 13:43:39,
2017-09-27 13:43:39,#D#,16,0,2500,2500,2500,2500,2500,2500,2500,2500,2500,2500,2500,12,102,1004,2500,2500,2500,2500,39,36,33,30,39,37

2017-09-27 13:43:39,#D#,16,1,2500,2500,2500,2500,2500,2500,2500,2500,2500,2500,2500,12,102,1004,2500,2500,2500,2500,39,36,33,30,39,37

2017-09-27 13:43:39,#D#,16,2,2500,2500,2500,2500,2500,2500,2500,2500,2500,2500,2500,12,102,1004,2500,2500,2500,2500,39,36,33,30,39,37

2017-09-27 13:43:39,#D#,16,3,2500,2500,2500,2500,2500,2500,2500,2500,2500,2500,2500,12,102,1004,2500,2500,2500,2500,39,36,33,30,39,37

2017-09-27 13:43:39,#D#,16,4,2500,2500,2500,2500,2500,2500,2500,2500,2500,2500,2500,12,102,1004,2500,2500,2500,2500,39,36,33,30,39,37

2017-09-27 13:43:39,#D#,16,5,2500,2500,2500,2500,2500,2500,2500,2500,2500,2500,2500,12,102,1004,2500,2500,2500,2500,39,36,33,30,39,37

2017-09-27 13:43:39,#D#,16,6,2500,2500,2500,2500,2500,2500,2500,2500,2500,2500,2500,12,102,1004,2500,2500,2500,2500,39,36,33,30,39,37

2017-09-27 13:43:39,#D#,16,7,2500,2500,2500,2500,2500,2500,2500,2500,2500,2500,2500,12,102,1004,2500,2500,2500,2500,39,36,33,30,39,37

2017-09-27 13:43:39,#D#,16,8,2500,2500,2500,2500,2500,2500,2500,2500,2500,2500,2500,12,102,1004,2500,2500,2500,2500,39,36,33,30,39,37

2017-09-27 13:43:39,#D#,16,9,2500,2500,2500,2500,2500,2500,2500,2500,2500,2500,2500,12,102,1004,2500,2500,2500,2500,39,36,33,30,39,37

2017-09-27 13:43:40,
2017-09-27 13:43:41,
2017-09-27 13:43:42,
2017-09-27 13:43:42,#D#,17,0,2500,2500,2500,2500,2500,2500,2500,2500,2500,2500,2500,12,102,1004,2500,2500,2500,2500,39,37,34,31,39,37

2017-09-27 13:43:42,#D#,17,1,2500,2500,2500,2500,2500,2500,2500,2500,2500,2500,2500,12,102,1004,2500,2500,2500,2500,39,37,34,31,39,37

2017-09-27 13:43:42,#D#,17,2,2500,2500,2500,2500,2500,2500,2500,2500,2500,2500,2500,12,102,1004,2500,2500,2500,2500,39,37,34,31,39,37

2017-09-27 13:43:42,#D#,17,3,2500,2500,2500,2500,2500,2500,2500,2500,2500,2500,2500,12,102,1004,2500,2500,2500,2500,40,37,34,31,39,37

2017-09-27 13:43:42,#D#,17,4,2500,2500,2500,2500,2500,2500,2500,2500,2500,2500,2500,12,102,1004,2500,2500,2500,2500,40,37,34,31,39,37

2017-09-27 13:43:42,#D#,17,5,2500,2500,2500,2500,2500,2500,2500,2500,2500,2500,2500,12,102,1004,2500,2500,2500,2500,39,37,34,31,39,37

2017-09-27 13:43:42,#D#,17,6,2500,2500,2500,2500,2500,2500,2500,2500,2500,2500,2500,12,102,1004,2500,2500,2500,2500,40,37,34,31,39,37

2017-09-27 13:43:42,#D#,17,7,2500,2500,2500,2500,2500,2500,2500,2500,2500,2500,2500,12,102,1004,2500,2500,2500,2500,39,37,34,31,39,37

2017-09-27 13:43:42,#D#,17,8,2500,2500,2500,2500,2500,2500,2500,2500,2500,2500,2500,12,102,1004,2500,2500,2500,2500,39,37,34,31,39,37

2017-09-27 13:43:42,#D#,17,9,2500,2500,2500,2500,2500,2500,2500,2500,2500,2500,2500,12,102,1004,2500,2500,2500,2500,39,37,34,31,39,37

2017-09-27 13:43:43,
2017-09-27 13:43:44,
2017-09-27 13:43:45,
2017-09-27 13:43:45,#D#,18,0,2500,2500,2500,2500,2500,2500,2500,2500,2500,2500,2500,12,102,1004,2500,2500,2500,2500,40,37,35,32,39,42

2017-09-27 13:43:46,#D#,18,1,2500,2500,2500,2500,2500,2500,2500,2500,2500,2500,2500,12,102,1004,2500,2500,2500,2500,40,38,35,32,39,42

2017-09-27 13:43:46,#D#,18,2,2500,2500,2500,2500,2500,2500,2500,2500,2500,2500,2500,12,102,1004,2500,2500,2500,2500,40,37,35,32,39,42

2017-09-27 13:43:46,#D#,18,3,2500,2500,2500,2500,2500,2500,2500,2500,2500,2500,2500,12,102,1004,2500,2500,2500,2500,40,38,35,32,39,42

2017-09-27 13:43:46,#D#,18,4,2500,2500,2500,2500,2500,2500,2500,2500,2500,2500,2500,12,102,1004,2500,2500,2500,2500,40,37,35,32,39,42

2017-09-27 13:43:46,#D#,18,5,2500,2500,2500,2500,2500,2500,2500,2500,2500,2500,2500,12,102,1004,2500,2500,2500,2500,40,37,35,32,39,42

2017-09-27 13:43:46,#D#,18,6,2500,2500,2500,2500,2500,2500,2500,2500,2500,2500,2500,12,102,1004,2500,2500,2500,2500,40,37,35,32,39,42

2017-09-27 13:43:46,#D#,18,7,2500,2500,2500,2500,2500,2500,2500,2500,2500,2500,2500,12,102,1004,2500,2500,2500,2500,40,37,35,32,39,42

2017-09-27 13:43:46,#D#,18,8,2500,2500,2500,2500,2500,2500,2500,2500,2500,2500,2500,12,102,1004,2500,2500,2500,2500,40,37,35,32,39,42

2017-09-27 13:43:46,#D#,18,9,2500,2500,2500,2500,2500,2500,2500,2500,2500,2500,2500,12,102,1004,2500,2500,2500,2500,40,37,35,32,39,42

2017-09-27 13:43:47,
2017-09-27 13:43:48,
2017-09-27 13:43:49,
2017-09-27 13:43:49,#D#,19,0,2500,2500,2500,2500,2500,2500,2500,2500,2500,2500,2500,12,102,1004,2500,2500,2500,2500,41,39,36,33,39,42

2017-09-27 13:43:49,#D#,19,1,2500,2500,2500,2500,2500,2500,2500,2500,2500,2500,2500,12,102,1004,2500,2500,2500,2500,41,38,36,33,39,42

2017-09-27 13:43:49,#D#,19,2,2500,2500,2500,2500,2500,2500,2500,2500,2500,2500,2500,12,102,1004,2500,2500,2500,2500,42,39,36,33,39,42

2017-09-27 13:43:49,#D#,19,3,2500,2500,2500,2500,2500,2500,2500,2500,2500,2500,2500,12,102,1004,2500,2500,2500,2500,42,39,36,33,39,42

2017-09-27 13:43:49,#D#,19,4,2500,2500,2500,2500,2500,2500,2500,2500,2500,2500,2500,12,102,1004,2500,2500,2500,2500,41,38,36,33,39,42

2017-09-27 13:43:49,#D#,19,5,2500,2500,2500,2500,2500,2500,2500,2500,2500,2500,2500,12,102,1004,2500,2500,2500,2500,41,39,36,33,39,42

2017-09-27 13:43:49,#D#,19,6,2500,2500,2500,2500,2500,2500,2500,2500,2500,2500,2500,12,102,1004,2500,2500,2500,2500,41,39,36,33,39,42

2017-09-27 13:43:49,#D#,19,7,2500,2500,2500,2500,2500,2500,2500,2500,2500,2500,2500,12,102,1004,2500,2500,2500,2500,42,39,36,33,39,42

2017-09-27 13:43:49,#D#,19,8,2500,2500,2500,2500,2500,2500,2500,2500,2500,2500,2500,12,102,1004,2500,2500,2500,2500,41,39,36,33,39,42

2017-09-27 13:43:49,#D#,19,9,2500,2500,2500,2500,2500,2500,2500,2500,2500,2500,2500,12,102,1004,2500,2500,2500,2500,42,39,36,33,39,42

2017-09-27 13:43:50,
2017-09-27 13:43:51,
2017-09-27 13:43:52,
2017-09-27 13:43:52,#D#,20,0,2500,2500,2500,2500,2500,2500,2500,2500,2500,2500,2500,12,102,1004,2500,2500,2500,2500,42,39,37,34,43,42

2017-09-27 13:43:52,#D#,20,1,2500,2500,2500,2500,2500,2500,2500,2500,2500,2500,2500,12,102,1004,2500,2500,2500,2500,42,39,37,34,43,42

2017-09-27 13:43:52,#D#,20,2,2500,2500,2500,2500,2500,2500,2500,2500,2500,2500,2500,12,102,1004,2500,2500,2500,2500,42,39,37,34,43,42

2017-09-27 13:43:52,#D#,20,3,2500,2500,2500,2500,2500,2500,2500,2500,2500,2500,2500,12,102,1004,2500,2500,2500,2500,42,39,37,34,43,42

2017-09-27 13:43:52,#D#,20,4,2500,2500,2500,2500,2500,2500,2500,2500,2500,2500,2500,12,102,1004,2500,2500,2500,2500,42,39,37,34,43,42

2017-09-27 13:43:52,#D#,20,5,2500,2500,2500,2500,2500,2500,2500,2500,2500,2500,2500,12,102,1004,2500,2500,2500,2500,42,39,37,34,43,42

2017-09-27 13:43:52,#D#,20,6,2500,2500,2500,2500,2500,2500,2500,2500,2500,2500,2500,12,102,1004,2500,2500,2500,2500,42,39,36,34,43,42

2017-09-27 13:43:52,#D#,20,7,2500,2500,2500,2500,2500,2500,2500,2500,2500,2500,2500,12,102,1004,2500,2500,2500,2500,42,40,37,34,43,42

2017-09-27 13:43:52,#D#,20,8,2500,2500,2500,2500,2500,2500,2500,2500,2500,2500,2500,12,102,1004,2500,2500,2500,2500,42,40,37,34,43,42

2017-09-27 13:43:52,#D#,20,9,2500,2500,2500,2500,2500,2500,2500,2500,2500,2500,2500,12,102,1004,2500,2500,2500,2500,42,39,37,34,43,42

2017-09-27 13:43:53,
2017-09-27 13:43:54,
2017-09-27 13:43:55,
2017-09-27 13:43:55,#D#,21,0,2500,2500,2500,2500,2500,2500,2500,2500,2500,2500,2500,12,102,1004,2500,2500,2500,2500,43,40,37,34,43,42

2017-09-27 13:43:55,#D#,21,1,2500,2500,2500,2500,2500,2500,2500,2500,2500,2500,2500,12,102,1004,2500,2500,2500,2500,43,40,38,35,43,42

2017-09-27 13:43:55,#D#,21,2,2500,2500,2500,2500,2500,2500,2500,2500,2500,2500,2500,12,102,1004,2500,2500,2500,2500,43,40,37,35,43,42

2017-09-27 13:43:55,#D#,21,3,2500,2500,2500,2500,2500,2500,2500,2500,2500,2500,2500,12,102,1004,2500,2500,2500,2500,43,40,37,35,43,42

2017-09-27 13:43:55,#D#,21,4,2500,2500,2500,2500,2500,2500,2500,2500,2500,2500,2500,12,102,1004,2500,2500,2500,2500,43,40,37,35,43,42

2017-09-27 13:43:55,#D#,21,5,2500,2500,2500,2500,2500,2500,2500,2500,2500,2500,2500,12,102,1004,2500,2500,2500,2500,43,40,38,34,43,42

2017-09-27 13:43:55,#D#,21,6,2500,2500,2500,2500,2500,2500,2500,2500,2500,2500,2500,12,102,1004,2500,2500,2500,2500,43,40,37,35,43,42

2017-09-27 13:43:55,#D#,21,7,2500,2500,2500,2500,2500,2500,2500,2500,2500,2500,2500,12,102,1004,2500,2500,2500,2500,43,40,38,35,43,42

2017-09-27 13:43:55,#D#,21,8,2500,2500,2500,2500,2500,2500,2500,2500,2500,2500,2500,12,102,1004,2500,2500,2500,2500,43,40,38,34,43,42

2017-09-27 13:43:55,#D#,21,9,2500,2500,2500,2500,2500,2500,2500,2500,2500,2500,2500,12,102,1004,2500,2500,2500,2500,43,40,38,35,43,42

2017-09-27 13:43:56,
2017-09-27 13:43:57,
2017-09-27 13:43:58,
2017-09-27 13:43:58,#D#,22,0,2500,2500,2500,2500,2500,2500,2500,2500,2500,2500,2500,12,102,1004,2500,2500,2500,2500,44,41,38,35,43,42

2017-09-27 13:43:58,#D#,22,1,2500,2500,2500,2500,2500,2500,2500,2500,2500,2500,2500,12,102,1004,2500,2500,2500,2500,44,41,38,35,43,42

2017-09-27 13:43:58,#D#,22,2,2500,2500,2500,2500,2500,2500,2500,2500,2500,2500,2500,12,102,1004,2500,2500,2500,2500,44,41,38,35,43,42

2017-09-27 13:43:58,#D#,22,3,2500,2500,2500,2500,2500,2500,2500,2500,2500,2500,2500,12,102,1004,2500,2500,2500,2500,44,41,38,35,43,42

2017-09-27 13:43:58,#D#,22,4,2500,2500,2500,2500,2500,2500,2500,2500,2500,2500,2500,12,102,1004,2500,2500,2500,2500,44,41,38,35,43,42

2017-09-27 13:43:58,#D#,22,5,2500,2500,2500,2500,2500,2500,2500,2500,2500,2500,2500,12,102,1004,2500,2500,2500,2500,44,41,38,35,43,42

2017-09-27 13:43:58,#D#,22,6,2500,2500,2500,2500,2500,2500,2500,2500,2500,2500,2500,12,102,1004,2500,2500,2500,2500,44,41,38,35,43,42

2017-09-27 13:43:58,#D#,22,7,2500,2500,2500,2500,2500,2500,2500,2500,2500,2500,2500,12,102,1004,2500,2500,2500,2500,44,41,38,35,43,42

2017-09-27 13:43:58,#D#,22,8,2500,2500,2500,2500,2500,2500,2500,2500,2500,2500,2500,12,102,1004,2500,2500,2500,2500,44,41,38,35,43,42

2017-09-27 13:43:58,#D#,22,9,2500,2500,2500,2500,2500,2500,2500,2500,2500,2500,2500,12,102,1004,2500,2500,2500,2500,44,41,38,35,43,42

2017-09-27 13:43:59,
2017-09-27 13:44:00,
2017-09-27 13:44:01,
2017-09-27 13:44:02,
2017-09-27 13:44:03,
2017-09-27 13:44:04,
2017-09-27 13:44:05,
2017-09-27 13:44:06,
2017-09-27 13:44:07, BGO Set:0, GAIN Set:0

2017-09-27 13:44:08,
2017-09-27 13:44:09,
2017-09-27 13:44:10,
2017-09-27 13:44:11,
2017-09-27 13:44:12,
2017-09-27 13:44:13,
2017-09-27 13:44:14,
2017-09-27 13:44:15,
2017-09-27 13:44:16,
