#P0E000000C800AM_RdFreq

2017-09-27 16:26:52, 50,:e,:0,:0,:0,:c8,:0 @

2017-09-27 16:26:52,*******Measure Period per Event & Freq in MHz*******

2017-09-27 16:26:52,****Period_cnt , Freq, SeqNo, Status,..........

2017-09-27 16:26:53,
2017-09-27 16:26:54,
2017-09-27 16:26:55,
2017-09-27 16:26:56,
2017-09-27 16:26:57, BGO Set:0, GAIN Set:0

2017-09-27 16:26:58,
2017-09-27 16:26:59,
2017-09-27 16:27:00,
2017-09-27 16:27:01,
2017-09-27 16:27:02,
2017-09-27 16:27:03,
2017-09-27 16:27:04,
2017-09-27 16:27:05,
2017-09-27 16:27:06,
2017-09-27 16:27:07,
2017-09-27 16:27:08,
2017-09-27 16:27:09,
2017-09-27 16:27:10,
2017-09-27 16:27:11,
2017-09-27 16:27:12,
2017-09-27 16:27:13,
2017-09-27 16:27:14,
2017-09-27 16:27:15,
2017-09-27 16:27:16,
2017-09-27 16:27:17,
2017-09-27 16:27:18,
2017-09-27 16:27:19,
2017-09-27 16:27:20,
2017-09-27 16:27:21,
2017-09-27 16:27:22,
2017-09-27 16:27:23,
2017-09-27 16:27:24,
2017-09-27 16:27:25,
2017-09-27 16:27:26,
2017-09-27 16:27:27,
2017-09-27 16:27:28,
2017-09-27 16:27:29,
2017-09-27 16:27:30,
2017-09-27 16:27:31,
2017-09-27 16:27:32,
2017-09-27 16:27:33,
2017-09-27 16:27:34,
2017-09-27 16:27:35,
2017-09-27 16:27:36,
2017-09-27 16:27:37,
2017-09-27 16:27:38,
2017-09-27 16:27:39,
2017-09-27 16:27:40,
2017-09-27 16:27:41,
2017-09-27 16:27:42,
2017-09-27 16:27:43,
2017-09-27 16:27:44,
2017-09-27 16:27:45,
2017-09-27 16:27:46,
2017-09-27 16:27:47,
2017-09-27 16:27:48,
2017-09-27 16:27:49,
2017-09-27 16:27:50,
2017-09-27 16:27:51,
2017-09-27 16:27:52,
2017-09-27 16:27:53,
2017-09-27 16:27:54,
2017-09-27 16:27:55,
2017-09-27 16:27:56,
2017-09-27 16:27:57,
2017-09-27 16:27:58,
2017-09-27 16:27:59,
2017-09-27 16:28:00,
2017-09-27 16:28:01,
2017-09-27 16:28:02,
2017-09-27 16:28:03,
2017-09-27 16:28:04,
2017-09-27 16:28:05,
2017-09-27 16:28:06,
2017-09-27 16:28:07,
2017-09-27 16:28:08,
2017-09-27 16:28:09,
2017-09-27 16:28:10,
2017-09-27 16:28:11,
2017-09-27 16:28:12,
2017-09-27 16:28:13,
2017-09-27 16:28:14,
2017-09-27 16:28:15,
2017-09-27 16:28:16,
2017-09-27 16:28:17,
2017-09-27 16:28:18,
2017-09-27 16:28:19,
2017-09-27 16:28:20,
2017-09-27 16:28:21,
2017-09-27 16:28:22,
2017-09-27 16:28:23,
2017-09-27 16:28:24,
2017-09-27 16:28:25,
2017-09-27 16:28:26,
2017-09-27 16:28:27,
2017-09-27 16:28:28,
2017-09-27 16:28:29,
2017-09-27 16:28:30,
2017-09-27 16:28:31,
2017-09-27 16:28:32,
2017-09-27 16:28:33,
2017-09-27 16:28:34,
2017-09-27 16:28:35,
2017-09-27 16:28:36,
2017-09-27 16:28:37,
