#F0E00000000FFSet_VDAC.

2017-09-27 19:11:28, 46,:e,:0,:0,:0,:0,:ff @

2017-09-27 19:11:29,
2017-09-27 19:11:29,24,13,21,20,23,21,257,257,581,541,89,88,0,0 

2017-09-27 19:11:29,RegData:ff,Isense0:103,Isense1:103

2017-09-27 19:11:29,*******DONE*******#

Exiting PsocAmPreRad
