#P0E000000C800AM_RdFreq

2017-09-27 16:25:45, 50,:e,:0,:0,:0,:c8,:0 @

2017-09-27 16:25:46,*******Measure Period per Event & Freq in MHz*******

2017-09-27 16:25:46,****Period_cnt , Freq, SeqNo, Status,..........

2017-09-27 16:25:47,
2017-09-27 16:25:48,
2017-09-27 16:25:49,
2017-09-27 16:25:50,
2017-09-27 16:25:50, BGO Set:0, GAIN Set:0

2017-09-27 16:25:51,
2017-09-27 16:25:52,
2017-09-27 16:25:53,
2017-09-27 16:25:54,
2017-09-27 16:25:55,
2017-09-27 16:25:56,
2017-09-27 16:25:57,
2017-09-27 16:25:58,
2017-09-27 16:25:59,
2017-09-27 16:26:00,
2017-09-27 16:26:01,
2017-09-27 16:26:02,
2017-09-27 16:26:03,
2017-09-27 16:26:04,
2017-09-27 16:26:05,
2017-09-27 16:26:06,
