2017-09-21 18:58:12, 50,:e,:0,:0,:0,:c8,:0 @

2017-09-21 18:58:12,*******Measure Period per Event & Freq in MHz*******

2017-09-21 18:58:12,****Period_cnt , Freq, SeqNo, Status,..........

2017-09-21 18:58:12,#P#, 37, 29600000, 0, 0 

2017-09-21 18:58:12,#P#, 37, 29600000, 1, 0 

2017-09-21 18:58:12,#P#, 37, 29600000, 2, 0 

2017-09-21 18:58:12,#P#, 36, 28800000, 3, 0 

2017-09-21 18:58:12,#P#, 37, 29600000, 4, 0 

2017-09-21 18:58:12,#P#, 37, 29600000, 5, 0 

2017-09-21 18:58:12,#P#, 37, 29600000, 6, 0 

2017-09-21 18:58:12,#P#, 38, 30400000, 7, 0 

2017-09-21 18:58:12,#P#, 37, 29600000, 8, 0 

2017-09-21 18:58:12,#P#, 37, 29600000, 9, 0 

2017-09-21 18:58:12,#P#, 36, 28800000, 10, 0 

2017-09-21 18:58:12,#P#, 37, 29600000, 11, 0 

2017-09-21 18:58:12,#P#, 36, 28800000, 12, 0 

2017-09-21 18:58:12,#P#, 37, 29600000, 13, 0 

2017-09-21 18:58:12,#P#, 38, 30400000, 14, 0 

2017-09-21 18:58:12,#P#, 37, 29600000, 15, 0 

2017-09-21 18:58:12,#P#, 36, 28800000, 16, 0 

2017-09-21 18:58:12,#P#, 37, 29600000, 17, 0 

2017-09-21 18:58:12,#P#, 37, 29600000, 18, 0 

2017-09-21 18:58:12,#P#, 37, 29600000, 19, 0 

2017-09-21 18:58:12,#P#, 38, 30400000, 20, 0 

2017-09-21 18:58:12,#P#, 36, 28800000, 21, 0 

2017-09-21 18:58:12,#P#, 38, 30400000, 22, 0 

2017-09-21 18:58:12,#P#, 36, 28800000, 23, 0 

2017-09-21 18:58:12,#P#, 36, 28800000, 24, 0 

2017-09-21 18:58:12,#P#, 37, 29600000, 25, 0 

2017-09-21 18:58:12,#P#, 37, 29600000, 26, 0 

2017-09-21 18:58:12,#P#, 36, 28800000, 27, 0 

2017-09-21 18:58:12,#P#, 36, 28800000, 28, 0 

2017-09-21 18:58:12,#P#, 36, 28800000, 29, 0 

2017-09-21 18:58:12,#P#, 37, 29600000, 30, 0 

2017-09-21 18:58:12,#P#, 37, 29600000, 31, 0 

2017-09-21 18:58:12,#P#, 37, 29600000, 32, 0 

2017-09-21 18:58:12,#P#, 36, 28800000, 33, 0 

2017-09-21 18:58:12,#P#, 36, 28800000, 34, 0 

2017-09-21 18:58:12,#P#, 37, 29600000, 35, 0 

2017-09-21 18:58:12,#P#, 37, 29600000, 36, 0 

2017-09-21 18:58:12,#P#, 36, 28800000, 37, 0 

2017-09-21 18:58:12,#P#, 37, 29600000, 38, 0 

2017-09-21 18:58:12,#P#, 37, 29600000, 39, 0 

2017-09-21 18:58:12,#P#, 36, 28800000, 40, 0 

2017-09-21 18:58:12,#P#, 37, 29600000, 41, 0 

2017-09-21 18:58:12,#P#, 38, 30400000, 42, 0 

2017-09-21 18:58:12,#P#, 37, 29600000, 43, 0 

2017-09-21 18:58:12,#P#, 37, 29600000, 44, 0 

2017-09-21 18:58:12,#P#, 37, 29600000, 45, 0 

2017-09-21 18:58:13,#P#, 37, 29600000, 46, 0 

2017-09-21 18:58:13,#P#, 38, 30400000, 47, 0 

2017-09-21 18:58:13,#P#, 38, 30400000, 48, 0 

2017-09-21 18:58:13,#P#, 37, 29600000, 49, 0 

2017-09-21 18:58:13,#P#, 38, 30400000, 50, 0 

2017-09-21 18:58:13,#P#, 37, 29600000, 51, 0 

2017-09-21 18:58:13,#P#, 37, 29600000, 52, 0 

2017-09-21 18:58:13,#P#, 36, 28800000, 53, 0 

2017-09-21 18:58:13,#P#, 36, 28800000, 54, 0 

2017-09-21 18:58:13,#P#, 36, 28800000, 55, 0 

2017-09-21 18:58:13,#P#, 36, 28800000, 56, 0 

2017-09-21 18:58:13,#P#, 37, 29600000, 57, 0 

2017-09-21 18:58:13,#P#, 38, 30400000, 58, 0 

2017-09-21 18:58:13,#P#, 36, 28800000, 59, 0 

2017-09-21 18:58:13,#P#, 37, 29600000, 60, 0 

2017-09-21 18:58:13,#P#, 37, 29600000, 61, 0 

2017-09-21 18:58:13,#P#, 36, 28800000, 62, 0 

2017-09-21 18:58:13,#P#, 36, 28800000, 63, 0 

2017-09-21 18:58:13,#P#, 37, 29600000, 64, 0 

2017-09-21 18:58:13,#P#, 37, 29600000, 65, 0 

2017-09-21 18:58:13,#P#, 37, 29600000, 66, 0 

2017-09-21 18:58:13,#P#, 37, 29600000, 67, 0 

2017-09-21 18:58:13,#P#, 37, 29600000, 68, 0 

2017-09-21 18:58:13,#P#, 37, 29600000, 69, 0 

2017-09-21 18:58:13,#P#, 36, 28800000, 70, 0 

2017-09-21 18:58:13,#P#, 37, 29600000, 71, 0 

2017-09-21 18:58:13,#P#, 37, 29600000, 72, 0 

2017-09-21 18:58:13,#P#, 36, 28800000, 73, 0 

2017-09-21 18:58:13,#P#, 36, 28800000, 74, 0 

2017-09-21 18:58:13,#P#, 37, 29600000, 75, 0 

2017-09-21 18:58:13,#P#, 37, 29600000, 76, 0 

2017-09-21 18:58:13,#P#, 37, 29600000, 77, 0 

2017-09-21 18:58:13,#P#, 37, 29600000, 78, 0 

2017-09-21 18:58:13,#P#, 38, 30400000, 79, 0 

2017-09-21 18:58:13,#P#, 36, 28800000, 80, 0 

2017-09-21 18:58:13,#P#, 36, 28800000, 81, 0 

2017-09-21 18:58:13,#P#, 36, 28800000, 82, 0 

2017-09-21 18:58:13,#P#, 37, 29600000, 83, 0 

2017-09-21 18:58:13,#P#, 37, 29600000, 84, 0 

2017-09-21 18:58:13,#P#, 36, 28800000, 85, 0 

2017-09-21 18:58:13,#P#, 37, 29600000, 86, 0 

2017-09-21 18:58:13,#P#, 38, 30400000, 87, 0 

2017-09-21 18:58:13,#P#, 36, 28800000, 88, 0 

2017-09-21 18:58:13,#P#, 37, 29600000, 89, 0 

2017-09-21 18:58:13,#P#, 36, 28800000, 90, 0 

2017-09-21 18:58:13,#P#, 37, 29600000, 91, 0 

2017-09-21 18:58:13,#P#, 36, 28800000, 92, 0 

2017-09-21 18:58:13,#P#, 36, 28800000, 93, 0 

2017-09-21 18:58:13,#P#, 37, 29600000, 94, 0 

2017-09-21 18:58:13,#P#, 37, 29600000, 95, 0 

2017-09-21 18:58:13,#P#, 37, 29600000, 96, 0 

2017-09-21 18:58:13,#P#, 37, 29600000, 97, 0 

2017-09-21 18:58:13,#P#, 38, 30400000, 98, 0 

2017-09-21 18:58:13,#P#, 36, 28800000, 99, 0 

2017-09-21 18:58:13,#P#, 36, 28800000, 100, 0 

2017-09-21 18:58:13,#P#, 36, 28800000, 101, 0 

2017-09-21 18:58:13,#P#, 37, 29600000, 102, 0 

2017-09-21 18:58:13,#P#, 37, 29600000, 103, 0 

2017-09-21 18:58:13,#P#, 36, 28800000, 104, 0 

2017-09-21 18:58:13,#P#, 37, 29600000, 105, 0 

2017-09-21 18:58:13,#P#, 37, 29600000, 106, 0 

2017-09-21 18:58:13,#P#, 36, 28800000, 107, 0 

2017-09-21 18:58:13,#P#, 37, 29600000, 108, 0 

2017-09-21 18:58:13,#P#, 38, 30400000, 109, 0 

2017-09-21 18:58:13,#P#, 37, 29600000, 110, 0 

2017-09-21 18:58:13,#P#, 36, 28800000, 111, 0 

2017-09-21 18:58:13,#P#, 37, 29600000, 112, 0 

2017-09-21 18:58:13,#P#, 36, 28800000, 113, 0 

2017-09-21 18:58:13,#P#, 37, 29600000, 114, 0 

2017-09-21 18:58:13,#P#, 37, 29600000, 115, 0 

2017-09-21 18:58:13,#P#, 38, 30400000, 116, 0 

2017-09-21 18:58:13,#P#, 37, 29600000, 117, 0 

2017-09-21 18:58:13,#P#, 38, 30400000, 118, 0 

2017-09-21 18:58:13,#P#, 37, 29600000, 119, 0 

2017-09-21 18:58:13,#P#, 38, 30400000, 120, 0 

2017-09-21 18:58:13,#P#, 37, 29600000, 121, 0 

2017-09-21 18:58:13,#P#, 37, 29600000, 122, 0 

2017-09-21 18:58:13,#P#, 36, 28800000, 123, 0 

2017-09-21 18:58:13,#P#, 37, 29600000, 124, 0 

2017-09-21 18:58:13,#P#, 36, 28800000, 125, 0 

2017-09-21 18:58:13,#P#, 36, 28800000, 126, 0 

2017-09-21 18:58:13,#P#, 38, 30400000, 127, 0 

2017-09-21 18:58:13,#P#, 36, 28800000, 128, 0 

2017-09-21 18:58:13,#P#, 36, 28800000, 129, 0 

2017-09-21 18:58:13,#P#, 37, 29600000, 130, 0 

2017-09-21 18:58:13,#P#, 36, 28800000, 131, 0 

2017-09-21 18:58:13,#P#, 37, 29600000, 132, 0 

2017-09-21 18:58:13,#P#, 38, 30400000, 133, 0 

2017-09-21 18:58:13,#P#, 37, 29600000, 134, 0 

2017-09-21 18:58:13,#P#, 37, 29600000, 135, 0 

2017-09-21 18:58:13,#P#, 36, 28800000, 136, 0 

2017-09-21 18:58:13,#P#, 37, 29600000, 137, 0 

2017-09-21 18:58:13,#P#, 37, 29600000, 138, 0 

2017-09-21 18:58:13,#P#, 37, 29600000, 139, 0 

2017-09-21 18:58:13,#P#, 37, 29600000, 140, 0 

2017-09-21 18:58:13,#P#, 36, 28800000, 141, 0 

2017-09-21 18:58:13,#P#, 36, 28800000, 142, 0 

2017-09-21 18:58:13,#P#, 36, 28800000, 143, 0 

2017-09-21 18:58:13,#P#, 37, 29600000, 144, 0 

2017-09-21 18:58:13,#P#, 37, 29600000, 145, 0 

2017-09-21 18:58:13,#P#, 37, 29600000, 146, 0 

2017-09-21 18:58:13,#P#, 36, 28800000, 147, 0 

2017-09-21 18:58:13,#P#, 37, 29600000, 148, 0 

2017-09-21 18:58:13,#P#, 36, 28800000, 149, 0 

2017-09-21 18:58:13,#P#, 36, 28800000, 150, 0 

2017-09-21 18:58:13,#P#, 36, 28800000, 151, 0 

2017-09-21 18:58:13,#P#, 37, 29600000, 152, 0 

2017-09-21 18:58:13,#P#, 36, 28800000, 153, 0 

2017-09-21 18:58:13,#P#, 37, 29600000, 154, 0 

2017-09-21 18:58:13,#P#, 37, 29600000, 155, 0 

2017-09-21 18:58:13,#P#, 36, 28800000, 156, 0 

2017-09-21 18:58:13,#P#, 37, 29600000, 157, 0 

2017-09-21 18:58:13,#P#, 36, 28800000, 158, 0 

2017-09-21 18:58:13,#P#, 37, 29600000, 159, 0 

2017-09-21 18:58:14,#P#, 37, 29600000, 160, 0 

2017-09-21 18:58:14,#P#, 36, 28800000, 161, 0 

2017-09-21 18:58:14,#P#, 38, 30400000, 162, 0 

2017-09-21 18:58:14,#P#, 37, 29600000, 163, 0 

2017-09-21 18:58:14,#P#, 37, 29600000, 164, 0 

2017-09-21 18:58:14,#P#, 37, 29600000, 165, 0 

2017-09-21 18:58:14,#P#, 38, 30400000, 166, 0 

2017-09-21 18:58:14,#P#, 36, 28800000, 167, 0 

2017-09-21 18:58:14,#P#, 37, 29600000, 168, 0 

2017-09-21 18:58:14,#P#, 37, 29600000, 169, 0 

2017-09-21 18:58:14,#P#, 37, 29600000, 170, 0 

2017-09-21 18:58:14,#P#, 37, 29600000, 171, 0 

2017-09-21 18:58:14,#P#, 36, 28800000, 172, 0 

2017-09-21 18:58:14,#P#, 36, 28800000, 173, 0 

2017-09-21 18:58:14,#P#, 37, 29600000, 174, 0 

2017-09-21 18:58:14,#P#, 37, 29600000, 175, 0 

2017-09-21 18:58:14,#P#, 36, 28800000, 176, 0 

2017-09-21 18:58:14,#P#, 36, 28800000, 177, 0 

2017-09-21 18:58:14,#P#, 37, 29600000, 178, 0 

2017-09-21 18:58:14,#P#, 37, 29600000, 179, 0 

2017-09-21 18:58:14,#P#, 37, 29600000, 180, 0 

2017-09-21 18:58:14,#P#, 38, 30400000, 181, 0 

2017-09-21 18:58:14,#P#, 37, 29600000, 182, 0 

2017-09-21 18:58:14,#P#, 36, 28800000, 183, 0 

2017-09-21 18:58:14,#P#, 36, 28800000, 184, 0 

2017-09-21 18:58:14,#P#, 37, 29600000, 185, 0 

2017-09-21 18:58:14,#P#, 37, 29600000, 186, 0 

2017-09-21 18:58:14,#P#, 37, 29600000, 187, 0 

2017-09-21 18:58:14,#P#, 37, 29600000, 188, 0 

2017-09-21 18:58:14,#P#, 36, 28800000, 189, 0 

2017-09-21 18:58:14,#P#, 36, 28800000, 190, 0 

2017-09-21 18:58:14,#P#, 36, 28800000, 191, 0 

2017-09-21 18:58:14,#P#, 36, 28800000, 192, 0 

2017-09-21 18:58:14,#P#, 36, 28800000, 193, 0 

2017-09-21 18:58:14,#P#, 36, 28800000, 194, 0 

2017-09-21 18:58:14,#P#, 37, 29600000, 195, 0 

2017-09-21 18:58:14,#P#, 38, 30400000, 196, 0 

2017-09-21 18:58:14,#P#, 37, 29600000, 197, 0 

2017-09-21 18:58:14,#P#, 38, 30400000, 198, 0 

2017-09-21 18:58:14,#P#, 37, 29600000, 199, 0 

2017-09-21 18:58:14,*******DONE*******#

Exiting PsocAmPreRad2017-09-21 18:58:15, 47,:e,:0,:0,:0,:13,:0 @

2017-09-21 18:58:15,BandGap,VbandGap,AmacGain,AM_Isense0,AM_Isense1,AM_Vsense

2017-09-21 18:58:15,AM_LCh0,AM_RCh0,AM_Rch1,AM_RCh2,AM_LCh3,AM_RCh3

2017-09-21 18:58:16,
2017-09-21 18:58:17,
2017-09-21 18:58:18,#G#,0,724,68,30,30,0,81,78,76,74,78,80

2017-09-21 18:58:19,#G#,0,724,68,30,30,201,143,140,137,136,142,138

2017-09-21 18:58:19,#G#,0,724,68,30,30,399,265,261,259,258,264,264

2017-09-21 18:58:20,#G#,0,724,68,30,30,597,389,383,382,381,390,385

2017-09-21 18:58:20,#G#,0,724,68,30,30,796,512,505,504,504,512,506

2017-09-21 18:58:21,#G#,0,724,68,30,30,994,636,626,627,627,638,624

2017-09-21 18:58:21,#G#,0,724,68,30,30,1192,762,750,750,751,761,749

2017-09-21 18:58:21,0,724,68,000,571,459,462,464,469,456,OACS:480 

2017-09-21 18:58:22,#G#,0,724,85,30,30,101,176,164,160,156,169,168

2017-09-21 18:58:23,#G#,0,724,85,30,30,201,313,295,291,287,307,297

2017-09-21 18:58:23,#G#,0,724,85,30,30,399,584,565,549,546,579,556

2017-09-21 18:58:24,#G#,0,724,85,30,30,597,857,811,809,807,855,813

2017-09-21 18:58:24,#G#,0,724,85,30,30,796,1101,1071,1070,1069,1097,1071

2017-09-21 18:58:25,#G#,0,724,85,30,30,994,1108,1078,1077,1076,1104,1078

2017-09-21 18:58:25,#G#,0,724,85,30,30,1192,1114,1084,1083,1082,1110,1084

2017-09-21 18:58:25,0,724,85,000,996,952,955,958,977,947,OACS:964 

2017-09-21 18:58:25,AM_BGap:0,AM_Gain:85,AM_Slope:964,Percentage:964

2017-09-21 18:58:26,#G#,0,724,102,30,30,101,112,107,104,102,109,110

2017-09-21 18:58:26,#G#,0,724,102,30,30,201,198,191,189,186,195,194

2017-09-21 18:58:27,#G#,0,724,102,30,30,399,369,359,356,354,369,360

2017-09-21 18:58:28,#G#,0,724,102,30,30,597,542,525,524,523,539,526

2017-09-21 18:58:28,#G#,0,724,102,30,30,796,713,693,693,692,712,693

2017-09-21 18:58:29,#G#,0,724,102,30,30,994,873,847,848,848,872,847

2017-09-21 18:58:29,#G#,0,724,102,30,30,1192,1033,1003,1004,1004,1033,1000

2017-09-21 18:58:29,0,724,102,000,1011,849,854,855,875,846,OACS:881 

2017-09-21 18:58:30,#G#,0,724,119,30,30,101,104,100,98,95,99,103

2017-09-21 18:58:30,#G#,0,724,119,30,30,201,184,178,176,174,179,179

2017-09-21 18:58:31,#G#,0,724,119,30,30,399,343,334,332,330,340,336

2017-09-21 18:58:31,#G#,0,724,119,30,30,597,503,489,488,487,501,494

2017-09-21 18:58:32,#G#,0,724,119,30,30,796,662,646,645,645,661,647

2017-09-21 18:58:32,#G#,0,724,119,30,30,994,822,801,802,802,821,799

2017-09-21 18:58:33,#G#,0,724,119,30,30,1192,983,958,959,960,981,958

2017-09-21 18:58:33,0,724,119,000,973,794,798,801,818,788,OACS:828 

2017-09-21 18:58:34,
2017-09-21 18:58:34,#G#,1,716,68,30,30,101,82,79,78,75,83,80

2017-09-21 18:58:35,#G#,1,716,68,30,30,201,144,142,140,137,146,143

2017-09-21 18:58:35,#G#,1,716,68,30,30,399,281,264,262,261,268,268

2017-09-21 18:58:36,#G#,1,716,68,30,30,597,393,387,386,385,394,389

2017-09-21 18:58:36,#G#,1,716,68,30,30,796,519,511,510,510,521,511

2017-09-21 18:58:37,#G#,1,716,68,30,30,994,644,633,634,634,644,632

2017-09-21 18:58:37,#G#,1,716,68,30,30,1192,771,758,759,760,773,758

2017-09-21 18:58:37,1,716,68,000,630,517,518,521,523,516,OACS:537 

2017-09-21 18:58:38,#G#,1,716,85,30,30,101,177,166,162,157,173,169

2017-09-21 18:58:39,#G#,1,716,85,30,30,201,316,297,293,289,311,298

2017-09-21 18:58:39,#G#,1,716,85,30,30,399,590,557,553,551,587,560

2017-09-21 18:58:40,#G#,1,716,85,30,30,597,866,818,816,814,863,823

2017-09-21 18:58:40,#G#,1,716,85,30,30,796,1074,1081,1080,1078,1102,1081

2017-09-21 18:58:41,#G#,1,716,85,30,30,994,1081,1088,1087,1086,1108,1088

2017-09-21 18:58:41,#G#,1,716,85,30,30,1192,1087,1094,1093,1092,1115,1094

2017-09-21 18:58:41,1,716,85,000,984,969,971,976,986,964,OACS:975 

2017-09-21 18:58:41,AM_BGap:1,AM_Gain:85,AM_Slope:975,Percentage:975

2017-09-21 18:58:42,#G#,1,716,102,30,30,101,113,108,105,103,112,111

2017-09-21 18:58:42,#G#,1,716,102,30,30,201,200,193,191,188,199,194

2017-09-21 18:58:43,#G#,1,716,102,30,30,399,374,361,359,358,374,365

2017-09-21 18:58:43,#G#,1,716,102,30,30,597,548,531,529,528,548,531

2017-09-21 18:58:44,#G#,1,716,102,30,30,796,719,701,700,699,721,703

2017-09-21 18:58:45,#G#,1,716,102,30,30,994,881,856,857,857,881,856

2017-09-21 18:58:45,#G#,1,716,102,30,30,1192,1043,1013,1014,1015,1044,1013

2017-09-21 18:58:45,1,716,102,000,1017,860,864,866,882,855,OACS:890 

2017-09-21 18:58:46,#G#,1,716,119,30,30,101,105,101,98,96,103,103

2017-09-21 18:58:46,#G#,1,716,119,30,30,201,186,180,178,176,184,183

2017-09-21 18:58:47,#G#,1,716,119,30,30,399,347,337,335,333,344,340

2017-09-21 18:58:47,#G#,1,716,119,30,30,597,508,495,494,493,505,498

2017-09-21 18:58:48,#G#,1,716,119,30,30,796,670,653,653,652,668,651

2017-09-21 18:58:48,#G#,1,716,119,30,30,994,831,810,811,811,830,808

2017-09-21 18:58:49,#G#,1,716,119,30,30,1192,994,969,970,971,993,969

2017-09-21 18:58:49,1,716,119,000,983,804,809,811,825,800,OACS:838 

2017-09-21 18:58:50,
2017-09-21 18:58:50,#G#,2,708,68,30,30,101,83,80,78,76,83,80

2017-09-21 18:58:51,#G#,2,708,68,30,30,201,146,143,141,139,146,143

2017-09-21 18:58:51,#G#,2,708,68,30,30,399,272,267,266,264,272,268

2017-09-21 18:58:52,#G#,2,708,68,30,30,597,398,392,391,390,398,394

2017-09-21 18:58:52,#G#,2,708,68,30,30,796,526,517,516,516,525,520

2017-09-21 18:58:53,#G#,2,708,68,30,30,994,652,642,642,643,651,642

2017-09-21 18:58:53,#G#,2,708,68,30,30,1192,781,768,769,769,782,767

2017-09-21 18:58:53,2,708,68,000,638,524,526,528,529,524,OACS:544 

2017-09-21 18:58:54,#G#,2,708,85,30,30,101,179,167,163,159,174,169

2017-09-21 18:58:55,#G#,2,708,85,30,30,201,319,301,296,292,316,302

2017-09-21 18:58:55,#G#,2,708,85,30,30,399,596,562,559,557,592,562

2017-09-21 18:58:56,#G#,2,708,85,30,30,597,876,826,824,822,872,828

2017-09-21 18:58:56,#G#,2,708,85,30,30,796,1085,1091,1090,1089,1081,1094

2017-09-21 18:58:57,#G#,2,708,85,30,30,994,1092,1098,1098,1097,1087,1102

2017-09-21 18:58:57,#G#,2,708,85,30,30,1192,1099,1104,1104,1103,1094,1108

2017-09-21 18:58:57,2,708,85,000,995,980,983,985,972,981,OACS:982 

2017-09-21 18:58:57,AM_BGap:2,AM_Gain:85,AM_Slope:982,Percentage:982

2017-09-21 18:58:58,#G#,2,708,102,30,30,101,115,110,106,104,112,111

2017-09-21 18:58:58,#G#,2,708,102,30,30,201,203,195,193,190,199,199

2017-09-21 18:58:59,#G#,2,708,102,30,30,399,378,366,364,361,378,369

2017-09-21 18:58:59,#G#,2,708,102,30,30,597,555,537,535,534,553,537

2017-09-21 18:59:00,#G#,2,708,102,30,30,796,728,708,708,707,728,708

2017-09-21 18:59:01,#G#,2,708,102,30,30,994,891,866,866,867,888,863

2017-09-21 18:59:01,#G#,2,708,102,30,30,1192,1056,1025,1026,1027,1053,1023

2017-09-21 18:59:01,2,708,102,000,1029,868,874,876,886,868,OACS:900 

2017-09-21 18:59:02,#G#,2,708,119,30,30,101,106,102,100,97,103,103

2017-09-21 18:59:02,#G#,2,708,119,30,30,201,188,182,180,177,184,185

2017-09-21 18:59:03,#G#,2,708,119,30,30,399,351,341,339,337,349,341

2017-09-21 18:59:03,#G#,2,708,119,30,30,597,514,501,503,498,514,503

2017-09-21 18:59:04,#G#,2,708,119,30,30,796,678,661,660,660,675,661

2017-09-21 18:59:04,#G#,2,708,119,30,30,994,841,819,820,821,839,818

2017-09-21 18:59:05,#G#,2,708,119,30,30,1192,1006,980,981,982,1003,983

2017-09-21 18:59:05,2,708,119,000,995,813,816,820,833,813,OACS:848 

2017-09-21 18:59:06,
2017-09-21 18:59:06,#G#,3,700,68,30,30,101,84,81,79,77,83,80

2017-09-21 18:59:07,#G#,3,700,68,30,30,201,148,145,143,141,146,146

2017-09-21 18:59:07,#G#,3,700,68,30,30,399,275,270,269,268,276,272

2017-09-21 18:59:08,#G#,3,700,68,30,30,597,404,397,396,395,403,398

2017-09-21 18:59:08,#G#,3,700,68,30,30,796,532,524,523,523,533,525

2017-09-21 18:59:09,#G#,3,700,68,30,30,994,662,650,651,651,663,650

2017-09-21 18:59:09,#G#,3,700,68,30,30,1192,791,778,779,780,790,777

2017-09-21 18:59:09,3,700,68,000,647,531,533,535,539,533,OACS:553 

2017-09-21 18:59:10,#G#,3,700,85,30,30,101,182,169,165,161,178,173

2017-09-21 18:59:11,#G#,3,700,85,30,30,201,323,304,300,295,320,307

2017-09-21 18:59:11,#G#,3,700,85,30,30,399,603,569,565,563,600,570

2017-09-21 18:59:12,#G#,3,700,85,30,30,597,886,836,834,832,882,836

2017-09-21 18:59:12,#G#,3,700,85,30,30,796,1086,1104,1103,1102,1085,1104

2017-09-21 18:59:13,#G#,3,700,85,30,30,994,1093,1111,1110,1109,1092,1111

2017-09-21 18:59:13,#G#,3,700,85,30,30,1192,1100,1117,1116,1115,1099,1117

2017-09-21 18:59:13,3,700,85,000,995,991,994,996,975,987,OACS:989 

2017-09-21 18:59:13,AM_BGap:3,AM_Gain:85,AM_Slope:989,Percentage:989

2017-09-21 18:59:14,#G#,3,700,102,30,30,101,116,111,108,105,112,111

2017-09-21 18:59:14,#G#,3,700,102,30,30,201,205,198,195,193,204,199

2017-09-21 18:59:15,#G#,3,700,102,30,30,399,383,370,368,366,383,371

2017-09-21 18:59:15,#G#,3,700,102,30,30,597,562,544,542,541,562,545

2017-09-21 18:59:16,#G#,3,700,102,30,30,796,737,718,717,716,737,718

2017-09-21 18:59:17,#G#,3,700,102,30,30,994,902,876,877,878,901,875

2017-09-21 18:59:17,#G#,3,700,102,30,30,1192,1069,1038,1039,1040,1066,1037

2017-09-21 18:59:17,3,700,102,000,1040,879,883,888,901,879,OACS:911 

2017-09-21 18:59:18,#G#,3,700,119,30,30,101,107,104,101,98,104,103

2017-09-21 18:59:18,#G#,3,700,119,30,30,201,190,185,182,180,188,189

2017-09-21 18:59:19,#G#,3,700,119,30,30,399,355,345,343,342,353,346

2017-09-21 18:59:19,#G#,3,700,119,30,30,597,521,507,506,505,519,508

2017-09-21 18:59:20,#G#,3,700,119,30,30,796,687,670,669,668,684,670

2017-09-21 18:59:20,#G#,3,700,119,30,30,994,853,830,831,831,852,831

2017-09-21 18:59:21,#G#,3,700,119,30,30,1192,1020,993,994,995,1017,996

2017-09-21 18:59:21,3,700,119,000,1009,823,827,831,848,829,OACS:861 

2017-09-21 18:59:22,
2017-09-21 18:59:22,#G#,4,691,68,30,30,101,85,82,80,79,83,84

2017-09-21 18:59:23,#G#,4,691,68,30,30,201,150,147,145,143,150,147

2017-09-21 18:59:23,#G#,4,691,68,30,30,399,279,274,272,271,281,273

2017-09-21 18:59:24,#G#,4,691,68,30,30,597,410,403,402,401,411,404

2017-09-21 18:59:24,#G#,4,691,68,30,30,796,540,531,530,530,542,533

2017-09-21 18:59:25,#G#,4,691,68,30,30,994,671,659,659,660,672,660

2017-09-21 18:59:25,#G#,4,691,68,30,30,1192,802,789,789,790,803,789

2017-09-21 18:59:25,4,691,68,000,656,538,540,541,550,536,OACS:560 

2017-09-21 18:59:26,#G#,4,691,85,30,30,101,184,172,167,163,178,174

2017-09-21 18:59:26,#G#,4,691,85,30,30,201,327,308,303,299,324,311

2017-09-21 18:59:27,#G#,4,691,85,30,30,399,611,576,573,570,608,578

2017-09-21 18:59:28,#G#,4,691,85,30,30,597,897,846,844,842,894,846

2017-09-21 18:59:28,#G#,4,691,85,30,30,796,1077,1102,1101,1100,1073,1104

2017-09-21 18:59:29,#G#,4,691,85,30,30,994,1084,1109,1108,1107,1080,1111

2017-09-21 18:59:29,#G#,4,691,85,30,30,1192,1091,1116,1115,1114,1087,1118

2017-09-21 18:59:29,4,691,85,000,989,989,992,995,970,989,OACS:987 

2017-09-21 18:59:30,#G#,4,691,102,30,30,101,117,112,109,105,116,115

2017-09-21 18:59:30,#G#,4,691,102,30,30,201,208,201,198,195,208,203

2017-09-21 18:59:31,#G#,4,691,102,30,30,399,388,375,373,371,387,375

2017-09-21 18:59:31,#G#,4,691,102,30,30,597,570,550,549,548,567,550

2017-09-21 18:59:32,#G#,4,691,102,30,30,796,745,726,725,724,744,726

2017-09-21 18:59:32,#G#,4,691,102,30,30,994,913,887,888,888,913,886

2017-09-21 18:59:33,#G#,4,691,102,30,30,1192,1082,1051,1052,1053,1082,1051

2017-09-21 18:59:33,4,691,102,000,1051,889,893,898,907,885,OACS:920 

2017-09-21 18:59:34,#G#,4,691,119,30,30,101,109,105,102,100,107,108

2017-09-21 18:59:34,#G#,4,691,119,30,30,201,193,187,185,182,190,189

2017-09-21 18:59:35,#G#,4,691,119,30,30,399,360,350,348,346,358,351

2017-09-21 18:59:35,#G#,4,691,119,30,30,597,528,514,513,511,527,513

2017-09-21 18:59:36,#G#,4,691,119,30,30,796,696,678,678,676,693,679

2017-09-21 18:59:36,#G#,4,691,119,30,30,994,864,841,842,842,861,841

2017-09-21 18:59:37,#G#,4,691,119,30,30,1192,1034,1006,1007,1008,1030,1003

2017-09-21 18:59:37,4,691,119,000,1022,834,839,841,853,830,OACS:869 

2017-09-21 18:59:38,
2017-09-21 18:59:38,#G#,5,682,68,30,30,101,86,83,82,80,87,84

2017-09-21 18:59:39,#G#,5,682,68,30,30,201,152,149,147,145,150,147

2017-09-21 18:59:39,#G#,5,682,68,30,30,399,283,278,276,275,285,277

2017-09-21 18:59:40,#G#,5,682,68,30,30,597,415,408,407,406,415,408

2017-09-21 18:59:40,#G#,5,682,68,30,30,796,548,538,531,537,550,542

2017-09-21 18:59:41,#G#,5,682,68,30,30,994,680,668,669,669,681,668

2017-09-21 18:59:41,#G#,5,682,68,30,30,1192,814,800,801,801,815,803

2017-09-21 18:59:41,5,682,68,000,666,546,546,548,551,542,OACS:566 

2017-09-21 18:59:42,#G#,5,682,85,30,30,101,186,174,169,165,182,178

2017-09-21 18:59:42,#G#,5,682,85,30,30,201,332,311,307,303,328,315

2017-09-21 18:59:43,#G#,5,682,85,30,30,399,619,583,579,576,613,584

2017-09-21 18:59:44,#G#,5,682,85,30,30,597,909,856,854,852,907,856

2017-09-21 18:59:44,#G#,5,682,85,30,30,796,1095,1104,1102,1101,1091,1105

2017-09-21 18:59:45,#G#,5,682,85,30,30,994,1102,1110,1109,1108,1097,1112

2017-09-21 18:59:45,#G#,5,682,85,30,30,1192,1109,1117,1116,1115,1105,1119

2017-09-21 18:59:45,5,682,85,000,1007,990,994,997,981,988,OACS:992 

2017-09-21 18:59:45,AM_BGap:5,AM_Gain:85,AM_Slope:992,Percentage:992

2017-09-21 18:59:46,#G#,5,682,102,30,30,101,119,114,111,108,116,115

2017-09-21 18:59:46,#G#,5,682,102,30,30,201,211,203,200,198,208,208

2017-09-21 18:59:47,#G#,5,682,102,30,30,399,394,380,378,376,392,380

2017-09-21 18:59:47,#G#,5,682,102,30,30,597,578,558,556,555,576,560

2017-09-21 18:59:48,#G#,5,682,102,30,30,796,756,735,734,733,754,734

2017-09-21 18:59:48,#G#,5,682,102,30,30,994,926,898,899,900,926,898

2017-09-21 18:59:49,#G#,5,682,102,30,30,1192,1097,1064,1066,1067,1096,1067

2017-09-21 18:59:49,5,682,102,000,1065,897,901,906,920,899,OACS:931 

2017-09-21 18:59:50,#G#,5,682,119,30,30,101,111,106,103,101,108,108

2017-09-21 18:59:50,#G#,5,682,119,30,30,201,196,190,187,185,193,194

2017-09-21 18:59:51,#G#,5,682,119,30,30,399,365,355,353,351,362,359

2017-09-21 18:59:51,#G#,5,682,119,30,30,597,535,521,519,518,532,523

2017-09-21 18:59:52,#G#,5,682,119,30,30,796,706,687,687,686,706,689

2017-09-21 18:59:52,#G#,5,682,119,30,30,994,876,852,853,853,875,854

2017-09-21 18:59:53,#G#,5,682,119,30,30,1192,1048,1019,1021,1021,1048,1019

2017-09-21 18:59:53,5,682,119,000,1035,845,849,852,868,847,OACS:882 

2017-09-21 18:59:54,
2017-09-21 18:59:54,#G#,6,673,68,30,30,101,87,85,83,81,87,84

2017-09-21 18:59:55,#G#,6,673,68,30,30,201,154,151,149,147,154,151

2017-09-21 18:59:55,#G#,6,673,68,30,30,399,288,282,281,279,289,282

2017-09-21 18:59:56,#G#,6,673,68,30,30,597,422,414,413,412,424,412

2017-09-21 18:59:56,#G#,6,673,68,30,30,796,556,546,546,545,555,545

2017-09-21 18:59:57,#G#,6,673,68,30,30,994,690,677,678,679,689,677

2017-09-21 18:59:57,#G#,6,673,68,30,30,1192,827,811,812,813,828,809

2017-09-21 18:59:57,6,673,68,000,677,551,554,556,561,553,OACS:575 

2017-09-21 18:59:58,#G#,6,673,85,30,30,101,188,176,171,166,182,178

2017-09-21 18:59:58,#G#,6,673,85,30,30,201,336,315,310,306,333,319

2017-09-21 18:59:59,#G#,6,673,85,30,30,399,627,590,586,583,622,592

2017-09-21 18:59:59,#G#,6,673,85,30,30,597,921,867,864,862,919,868

2017-09-21 19:00:00,#G#,6,673,85,30,30,796,1048,1103,1103,1101,1045,1105

2017-09-21 19:00:01,#G#,6,673,85,30,30,994,1055,1110,1110,1108,1052,1112

2017-09-21 19:00:01,#G#,6,673,85,30,30,1192,1062,1117,1117,1115,1059,1119

2017-09-21 19:00:01,6,673,85,000,969,991,996,999,949,993,OACS:982 

2017-09-21 19:00:02,#G#,6,673,102,30,30,101,121,115,112,109,117,116

2017-09-21 19:00:02,#G#,6,673,102,30,30,201,214,206,203,199,213,208

2017-09-21 19:00:03,#G#,6,673,102,30,30,399,399,385,383,381,396,384

2017-09-21 19:00:03,#G#,6,673,102,30,30,597,586,565,564,563,585,565

2017-09-21 19:00:04,#G#,6,673,102,30,30,796,764,744,743,743,764,744

2017-09-21 19:00:04,#G#,6,673,102,30,30,994,936,909,911,911,936,911

2017-09-21 19:00:05,#G#,6,673,102,30,30,1192,1113,1079,1081,1089,1110,1078

2017-09-21 19:00:05,6,673,102,000,1072,907,912,914,925,909,OACS:939 

2017-09-21 19:00:06,#G#,6,673,119,30,30,101,112,108,105,102,108,108

2017-09-21 19:00:06,#G#,6,673,119,30,30,201,199,192,189,187,197,194

2017-09-21 19:00:07,#G#,6,673,119,30,30,399,371,360,358,353,367,363

2017-09-21 19:00:07,#G#,6,673,119,30,30,597,543,528,526,525,541,527

2017-09-21 19:00:08,#G#,6,673,119,30,30,796,716,696,696,695,714,699

2017-09-21 19:00:08,#G#,6,673,119,30,30,994,889,863,864,865,888,860

2017-09-21 19:00:09,#G#,6,673,119,30,30,1192,1085,1034,1035,1037,1065,1035

2017-09-21 19:00:09,6,673,119,000,1068,855,859,863,883,854,OACS:897 

2017-09-21 19:00:10,
2017-09-21 19:00:10,#G#,7,664,68,30,30,101,88,86,84,82,87,85

2017-09-21 19:00:11,#G#,7,664,68,30,30,201,157,153,151,149,158,155

2017-09-21 19:00:11,#G#,7,664,68,30,30,399,292,287,285,283,293,286

2017-09-21 19:00:12,#G#,7,664,68,30,30,597,428,421,419,418,428,421

2017-09-21 19:00:12,#G#,7,664,68,30,30,796,565,554,554,553,567,551

2017-09-21 19:00:13,#G#,7,664,68,30,30,994,702,688,689,689,702,686

2017-09-21 19:00:13,#G#,7,664,68,30,30,1192,845,824,820,820,836,821

2017-09-21 19:00:13,7,664,68,000,693,561,563,565,575,562,OACS:586 

2017-09-21 19:00:14,#G#,7,664,85,30,30,101,190,177,173,167,186,182

2017-09-21 19:00:14,#G#,7,664,85,30,30,201,340,318,314,309,337,320

2017-09-21 19:00:15,#G#,7,664,85,30,30,399,635,597,594,590,631,598

2017-09-21 19:00:15,#G#,7,664,85,30,30,597,934,878,876,874,932,879

2017-09-21 19:00:16,#G#,7,664,85,30,30,796,1000,1106,1104,1102,999,1105

2017-09-21 19:00:17,#G#,7,664,85,30,30,994,1007,1113,1112,1109,1006,1112

2017-09-21 19:00:17,#G#,7,664,85,30,30,1192,1015,1120,1118,1116,1013,1120

2017-09-21 19:00:17,7,664,85,000,933,996,999,1003,910,989,OACS:971 

2017-09-21 19:00:18,#G#,7,664,102,30,30,101,122,117,113,111,121,121

2017-09-21 19:00:18,#G#,7,664,102,30,30,201,217,209,206,203,216,213

2017-09-21 19:00:19,#G#,7,664,102,30,30,399,405,390,388,386,403,390

2017-09-21 19:00:19,#G#,7,664,102,30,30,597,594,573,572,570,594,575

2017-09-21 19:00:20,#G#,7,664,102,30,30,796,771,753,753,752,770,753

2017-09-21 19:00:20,#G#,7,664,102,30,30,994,947,922,923,923,947,924

2017-09-21 19:00:21,#G#,7,664,102,30,30,1192,1094,1077,1079,1080,1112,1077

2017-09-21 19:00:21,7,664,102,000,1050,918,924,925,924,915,OACS:942 

2017-09-21 19:00:22,#G#,7,664,119,30,30,101,114,109,106,103,112,112

2017-09-21 19:00:22,#G#,7,664,119,30,30,201,201,195,192,189,197,198

2017-09-21 19:00:23,#G#,7,664,119,30,30,399,376,364,362,361,372,365

2017-09-21 19:00:23,#G#,7,664,119,30,30,597,551,535,534,533,550,536

2017-09-21 19:00:24,#G#,7,664,119,30,30,796,726,706,706,705,723,708

2017-09-21 19:00:24,#G#,7,664,119,30,30,994,902,876,877,878,901,874

2017-09-21 19:00:25,#G#,7,664,119,30,30,1192,1059,1057,1030,1031,1057,1043

2017-09-21 19:00:25,7,664,119,000,1040,868,872,876,887,863,OACS:901 

2017-09-21 19:00:26,
2017-09-21 19:00:26,#G#,8,654,68,30,30,101,90,87,85,83,91,88

2017-09-21 19:00:27,#G#,8,654,68,30,30,201,160,156,153,151,158,156

2017-09-21 19:00:27,#G#,8,654,68,30,30,399,297,291,290,288,297,291

2017-09-21 19:00:28,#G#,8,654,68,30,30,597,436,428,427,426,436,427

2017-09-21 19:00:28,#G#,8,654,68,30,30,796,575,564,564,564,575,565

2017-09-21 19:00:29,#G#,8,654,68,30,30,994,715,701,702,703,714,700

2017-09-21 19:00:29,#G#,8,654,68,30,30,1192,816,820,821,822,815,816

2017-09-21 19:00:29,8,654,68,000,668,572,574,577,579,570,OACS:590 

2017-09-21 19:00:30,#G#,8,654,85,30,30,101,193,179,175,170,187,182

2017-09-21 19:00:30,#G#,8,654,85,30,30,201,345,322,318,313,342,326

2017-09-21 19:00:31,#G#,8,654,85,30,30,399,645,605,601,598,640,606

2017-09-21 19:00:31,#G#,8,654,85,30,30,597,948,889,887,885,946,893

2017-09-21 19:00:32,#G#,8,654,85,30,30,796,1088,1097,1097,1094,1083,1098

2017-09-21 19:00:33,#G#,8,654,85,30,30,994,1095,1104,1104,1102,1091,1105

2017-09-21 19:00:33,#G#,8,654,85,30,30,1192,1100,1110,1110,1108,1096,1111

2017-09-21 19:00:33,8,654,85,000,999,990,994,997,984,989,OACS:992 

2017-09-21 19:00:33,AM_BGap:8,AM_Gain:85,AM_Slope:992,Percentage:992

2017-09-21 19:00:34,#G#,8,654,102,30,30,101,124,118,115,112,121,121

2017-09-21 19:00:34,#G#,8,654,102,30,30,201,221,211,209,205,218,214

2017-09-21 19:00:35,#G#,8,654,102,30,30,399,411,396,393,391,410,396

2017-09-21 19:00:35,#G#,8,654,102,30,30,597,603,581,580,579,603,584

2017-09-21 19:00:36,#G#,8,654,102,30,30,796,787,763,763,762,787,762

2017-09-21 19:00:36,#G#,8,654,102,30,30,994,966,935,936,936,965,933

2017-09-21 19:00:37,#G#,8,654,102,30,30,1192,1086,1081,1051,1052,1087,1080

2017-09-21 19:00:37,8,654,102,000,1055,928,933,935,953,924,OACS:954 

2017-09-21 19:00:38,#G#,8,654,119,30,30,101,115,110,108,105,112,112

2017-09-21 19:00:38,#G#,8,654,119,30,30,201,205,198,195,192,202,202

2017-09-21 19:00:39,#G#,8,654,119,30,30,399,381,370,368,366,380,370

2017-09-21 19:00:39,#G#,8,654,119,30,30,597,560,544,542,541,559,546

2017-09-21 19:00:40,#G#,8,654,119,30,30,796,738,716,716,716,737,713

2017-09-21 19:00:40,#G#,8,654,119,30,30,994,918,890,891,891,915,889

2017-09-21 19:00:41,#G#,8,654,119,30,30,1192,1054,1023,1022,1023,1051,1022

2017-09-21 19:00:41,8,654,119,000,1039,882,885,888,907,881,OACS:913 

2017-09-21 19:00:42,
2017-09-21 19:00:42,#G#,9,642,68,30,30,101,92,88,86,84,91,89

2017-09-21 19:00:42,#G#,9,642,68,30,30,201,163,158,156,154,163,161

2017-09-21 19:00:43,#G#,9,642,68,30,30,399,303,297,295,293,302,295

2017-09-21 19:00:44,#G#,9,642,68,30,30,597,445,436,435,434,445,434

2017-09-21 19:00:44,#G#,9,642,68,30,30,796,588,575,575,575,588,574

2017-09-21 19:00:45,#G#,9,642,68,30,30,994,731,715,716,716,731,716

2017-09-21 19:00:45,#G#,9,642,68,30,30,1192,832,815,816,816,832,812

2017-09-21 19:00:45,9,642,68,000,680,584,587,589,597,586,OACS:603 

2017-09-21 19:00:46,#G#,9,642,85,30,30,101,195,181,176,172,191,183

2017-09-21 19:00:46,#G#,9,642,85,30,30,201,349,326,321,317,346,330

2017-09-21 19:00:47,#G#,9,642,85,30,30,399,654,613,609,606,651,616

2017-09-21 19:00:47,#G#,9,642,85,30,30,597,963,902,900,897,959,903

2017-09-21 19:00:48,#G#,9,642,85,30,30,796,970,1034,1032,1031,966,1035

2017-09-21 19:00:48,#G#,9,642,85,30,30,994,978,1041,1039,1038,974,1042

2017-09-21 19:00:49,#G#,9,642,85,30,30,1192,983,1047,1045,1044,979,1048

2017-09-21 19:00:49,9,642,85,000,903,940,943,945,886,941,OACS:926 

2017-09-21 19:00:50,#G#,9,642,102,30,30,101,125,120,116,113,122,121

2017-09-21 19:00:50,#G#,9,642,102,30,30,201,223,215,211,209,222,218

2017-09-21 19:00:51,#G#,9,642,102,30,30,399,418,402,400,398,416,404

2017-09-21 19:00:51,#G#,9,642,102,30,30,597,614,591,590,589,613,590

2017-09-21 19:00:52,#G#,9,642,102,30,30,796,795,772,772,772,794,772

2017-09-21 19:00:52,#G#,9,642,102,30,30,994,977,947,948,948,976,946

2017-09-21 19:00:53,#G#,9,642,102,30,30,1192,1054,1074,1075,1076,1052,1069

2017-09-21 19:00:53,9,642,102,000,1012,930,934,938,947,930,OACS:948 

2017-09-21 19:00:54,#G#,9,642,119,30,30,101,117,112,109,106,112,112

2017-09-21 19:00:54,#G#,9,642,119,30,30,201,208,200,198,195,206,203

2017-09-21 19:00:55,#G#,9,642,119,30,30,399,388,376,374,372,385,374

2017-09-21 19:00:55,#G#,9,642,119,30,30,598,584,553,552,550,568,555

2017-09-21 19:00:56,#G#,9,642,119,30,30,796,752,729,730,729,750,726

2017-09-21 19:00:56,#G#,9,642,119,30,30,994,935,906,907,907,932,906

2017-09-21 19:00:57,#G#,9,642,119,30,30,1192,1055,1026,1026,1027,1054,1025

2017-09-21 19:00:57,9,642,119,000,1032,894,899,902,924,897,OACS:924 

2017-09-21 19:00:58,
2017-09-21 19:00:58,#G#,10,629,68,30,30,101,93,90,87,85,91,90

2017-09-21 19:00:58,#G#,10,629,68,30,30,201,166,162,159,157,167,164

2017-09-21 19:00:59,#G#,10,629,68,30,30,399,310,303,301,300,310,304

2017-09-21 19:01:00,#G#,10,629,68,30,30,598,455,446,444,443,455,448

2017-09-21 19:01:00,#G#,10,629,68,30,30,796,601,587,588,588,601,587

2017-09-21 19:01:01,#G#,10,629,68,30,30,994,747,731,732,732,748,731

2017-09-21 19:01:01,#G#,10,629,68,30,30,1192,782,764,764,765,782,763

2017-09-21 19:01:01,10,629,68,000,639,598,601,603,614,599,OACS:609 

2017-09-21 19:01:02,#G#,10,629,85,30,30,101,197,183,178,173,191,187

2017-09-21 19:01:02,#G#,10,629,85,30,30,201,354,331,326,321,350,334

2017-09-21 19:01:03,#G#,10,629,85,30,30,399,665,623,619,615,661,625

2017-09-21 19:01:03,#G#,10,629,85,30,30,597,979,917,915,912,976,916

2017-09-21 19:01:04,#G#,10,629,85,30,30,796,1064,1106,1105,1104,1060,1107

2017-09-21 19:01:04,#G#,10,629,85,30,30,994,1071,1114,1113,1112,1067,1115

2017-09-21 19:01:05,#G#,10,629,85,30,30,1192,1073,1116,1114,1113,1069,1117

2017-09-21 19:01:05,10,629,85,000,972,1004,1008,1011,970,1001,OACS:994 

2017-09-21 19:01:05,AM_BGap:10,AM_Gain:85,AM_Slope:994,Percentage:994

2017-09-21 19:01:06,#G#,10,629,102,30,30,101,127,121,118,115,126,125

2017-09-21 19:01:06,#G#,10,629,102,30,30,201,228,218,215,212,227,222

2017-09-21 19:01:07,#G#,10,629,102,30,30,399,426,410,408,405,425,413

2017-09-21 19:01:07,#G#,10,629,102,30,30,598,627,603,602,600,627,604

2017-09-21 19:01:08,#G#,10,629,102,30,30,796,817,790,791,790,816,791

2017-09-21 19:01:08,#G#,10,629,102,30,30,994,1003,970,971,971,1002,970

2017-09-21 19:01:09,#G#,10,629,102,30,30,1192,1038,1080,1000,1001,1036,1077

2017-09-21 19:01:09,10,629,102,000,1011,960,964,967,981,957,OACS:973 

2017-09-21 19:01:10,#G#,10,629,119,30,30,101,118,114,110,108,117,118

2017-09-21 19:01:10,#G#,10,629,119,30,30,201,211,204,201,198,210,208

2017-09-21 19:01:11,#G#,10,629,119,30,30,399,397,384,381,379,393,384

2017-09-21 19:01:11,#G#,10,629,119,30,30,598,583,564,563,562,581,565

2017-09-21 19:01:12,#G#,10,629,119,30,30,796,769,744,745,744,768,744

2017-09-21 19:01:12,#G#,10,629,119,30,30,994,956,925,926,927,954,922

2017-09-21 19:01:13,#G#,10,629,119,30,30,1192,984,1033,1030,1031,981,1035

2017-09-21 19:01:13,10,629,119,000,973,916,921,923,943,909,OACS:930 

2017-09-21 19:01:14,
2017-09-21 19:01:14,#G#,11,616,68,30,30,101,95,91,89,86,95,93

2017-09-21 19:01:14,#G#,11,616,68,30,30,201,169,165,162,160,167,165

2017-09-21 19:01:15,#G#,11,616,68,30,30,399,316,310,308,306,318,309

2017-09-21 19:01:16,#G#,11,616,68,30,30,598,465,455,454,453,466,456

2017-09-21 19:01:16,#G#,11,616,68,30,30,796,615,600,601,601,613,601

2017-09-21 19:01:17,#G#,11,616,68,30,30,994,765,747,748,749,765,745

2017-09-21 19:01:17,#G#,11,616,68,30,30,1192,781,760,761,762,782,758

2017-09-21 19:01:17,11,616,68,000,637,612,614,618,622,607,OACS:618 

2017-09-21 19:01:18,#G#,11,616,85,30,30,101,200,186,180,176,195,189

2017-09-21 19:01:18,#G#,11,616,85,30,30,201,360,336,331,326,355,339

2017-09-21 19:01:19,#G#,11,616,85,30,30,399,678,634,630,627,674,635

2017-09-21 19:01:19,#G#,11,616,85,30,30,598,999,935,932,930,998,934

2017-09-21 19:01:20,#G#,11,616,85,30,30,796,1035,949,947,944,1031,951

2017-09-21 19:01:20,#G#,11,616,85,30,30,994,1043,957,955,952,1039,959

2017-09-21 19:01:21,#G#,11,616,85,30,30,1192,1044,957,955,952,1040,959

2017-09-21 19:01:21,11,616,85,000,947,873,877,878,944,871,OACS:898 

2017-09-21 19:01:22,#G#,11,616,102,30,30,101,130,123,120,116,127,125

2017-09-21 19:01:22,#G#,11,616,102,30,30,201,232,222,219,216,232,227

2017-09-21 19:01:23,#G#,11,616,102,30,30,399,436,419,416,414,434,421

2017-09-21 19:01:23,#G#,11,616,102,30,30,598,641,616,615,614,640,618

2017-09-21 19:01:24,#G#,11,616,102,30,30,796,832,798,799,799,832,795

2017-09-21 19:01:24,#G#,11,616,102,30,30,994,1023,981,983,983,1022,984

2017-09-21 19:01:25,#G#,11,616,102,30,30,1192,1059,1011,1013,1013,1060,1011

2017-09-21 19:01:25,11,616,102,000,1022,948,953,957,996,951,OACS:971 

2017-09-21 19:01:25,#G#,11,616,119,30,30,102,120,116,112,109,117,118

2017-09-21 19:01:26,#G#,11,616,119,30,30,201,216,208,205,202,215,213

2017-09-21 19:01:27,#G#,11,616,119,30,30,399,405,392,390,387,402,393

2017-09-21 19:01:27,#G#,11,616,119,30,30,598,595,577,575,574,594,575

2017-09-21 19:01:28,#G#,11,616,119,30,30,796,786,759,760,761,785,759

2017-09-21 19:01:28,#G#,11,616,119,30,30,994,979,945,947,947,976,945

2017-09-21 19:01:29,#G#,11,616,119,30,30,1192,1029,991,993,993,1025,991

2017-09-21 19:01:29,11,616,119,000,1014,932,938,942,970,933,OACS:954 

2017-09-21 19:01:30,
2017-09-21 19:01:30,#G#,12,602,68,30,30,102,96,93,90,88,95,93

2017-09-21 19:01:30,#G#,12,602,68,30,30,201,172,168,165,163,171,169

2017-09-21 19:01:31,#G#,12,602,68,30,30,399,324,316,314,312,323,317

2017-09-21 19:01:31,#G#,12,602,68,30,30,598,476,466,465,463,478,466

2017-09-21 19:01:32,#G#,12,602,68,30,30,796,629,614,615,615,630,610

2017-09-21 19:01:33,#G#,12,602,68,30,30,994,784,765,766,766,783,763

2017-09-21 19:01:33,#G#,12,602,68,30,30,1192,784,765,766,766,782,763

2017-09-21 19:01:33,12,602,68,000,641,627,631,632,641,626,OACS:633 

2017-09-21 19:01:34,#G#,12,602,85,30,30,101,203,188,183,178,199,192

2017-09-21 19:01:34,#G#,12,602,85,30,30,201,367,342,337,332,363,348

2017-09-21 19:01:35,#G#,12,602,85,30,30,399,693,647,643,639,691,649

2017-09-21 19:01:35,#G#,12,602,85,30,30,598,1022,953,951,949,1019,953

2017-09-21 19:01:36,#G#,12,602,85,30,30,796,1031,962,959,957,1027,964

2017-09-21 19:01:36,#G#,12,602,85,30,30,994,1039,970,967,965,1035,972

2017-09-21 19:01:37,#G#,12,602,85,30,30,1192,1039,970,967,965,1035,972

2017-09-21 19:01:37,12,602,85,000,944,888,890,893,944,888,OACS:907 

2017-09-21 19:01:38,#G#,12,602,102,30,30,101,132,125,122,118,131,130

2017-09-21 19:01:38,#G#,12,602,102,30,30,201,237,227,223,220,237,228

2017-09-21 19:01:39,#G#,12,602,102,30,30,399,445,427,425,423,444,429

2017-09-21 19:01:39,#G#,12,602,102,30,30,598,656,630,628,627,654,629

2017-09-21 19:01:40,#G#,12,602,102,30,30,796,851,815,816,816,850,813

2017-09-21 19:01:40,#G#,12,602,102,30,30,994,1046,1003,1005,1005,1047,1002

2017-09-21 19:01:41,#G#,12,602,102,30,30,1192,1046,1003,1005,1005,1047,1002

2017-09-21 19:01:41,12,602,102,000,1012,970,973,978,1014,961,OACS:984 

2017-09-21 19:01:41,#G#,12,602,119,30,30,102,123,117,114,111,121,120

2017-09-21 19:01:42,#G#,12,602,119,30,30,201,220,212,209,206,219,217

2017-09-21 19:01:43,#G#,12,602,119,30,30,399,414,400,398,395,411,403

2017-09-21 19:01:43,#G#,12,602,119,30,30,598,610,589,588,587,608,588

2017-09-21 19:01:44,#G#,12,602,119,30,30,796,805,777,778,778,803,778

2017-09-21 19:01:44,#G#,12,602,119,30,30,994,1002,967,968,969,999,968

2017-09-21 19:01:45,#G#,12,602,119,30,30,1192,1058,1018,1020,1020,1054,1018

2017-09-21 19:01:45,12,602,119,000,1035,955,959,963,989,954,OACS:975 

2017-09-21 19:01:46,
2017-09-21 19:01:46,#G#,13,589,68,30,30,102,98,94,92,89,96,97

2017-09-21 19:01:46,#G#,13,589,68,30,30,201,176,171,169,166,175,173

2017-09-21 19:01:47,#G#,13,589,68,30,30,399,331,324,321,320,331,327

2017-09-21 19:01:47,#G#,13,589,68,30,30,598,488,476,475,474,487,475

2017-09-21 19:01:48,#G#,13,589,68,30,30,796,645,628,629,629,647,628

2017-09-21 19:01:49,#G#,13,589,68,30,30,994,803,782,784,784,803,781

2017-09-21 19:01:49,#G#,13,589,68,30,30,1192,803,783,784,784,803,785

2017-09-21 19:01:49,13,589,68,000,657,642,646,648,660,638,OACS:648 

2017-09-21 19:01:50,#G#,13,589,85,30,30,102,207,191,186,180,204,196

2017-09-21 19:01:50,#G#,13,589,85,30,30,201,375,348,343,338,372,353

2017-09-21 19:01:51,#G#,13,589,85,30,30,399,710,661,656,653,705,662

2017-09-21 19:01:51,#G#,13,589,85,30,30,598,1048,975,973,970,1046,972

2017-09-21 19:01:52,#G#,13,589,85,30,30,796,1082,985,983,981,1075,984

2017-09-21 19:01:52,#G#,13,589,85,30,30,994,1090,993,991,989,1083,992

2017-09-21 19:01:53,#G#,13,589,85,30,30,1192,1090,993,991,989,1083,992

2017-09-21 19:01:53,13,589,85,000,992,912,915,920,989,906,OACS:939 

2017-09-21 19:01:54,#G#,13,589,102,30,30,102,134,127,124,120,132,130

2017-09-21 19:01:54,#G#,13,589,102,30,30,201,242,231,228,225,241,233

2017-09-21 19:01:55,#G#,13,589,102,30,30,399,456,437,434,432,457,440

2017-09-21 19:01:55,#G#,13,589,102,30,30,598,673,644,643,641,672,647

2017-09-21 19:01:56,#G#,13,589,102,30,30,796,873,834,835,835,872,832

2017-09-21 19:01:56,#G#,13,589,102,30,30,994,1074,1027,1028,1029,1074,1026

2017-09-21 19:01:57,#G#,13,589,102,30,30,1192,1075,1027,1027,1027,1074,1025

2017-09-21 19:01:57,13,589,102,000,1047,995,999,1173,1048,990,OACS:1042 

2017-09-21 19:01:57,#G#,13,589,119,30,30,102,125,119,116,112,121,122

2017-09-21 19:01:58,#G#,13,589,119,30,30,201,225,216,213,210,224,221

2017-09-21 19:01:59,#G#,13,589,119,30,30,399,424,409,407,404,420,412

2017-09-21 19:01:59,#G#,13,589,119,30,30,598,625,603,602,600,621,603

2017-09-21 19:02:00,#G#,13,589,119,30,30,796,825,795,796,796,822,793

2017-09-21 19:02:00,#G#,13,589,119,30,30,994,1027,989,990,991,1026,991

2017-09-21 19:02:01,#G#,13,589,119,30,30,1192,1029,989,990,991,1026,991

2017-09-21 19:02:01,13,589,119,000,1018,978,982,1016,1022,978,OACS:999 

2017-09-21 19:02:01,AM_BGap:13,AM_Gain:119,AM_Slope:999,Percentage:999

2017-09-21 19:02:02,
2017-09-21 19:02:02,#G#,14,575,68,30,30,102,99,96,93,91,100,97

2017-09-21 19:02:02,#G#,14,575,68,30,30,201,180,175,172,170,180,178

2017-09-21 19:02:03,#G#,14,575,68,30,30,399,339,331,329,327,340,331

2017-09-21 19:02:03,#G#,14,575,68,30,30,598,500,487,487,485,500,484

2017-09-21 19:02:04,#G#,14,575,68,30,30,796,662,643,645,645,663,642

2017-09-21 19:02:05,#G#,14,575,68,30,30,994,824,802,803,803,824,803

2017-09-21 19:02:05,#G#,14,575,68,30,30,1192,825,802,803,803,824,803

2017-09-21 19:02:05,14,575,68,000,678,659,662,664,676,661,OACS:666 

2017-09-21 19:02:06,#G#,14,575,85,30,30,102,211,194,189,184,208,199

2017-09-21 19:02:06,#G#,14,575,85,30,30,201,383,355,350,344,382,359

2017-09-21 19:02:07,#G#,14,575,85,30,30,399,727,675,671,667,723,676

2017-09-21 19:02:07,#G#,14,575,85,30,30,598,1074,996,995,993,1072,994

2017-09-21 19:02:08,#G#,14,575,85,30,30,796,1084,1004,1003,1001,1081,1003

2017-09-21 19:02:08,#G#,14,575,85,30,30,994,1092,1012,1011,1009,1089,1011

2017-09-21 19:02:09,#G#,14,575,85,30,30,1192,1092,1012,1011,1009,1089,1011

2017-09-21 19:02:09,14,575,85,000,997,932,936,938,998,926,OACS:954 

2017-09-21 19:02:10,#G#,14,575,102,30,30,102,137,129,126,122,136,133

2017-09-21 19:02:10,#G#,14,575,102,30,30,201,247,236,232,229,246,237

2017-09-21 19:02:11,#G#,14,575,102,30,30,399,467,447,444,441,466,448

2017-09-21 19:02:11,#G#,14,575,102,30,30,598,690,658,655,656,691,661

2017-09-21 19:02:12,#G#,14,575,102,30,30,796,894,853,855,855,893,855

2017-09-21 19:02:12,#G#,14,575,102,30,30,994,1100,1051,1053,1053,1100,1054

2017-09-21 19:02:13,#G#,14,575,102,30,30,1192,1100,1052,1053,1053,1100,1054

2017-09-21 19:02:13,14,575,102,000,1068,1020,1024,1028,1069,1015,OACS:1037 

2017-09-21 19:02:13,#G#,14,575,119,30,30,102,127,121,118,115,126,123

2017-09-21 19:02:14,#G#,14,575,119,30,30,201,230,221,217,215,228,223

2017-09-21 19:02:15,#G#,14,575,119,30,30,399,434,419,416,413,434,422

2017-09-21 19:02:15,#G#,14,575,119,30,30,598,640,616,616,614,639,617

2017-09-21 19:02:16,#G#,14,575,119,30,30,796,846,814,815,815,843,812

2017-09-21 19:02:16,#G#,14,575,119,30,30,994,1053,1013,1015,1015,1052,1012

2017-09-21 19:02:17,#G#,14,575,119,30,30,1192,1053,1013,1015,1015,1052,1012

2017-09-21 19:02:17,14,575,119,000,1043,1004,1008,1012,1042,1000,OACS:1018 

2017-09-21 19:02:18,
2017-09-21 19:02:18,#G#,15,562,68,30,30,102,101,98,95,92,100,98

2017-09-21 19:02:18,#G#,15,562,68,30,30,201,184,178,176,173,184,183

2017-09-21 19:02:19,#G#,15,562,68,30,30,399,348,339,337,335,348,340

2017-09-21 19:02:19,#G#,15,562,68,30,30,598,513,499,499,498,512,497

2017-09-21 19:02:20,#G#,15,562,68,30,30,796,679,660,661,661,681,660

2017-09-21 19:02:20,#G#,15,562,68,30,30,994,840,829,822,822,841,833

2017-09-21 19:02:21,#G#,15,562,68,30,30,1192,840,829,822,822,841,833

2017-09-21 19:02:21,15,562,68,000,691,681,679,681,693,689,OACS:685 

2017-09-21 19:02:22,#G#,15,562,85,30,30,102,215,198,192,187,211,201

2017-09-21 19:02:22,#G#,15,562,85,30,30,201,392,363,357,352,390,367

2017-09-21 19:02:23,#G#,15,562,85,30,30,399,746,691,687,683,744,694

2017-09-21 19:02:23,#G#,15,562,85,30,30,598,1103,1020,1020,1017,1102,1021

2017-09-21 19:02:24,#G#,15,562,85,30,30,796,1111,1028,1027,1025,1111,1030

2017-09-21 19:02:24,#G#,15,562,85,30,30,994,1120,1037,1035,1033,1120,1039

2017-09-21 19:02:25,#G#,15,562,85,30,30,1192,1120,1037,1035,1033,1120,1039

2017-09-21 19:02:25,15,562,85,000,1023,956,959,962,1029,958,OACS:981 

2017-09-21 19:02:26,#G#,15,562,102,30,30,102,139,132,128,123,137,134

2017-09-21 19:02:26,#G#,15,562,102,30,30,201,253,241,237,234,251,242

2017-09-21 19:02:27,#G#,15,562,102,30,30,399,480,458,455,452,480,457

2017-09-21 19:02:27,#G#,15,562,102,30,30,598,708,675,675,673,709,672

2017-09-21 19:02:28,#G#,15,562,102,30,30,796,919,876,877,877,920,875

2017-09-21 19:02:28,#G#,15,562,102,30,30,994,1115,1071,1074,1074,1127,1077

2017-09-21 19:02:29,#G#,15,562,102,30,30,1192,1115,1071,1074,1074,1127,1077

2017-09-21 19:02:29,15,562,102,000,1086,1040,1046,1053,1099,1043,OACS:1061 

2017-09-21 19:02:29,#G#,15,562,119,30,30,102,129,124,120,117,126,127

2017-09-21 19:02:30,#G#,15,562,119,30,30,201,235,226,223,219,233,227

2017-09-21 19:02:30,#G#,15,562,119,30,30,399,446,429,426,423,443,431

2017-09-21 19:02:31,#G#,15,562,119,30,30,598,658,632,632,630,657,632

2017-09-21 19:02:32,#G#,15,562,119,30,30,796,870,835,836,836,866,835

2017-09-21 19:02:32,#G#,15,562,119,30,30,994,1067,1042,1034,1034,1075,1039

2017-09-21 19:02:33,#G#,15,562,119,30,30,1192,1067,1042,1034,1034,1075,1039

2017-09-21 19:02:33,15,562,119,000,1058,1030,1029,1032,1070,1024,OACS:1040 

2017-09-21 19:02:34,
2017-09-21 19:02:34,#G#,16,548,68,30,30,102,103,100,97,94,104,102

2017-09-21 19:02:34,#G#,16,548,68,30,30,201,188,183,180,177,188,187

2017-09-21 19:02:35,#G#,16,548,68,30,30,399,357,347,345,343,356,345

2017-09-21 19:02:35,#G#,16,548,68,30,30,598,527,511,511,511,529,511

2017-09-21 19:02:36,#G#,16,548,68,30,30,796,697,677,678,678,697,673

2017-09-21 19:02:36,#G#,16,548,68,30,30,994,832,808,809,809,832,804

2017-09-21 19:02:37,#G#,16,548,68,30,30,1192,832,808,809,809,832,804

2017-09-21 19:02:37,16,548,68,000,684,664,668,670,682,661,OACS:671 

2017-09-21 19:02:38,#G#,16,548,85,30,30,102,219,201,196,190,214,206

2017-09-21 19:02:38,#G#,16,548,85,30,30,201,401,371,365,359,399,371

2017-09-21 19:02:39,#G#,16,548,85,30,30,399,765,707,703,698,762,708

2017-09-21 19:02:39,#G#,16,548,85,30,30,598,1104,1044,1044,1042,1103,1041

2017-09-21 19:02:40,#G#,16,548,85,30,30,796,1113,1053,1053,1051,1112,1050

2017-09-21 19:02:40,#G#,16,548,85,30,30,994,1120,1060,1060,1058,1119,1057

2017-09-21 19:02:41,#G#,16,548,85,30,30,1192,1120,1060,1060,1058,1119,1057

2017-09-21 19:02:41,16,548,85,000,1023,975,979,982,1029,963,OACS:991 

2017-09-21 19:02:42,#G#,16,548,102,30,30,102,142,134,130,127,140,139

2017-09-21 19:02:42,#G#,16,548,102,30,30,201,258,246,243,239,259,247

2017-09-21 19:02:43,#G#,16,548,102,30,30,399,491,469,466,463,493,469

2017-09-21 19:02:43,#G#,16,548,102,30,30,598,725,691,691,690,726,691

2017-09-21 19:02:44,#G#,16,548,102,30,30,796,942,897,899,899,941,898

2017-09-21 19:02:44,#G#,16,548,102,30,30,994,1080,1069,1070,1071,1123,1066

2017-09-21 19:02:45,#G#,16,548,102,30,30,1192,1080,1069,1070,1071,1123,1066

2017-09-21 19:02:45,16,548,102,000,1056,1042,1048,1051,1097,1030,OACS:1054 

2017-09-21 19:02:45,#G#,16,548,119,30,30,102,132,126,122,119,130,127

2017-09-21 19:02:46,#G#,16,548,119,30,30,201,240,231,227,224,237,231

2017-09-21 19:02:46,#G#,16,548,119,30,30,399,457,439,437,434,456,437

2017-09-21 19:02:47,#G#,16,548,119,30,30,598,675,647,648,646,674,646

2017-09-21 19:02:48,#G#,16,548,119,30,30,796,893,869,857,857,892,852

2017-09-21 19:02:48,#G#,16,548,119,30,30,994,1044,1042,1003,1003,1045,1032

2017-09-21 19:02:49,#G#,16,548,119,30,30,1192,1044,1042,1003,1003,1045,1032

2017-09-21 19:02:49,16,548,119,000,1033,1031,1003,1006,1041,1019,OACS:1022 

2017-09-21 19:02:50,
2017-09-21 19:02:50,#G#,17,534,68,30,30,102,103,100,97,94,104,102

2017-09-21 19:02:50,#G#,17,534,68,30,30,201,188,183,180,177,188,187

2017-09-21 19:02:51,#G#,17,534,68,30,30,399,357,347,345,343,356,345

2017-09-21 19:02:51,#G#,17,534,68,30,30,598,527,511,512,511,529,511

2017-09-21 19:02:52,#G#,17,534,68,30,30,796,698,676,678,678,697,673

2017-09-21 19:02:52,#G#,17,534,68,30,30,994,826,801,802,802,824,803

2017-09-21 19:02:53,#G#,17,534,68,30,30,1192,826,801,802,802,824,803

2017-09-21 19:02:53,17,534,68,000,679,659,662,664,675,660,OACS:666 

2017-09-21 19:02:54,#G#,17,534,85,30,30,102,219,201,195,190,216,206

2017-09-21 19:02:54,#G#,17,534,85,30,30,201,401,371,365,359,399,372

2017-09-21 19:02:55,#G#,17,534,85,30,30,399,765,707,703,699,762,708

2017-09-21 19:02:55,#G#,17,534,85,30,30,598,1083,1044,1044,1042,1082,1041

2017-09-21 19:02:56,#G#,17,534,85,30,30,796,1092,1053,1053,1052,1091,1050

2017-09-21 19:02:56,#G#,17,534,85,30,30,994,1099,1060,1060,1059,1098,1057

2017-09-21 19:02:57,#G#,17,534,85,30,30,1192,1099,1060,1060,1059,1098,1057

2017-09-21 19:02:57,17,534,85,000,1005,974,979,982,1007,964,OACS:985 

2017-09-21 19:02:57,#G#,17,534,102,30,30,102,142,134,130,127,141,139

2017-09-21 19:02:58,#G#,17,534,102,30,30,201,258,246,243,239,259,248

2017-09-21 19:02:59,#G#,17,534,102,30,30,399,491,469,466,463,493,469

2017-09-21 19:02:59,#G#,17,534,102,30,30,598,724,691,691,690,725,691

2017-09-21 19:03:00,#G#,17,534,102,30,30,796,941,897,899,899,940,897

2017-09-21 19:03:00,#G#,17,534,102,30,30,994,1114,1062,1063,1063,1113,1060

2017-09-21 19:03:01,#G#,17,534,102,30,30,1192,1114,1062,1063,1063,1113,1060

2017-09-21 19:03:01,17,534,102,000,1081,1036,1042,1044,1083,1026,OACS:1052 

2017-09-21 19:03:01,#G#,17,534,119,30,30,102,132,126,122,119,130,127

2017-09-21 19:03:02,#G#,17,534,119,30,30,201,240,231,227,224,237,232

2017-09-21 19:03:02,#G#,17,534,119,30,30,399,457,439,437,433,456,437

2017-09-21 19:03:03,#G#,17,534,119,30,30,598,675,647,647,646,674,646

2017-09-21 19:03:04,#G#,17,534,119,30,30,796,893,855,857,857,892,853

2017-09-21 19:03:04,#G#,17,534,119,30,30,994,1055,1010,1011,1011,1053,1007

2017-09-21 19:03:05,#G#,17,534,119,30,30,1192,1055,1010,1011,1011,1053,1007

2017-09-21 19:03:05,17,534,119,000,1046,1003,1009,1011,1046,998,OACS:1018 

2017-09-21 19:03:05,AM_BGap:13, AM_Gain:119, AM_Slope:999 

2017-09-21 19:03:05,*******DONE*******#

Exiting PsocAmPreRad2017-09-21 19:03:06, 44,:e,:0,:0,:1a,:a,:0 @

2017-09-21 19:03:06,*SeqNo,Samples,DAC_Cnt,BGapReg,GainReg,AM_VCal,BGO,Isense0,Isense1

2017-09-21 19:03:06,Vsense,AM_LCh0,AM_RCh0,AM_Rch1,AM_RCh2,AM_LCh3,AM_RCh3

2017-09-21 19:03:07,
2017-09-21 19:03:08,
2017-09-21 19:03:08,#D#,0,0,13,13,119,999,575,24,24,8,27,25,22,19,25,25

2017-09-21 19:03:08,#D#,0,1,13,13,119,999,575,24,24,8,27,25,22,19,25,25

2017-09-21 19:03:08,#D#,0,2,13,13,119,999,575,24,24,8,27,25,22,19,25,25

2017-09-21 19:03:08,#D#,0,3,13,13,119,999,575,24,24,8,27,25,22,19,25,25

2017-09-21 19:03:08,#D#,0,4,13,13,119,999,575,24,24,8,27,25,22,19,25,25

2017-09-21 19:03:08,#D#,0,5,13,13,119,999,575,24,24,8,27,25,22,19,25,25

2017-09-21 19:03:08,#D#,0,6,13,13,119,999,575,24,24,8,27,25,22,19,25,25

2017-09-21 19:03:08,#D#,0,7,13,13,119,999,575,24,24,8,27,25,22,19,25,25

2017-09-21 19:03:08,#D#,0,8,13,13,119,999,575,24,24,8,27,25,22,19,25,25

2017-09-21 19:03:08,#D#,0,9,13,13,119,999,575,24,24,8,27,25,22,19,25,25

2017-09-21 19:03:09,#D#,1,0,26,13,119,999,575,24,24,8,27,25,22,19,25,25

2017-09-21 19:03:09,#D#,1,1,26,13,119,999,575,24,24,8,27,25,22,19,25,25

2017-09-21 19:03:09,#D#,1,2,26,13,119,999,575,24,24,8,27,25,22,19,25,25

2017-09-21 19:03:09,#D#,1,3,26,13,119,999,575,24,24,8,27,25,22,19,25,25

2017-09-21 19:03:09,#D#,1,4,26,13,119,999,575,24,24,8,27,25,22,19,25,25

2017-09-21 19:03:09,#D#,1,5,26,13,119,999,575,24,24,8,27,25,22,19,25,25

2017-09-21 19:03:09,#D#,1,6,26,13,119,999,575,24,24,8,27,25,22,19,25,25

2017-09-21 19:03:09,#D#,1,7,26,13,119,999,575,24,24,8,27,25,22,19,25,25

2017-09-21 19:03:09,#D#,1,8,26,13,119,999,575,24,24,8,27,25,22,19,25,25

2017-09-21 19:03:09,#D#,1,9,26,13,119,999,575,24,24,8,27,25,22,19,25,25

2017-09-21 19:03:10,#D#,2,0,39,13,119,999,575,24,24,8,27,25,22,19,25,25

2017-09-21 19:03:10,#D#,2,1,39,13,119,999,575,24,24,8,27,25,22,19,25,25

2017-09-21 19:03:10,#D#,2,2,39,13,119,999,575,24,24,8,27,25,22,19,25,25

2017-09-21 19:03:10,#D#,2,3,39,13,119,999,575,24,24,8,27,25,22,19,25,25

2017-09-21 19:03:10,#D#,2,4,39,13,119,999,575,24,24,8,27,25,22,19,25,25

2017-09-21 19:03:10,#D#,2,5,39,13,119,999,575,24,24,8,27,25,22,19,25,25

2017-09-21 19:03:10,#D#,2,6,39,13,119,999,575,24,24,8,27,25,22,19,25,25

2017-09-21 19:03:10,#D#,2,7,39,13,119,999,575,24,24,8,27,25,22,19,25,25

2017-09-21 19:03:10,#D#,2,8,39,13,119,999,575,24,24,8,27,25,22,19,25,25

2017-09-21 19:03:10,#D#,2,9,39,13,119,999,575,24,24,8,27,25,22,19,25,25

2017-09-21 19:03:11,#D#,3,0,52,13,119,999,575,24,24,8,27,25,22,19,25,25

2017-09-21 19:03:11,#D#,3,1,52,13,119,999,575,24,24,8,27,25,22,19,25,25

2017-09-21 19:03:11,#D#,3,2,52,13,119,999,575,24,24,8,27,25,22,19,25,25

2017-09-21 19:03:11,#D#,3,3,52,13,119,999,575,24,24,8,27,25,22,19,25,25

2017-09-21 19:03:11,#D#,3,4,52,13,119,999,575,24,24,8,27,25,22,19,25,25

2017-09-21 19:03:11,#D#,3,5,52,13,119,999,575,24,24,8,27,25,22,19,25,25

2017-09-21 19:03:11,#D#,3,6,52,13,119,999,575,24,24,8,27,25,22,19,25,25

2017-09-21 19:03:11,#D#,3,7,52,13,119,999,575,24,24,8,27,25,22,19,25,25

2017-09-21 19:03:11,#D#,3,8,52,13,119,999,575,24,24,8,27,25,22,19,25,25

2017-09-21 19:03:11,#D#,3,9,52,13,119,999,575,24,24,8,27,25,22,19,25,25

2017-09-21 19:03:12,#D#,4,0,65,13,119,999,575,24,24,8,27,25,22,19,25,25

2017-09-21 19:03:12,#D#,4,1,65,13,119,999,575,24,24,8,27,25,22,19,25,25

2017-09-21 19:03:12,#D#,4,2,65,13,119,999,575,24,24,8,27,25,22,19,25,25

2017-09-21 19:03:12,#D#,4,3,65,13,119,999,575,24,24,8,27,25,22,19,25,25

2017-09-21 19:03:12,#D#,4,4,65,13,119,999,575,24,24,8,27,25,22,19,25,25

2017-09-21 19:03:12,#D#,4,5,65,13,119,999,575,24,24,8,27,25,22,19,25,25

2017-09-21 19:03:12,#D#,4,6,65,13,119,999,575,24,24,8,27,25,22,19,25,25

2017-09-21 19:03:12,#D#,4,7,65,13,119,999,575,24,24,8,27,25,22,19,25,25

2017-09-21 19:03:12,#D#,4,8,65,13,119,999,575,24,24,8,27,25,22,19,25,25

2017-09-21 19:03:12,#D#,4,9,65,13,119,999,575,24,24,8,27,25,22,19,25,25

2017-09-21 19:03:13,#D#,5,0,78,13,119,999,575,24,24,8,27,25,22,19,25,25

2017-09-21 19:03:13,#D#,5,1,78,13,119,999,575,24,24,8,27,25,22,19,25,25

2017-09-21 19:03:13,#D#,5,2,78,13,119,999,575,24,24,8,27,25,22,19,25,25

2017-09-21 19:03:13,#D#,5,3,78,13,119,999,575,24,24,8,27,25,22,19,25,25

2017-09-21 19:03:13,#D#,5,4,78,13,119,999,575,24,24,8,27,25,22,19,25,25

2017-09-21 19:03:13,#D#,5,5,78,13,119,999,575,24,24,8,27,25,22,19,25,25

2017-09-21 19:03:13,#D#,5,6,78,13,119,999,575,24,24,8,27,25,22,19,25,25

2017-09-21 19:03:13,#D#,5,7,78,13,119,999,575,24,24,8,27,25,22,19,25,25

2017-09-21 19:03:13,#D#,5,8,78,13,119,999,575,24,24,8,27,25,22,19,25,25

2017-09-21 19:03:13,#D#,5,9,78,13,119,999,575,24,24,8,27,25,22,19,25,25

2017-09-21 19:03:14,#D#,6,0,91,13,119,999,575,24,24,8,27,25,22,19,25,25

2017-09-21 19:03:14,#D#,6,1,91,13,119,999,575,24,24,8,27,25,22,19,25,25

2017-09-21 19:03:14,#D#,6,2,91,13,119,999,575,24,24,8,27,25,22,19,25,25

2017-09-21 19:03:14,#D#,6,3,91,13,119,999,575,24,24,8,27,25,22,19,25,25

2017-09-21 19:03:14,#D#,6,4,91,13,119,999,575,24,24,8,27,25,22,19,25,25

2017-09-21 19:03:14,#D#,6,5,91,13,119,999,575,24,24,8,27,25,22,19,25,25

2017-09-21 19:03:14,#D#,6,6,91,13,119,999,575,24,24,8,27,25,22,19,25,25

2017-09-21 19:03:14,#D#,6,7,91,13,119,999,575,24,24,8,27,25,22,19,25,25

2017-09-21 19:03:14,#D#,6,8,91,13,119,999,575,24,24,8,27,25,22,19,25,25

2017-09-21 19:03:14,#D#,6,9,91,13,119,999,575,24,24,8,27,25,22,19,25,25

2017-09-21 19:03:15,#D#,7,0,104,13,119,999,575,24,24,8,27,25,22,19,25,25

2017-09-21 19:03:15,#D#,7,1,104,13,119,999,575,24,24,8,27,25,22,19,25,25

2017-09-21 19:03:15,#D#,7,2,104,13,119,999,575,24,24,8,27,25,22,19,25,25

2017-09-21 19:03:15,#D#,7,3,104,13,119,999,575,24,24,8,27,25,22,19,25,25

2017-09-21 19:03:15,#D#,7,4,104,13,119,999,575,24,24,8,27,25,22,19,25,25

2017-09-21 19:03:15,#D#,7,5,104,13,119,999,575,24,24,8,27,25,22,19,25,25

2017-09-21 19:03:15,#D#,7,6,104,13,119,999,575,24,24,8,27,25,22,19,25,25

2017-09-21 19:03:15,#D#,7,7,104,13,119,999,575,24,24,8,27,25,22,19,25,25

2017-09-21 19:03:15,#D#,7,8,104,13,119,999,575,24,24,8,27,25,22,19,25,25

2017-09-21 19:03:15,#D#,7,9,104,13,119,999,575,24,24,8,27,25,22,19,25,25

2017-09-21 19:03:16,#D#,8,0,117,13,119,999,575,24,24,8,27,25,22,19,25,25

2017-09-21 19:03:16,#D#,8,1,117,13,119,999,575,24,24,8,27,25,22,19,25,25

2017-09-21 19:03:16,#D#,8,2,117,13,119,999,575,24,24,8,27,25,22,19,25,25

2017-09-21 19:03:16,#D#,8,3,117,13,119,999,575,24,24,8,27,25,22,19,25,25

2017-09-21 19:03:16,#D#,8,4,117,13,119,999,575,24,24,8,27,25,22,19,25,25

2017-09-21 19:03:16,#D#,8,5,117,13,119,999,575,24,24,8,27,25,22,19,25,25

2017-09-21 19:03:16,#D#,8,6,117,13,119,999,575,24,24,8,27,25,22,19,25,25

2017-09-21 19:03:16,#D#,8,7,117,13,119,999,575,24,24,8,27,25,22,19,25,25

2017-09-21 19:03:16,#D#,8,8,117,13,119,999,575,24,24,8,27,25,22,19,25,25

2017-09-21 19:03:16,#D#,8,9,117,13,119,999,575,24,24,8,27,25,22,19,25,25

2017-09-21 19:03:17,#D#,9,0,130,13,119,999,575,24,24,7,27,25,22,19,25,25

2017-09-21 19:03:17,#D#,9,1,130,13,119,999,575,24,24,7,27,25,22,19,25,25

2017-09-21 19:03:17,#D#,9,2,130,13,119,999,575,24,24,7,27,25,22,19,25,25

2017-09-21 19:03:17,#D#,9,3,130,13,119,999,575,24,24,7,27,25,22,19,25,25

2017-09-21 19:03:17,#D#,9,4,130,13,119,999,575,24,24,7,27,25,22,19,25,25

2017-09-21 19:03:17,#D#,9,5,130,13,119,999,575,24,24,7,27,25,22,19,25,25

2017-09-21 19:03:17,#D#,9,6,130,13,119,999,575,24,24,7,27,25,22,19,25,25

2017-09-21 19:03:17,#D#,9,7,130,13,119,999,575,24,24,7,27,25,22,19,25,25

2017-09-21 19:03:17,#D#,9,8,130,13,119,999,575,24,24,7,27,25,22,19,25,25

2017-09-21 19:03:17,#D#,9,9,130,13,119,999,575,24,24,7,27,25,22,19,25,25

2017-09-21 19:03:17,*******DONE*****if( AmCalComplete==1)break;**#

Exiting PsocAmPreRad2017-09-21 19:03:18, 43,:e,:a0,:0,:0,:1,:1 @

2017-09-21 19:03:18,OTA, TAC, HVCLB, HVCL, IDD_H, VDD_H, AM_Vsense, DVDD_RAW

2017-09-21 19:03:18,VDD_OUT, DIDD, BGO, NTCPWR, NC, VDD_HV, nHV_Is<1>, nHV_Is<0>

2017-09-21 19:03:19,
2017-09-21 19:03:20,
2017-09-21 19:03:21,
2017-09-21 19:03:22,
2017-09-21 19:03:23,
2017-09-21 19:03:24,
2017-09-21 19:03:25,
2017-09-21 19:03:26,
2017-09-21 19:03:27,
2017-09-21 19:03:28,
2017-09-21 19:03:29,
2017-09-21 19:03:30,
2017-09-21 19:03:31,
2017-09-21 19:03:32,
2017-09-21 19:03:33,771,335,1360,388,7,2468,7,1348,1084,34,575,44,1656,2488,26,26 

2017-09-21 19:03:34,
2017-09-21 19:03:35,
2017-09-21 19:03:36,
2017-09-21 19:03:37,
2017-09-21 19:03:38,
2017-09-21 19:03:39,
2017-09-21 19:03:40,
2017-09-21 19:03:41,
2017-09-21 19:03:42,
2017-09-21 19:03:43,
2017-09-21 19:03:44,
2017-09-21 19:03:45,
2017-09-21 19:03:46,771,335,1360,388,7,2468,7,1348,1084,34,575,44,1664,2488,26,26 

2017-09-21 19:03:46,*******DONE*******#

Exiting PsocAmPreRad