#P0E0000001900AM_RdFreq

2017-12-20 01:05:17, 50,:e,:0,:0,:19,:0,:a0 @

2017-12-20 01:05:17,*******Measure Period per Event & Freq in MHz*******

2017-12-20 01:05:17,****Period_cnt , Freq, SeqNo, Status,..........

2017-12-20 01:05:17,#P#, 38, 30400000, 0, 0 

2017-12-20 01:05:17,#P#, 38, 30400000, 1, 0 

2017-12-20 01:05:17,#P#, 39, 31200000, 2, 0 

2017-12-20 01:05:17,#P#, 38, 30400000, 3, 0 

2017-12-20 01:05:17,#P#, 39, 31200000, 4, 0 

2017-12-20 01:05:17,#P#, 38, 30400000, 5, 0 

2017-12-20 01:05:17,#P#, 39, 31200000, 6, 0 

2017-12-20 01:05:17,#P#, 39, 31200000, 7, 0 

2017-12-20 01:05:17,#P#, 39, 31200000, 8, 0 

2017-12-20 01:05:17,#P#, 38, 30400000, 9, 0 

2017-12-20 01:05:17,#P#, 38, 30400000, 10, 0 

2017-12-20 01:05:17,#P#, 39, 31200000, 11, 0 

2017-12-20 01:05:17,#P#, 38, 30400000, 12, 0 

2017-12-20 01:05:17,#P#, 39, 31200000, 13, 0 

2017-12-20 01:05:17,#P#, 38, 30400000, 14, 0 

2017-12-20 01:05:17,#P#, 38, 30400000, 15, 0 

2017-12-20 01:05:17,#P#, 39, 31200000, 16, 0 

2017-12-20 01:05:17,#P#, 38, 30400000, 17, 0 

2017-12-20 01:05:17,#P#, 39, 31200000, 18, 0 

2017-12-20 01:05:17,#P#, 39, 31200000, 19, 0 

2017-12-20 01:05:17,#P#, 39, 31200000, 20, 0 

2017-12-20 01:05:18,#P#, 39, 31200000, 21, 0 

2017-12-20 01:05:18,#P#, 38, 30400000, 22, 0 

2017-12-20 01:05:18,#P#, 38, 30400000, 23, 0 

2017-12-20 01:05:18,#P#, 39, 31200000, 24, 0 

2017-12-20 01:05:18,*******DONE*******#

Exiting PsocAmPreRad
#A0E0000002B07AM_RegRW.

2017-12-20 01:05:19, 41,:e,:0,:0,:2b,:7,:7a7 @

2017-12-20 01:05:19,Value:7 was written to AMReg:43 

2017-12-20 01:05:19,*******DONE*******#

Exiting PsocAmPreRad
#O0E0000002B03AM_VDD_HV

2017-12-20 01:05:20, 4f,:e,:0,:0,:2b,:3,:3a3 @

2017-12-20 01:05:20,2235,

2017-12-20 01:05:20, *******DONE*******#

Exiting PsocAmPreRad
