#P0E0000001900AM_RdFreq

2017-12-20 15:22:25, 50,:e,:0,:0,:19,:0,:a0 @

2017-12-20 15:22:25,*******Measure Period per Event & Freq in MHz*******

2017-12-20 15:22:25,****Period_cnt , Freq, SeqNo, Status,..........

2017-12-20 15:22:25,#P#, 40, 32000000, 0, 0 

2017-12-20 15:22:25,#P#, 38, 30400000, 1, 0 

2017-12-20 15:22:25,#P#, 39, 31200000, 2, 0 

2017-12-20 15:22:25,#P#, 38, 30400000, 3, 0 

2017-12-20 15:22:25,#P#, 38, 30400000, 4, 0 

2017-12-20 15:22:25,#P#, 39, 31200000, 5, 0 

2017-12-20 15:22:25,#P#, 39, 31200000, 6, 0 

2017-12-20 15:22:25,#P#, 39, 31200000, 7, 0 

2017-12-20 15:22:25,#P#, 38, 30400000, 8, 0 

2017-12-20 15:22:25,#P#, 39, 31200000, 9, 0 

2017-12-20 15:22:25,#P#, 39, 31200000, 10, 0 

2017-12-20 15:22:25,#P#, 38, 30400000, 11, 0 

2017-12-20 15:22:25,#P#, 38, 30400000, 12, 0 

2017-12-20 15:22:25,#P#, 39, 31200000, 13, 0 

2017-12-20 15:22:25,#P#, 38, 30400000, 14, 0 

2017-12-20 15:22:25,#P#, 39, 31200000, 15, 0 

2017-12-20 15:22:25,#P#, 38, 30400000, 16, 0 

2017-12-20 15:22:25,#P#, 39, 31200000, 17, 0 

2017-12-20 15:22:26,#P#, 38, 30400000, 18, 0 

2017-12-20 15:22:26,#P#, 39, 31200000, 19, 0 

2017-12-20 15:22:26,#P#, 39, 31200000, 20, 0 

2017-12-20 15:22:26,#P#, 38, 30400000, 21, 0 

2017-12-20 15:22:26,#P#, 36, 28800000, 22, 0 

2017-12-20 15:22:26,#P#, 39, 31200000, 23, 0 

2017-12-20 15:22:26,#P#, 38, 30400000, 24, 0 

2017-12-20 15:22:26,*******DONE*******#

Exiting PsocAmPreRad
#A0E0000002B03AM_RegRW.

2017-12-20 15:22:27, 41,:e,:0,:0,:2b,:3,:3a3 @

2017-12-20 15:22:27,Value:3 was written to AMReg:43 

2017-12-20 15:22:27,*******DONE*******#

Exiting PsocAmPreRad
#O0E0000002B03AM_VDD_HV

2017-12-20 15:22:28, 4f,:e,:0,:0,:2b,:3,:3a3 @

2017-12-20 15:22:28,5,

2017-12-20 15:22:28, *******DONE*******#

Exiting PsocAmPreRad
