#P0E000000C800AM_RdFreq

2017-10-02 13:14:38, 50,:e,:0,:0,:0,:c8,:0 @

2017-10-02 13:14:38,*******Measure Period per Event & Freq in MHz*******

2017-10-02 13:14:38,****Period_cnt , Freq, SeqNo, Status,..........

2017-10-02 13:14:38,#P#, 38, 30400000, 0, 0 

2017-10-02 13:14:38,#P#, 39, 31200000, 1, 0 

2017-10-02 13:14:38,#P#, 38, 30400000, 2, 0 

2017-10-02 13:14:38,#P#, 38, 30400000, 3, 0 

2017-10-02 13:14:38,#P#, 37, 29600000, 4, 0 

2017-10-02 13:14:38,#P#, 38, 30400000, 5, 0 

2017-10-02 13:14:38,#P#, 37, 29600000, 6, 0 

2017-10-02 13:14:38,#P#, 38, 30400000, 7, 0 

2017-10-02 13:14:38,#P#, 38, 30400000, 8, 0 

2017-10-02 13:14:38,#P#, 37, 29600000, 9, 0 

2017-10-02 13:14:38,#P#, 38, 30400000, 10, 0 

2017-10-02 13:14:38,#P#, 37, 29600000, 11, 0 

2017-10-02 13:14:38,#P#, 37, 29600000, 12, 0 

2017-10-02 13:14:38,#P#, 37, 29600000, 13, 0 

2017-10-02 13:14:38,#P#, 37, 29600000, 14, 0 

2017-10-02 13:14:38,#P#, 38, 30400000, 15, 0 

2017-10-02 13:14:38,#P#, 36, 28800000, 16, 0 

2017-10-02 13:14:38,#P#, 37, 29600000, 17, 0 

2017-10-02 13:14:38,#P#, 37, 29600000, 18, 0 

2017-10-02 13:14:38,#P#, 37, 29600000, 19, 0 

2017-10-02 13:14:38,#P#, 37, 29600000, 20, 0 

2017-10-02 13:14:38,#P#, 38, 30400000, 21, 0 

2017-10-02 13:14:38,#P#, 38, 30400000, 22, 0 

2017-10-02 13:14:38,#P#, 38, 30400000, 23, 0 

2017-10-02 13:14:38,#P#, 38, 30400000, 24, 0 

2017-10-02 13:14:38,#P#, 38, 30400000, 25, 0 

2017-10-02 13:14:38,#P#, 37, 29600000, 26, 0 

2017-10-02 13:14:38,#P#, 37, 29600000, 27, 0 

2017-10-02 13:14:38,#P#, 39, 31200000, 28, 0 

2017-10-02 13:14:38,#P#, 38, 30400000, 29, 0 

2017-10-02 13:14:38,#P#, 38, 30400000, 30, 0 

2017-10-02 13:14:38,#P#, 38, 30400000, 31, 0 

2017-10-02 13:14:38,#P#, 38, 30400000, 32, 0 

2017-10-02 13:14:38,#P#, 38, 30400000, 33, 0 

2017-10-02 13:14:38,#P#, 38, 30400000, 34, 0 

2017-10-02 13:14:38,#P#, 38, 30400000, 35, 0 

2017-10-02 13:14:38,#P#, 37, 29600000, 36, 0 

2017-10-02 13:14:38,#P#, 39, 31200000, 37, 0 

2017-10-02 13:14:38,#P#, 38, 30400000, 38, 0 

2017-10-02 13:14:38,#P#, 39, 31200000, 39, 0 

2017-10-02 13:14:38,#P#, 37, 29600000, 40, 0 

2017-10-02 13:14:38,#P#, 38, 30400000, 41, 0 

2017-10-02 13:14:38,#P#, 39, 31200000, 42, 0 

2017-10-02 13:14:38,#P#, 38, 30400000, 43, 0 

2017-10-02 13:14:38,#P#, 37, 29600000, 44, 0 

2017-10-02 13:14:38,#P#, 37, 29600000, 45, 0 

2017-10-02 13:14:39,#P#, 38, 30400000, 46, 0 

2017-10-02 13:14:39,#P#, 38, 30400000, 47, 0 

2017-10-02 13:14:39,#P#, 38, 30400000, 48, 0 

2017-10-02 13:14:39,#P#, 38, 30400000, 49, 0 

2017-10-02 13:14:39,#P#, 37, 29600000, 50, 0 

2017-10-02 13:14:39,#P#, 37, 29600000, 51, 0 

2017-10-02 13:14:39,#P#, 38, 30400000, 52, 0 

2017-10-02 13:14:39,#P#, 38, 30400000, 53, 0 

2017-10-02 13:14:39,#P#, 38, 30400000, 54, 0 

2017-10-02 13:14:39,#P#, 38, 30400000, 55, 0 

2017-10-02 13:14:39,#P#, 37, 29600000, 56, 0 

2017-10-02 13:14:39,#P#, 38, 30400000, 57, 0 

2017-10-02 13:14:39,#P#, 38, 30400000, 58, 0 

2017-10-02 13:14:39,#P#, 39, 31200000, 59, 0 

2017-10-02 13:14:39,#P#, 38, 30400000, 60, 0 

2017-10-02 13:14:39,#P#, 38, 30400000, 61, 0 

2017-10-02 13:14:39,#P#, 38, 30400000, 62, 0 

2017-10-02 13:14:39,#P#, 38, 30400000, 63, 0 

2017-10-02 13:14:39,#P#, 38, 30400000, 64, 0 

2017-10-02 13:14:39,#P#, 37, 29600000, 65, 0 

2017-10-02 13:14:39,#P#, 37, 29600000, 66, 0 

2017-10-02 13:14:39,#P#, 38, 30400000, 67, 0 

2017-10-02 13:14:39,#P#, 37, 29600000, 68, 0 

2017-10-02 13:14:39,#P#, 39, 31200000, 69, 0 

2017-10-02 13:14:39,#P#, 37, 29600000, 70, 0 

2017-10-02 13:14:39,#P#, 38, 30400000, 71, 0 

2017-10-02 13:14:39,#P#, 38, 30400000, 72, 0 

2017-10-02 13:14:39,#P#, 37, 29600000, 73, 0 

2017-10-02 13:14:39,#P#, 37, 29600000, 74, 0 

2017-10-02 13:14:39,#P#, 38, 30400000, 75, 0 

2017-10-02 13:14:39,#P#, 38, 30400000, 76, 0 

2017-10-02 13:14:39,#P#, 37, 29600000, 77, 0 

2017-10-02 13:14:39,#P#, 37, 29600000, 78, 0 

2017-10-02 13:14:39,#P#, 38, 30400000, 79, 0 

2017-10-02 13:14:39,#P#, 38, 30400000, 80, 0 

2017-10-02 13:14:39,#P#, 37, 29600000, 81, 0 

2017-10-02 13:14:39,#P#, 38, 30400000, 82, 0 

2017-10-02 13:14:39,#P#, 38, 30400000, 83, 0 

2017-10-02 13:14:39,#P#, 38, 30400000, 84, 0 

2017-10-02 13:14:39,#P#, 37, 29600000, 85, 0 

2017-10-02 13:14:39,#P#, 37, 29600000, 86, 0 

2017-10-02 13:14:39,#P#, 38, 30400000, 87, 0 

2017-10-02 13:14:39,#P#, 38, 30400000, 88, 0 

2017-10-02 13:14:39,#P#, 39, 31200000, 89, 0 

2017-10-02 13:14:39,#P#, 37, 29600000, 90, 0 

2017-10-02 13:14:39,#P#, 38, 30400000, 91, 0 

2017-10-02 13:14:39,#P#, 38, 30400000, 92, 0 

2017-10-02 13:14:39,#P#, 38, 30400000, 93, 0 

2017-10-02 13:14:39,#P#, 38, 30400000, 94, 0 

2017-10-02 13:14:39,#P#, 38, 30400000, 95, 0 

2017-10-02 13:14:39,#P#, 39, 31200000, 96, 0 

2017-10-02 13:14:39,#P#, 37, 29600000, 97, 0 

2017-10-02 13:14:39,#P#, 38, 30400000, 98, 0 

2017-10-02 13:14:39,#P#, 38, 30400000, 99, 0 

2017-10-02 13:14:39,#P#, 38, 30400000, 100, 0 

2017-10-02 13:14:39,#P#, 37, 29600000, 101, 0 

2017-10-02 13:14:39,#P#, 38, 30400000, 102, 0 

2017-10-02 13:14:39,#P#, 37, 29600000, 103, 0 

2017-10-02 13:14:39,#P#, 37, 29600000, 104, 0 

2017-10-02 13:14:39,#P#, 37, 29600000, 105, 0 

2017-10-02 13:14:39,#P#, 36, 28800000, 106, 0 

2017-10-02 13:14:39,#P#, 38, 30400000, 107, 0 

2017-10-02 13:14:39,#P#, 37, 29600000, 108, 0 

2017-10-02 13:14:39,#P#, 37, 29600000, 109, 0 

2017-10-02 13:14:39,#P#, 38, 30400000, 110, 0 

2017-10-02 13:14:39,#P#, 37, 29600000, 111, 0 

2017-10-02 13:14:39,#P#, 38, 30400000, 112, 0 

2017-10-02 13:14:39,#P#, 38, 30400000, 113, 0 

2017-10-02 13:14:39,#P#, 38, 30400000, 114, 0 

2017-10-02 13:14:39,#P#, 37, 29600000, 115, 0 

2017-10-02 13:14:39,#P#, 38, 30400000, 116, 0 

2017-10-02 13:14:39,#P#, 37, 29600000, 117, 0 

2017-10-02 13:14:39,#P#, 37, 29600000, 118, 0 

2017-10-02 13:14:39,#P#, 37, 29600000, 119, 0 

2017-10-02 13:14:39,#P#, 37, 29600000, 120, 0 

2017-10-02 13:14:39,#P#, 38, 30400000, 121, 0 

2017-10-02 13:14:39,#P#, 39, 31200000, 122, 0 

2017-10-02 13:14:39,#P#, 38, 30400000, 123, 0 

2017-10-02 13:14:39,#P#, 38, 30400000, 124, 0 

2017-10-02 13:14:39,#P#, 39, 31200000, 125, 0 

2017-10-02 13:14:39,#P#, 37, 29600000, 126, 0 

2017-10-02 13:14:39,#P#, 38, 30400000, 127, 0 

2017-10-02 13:14:39,#P#, 37, 29600000, 128, 0 

2017-10-02 13:14:39,#P#, 37, 29600000, 129, 0 

2017-10-02 13:14:39,#P#, 37, 29600000, 130, 0 

2017-10-02 13:14:39,#P#, 38, 30400000, 131, 0 

2017-10-02 13:14:39,#P#, 37, 29600000, 132, 0 

2017-10-02 13:14:39,#P#, 38, 30400000, 133, 0 

2017-10-02 13:14:39,#P#, 37, 29600000, 134, 0 

2017-10-02 13:14:39,#P#, 38, 30400000, 135, 0 

2017-10-02 13:14:39,#P#, 37, 29600000, 136, 0 

2017-10-02 13:14:39,#P#, 37, 29600000, 137, 0 

2017-10-02 13:14:39,#P#, 38, 30400000, 138, 0 

2017-10-02 13:14:39,#P#, 36, 28800000, 139, 0 

2017-10-02 13:14:39,#P#, 38, 30400000, 140, 0 

2017-10-02 13:14:39,#P#, 37, 29600000, 141, 0 

2017-10-02 13:14:39,#P#, 37, 29600000, 142, 0 

2017-10-02 13:14:39,#P#, 38, 30400000, 143, 0 

2017-10-02 13:14:39,#P#, 37, 29600000, 144, 0 

2017-10-02 13:14:39,#P#, 37, 29600000, 145, 0 

2017-10-02 13:14:39,#P#, 38, 30400000, 146, 0 

2017-10-02 13:14:39,#P#, 37, 29600000, 147, 0 

2017-10-02 13:14:39,#P#, 37, 29600000, 148, 0 

2017-10-02 13:14:39,#P#, 37, 29600000, 149, 0 

2017-10-02 13:14:39,#P#, 37, 29600000, 150, 0 

2017-10-02 13:14:39,#P#, 37, 29600000, 151, 0 

2017-10-02 13:14:39,#P#, 38, 30400000, 152, 0 

2017-10-02 13:14:39,#P#, 38, 30400000, 153, 0 

2017-10-02 13:14:39,#P#, 38, 30400000, 154, 0 

2017-10-02 13:14:39,#P#, 37, 29600000, 155, 0 

2017-10-02 13:14:39,#P#, 37, 29600000, 156, 0 

2017-10-02 13:14:39,#P#, 37, 29600000, 157, 0 

2017-10-02 13:14:39,#P#, 38, 30400000, 158, 0 

2017-10-02 13:14:39,#P#, 38, 30400000, 159, 0 

2017-10-02 13:14:39,#P#, 39, 31200000, 160, 0 

2017-10-02 13:14:39,#P#, 38, 30400000, 161, 0 

2017-10-02 13:14:39,#P#, 37, 29600000, 162, 0 

2017-10-02 13:14:39,#P#, 38, 30400000, 163, 0 

2017-10-02 13:14:39,#P#, 38, 30400000, 164, 0 

2017-10-02 13:14:39,#P#, 39, 31200000, 165, 0 

2017-10-02 13:14:39,#P#, 37, 29600000, 166, 0 

2017-10-02 13:14:39,#P#, 37, 29600000, 167, 0 

2017-10-02 13:14:39,#P#, 37, 29600000, 168, 0 

2017-10-02 13:14:39,#P#, 38, 30400000, 169, 0 

2017-10-02 13:14:39,#P#, 38, 30400000, 170, 0 

2017-10-02 13:14:39,#P#, 38, 30400000, 171, 0 

2017-10-02 13:14:39,#P#, 38, 30400000, 172, 0 

2017-10-02 13:14:39,#P#, 37, 29600000, 173, 0 

2017-10-02 13:14:39,#P#, 37, 29600000, 174, 0 

2017-10-02 13:14:39,#P#, 38, 30400000, 175, 0 

2017-10-02 13:14:39,#P#, 38, 30400000, 176, 0 

2017-10-02 13:14:39,#P#, 38, 30400000, 177, 0 

2017-10-02 13:14:39,#P#, 38, 30400000, 178, 0 

2017-10-02 13:14:39,#P#, 38, 30400000, 179, 0 

2017-10-02 13:14:39,#P#, 39, 31200000, 180, 0 

2017-10-02 13:14:40,#P#, 38, 30400000, 181, 0 

2017-10-02 13:14:40,#P#, 37, 29600000, 182, 0 

2017-10-02 13:14:40,#P#, 38, 30400000, 183, 0 

2017-10-02 13:14:40,#P#, 38, 30400000, 184, 0 

2017-10-02 13:14:40,#P#, 37, 29600000, 185, 0 

2017-10-02 13:14:40,#P#, 38, 30400000, 186, 0 

2017-10-02 13:14:40,#P#, 37, 29600000, 187, 0 

2017-10-02 13:14:40,#P#, 38, 30400000, 188, 0 

2017-10-02 13:14:40,#P#, 38, 30400000, 189, 0 

2017-10-02 13:14:40,#P#, 38, 30400000, 190, 0 

2017-10-02 13:14:40,#P#, 37, 29600000, 191, 0 

2017-10-02 13:14:40,#P#, 38, 30400000, 192, 0 

2017-10-02 13:14:40,#P#, 37, 29600000, 193, 0 

2017-10-02 13:14:40,#P#, 38, 30400000, 194, 0 

2017-10-02 13:14:40,#P#, 37, 29600000, 195, 0 

2017-10-02 13:14:40,#P#, 38, 30400000, 196, 0 

2017-10-02 13:14:40,#P#, 37, 29600000, 197, 0 

2017-10-02 13:14:40,#P#, 37, 29600000, 198, 0 

2017-10-02 13:14:40,#P#, 38, 30400000, 199, 0 

2017-10-02 13:14:40,*******DONE*******#

Exiting PsocAmPreRad
#E0E00147A0A01IS_RAMP .

2017-10-02 13:14:41, 45,:e,:0,:14,:7a,:a,:1 @

2017-10-02 13:14:41,*SeqNo,Samples,DAC_Cnt,BGapReg,GainReg,AM_VCal,BGO,Isense0,Isense1

2017-10-02 13:14:42,
2017-10-02 13:14:42,#E#,0,0,1,0,0,520,0,0,0,2,3

2017-10-02 13:14:42,#E#,0,1,1,0,0,520,0,0,0,2,3

2017-10-02 13:14:42,#E#,0,2,1,0,0,520,0,0,0,2,3

2017-10-02 13:14:42,#E#,0,3,1,0,0,519,0,0,0,2,3

2017-10-02 13:14:42,#E#,0,4,1,0,0,519,0,0,0,2,3

2017-10-02 13:14:42,#E#,0,5,1,0,0,520,0,0,0,2,3

2017-10-02 13:14:42,#E#,0,6,1,0,0,519,0,0,0,2,3

2017-10-02 13:14:42,#E#,0,7,1,0,0,520,0,0,0,2,3

2017-10-02 13:14:42,#E#,0,8,1,0,0,520,0,0,0,2,3

2017-10-02 13:14:42,#E#,0,9,1,0,0,520,0,0,0,2,3

2017-10-02 13:14:43,
2017-10-02 13:14:44,#E#,1,0,1,0,604,519,0,27,27,2,3

2017-10-02 13:14:44,#E#,1,1,1,0,604,519,0,27,27,2,3

2017-10-02 13:14:44,#E#,1,2,1,0,604,520,0,27,27,2,3

2017-10-02 13:14:44,#E#,1,3,1,0,604,520,0,27,27,2,3

2017-10-02 13:14:44,#E#,1,4,1,0,604,520,0,27,27,2,3

2017-10-02 13:14:44,#E#,1,5,1,0,604,520,0,27,27,2,3

2017-10-02 13:14:44,#E#,1,6,1,0,604,519,0,27,27,2,3

2017-10-02 13:14:44,#E#,1,7,1,0,604,520,0,27,27,2,3

2017-10-02 13:14:44,#E#,1,8,1,0,604,520,0,27,27,2,3

2017-10-02 13:14:44,#E#,1,9,1,0,604,519,0,27,27,2,3

2017-10-02 13:14:45,
2017-10-02 13:14:45,#E#,2,0,1,0,604,520,0,27,27,2,3

2017-10-02 13:14:45,#E#,2,1,1,0,604,519,0,27,27,2,3

2017-10-02 13:14:45,#E#,2,2,1,0,604,519,0,27,27,2,3

2017-10-02 13:14:45,#E#,2,3,1,0,604,519,0,27,27,2,3

2017-10-02 13:14:45,#E#,2,4,1,0,604,520,0,27,27,2,3

2017-10-02 13:14:45,#E#,2,5,1,0,604,520,0,27,27,2,3

2017-10-02 13:14:45,#E#,2,6,1,0,604,519,0,27,27,2,3

2017-10-02 13:14:45,#E#,2,7,1,0,604,520,0,27,27,2,3

2017-10-02 13:14:45,#E#,2,8,1,0,604,520,0,27,27,2,3

2017-10-02 13:14:45,#E#,2,9,1,0,604,519,0,27,27,2,3

2017-10-02 13:14:46,
2017-10-02 13:14:46,#E#,3,0,1,0,604,519,0,27,27,2,3

2017-10-02 13:14:46,#E#,3,1,1,0,604,520,0,27,27,2,3

2017-10-02 13:14:46,#E#,3,2,1,0,604,520,0,27,27,2,3

2017-10-02 13:14:46,#E#,3,3,1,0,604,519,0,27,27,2,3

2017-10-02 13:14:47,#E#,3,4,1,0,604,520,0,27,27,2,3

2017-10-02 13:14:47,#E#,3,5,1,0,604,519,0,27,27,2,3

2017-10-02 13:14:47,#E#,3,6,1,0,604,519,0,27,27,2,3

2017-10-02 13:14:47,#E#,3,7,1,0,604,519,0,27,27,2,3

2017-10-02 13:14:47,#E#,3,8,1,0,604,519,0,27,27,2,3

2017-10-02 13:14:47,#E#,3,9,1,0,604,520,0,27,27,2,3

2017-10-02 13:14:48,
2017-10-02 13:14:48,#E#,4,0,1,0,604,520,0,27,27,2,3

2017-10-02 13:14:48,#E#,4,1,1,0,604,519,0,27,27,2,3

2017-10-02 13:14:48,#E#,4,2,1,0,604,520,0,27,27,2,3

2017-10-02 13:14:48,#E#,4,3,1,0,604,519,0,27,27,2,3

2017-10-02 13:14:48,#E#,4,4,1,0,604,519,0,27,27,2,3

2017-10-02 13:14:48,#E#,4,5,1,0,604,519,0,27,27,2,3

2017-10-02 13:14:48,#E#,4,6,1,0,604,520,0,27,27,2,3

2017-10-02 13:14:48,#E#,4,7,1,0,604,520,0,27,27,2,3

2017-10-02 13:14:48,#E#,4,8,1,0,604,520,0,27,27,2,3

2017-10-02 13:14:48,#E#,4,9,1,0,604,520,0,27,27,2,3

2017-10-02 13:14:49,
2017-10-02 13:14:49,#E#,5,0,1,0,604,519,0,27,27,2,3

2017-10-02 13:14:49,#E#,5,1,1,0,604,519,0,27,27,2,3

2017-10-02 13:14:49,#E#,5,2,1,0,604,520,0,27,27,2,3

2017-10-02 13:14:49,#E#,5,3,1,0,604,520,0,27,27,2,3

2017-10-02 13:14:49,#E#,5,4,1,0,604,520,0,27,27,2,3

2017-10-02 13:14:49,#E#,5,5,1,0,604,519,0,27,27,2,3

2017-10-02 13:14:49,#E#,5,6,1,0,604,520,0,27,27,2,3

2017-10-02 13:14:49,#E#,5,7,1,0,604,520,0,27,27,2,3

2017-10-02 13:14:49,#E#,5,8,1,0,604,519,0,27,27,2,3

2017-10-02 13:14:49,#E#,5,9,1,0,604,520,0,27,27,2,3

2017-10-02 13:14:50,
2017-10-02 13:14:51,#E#,6,0,1,0,604,520,0,27,27,2,3

2017-10-02 13:14:51,#E#,6,1,1,0,604,520,0,27,27,2,3

2017-10-02 13:14:51,#E#,6,2,1,0,604,520,0,27,27,2,3

2017-10-02 13:14:51,#E#,6,3,1,0,604,520,0,27,27,2,3

2017-10-02 13:14:51,#E#,6,4,1,0,604,519,0,27,27,2,3

2017-10-02 13:14:51,#E#,6,5,1,0,604,519,0,27,27,2,3

2017-10-02 13:14:51,#E#,6,6,1,0,604,519,0,27,27,2,3

2017-10-02 13:14:51,#E#,6,7,1,0,604,519,0,27,27,2,3

2017-10-02 13:14:51,#E#,6,8,1,0,604,519,0,27,27,2,3

2017-10-02 13:14:51,#E#,6,9,1,0,604,519,0,27,27,2,3

2017-10-02 13:14:52,
2017-10-02 13:14:52,#E#,7,0,1,0,604,520,0,27,27,2,3

2017-10-02 13:14:52,#E#,7,1,1,0,604,519,0,27,27,2,3

2017-10-02 13:14:52,#E#,7,2,1,0,604,519,0,27,27,2,3

2017-10-02 13:14:52,#E#,7,3,1,0,604,519,0,27,27,2,3

2017-10-02 13:14:52,#E#,7,4,1,0,604,520,0,27,27,2,3

2017-10-02 13:14:52,#E#,7,5,1,0,604,519,0,27,27,2,3

2017-10-02 13:14:52,#E#,7,6,1,0,604,519,0,27,27,2,3

2017-10-02 13:14:52,#E#,7,7,1,0,604,519,0,27,27,2,3

2017-10-02 13:14:52,#E#,7,8,1,0,604,520,0,27,27,2,3

2017-10-02 13:14:52,#E#,7,9,1,0,604,520,0,27,27,2,3

2017-10-02 13:14:53,
2017-10-02 13:14:53,#E#,8,0,1,0,604,519,0,27,27,2,3

2017-10-02 13:14:53,#E#,8,1,1,0,604,519,0,27,27,2,3

2017-10-02 13:14:53,#E#,8,2,1,0,604,520,0,27,27,2,3

2017-10-02 13:14:53,#E#,8,3,1,0,604,519,0,27,27,2,3

2017-10-02 13:14:53,#E#,8,4,1,0,604,519,0,27,27,2,3

2017-10-02 13:14:53,#E#,8,5,1,0,604,519,0,27,27,2,3

2017-10-02 13:14:53,#E#,8,6,1,0,604,519,0,27,27,2,3

2017-10-02 13:14:53,#E#,8,7,1,0,604,520,0,27,27,2,3

2017-10-02 13:14:53,#E#,8,8,1,0,604,519,0,27,27,2,3

2017-10-02 13:14:53,#E#,8,9,1,0,604,520,0,27,27,2,3

2017-10-02 13:14:54,
2017-10-02 13:14:55,#E#,9,0,1,0,604,519,0,27,27,2,3

2017-10-02 13:14:55,#E#,9,1,1,0,604,520,0,27,27,2,3

2017-10-02 13:14:55,#E#,9,2,1,0,604,520,0,27,27,2,3

2017-10-02 13:14:55,#E#,9,3,1,0,604,519,0,27,27,2,3

2017-10-02 13:14:55,#E#,9,4,1,0,604,520,0,27,27,2,3

2017-10-02 13:14:55,#E#,9,5,1,0,604,520,0,27,27,2,3

2017-10-02 13:14:55,#E#,9,6,1,0,604,520,0,27,27,2,3

2017-10-02 13:14:55,#E#,9,7,1,0,604,520,0,27,27,2,3

2017-10-02 13:14:55,#E#,9,8,1,0,604,519,0,27,27,2,3

2017-10-02 13:14:55,#E#,9,9,1,0,604,520,0,27,27,2,3

2017-10-02 13:14:56,
2017-10-02 13:14:56,#E#,10,0,1,0,604,520,0,27,27,2,3

2017-10-02 13:14:56,#E#,10,1,1,0,604,520,0,27,27,2,3

2017-10-02 13:14:56,#E#,10,2,1,0,604,520,0,27,27,2,3

2017-10-02 13:14:56,#E#,10,3,1,0,604,520,0,27,27,2,3

2017-10-02 13:14:56,#E#,10,4,1,0,604,520,0,27,27,2,3

2017-10-02 13:14:56,#E#,10,5,1,0,604,520,0,27,27,2,3

2017-10-02 13:14:56,#E#,10,6,1,0,604,519,0,27,27,2,3

2017-10-02 13:14:56,#E#,10,7,1,0,604,519,0,27,27,2,3

2017-10-02 13:14:56,#E#,10,8,1,0,604,520,0,27,27,2,3

2017-10-02 13:14:56,#E#,10,9,1,0,604,519,0,27,27,2,3

2017-10-02 13:14:57,
2017-10-02 13:14:57,#E#,11,0,1,0,604,519,0,27,27,2,3

2017-10-02 13:14:57,#E#,11,1,1,0,604,519,0,27,27,2,3

2017-10-02 13:14:57,#E#,11,2,1,0,604,520,0,27,27,2,3

2017-10-02 13:14:57,#E#,11,3,1,0,604,520,0,27,27,2,3

2017-10-02 13:14:57,#E#,11,4,1,0,604,519,0,27,27,2,3

2017-10-02 13:14:57,#E#,11,5,1,0,604,520,0,27,27,2,3

2017-10-02 13:14:57,#E#,11,6,1,0,604,520,0,27,27,2,3

2017-10-02 13:14:57,#E#,11,7,1,0,604,519,0,27,27,2,3

2017-10-02 13:14:57,#E#,11,8,1,0,604,520,0,27,27,2,3

2017-10-02 13:14:58,#E#,11,9,1,0,604,519,0,27,27,2,3

2017-10-02 13:14:59,
2017-10-02 13:14:59,#E#,12,0,1,0,604,519,0,27,27,2,3

2017-10-02 13:14:59,#E#,12,1,1,0,604,520,0,27,27,2,3

2017-10-02 13:14:59,#E#,12,2,1,0,604,520,0,27,27,2,3

2017-10-02 13:14:59,#E#,12,3,1,0,604,520,0,27,27,2,3

2017-10-02 13:14:59,#E#,12,4,1,0,604,519,0,27,27,2,3

2017-10-02 13:14:59,#E#,12,5,1,0,604,519,0,27,27,2,3

2017-10-02 13:14:59,#E#,12,6,1,0,604,519,0,27,27,2,3

2017-10-02 13:14:59,#E#,12,7,1,0,604,519,0,27,27,2,3

2017-10-02 13:14:59,#E#,12,8,1,0,604,519,0,27,27,2,3

2017-10-02 13:14:59,#E#,12,9,1,0,604,520,0,27,27,2,3

2017-10-02 13:15:00,
2017-10-02 13:15:00,#E#,13,0,1,0,604,519,0,27,27,2,3

2017-10-02 13:15:00,#E#,13,1,1,0,604,519,0,27,27,2,3

2017-10-02 13:15:00,#E#,13,2,1,0,604,519,0,27,27,2,3

2017-10-02 13:15:00,#E#,13,3,1,0,604,519,0,27,27,2,3

2017-10-02 13:15:00,#E#,13,4,1,0,604,520,0,27,27,2,3

2017-10-02 13:15:00,#E#,13,5,1,0,604,520,0,27,27,2,3

2017-10-02 13:15:00,#E#,13,6,1,0,604,519,0,27,27,2,3

2017-10-02 13:15:00,#E#,13,7,1,0,604,520,0,27,27,2,3

2017-10-02 13:15:00,#E#,13,8,1,0,604,519,0,27,27,2,3

2017-10-02 13:15:00,#E#,13,9,1,0,604,520,0,27,27,2,3

2017-10-02 13:15:01,
2017-10-02 13:15:01,#E#,14,0,1,0,604,520,0,27,27,2,3

2017-10-02 13:15:01,#E#,14,1,1,0,604,519,0,27,27,2,3

2017-10-02 13:15:01,#E#,14,2,1,0,604,520,0,27,27,2,3

2017-10-02 13:15:02,#E#,14,3,1,0,604,520,0,27,27,2,3

2017-10-02 13:15:02,#E#,14,4,1,0,604,519,0,27,27,2,3

2017-10-02 13:15:02,#E#,14,5,1,0,604,519,0,27,27,2,3

2017-10-02 13:15:02,#E#,14,6,1,0,604,520,0,27,27,2,3

2017-10-02 13:15:02,#E#,14,7,1,0,604,520,0,27,27,2,3

2017-10-02 13:15:02,#E#,14,8,1,0,604,520,0,27,27,2,3

2017-10-02 13:15:02,#E#,14,9,1,0,604,520,0,27,27,2,3

2017-10-02 13:15:03,
2017-10-02 13:15:03,#E#,15,0,1,0,604,519,0,27,27,2,3

2017-10-02 13:15:03,#E#,15,1,1,0,604,519,0,27,27,2,3

2017-10-02 13:15:03,#E#,15,2,1,0,604,520,0,27,27,2,3

2017-10-02 13:15:03,#E#,15,3,1,0,604,520,0,27,27,2,3

2017-10-02 13:15:03,#E#,15,4,1,0,604,519,0,27,27,2,3

2017-10-02 13:15:03,#E#,15,5,1,0,604,520,0,27,27,2,3

2017-10-02 13:15:03,#E#,15,6,1,0,604,519,0,27,27,2,3

2017-10-02 13:15:03,#E#,15,7,1,0,604,519,0,27,27,2,3

2017-10-02 13:15:03,#E#,15,8,1,0,604,519,0,27,27,2,3

2017-10-02 13:15:03,#E#,15,9,1,0,604,520,0,27,27,2,3

2017-10-02 13:15:04,
2017-10-02 13:15:04,#E#,16,0,1,0,604,519,0,27,27,2,3

2017-10-02 13:15:04,#E#,16,1,1,0,604,519,0,27,27,2,3

2017-10-02 13:15:04,#E#,16,2,1,0,604,519,0,27,27,2,3

2017-10-02 13:15:04,#E#,16,3,1,0,604,520,0,27,27,2,3

2017-10-02 13:15:04,#E#,16,4,1,0,604,520,0,27,27,2,3

2017-10-02 13:15:04,#E#,16,5,1,0,604,519,0,27,27,2,3

2017-10-02 13:15:04,#E#,16,6,1,0,604,519,0,27,27,2,3

2017-10-02 13:15:04,#E#,16,7,1,0,604,519,0,27,27,2,3

2017-10-02 13:15:04,#E#,16,8,1,0,604,519,0,27,27,2,3

2017-10-02 13:15:04,#E#,16,9,1,0,604,519,0,27,27,2,3

2017-10-02 13:15:05,
2017-10-02 13:15:06,#E#,17,0,1,0,604,519,0,27,27,2,3

2017-10-02 13:15:06,#E#,17,1,1,0,604,520,0,27,27,2,3

2017-10-02 13:15:06,#E#,17,2,1,0,604,519,0,27,27,2,3

2017-10-02 13:15:06,#E#,17,3,1,0,604,520,0,27,27,2,3

2017-10-02 13:15:06,#E#,17,4,1,0,604,520,0,27,27,2,3

2017-10-02 13:15:06,#E#,17,5,1,0,604,519,0,27,27,2,3

2017-10-02 13:15:06,#E#,17,6,1,0,604,519,0,27,27,2,3

2017-10-02 13:15:06,#E#,17,7,1,0,604,519,0,27,27,2,3

2017-10-02 13:15:06,#E#,17,8,1,0,604,520,0,27,27,2,3

2017-10-02 13:15:06,#E#,17,9,1,0,604,519,0,27,27,2,3

2017-10-02 13:15:07,
2017-10-02 13:15:07,#E#,18,0,1,0,604,519,0,27,27,2,3

2017-10-02 13:15:07,#E#,18,1,1,0,604,519,0,27,27,2,3

2017-10-02 13:15:07,#E#,18,2,1,0,604,519,0,27,27,2,3

2017-10-02 13:15:07,#E#,18,3,1,0,604,520,0,27,27,2,3

2017-10-02 13:15:07,#E#,18,4,1,0,604,520,0,27,27,2,3

2017-10-02 13:15:07,#E#,18,5,1,0,604,520,0,27,27,2,3

2017-10-02 13:15:07,#E#,18,6,1,0,604,520,0,27,27,2,3

2017-10-02 13:15:07,#E#,18,7,1,0,604,519,0,27,27,2,3

2017-10-02 13:15:07,#E#,18,8,1,0,604,520,0,27,27,2,3

2017-10-02 13:15:07,#E#,18,9,1,0,604,520,0,27,27,2,3

2017-10-02 13:15:08,
2017-10-02 13:15:08,#E#,19,0,1,0,604,519,0,27,27,2,3

2017-10-02 13:15:08,#E#,19,1,1,0,604,519,0,27,27,2,3

2017-10-02 13:15:08,#E#,19,2,1,0,604,519,0,27,27,2,3

2017-10-02 13:15:08,#E#,19,3,1,0,604,520,0,27,27,2,3

2017-10-02 13:15:08,#E#,19,4,1,0,604,519,0,27,27,2,3

2017-10-02 13:15:08,#E#,19,5,1,0,604,519,0,27,27,2,3

2017-10-02 13:15:08,#E#,19,6,1,0,604,519,0,27,27,2,3

2017-10-02 13:15:08,#E#,19,7,1,0,604,519,0,27,27,2,3

2017-10-02 13:15:08,#E#,19,8,1,0,604,519,0,27,27,2,3

2017-10-02 13:15:08,#E#,19,9,1,0,604,519,0,27,27,2,3

2017-10-02 13:15:09,
2017-10-02 13:15:10,#E#,20,0,1,0,604,519,0,27,27,2,3

2017-10-02 13:15:10,#E#,20,1,1,0,604,519,0,27,27,2,3

2017-10-02 13:15:10,#E#,20,2,1,0,604,520,0,27,27,2,3

2017-10-02 13:15:10,#E#,20,3,1,0,604,520,0,27,27,2,3

2017-10-02 13:15:10,#E#,20,4,1,0,604,519,0,27,27,2,3

2017-10-02 13:15:10,#E#,20,5,1,0,604,519,0,27,27,2,3

2017-10-02 13:15:10,#E#,20,6,1,0,604,519,0,27,27,2,3

2017-10-02 13:15:10,#E#,20,7,1,0,604,519,0,27,27,2,3

2017-10-02 13:15:10,#E#,20,8,1,0,604,520,0,27,27,2,3

2017-10-02 13:15:10,#E#,20,9,1,0,604,519,0,27,27,2,3

2017-10-02 13:15:11,
2017-10-02 13:15:11,#E#,21,0,1,0,604,519,0,27,27,2,3

2017-10-02 13:15:11,#E#,21,1,1,0,604,519,0,27,27,2,3

2017-10-02 13:15:11,#E#,21,2,1,0,604,519,0,27,27,2,3

2017-10-02 13:15:11,#E#,21,3,1,0,604,519,0,27,27,2,3

2017-10-02 13:15:11,#E#,21,4,1,0,604,519,0,27,27,2,3

2017-10-02 13:15:11,#E#,21,5,1,0,604,519,0,27,27,2,3

2017-10-02 13:15:11,#E#,21,6,1,0,604,519,0,27,27,2,3

2017-10-02 13:15:11,#E#,21,7,1,0,604,520,0,27,27,2,3

2017-10-02 13:15:11,#E#,21,8,1,0,604,519,0,27,27,2,3

2017-10-02 13:15:11,#E#,21,9,1,0,604,520,0,27,27,2,3

2017-10-02 13:15:12,
2017-10-02 13:15:12,#E#,22,0,1,0,604,519,0,27,27,2,3

2017-10-02 13:15:12,#E#,22,1,1,0,604,519,0,27,27,2,3

2017-10-02 13:15:12,#E#,22,2,1,0,604,519,0,27,27,2,3

2017-10-02 13:15:12,#E#,22,3,1,0,604,519,0,27,27,2,3

2017-10-02 13:15:12,#E#,22,4,1,0,604,519,0,27,27,2,3

2017-10-02 13:15:12,#E#,22,5,1,0,604,519,0,27,27,2,3

2017-10-02 13:15:12,#E#,22,6,1,0,604,520,0,27,27,2,3

2017-10-02 13:15:12,#E#,22,7,1,0,604,519,0,27,27,2,3

2017-10-02 13:15:13,#E#,22,8,1,0,604,520,0,27,27,2,3

2017-10-02 13:15:13,#E#,22,9,1,0,604,519,0,27,27,2,3

2017-10-02 13:15:14,
2017-10-02 13:15:14,#E#,23,0,1,0,604,519,0,27,27,2,3

2017-10-02 13:15:14,#E#,23,1,1,0,604,520,0,27,27,2,3

2017-10-02 13:15:14,#E#,23,2,1,0,604,520,0,27,27,2,3

2017-10-02 13:15:14,#E#,23,3,1,0,604,520,0,27,27,2,3

2017-10-02 13:15:14,#E#,23,4,1,0,604,519,0,27,27,2,3

2017-10-02 13:15:14,#E#,23,5,1,0,604,520,0,27,27,2,3

2017-10-02 13:15:14,#E#,23,6,1,0,604,520,0,27,27,2,3

2017-10-02 13:15:14,#E#,23,7,1,0,604,519,0,27,27,2,3

2017-10-02 13:15:14,#E#,23,8,1,0,604,520,0,27,27,2,3

2017-10-02 13:15:14,#E#,23,9,1,0,604,519,0,27,27,2,3

2017-10-02 13:15:15,
2017-10-02 13:15:15,#E#,24,0,1,0,604,519,0,27,27,2,3

2017-10-02 13:15:15,#E#,24,1,1,0,604,520,0,27,27,2,3

2017-10-02 13:15:15,#E#,24,2,1,0,604,520,0,27,27,2,3

2017-10-02 13:15:15,#E#,24,3,1,0,604,519,0,27,27,2,3

2017-10-02 13:15:15,#E#,24,4,1,0,604,520,0,27,27,2,3

2017-10-02 13:15:15,#E#,24,5,1,0,604,520,0,27,27,2,3

2017-10-02 13:15:15,#E#,24,6,1,0,604,519,0,27,27,2,3

2017-10-02 13:15:15,#E#,24,7,1,0,604,519,0,27,27,2,3

2017-10-02 13:15:15,#E#,24,8,1,0,604,519,0,27,27,2,3

2017-10-02 13:15:15,#E#,24,9,1,0,604,519,0,27,27,2,3

2017-10-02 13:15:16,
2017-10-02 13:15:16,#E#,25,0,1,0,604,519,0,27,27,2,3

2017-10-02 13:15:16,#E#,25,1,1,0,604,520,0,27,27,2,3

2017-10-02 13:15:17,#E#,25,2,1,0,604,520,0,27,27,2,3

2017-10-02 13:15:17,#E#,25,3,1,0,604,519,0,27,27,2,3

2017-10-02 13:15:17,#E#,25,4,1,0,604,519,0,27,27,2,3

2017-10-02 13:15:17,#E#,25,5,1,0,604,519,0,27,27,2,3

2017-10-02 13:15:17,#E#,25,6,1,0,604,520,0,27,27,2,3

2017-10-02 13:15:17,#E#,25,7,1,0,604,519,0,27,27,2,3

2017-10-02 13:15:17,#E#,25,8,1,0,604,519,0,27,27,2,3

2017-10-02 13:15:17,#E#,25,9,1,0,604,519,0,27,27,2,3

2017-10-02 13:15:18,
2017-10-02 13:15:18,#E#,26,0,1,0,604,520,0,27,27,2,3

2017-10-02 13:15:18,#E#,26,1,1,0,604,519,0,27,27,2,3

2017-10-02 13:15:18,#E#,26,2,1,0,604,520,0,27,27,2,3

2017-10-02 13:15:18,#E#,26,3,1,0,604,519,0,27,27,2,3

2017-10-02 13:15:18,#E#,26,4,1,0,604,519,0,27,27,2,3

2017-10-02 13:15:18,#E#,26,5,1,0,604,519,0,27,27,2,3

2017-10-02 13:15:18,#E#,26,6,1,0,604,520,0,27,27,2,3

2017-10-02 13:15:18,#E#,26,7,1,0,604,519,0,27,27,2,3

2017-10-02 13:15:18,#E#,26,8,1,0,604,519,0,27,27,2,3

2017-10-02 13:15:18,#E#,26,9,1,0,604,520,0,27,27,2,3

2017-10-02 13:15:19,
2017-10-02 13:15:19,#E#,27,0,1,1,604,519,0,27,27,2,3

2017-10-02 13:15:19,#E#,27,1,1,1,604,519,0,27,27,2,3

2017-10-02 13:15:19,#E#,27,2,1,1,604,519,0,27,27,2,3

2017-10-02 13:15:19,#E#,27,3,1,1,604,519,0,27,27,2,3

2017-10-02 13:15:19,#E#,27,4,1,1,604,519,0,27,27,2,3

2017-10-02 13:15:19,#E#,27,5,1,1,604,519,0,27,27,2,3

2017-10-02 13:15:19,#E#,27,6,1,1,604,519,0,27,27,2,3

2017-10-02 13:15:19,#E#,27,7,1,1,604,519,0,27,27,2,3

2017-10-02 13:15:19,#E#,27,8,1,1,604,519,0,27,27,2,3

2017-10-02 13:15:19,#E#,27,9,1,1,604,520,0,27,27,2,3

2017-10-02 13:15:20,
2017-10-02 13:15:21,#E#,28,0,1,1,604,520,0,27,27,2,3

2017-10-02 13:15:21,#E#,28,1,1,1,604,520,0,27,27,2,3

2017-10-02 13:15:21,#E#,28,2,1,1,604,519,0,27,27,2,3

2017-10-02 13:15:21,#E#,28,3,1,1,604,519,0,27,27,2,3

2017-10-02 13:15:21,#E#,28,4,1,1,604,519,0,27,27,2,3

2017-10-02 13:15:21,#E#,28,5,1,1,604,520,0,27,27,2,3

2017-10-02 13:15:21,#E#,28,6,1,1,604,520,0,27,27,2,3

2017-10-02 13:15:21,#E#,28,7,1,1,604,519,0,27,27,2,3

2017-10-02 13:15:21,#E#,28,8,1,1,604,520,0,27,27,2,3

2017-10-02 13:15:21,#E#,28,9,1,1,604,520,0,27,27,2,3

2017-10-02 13:15:22,
2017-10-02 13:15:22,#E#,29,0,1,1,604,520,0,27,27,2,3

2017-10-02 13:15:22,#E#,29,1,1,1,604,520,0,27,27,2,3

2017-10-02 13:15:22,#E#,29,2,1,1,604,520,0,27,27,2,3

2017-10-02 13:15:22,#E#,29,3,1,1,604,520,0,27,27,2,3

2017-10-02 13:15:22,#E#,29,4,1,1,604,519,0,27,27,2,3

2017-10-02 13:15:22,#E#,29,5,1,1,604,519,0,27,27,2,3

2017-10-02 13:15:22,#E#,29,6,1,1,604,520,0,27,27,2,3

2017-10-02 13:15:22,#E#,29,7,1,1,604,519,0,27,27,2,3

2017-10-02 13:15:22,#E#,29,8,1,1,604,520,0,27,27,2,3

2017-10-02 13:15:22,#E#,29,9,1,1,604,520,0,27,27,2,3

2017-10-02 13:15:23,
2017-10-02 13:15:23,#E#,30,0,1,1,604,519,0,27,27,2,3

2017-10-02 13:15:23,#E#,30,1,1,1,604,520,0,27,27,2,3

2017-10-02 13:15:23,#E#,30,2,1,1,604,519,0,27,27,2,3

2017-10-02 13:15:23,#E#,30,3,1,1,604,520,0,27,27,2,3

2017-10-02 13:15:23,#E#,30,4,1,1,604,520,0,27,27,2,3

2017-10-02 13:15:23,#E#,30,5,1,1,604,520,0,27,27,2,3

2017-10-02 13:15:23,#E#,30,6,1,1,604,520,0,27,27,2,3

2017-10-02 13:15:23,#E#,30,7,1,1,604,520,0,27,27,2,3

2017-10-02 13:15:23,#E#,30,8,1,1,604,520,0,27,27,2,3

2017-10-02 13:15:23,#E#,30,9,1,1,604,519,0,27,27,2,3

2017-10-02 13:15:24,
2017-10-02 13:15:25,#E#,31,0,1,1,604,520,0,27,27,2,3

2017-10-02 13:15:25,#E#,31,1,1,1,604,519,0,27,27,2,3

2017-10-02 13:15:25,#E#,31,2,1,1,604,519,0,27,27,2,3

2017-10-02 13:15:25,#E#,31,3,1,1,604,520,0,27,27,2,3

2017-10-02 13:15:25,#E#,31,4,1,1,604,520,0,27,27,2,3

2017-10-02 13:15:25,#E#,31,5,1,1,604,520,0,27,27,2,3

2017-10-02 13:15:25,#E#,31,6,1,1,604,519,0,27,27,2,3

2017-10-02 13:15:25,#E#,31,7,1,1,604,520,0,27,27,2,3

2017-10-02 13:15:25,#E#,31,8,1,1,604,519,0,27,27,2,3

2017-10-02 13:15:25,#E#,31,9,1,1,604,520,0,27,27,2,3

2017-10-02 13:15:26,
2017-10-02 13:15:26,#E#,32,0,1,1,604,520,0,27,27,2,3

2017-10-02 13:15:26,#E#,32,1,1,1,604,520,0,27,27,2,3

2017-10-02 13:15:26,#E#,32,2,1,1,604,519,0,27,27,2,3

2017-10-02 13:15:26,#E#,32,3,1,1,604,520,0,27,27,2,3

2017-10-02 13:15:26,#E#,32,4,1,1,604,519,0,27,27,2,3

2017-10-02 13:15:26,#E#,32,5,1,1,604,520,0,27,27,2,3

2017-10-02 13:15:26,#E#,32,6,1,1,604,520,0,27,27,2,3

2017-10-02 13:15:26,#E#,32,7,1,1,604,519,0,27,27,2,3

2017-10-02 13:15:26,#E#,32,8,1,1,604,519,0,27,27,2,3

2017-10-02 13:15:26,#E#,32,9,1,1,604,519,0,27,27,2,3

2017-10-02 13:15:27,
2017-10-02 13:15:27,#E#,33,0,1,1,604,519,0,27,27,2,3

2017-10-02 13:15:27,#E#,33,1,1,1,604,519,0,27,27,2,3

2017-10-02 13:15:27,#E#,33,2,1,1,604,519,0,27,27,2,3

2017-10-02 13:15:27,#E#,33,3,1,1,604,519,0,27,27,2,3

2017-10-02 13:15:27,#E#,33,4,1,1,604,519,0,27,27,2,3

2017-10-02 13:15:27,#E#,33,5,1,1,604,520,0,27,27,2,3

2017-10-02 13:15:27,#E#,33,6,1,1,604,520,0,27,27,2,3

2017-10-02 13:15:28,#E#,33,7,1,1,604,519,0,27,27,2,3

2017-10-02 13:15:28,#E#,33,8,1,1,604,519,0,27,27,2,3

2017-10-02 13:15:28,#E#,33,9,1,1,604,519,0,27,27,2,3

2017-10-02 13:15:29,
2017-10-02 13:15:29,#E#,34,0,1,1,604,520,0,27,27,2,3

2017-10-02 13:15:29,#E#,34,1,1,1,604,520,0,27,27,2,3

2017-10-02 13:15:29,#E#,34,2,1,1,604,519,0,27,27,2,3

2017-10-02 13:15:29,#E#,34,3,1,1,604,519,0,27,27,2,3

2017-10-02 13:15:29,#E#,34,4,1,1,604,520,0,27,27,2,3

2017-10-02 13:15:29,#E#,34,5,1,1,604,520,0,27,27,2,3

2017-10-02 13:15:29,#E#,34,6,1,1,604,519,0,27,27,2,3

2017-10-02 13:15:29,#E#,34,7,1,1,604,519,0,27,27,2,3

2017-10-02 13:15:29,#E#,34,8,1,1,604,519,0,27,27,2,3

2017-10-02 13:15:29,#E#,34,9,1,1,604,520,0,27,27,2,3

2017-10-02 13:15:30,
2017-10-02 13:15:30,#E#,35,0,1,1,604,520,0,27,27,2,3

2017-10-02 13:15:30,#E#,35,1,1,1,604,520,0,27,27,2,3

2017-10-02 13:15:30,#E#,35,2,1,1,604,519,0,27,27,2,3

2017-10-02 13:15:30,#E#,35,3,1,1,604,520,0,27,27,2,3

2017-10-02 13:15:30,#E#,35,4,1,1,604,520,0,27,27,2,3

2017-10-02 13:15:30,#E#,35,5,1,1,604,519,0,27,27,2,3

2017-10-02 13:15:30,#E#,35,6,1,1,604,519,0,27,27,2,3

2017-10-02 13:15:30,#E#,35,7,1,1,604,520,0,27,27,2,3

2017-10-02 13:15:30,#E#,35,8,1,1,604,519,0,27,27,2,3

2017-10-02 13:15:30,#E#,35,9,1,1,604,519,0,27,27,2,3

2017-10-02 13:15:31,
2017-10-02 13:15:31,#E#,36,0,1,1,604,519,0,27,27,2,3

2017-10-02 13:15:32,#E#,36,1,1,1,604,520,0,27,27,2,3

2017-10-02 13:15:32,#E#,36,2,1,1,604,519,0,27,27,2,3

2017-10-02 13:15:32,#E#,36,3,1,1,604,520,0,27,27,2,3

2017-10-02 13:15:32,#E#,36,4,1,1,604,519,0,27,27,2,3

2017-10-02 13:15:32,#E#,36,5,1,1,604,519,0,27,27,2,3

2017-10-02 13:15:32,#E#,36,6,1,1,604,519,0,27,27,2,3

2017-10-02 13:15:32,#E#,36,7,1,1,604,519,0,27,27,2,3

2017-10-02 13:15:32,#E#,36,8,1,1,604,519,0,27,27,2,3

2017-10-02 13:15:32,#E#,36,9,1,1,604,519,0,27,27,2,3

2017-10-02 13:15:33,
2017-10-02 13:15:33,#E#,37,0,1,1,604,519,0,27,27,2,3

2017-10-02 13:15:33,#E#,37,1,1,1,604,520,0,27,27,2,3

2017-10-02 13:15:33,#E#,37,2,1,1,604,519,0,27,27,2,3

2017-10-02 13:15:33,#E#,37,3,1,1,604,520,0,27,27,2,3

2017-10-02 13:15:33,#E#,37,4,1,1,604,519,0,27,27,2,3

2017-10-02 13:15:33,#E#,37,5,1,1,604,520,0,27,27,2,3

2017-10-02 13:15:33,#E#,37,6,1,1,604,519,0,27,27,2,3

2017-10-02 13:15:33,#E#,37,7,1,1,604,519,0,27,27,2,3

2017-10-02 13:15:33,#E#,37,8,1,1,604,520,0,27,27,2,3

2017-10-02 13:15:33,#E#,37,9,1,1,604,519,0,27,27,2,3

2017-10-02 13:15:34,
2017-10-02 13:15:34,#E#,38,0,1,1,604,520,0,27,27,2,3

2017-10-02 13:15:34,#E#,38,1,1,1,604,519,0,27,27,2,3

2017-10-02 13:15:34,#E#,38,2,1,1,604,520,0,27,27,2,3

2017-10-02 13:15:34,#E#,38,3,1,1,604,519,0,27,27,2,3

2017-10-02 13:15:34,#E#,38,4,1,1,604,519,0,27,27,2,3

2017-10-02 13:15:34,#E#,38,5,1,1,604,520,0,27,27,2,3

2017-10-02 13:15:34,#E#,38,6,1,1,604,520,0,27,27,2,3

2017-10-02 13:15:34,#E#,38,7,1,1,604,519,0,27,27,2,3

2017-10-02 13:15:34,#E#,38,8,1,1,604,519,0,27,27,2,3

2017-10-02 13:15:34,#E#,38,9,1,1,604,520,0,27,27,2,3

2017-10-02 13:15:35,
2017-10-02 13:15:36,#E#,39,0,1,1,604,519,0,27,27,2,3

2017-10-02 13:15:36,#E#,39,1,1,1,604,520,0,27,27,2,3

2017-10-02 13:15:36,#E#,39,2,1,1,604,519,0,27,27,2,3

2017-10-02 13:15:36,#E#,39,3,1,1,604,519,0,27,27,2,3

2017-10-02 13:15:36,#E#,39,4,1,1,604,520,0,27,27,2,3

2017-10-02 13:15:36,#E#,39,5,1,1,604,519,0,27,27,2,3

2017-10-02 13:15:36,#E#,39,6,1,1,604,520,0,27,27,2,3

2017-10-02 13:15:36,#E#,39,7,1,1,604,520,0,27,27,2,3

2017-10-02 13:15:36,#E#,39,8,1,1,604,520,0,27,27,2,3

2017-10-02 13:15:36,#E#,39,9,1,1,604,519,0,27,27,2,3

2017-10-02 13:15:37,
2017-10-02 13:15:37,#E#,40,0,1,1,604,519,0,27,27,2,3

2017-10-02 13:15:37,#E#,40,1,1,1,604,520,0,27,27,2,3

2017-10-02 13:15:37,#E#,40,2,1,1,604,519,0,27,27,2,3

2017-10-02 13:15:37,#E#,40,3,1,1,604,519,0,27,27,2,3

2017-10-02 13:15:37,#E#,40,4,1,1,604,519,0,27,27,2,3

2017-10-02 13:15:37,#E#,40,5,1,1,604,519,0,27,27,2,3

2017-10-02 13:15:37,#E#,40,6,1,1,604,519,0,27,27,2,3

2017-10-02 13:15:37,#E#,40,7,1,1,604,519,0,27,27,2,3

2017-10-02 13:15:37,#E#,40,8,1,1,604,520,0,27,27,2,3

2017-10-02 13:15:37,#E#,40,9,1,1,604,519,0,27,27,2,3

2017-10-02 13:15:38,
2017-10-02 13:15:38,#E#,41,0,1,1,604,519,0,27,27,2,3

2017-10-02 13:15:38,#E#,41,1,1,1,604,520,0,27,27,2,3

2017-10-02 13:15:38,#E#,41,2,1,1,604,519,0,27,27,2,3

2017-10-02 13:15:38,#E#,41,3,1,1,604,520,0,27,27,2,3

2017-10-02 13:15:38,#E#,41,4,1,1,604,520,0,27,27,2,3

2017-10-02 13:15:38,#E#,41,5,1,1,604,520,0,27,27,2,3

2017-10-02 13:15:38,#E#,41,6,1,1,604,519,0,27,27,2,3

2017-10-02 13:15:38,#E#,41,7,1,1,604,519,0,27,27,2,3

2017-10-02 13:15:38,#E#,41,8,1,1,604,520,0,27,27,2,3

2017-10-02 13:15:38,#E#,41,9,1,1,604,519,0,27,27,2,3

2017-10-02 13:15:39,
2017-10-02 13:15:40,#E#,42,0,1,1,604,520,0,27,27,2,3

2017-10-02 13:15:40,#E#,42,1,1,1,604,519,0,27,27,2,3

2017-10-02 13:15:40,#E#,42,2,1,1,604,520,0,27,27,2,3

2017-10-02 13:15:40,#E#,42,3,1,1,604,519,0,27,27,2,3

2017-10-02 13:15:40,#E#,42,4,1,1,604,520,0,27,27,2,3

2017-10-02 13:15:40,#E#,42,5,1,1,604,519,0,27,27,2,3

2017-10-02 13:15:40,#E#,42,6,1,1,604,520,0,27,27,2,3

2017-10-02 13:15:40,#E#,42,7,1,1,604,519,0,27,27,2,3

2017-10-02 13:15:40,#E#,42,8,1,1,604,520,0,27,27,2,3

2017-10-02 13:15:40,#E#,42,9,1,1,604,519,0,27,27,2,3

2017-10-02 13:15:41,
2017-10-02 13:15:41,#E#,43,0,1,1,604,520,0,27,27,2,3

2017-10-02 13:15:41,#E#,43,1,1,1,604,520,0,27,27,2,3

2017-10-02 13:15:41,#E#,43,2,1,1,604,520,0,27,27,2,3

2017-10-02 13:15:41,#E#,43,3,1,1,604,519,0,27,27,2,3

2017-10-02 13:15:41,#E#,43,4,1,1,604,519,0,27,27,2,3

2017-10-02 13:15:41,#E#,43,5,1,1,604,520,0,27,27,2,3

2017-10-02 13:15:41,#E#,43,6,1,1,604,520,0,27,27,2,3

2017-10-02 13:15:41,#E#,43,7,1,1,604,519,0,27,27,2,3

2017-10-02 13:15:41,#E#,43,8,1,1,604,520,0,27,27,2,3

2017-10-02 13:15:41,#E#,43,9,1,1,604,519,0,27,27,2,3

2017-10-02 13:15:42,
2017-10-02 13:15:42,#E#,44,0,1,1,604,520,0,27,27,2,3

2017-10-02 13:15:42,#E#,44,1,1,1,604,519,0,27,27,2,3

2017-10-02 13:15:42,#E#,44,2,1,1,604,519,0,27,27,2,3

2017-10-02 13:15:42,#E#,44,3,1,1,604,519,0,27,27,2,3

2017-10-02 13:15:42,#E#,44,4,1,1,604,519,0,27,27,2,3

2017-10-02 13:15:43,#E#,44,5,1,1,604,520,0,27,27,2,3

2017-10-02 13:15:43,#E#,44,6,1,1,604,520,0,27,27,2,3

2017-10-02 13:15:43,#E#,44,7,1,1,604,519,0,27,27,2,3

2017-10-02 13:15:43,#E#,44,8,1,1,604,519,0,27,27,2,3

2017-10-02 13:15:43,#E#,44,9,1,1,604,519,0,27,27,2,3

2017-10-02 13:15:44,
2017-10-02 13:15:44,#E#,45,0,1,1,604,519,0,27,27,2,3

2017-10-02 13:15:44,#E#,45,1,1,1,604,519,0,27,27,2,3

2017-10-02 13:15:44,#E#,45,2,1,1,604,519,0,27,27,2,3

2017-10-02 13:15:44,#E#,45,3,1,1,604,519,0,27,27,2,3

2017-10-02 13:15:44,#E#,45,4,1,1,604,519,0,27,27,2,3

2017-10-02 13:15:44,#E#,45,5,1,1,604,520,0,27,27,2,3

2017-10-02 13:15:44,#E#,45,6,1,1,604,519,0,27,27,2,3

2017-10-02 13:15:44,#E#,45,7,1,1,604,520,0,27,27,2,3

2017-10-02 13:15:44,#E#,45,8,1,1,604,519,0,27,27,2,3

2017-10-02 13:15:44,#E#,45,9,1,1,604,519,0,27,27,2,3

2017-10-02 13:15:45,
2017-10-02 13:15:45,#E#,46,0,1,1,604,519,0,27,27,2,3

2017-10-02 13:15:45,#E#,46,1,1,1,604,519,0,27,27,2,3

2017-10-02 13:15:45,#E#,46,2,1,1,604,519,0,27,27,2,3

2017-10-02 13:15:45,#E#,46,3,1,1,604,519,0,27,27,2,3

2017-10-02 13:15:45,#E#,46,4,1,1,604,519,0,27,27,2,3

2017-10-02 13:15:45,#E#,46,5,1,1,604,519,0,27,27,2,3

2017-10-02 13:15:45,#E#,46,6,1,1,604,519,0,27,27,2,3

2017-10-02 13:15:45,#E#,46,7,1,1,604,519,0,27,27,2,3

2017-10-02 13:15:45,#E#,46,8,1,1,604,519,0,27,27,2,3

2017-10-02 13:15:45,#E#,46,9,1,1,604,519,0,27,27,2,3

2017-10-02 13:15:46,
2017-10-02 13:15:47,#E#,47,0,1,1,604,519,0,27,27,2,3

2017-10-02 13:15:47,#E#,47,1,1,1,604,519,0,27,27,2,3

2017-10-02 13:15:47,#E#,47,2,1,1,604,519,0,27,27,2,3

2017-10-02 13:15:47,#E#,47,3,1,1,604,519,0,27,27,2,3

2017-10-02 13:15:47,#E#,47,4,1,1,604,520,0,27,27,2,3

2017-10-02 13:15:47,#E#,47,5,1,1,604,519,0,27,27,2,3

2017-10-02 13:15:47,#E#,47,6,1,1,604,519,0,27,27,2,3

2017-10-02 13:15:47,#E#,47,7,1,1,604,519,0,27,27,2,3

2017-10-02 13:15:47,#E#,47,8,1,1,604,519,0,27,27,2,3

2017-10-02 13:15:47,#E#,47,9,1,1,604,520,0,27,27,2,3

2017-10-02 13:15:48,
2017-10-02 13:15:48,#E#,48,0,1,1,604,519,0,27,27,2,3

2017-10-02 13:15:48,#E#,48,1,1,1,604,519,0,27,27,2,3

2017-10-02 13:15:48,#E#,48,2,1,1,604,519,0,27,27,2,3

2017-10-02 13:15:48,#E#,48,3,1,1,604,519,0,27,27,2,3

2017-10-02 13:15:48,#E#,48,4,1,1,604,519,0,27,27,2,3

2017-10-02 13:15:48,#E#,48,5,1,1,604,520,0,27,27,2,3

2017-10-02 13:15:48,#E#,48,6,1,1,604,519,0,27,27,2,3

2017-10-02 13:15:48,#E#,48,7,1,1,604,519,0,27,27,2,3

2017-10-02 13:15:48,#E#,48,8,1,1,604,519,0,27,27,2,3

2017-10-02 13:15:48,#E#,48,9,1,1,604,520,0,27,27,2,3

2017-10-02 13:15:49,
2017-10-02 13:15:49,#E#,49,0,1,1,604,519,0,27,27,2,3

2017-10-02 13:15:49,#E#,49,1,1,1,604,519,0,27,27,2,3

2017-10-02 13:15:49,#E#,49,2,1,1,604,520,0,27,27,2,3

2017-10-02 13:15:49,#E#,49,3,1,1,604,519,0,27,27,2,3

2017-10-02 13:15:49,#E#,49,4,1,1,604,519,0,27,27,2,3

2017-10-02 13:15:49,#E#,49,5,1,1,604,519,0,27,27,2,3

2017-10-02 13:15:49,#E#,49,6,1,1,604,519,0,27,27,2,3

2017-10-02 13:15:49,#E#,49,7,1,1,604,519,0,27,27,2,3

2017-10-02 13:15:49,#E#,49,8,1,1,604,519,0,27,27,2,3

2017-10-02 13:15:49,#E#,49,9,1,1,604,519,0,27,27,2,3

2017-10-02 13:15:50,
2017-10-02 13:15:51,#E#,50,0,1,1,604,520,0,27,27,2,3

2017-10-02 13:15:51,#E#,50,1,1,1,604,519,0,27,27,2,3

2017-10-02 13:15:51,#E#,50,2,1,1,604,520,0,27,27,2,3

2017-10-02 13:15:51,#E#,50,3,1,1,604,519,0,27,27,2,3

2017-10-02 13:15:51,#E#,50,4,1,1,604,519,0,27,27,2,3

2017-10-02 13:15:51,#E#,50,5,1,1,604,520,0,27,27,2,3

2017-10-02 13:15:51,#E#,50,6,1,1,604,520,0,27,27,2,3

2017-10-02 13:15:51,#E#,50,7,1,1,604,520,0,27,27,2,3

2017-10-02 13:15:51,#E#,50,8,1,1,604,520,0,27,27,2,3

2017-10-02 13:15:51,#E#,50,9,1,1,604,519,0,27,27,2,3

2017-10-02 13:15:52,
2017-10-02 13:15:52,#E#,51,0,1,1,604,519,0,27,27,2,3

2017-10-02 13:15:52,#E#,51,1,1,1,604,519,0,27,27,2,3

2017-10-02 13:15:52,#E#,51,2,1,1,604,520,0,27,27,2,3

2017-10-02 13:15:52,#E#,51,3,1,1,604,519,0,27,27,2,3

2017-10-02 13:15:52,#E#,51,4,1,1,604,519,0,27,27,2,3

2017-10-02 13:15:52,#E#,51,5,1,1,604,520,0,27,27,2,3

2017-10-02 13:15:52,#E#,51,6,1,1,604,519,0,27,27,2,3

2017-10-02 13:15:52,#E#,51,7,1,1,604,519,0,27,27,2,3

2017-10-02 13:15:52,#E#,51,8,1,1,604,519,0,27,27,2,3

2017-10-02 13:15:52,#E#,51,9,1,1,604,520,0,27,27,2,3

2017-10-02 13:15:53,
2017-10-02 13:15:53,#E#,52,0,1,1,604,519,0,27,27,2,3

2017-10-02 13:15:53,#E#,52,1,1,1,604,519,0,27,27,2,3

2017-10-02 13:15:53,#E#,52,2,1,1,604,519,0,27,27,2,3

2017-10-02 13:15:53,#E#,52,3,1,1,604,519,0,27,27,2,3

2017-10-02 13:15:53,#E#,52,4,1,1,604,520,0,27,27,2,3

2017-10-02 13:15:53,#E#,52,5,1,1,604,519,0,27,27,2,3

2017-10-02 13:15:53,#E#,52,6,1,1,604,519,0,27,27,2,3

2017-10-02 13:15:53,#E#,52,7,1,1,604,519,0,27,27,2,3

2017-10-02 13:15:53,#E#,52,8,1,1,604,519,0,27,27,2,3

2017-10-02 13:15:53,#E#,52,9,1,1,604,519,0,27,27,2,3

2017-10-02 13:15:54,
2017-10-02 13:15:55,#E#,53,0,1,2,604,519,0,27,27,2,3

2017-10-02 13:15:55,#E#,53,1,1,2,604,519,0,27,27,2,3

2017-10-02 13:15:55,#E#,53,2,1,2,604,519,0,27,27,2,3

2017-10-02 13:15:55,#E#,53,3,1,2,604,519,0,27,27,2,3

2017-10-02 13:15:55,#E#,53,4,1,2,604,519,0,27,27,2,3

2017-10-02 13:15:55,#E#,53,5,1,2,604,520,0,27,27,2,3

2017-10-02 13:15:55,#E#,53,6,1,2,604,519,0,27,27,2,3

2017-10-02 13:15:55,#E#,53,7,1,2,604,520,0,27,27,2,3

2017-10-02 13:15:55,#E#,53,8,1,2,604,519,0,27,27,2,3

2017-10-02 13:15:55,#E#,53,9,1,2,604,519,0,27,27,2,3

2017-10-02 13:15:56,
2017-10-02 13:15:56,#E#,54,0,1,2,604,519,0,27,27,2,3

2017-10-02 13:15:56,#E#,54,1,1,2,604,520,0,27,27,2,3

2017-10-02 13:15:56,#E#,54,2,1,2,604,520,0,27,27,2,3

2017-10-02 13:15:56,#E#,54,3,1,2,604,520,0,27,27,2,3

2017-10-02 13:15:56,#E#,54,4,1,2,604,519,0,27,27,2,3

2017-10-02 13:15:56,#E#,54,5,1,2,604,519,0,27,27,2,3

2017-10-02 13:15:56,#E#,54,6,1,2,604,519,0,27,27,2,3

2017-10-02 13:15:56,#E#,54,7,1,2,604,519,0,27,27,2,3

2017-10-02 13:15:56,#E#,54,8,1,2,604,519,0,27,27,2,3

2017-10-02 13:15:56,#E#,54,9,1,2,604,519,0,27,27,2,3

2017-10-02 13:15:57,
2017-10-02 13:15:57,#E#,55,0,1,2,604,520,0,27,27,2,3

2017-10-02 13:15:57,#E#,55,1,1,2,604,520,0,27,27,2,3

2017-10-02 13:15:57,#E#,55,2,1,2,604,519,0,27,27,2,3

2017-10-02 13:15:57,#E#,55,3,1,2,604,519,0,27,27,2,3

2017-10-02 13:15:58,#E#,55,4,1,2,604,519,0,27,27,2,3

2017-10-02 13:15:58,#E#,55,5,1,2,604,519,0,27,27,2,3

2017-10-02 13:15:58,#E#,55,6,1,2,604,520,0,27,27,2,3

2017-10-02 13:15:58,#E#,55,7,1,2,604,519,0,27,27,2,3

2017-10-02 13:15:58,#E#,55,8,1,2,604,519,0,27,27,2,3

2017-10-02 13:15:58,#E#,55,9,1,2,604,519,0,27,27,2,3

2017-10-02 13:15:59,
2017-10-02 13:15:59,#E#,56,0,1,2,604,520,0,27,27,2,3

2017-10-02 13:15:59,#E#,56,1,1,2,604,519,0,27,27,2,3

2017-10-02 13:15:59,#E#,56,2,1,2,604,519,0,27,27,2,3

2017-10-02 13:15:59,#E#,56,3,1,2,604,519,0,27,27,2,3

2017-10-02 13:15:59,#E#,56,4,1,2,604,520,0,27,27,2,3

2017-10-02 13:15:59,#E#,56,5,1,2,604,519,0,27,27,2,3

2017-10-02 13:15:59,#E#,56,6,1,2,604,519,0,27,27,2,3

2017-10-02 13:15:59,#E#,56,7,1,2,604,520,0,27,27,2,3

2017-10-02 13:15:59,#E#,56,8,1,2,604,519,0,27,27,2,3

2017-10-02 13:15:59,#E#,56,9,1,2,604,519,0,27,27,2,3

2017-10-02 13:16:00,
2017-10-02 13:16:00,#E#,57,0,1,2,604,520,0,27,27,2,3

2017-10-02 13:16:00,#E#,57,1,1,2,604,520,0,27,27,2,3

2017-10-02 13:16:00,#E#,57,2,1,2,604,520,0,27,27,2,3

2017-10-02 13:16:00,#E#,57,3,1,2,604,519,0,27,27,2,3

2017-10-02 13:16:00,#E#,57,4,1,2,604,520,0,27,27,2,3

2017-10-02 13:16:00,#E#,57,5,1,2,604,519,0,27,27,2,3

2017-10-02 13:16:00,#E#,57,6,1,2,604,519,0,27,27,2,3

2017-10-02 13:16:00,#E#,57,7,1,2,604,520,0,27,27,2,3

2017-10-02 13:16:00,#E#,57,8,1,2,604,520,0,27,27,2,3

2017-10-02 13:16:00,#E#,57,9,1,2,604,520,0,27,27,2,3

2017-10-02 13:16:01,
2017-10-02 13:16:02,#E#,58,0,1,2,604,519,0,27,27,2,3

2017-10-02 13:16:02,#E#,58,1,1,2,604,519,0,27,27,2,3

2017-10-02 13:16:02,#E#,58,2,1,2,604,520,0,27,27,2,3

2017-10-02 13:16:02,#E#,58,3,1,2,604,520,0,27,27,2,3

2017-10-02 13:16:02,#E#,58,4,1,2,604,519,0,27,27,2,3

2017-10-02 13:16:02,#E#,58,5,1,2,604,519,0,27,27,2,3

2017-10-02 13:16:02,#E#,58,6,1,2,604,519,0,27,27,2,3

2017-10-02 13:16:02,#E#,58,7,1,2,604,520,0,27,27,2,3

2017-10-02 13:16:02,#E#,58,8,1,2,604,519,0,27,27,2,3

2017-10-02 13:16:02,#E#,58,9,1,2,604,519,0,27,27,2,3

2017-10-02 13:16:03,
2017-10-02 13:16:03,#E#,59,0,1,2,604,519,0,27,27,2,3

2017-10-02 13:16:03,#E#,59,1,1,2,604,519,0,27,27,2,3

2017-10-02 13:16:03,#E#,59,2,1,2,604,520,0,27,27,2,3

2017-10-02 13:16:03,#E#,59,3,1,2,604,519,0,27,27,2,3

2017-10-02 13:16:03,#E#,59,4,1,2,604,519,0,27,27,2,3

2017-10-02 13:16:03,#E#,59,5,1,2,604,520,0,27,27,2,3

2017-10-02 13:16:03,#E#,59,6,1,2,604,519,0,27,27,2,3

2017-10-02 13:16:03,#E#,59,7,1,2,604,519,0,27,27,2,3

2017-10-02 13:16:03,#E#,59,8,1,2,604,519,0,27,27,2,3

2017-10-02 13:16:03,#E#,59,9,1,2,604,520,0,27,27,2,3

2017-10-02 13:16:04,
2017-10-02 13:16:04,#E#,60,0,1,2,604,520,0,27,27,2,3

2017-10-02 13:16:04,#E#,60,1,1,2,604,519,0,27,27,2,3

2017-10-02 13:16:04,#E#,60,2,1,2,604,519,0,27,27,2,3

2017-10-02 13:16:04,#E#,60,3,1,2,604,520,0,27,27,2,3

2017-10-02 13:16:04,#E#,60,4,1,2,604,519,0,27,27,2,3

2017-10-02 13:16:04,#E#,60,5,1,2,604,520,0,27,27,2,3

2017-10-02 13:16:04,#E#,60,6,1,2,604,519,0,27,27,2,3

2017-10-02 13:16:04,#E#,60,7,1,2,604,519,0,27,27,2,3

2017-10-02 13:16:04,#E#,60,8,1,2,604,519,0,27,27,2,3

2017-10-02 13:16:04,#E#,60,9,1,2,604,519,0,27,27,2,3

2017-10-02 13:16:05,
2017-10-02 13:16:06,#E#,61,0,1,2,604,519,0,27,27,2,3

2017-10-02 13:16:06,#E#,61,1,1,2,604,520,0,27,27,2,3

2017-10-02 13:16:06,#E#,61,2,1,2,604,519,0,27,27,2,3

2017-10-02 13:16:06,#E#,61,3,1,2,604,520,0,27,27,2,3

2017-10-02 13:16:06,#E#,61,4,1,2,604,519,0,27,27,2,3

2017-10-02 13:16:06,#E#,61,5,1,2,604,519,0,27,27,2,3

2017-10-02 13:16:06,#E#,61,6,1,2,604,519,0,27,27,2,3

2017-10-02 13:16:06,#E#,61,7,1,2,604,519,0,27,27,2,3

2017-10-02 13:16:06,#E#,61,8,1,2,604,519,0,27,27,2,3

2017-10-02 13:16:06,#E#,61,9,1,2,604,519,0,27,27,2,3

2017-10-02 13:16:07,
2017-10-02 13:16:07,#E#,62,0,1,2,604,519,0,27,27,2,3

2017-10-02 13:16:07,#E#,62,1,1,2,604,519,0,27,27,2,3

2017-10-02 13:16:07,#E#,62,2,1,2,604,519,0,27,27,2,3

2017-10-02 13:16:07,#E#,62,3,1,2,604,520,0,27,27,2,3

2017-10-02 13:16:07,#E#,62,4,1,2,604,519,0,27,27,2,3

2017-10-02 13:16:07,#E#,62,5,1,2,604,519,0,27,27,2,3

2017-10-02 13:16:07,#E#,62,6,1,2,604,519,0,27,27,2,3

2017-10-02 13:16:07,#E#,62,7,1,2,604,519,0,27,27,2,3

2017-10-02 13:16:07,#E#,62,8,1,2,604,519,0,27,27,2,3

2017-10-02 13:16:07,#E#,62,9,1,2,604,519,0,27,27,2,3

2017-10-02 13:16:08,
2017-10-02 13:16:08,#E#,63,0,1,2,604,519,0,27,27,2,3

2017-10-02 13:16:08,#E#,63,1,1,2,604,519,0,27,27,2,3

2017-10-02 13:16:08,#E#,63,2,1,2,604,519,0,27,27,2,3

2017-10-02 13:16:08,#E#,63,3,1,2,604,519,0,27,27,2,3

2017-10-02 13:16:08,#E#,63,4,1,2,604,519,0,27,27,2,3

2017-10-02 13:16:08,#E#,63,5,1,2,604,519,0,27,27,2,3

2017-10-02 13:16:08,#E#,63,6,1,2,604,519,0,27,27,2,3

2017-10-02 13:16:08,#E#,63,7,1,2,604,520,0,27,27,2,3

2017-10-02 13:16:08,#E#,63,8,1,2,604,519,0,27,27,2,3

2017-10-02 13:16:09,#E#,63,9,1,2,604,519,0,27,27,2,3

2017-10-02 13:16:10,
2017-10-02 13:16:10,#E#,64,0,1,2,604,519,0,27,27,2,3

2017-10-02 13:16:10,#E#,64,1,1,2,604,519,0,27,27,2,3

2017-10-02 13:16:10,#E#,64,2,1,2,604,519,0,27,27,2,3

2017-10-02 13:16:10,#E#,64,3,1,2,604,520,0,27,27,2,3

2017-10-02 13:16:10,#E#,64,4,1,2,604,519,0,27,27,2,3

2017-10-02 13:16:10,#E#,64,5,1,2,604,520,0,27,27,2,3

2017-10-02 13:16:10,#E#,64,6,1,2,604,519,0,27,27,2,3

2017-10-02 13:16:10,#E#,64,7,1,2,604,520,0,27,27,2,3

2017-10-02 13:16:10,#E#,64,8,1,2,604,519,0,27,27,2,3

2017-10-02 13:16:10,#E#,64,9,1,2,604,519,0,27,27,2,3

2017-10-02 13:16:11,
2017-10-02 13:16:11,#E#,65,0,1,2,604,519,0,27,27,2,3

2017-10-02 13:16:11,#E#,65,1,1,2,604,519,0,27,27,2,3

2017-10-02 13:16:11,#E#,65,2,1,2,604,520,0,27,27,2,3

2017-10-02 13:16:11,#E#,65,3,1,2,604,519,0,27,27,2,3

2017-10-02 13:16:11,#E#,65,4,1,2,604,520,0,27,27,2,3

2017-10-02 13:16:11,#E#,65,5,1,2,604,519,0,27,27,2,3

2017-10-02 13:16:11,#E#,65,6,1,2,604,519,0,27,27,2,3

2017-10-02 13:16:11,#E#,65,7,1,2,604,519,0,27,27,2,3

2017-10-02 13:16:11,#E#,65,8,1,2,604,519,0,27,27,2,3

2017-10-02 13:16:11,#E#,65,9,1,2,604,519,0,27,27,2,3

2017-10-02 13:16:12,
2017-10-02 13:16:13,#E#,66,0,1,2,604,519,0,27,27,2,3

2017-10-02 13:16:13,#E#,66,1,1,2,604,519,0,27,27,2,3

2017-10-02 13:16:13,#E#,66,2,1,2,604,519,0,27,27,2,3

2017-10-02 13:16:13,#E#,66,3,1,2,604,519,0,27,27,2,3

2017-10-02 13:16:13,#E#,66,4,1,2,604,520,0,27,27,2,3

2017-10-02 13:16:13,#E#,66,5,1,2,604,519,0,27,27,2,3

2017-10-02 13:16:13,#E#,66,6,1,2,604,520,0,27,27,2,3

2017-10-02 13:16:13,#E#,66,7,1,2,604,520,0,27,27,2,3

2017-10-02 13:16:13,#E#,66,8,1,2,604,519,0,27,27,2,3

2017-10-02 13:16:13,#E#,66,9,1,2,604,520,0,27,27,2,3

2017-10-02 13:16:14,
2017-10-02 13:16:15,
2017-10-02 13:16:16,
2017-10-02 13:16:17,
