#P0E000000C800AM_RdFreq

2017-10-02 13:23:46, 50,:e,:0,:0,:0,:c8,:0 @

2017-10-02 13:23:46,*******Measure Period per Event & Freq in MHz*******

2017-10-02 13:23:46,****Period_cnt , Freq, SeqNo, Status,..........

2017-10-02 13:23:46,#P#, 37, 29600000, 0, 0 

2017-10-02 13:23:46,#P#, 38, 30400000, 1, 0 

2017-10-02 13:23:46,#P#, 38, 30400000, 2, 0 

2017-10-02 13:23:46,#P#, 38, 30400000, 3, 0 

2017-10-02 13:23:46,#P#, 38, 30400000, 4, 0 

2017-10-02 13:23:46,#P#, 38, 30400000, 5, 0 

2017-10-02 13:23:46,#P#, 37, 29600000, 6, 0 

2017-10-02 13:23:46,#P#, 38, 30400000, 7, 0 

2017-10-02 13:23:46,#P#, 38, 30400000, 8, 0 

2017-10-02 13:23:46,#P#, 37, 29600000, 9, 0 

2017-10-02 13:23:46,#P#, 37, 29600000, 10, 0 

2017-10-02 13:23:46,#P#, 37, 29600000, 11, 0 

2017-10-02 13:23:46,#P#, 38, 30400000, 12, 0 

2017-10-02 13:23:46,#P#, 38, 30400000, 13, 0 

2017-10-02 13:23:46,#P#, 38, 30400000, 14, 0 

2017-10-02 13:23:46,#P#, 38, 30400000, 15, 0 

2017-10-02 13:23:46,#P#, 37, 29600000, 16, 0 

2017-10-02 13:23:46,#P#, 38, 30400000, 17, 0 

2017-10-02 13:23:46,#P#, 38, 30400000, 18, 0 

2017-10-02 13:23:46,#P#, 38, 30400000, 19, 0 

2017-10-02 13:23:46,#P#, 38, 30400000, 20, 0 

2017-10-02 13:23:46,#P#, 38, 30400000, 21, 0 

2017-10-02 13:23:46,#P#, 38, 30400000, 22, 0 

2017-10-02 13:23:46,#P#, 37, 29600000, 23, 0 

2017-10-02 13:23:46,#P#, 39, 31200000, 24, 0 

2017-10-02 13:23:46,#P#, 38, 30400000, 25, 0 

2017-10-02 13:23:46,#P#, 37, 29600000, 26, 0 

2017-10-02 13:23:46,#P#, 37, 29600000, 27, 0 

2017-10-02 13:23:46,#P#, 38, 30400000, 28, 0 

2017-10-02 13:23:46,#P#, 38, 30400000, 29, 0 

2017-10-02 13:23:46,#P#, 37, 29600000, 30, 0 

2017-10-02 13:23:46,#P#, 37, 29600000, 31, 0 

2017-10-02 13:23:46,#P#, 38, 30400000, 32, 0 

2017-10-02 13:23:46,#P#, 38, 30400000, 33, 0 

2017-10-02 13:23:46,#P#, 38, 30400000, 34, 0 

2017-10-02 13:23:46,#P#, 37, 29600000, 35, 0 

2017-10-02 13:23:46,#P#, 37, 29600000, 36, 0 

2017-10-02 13:23:46,#P#, 38, 30400000, 37, 0 

2017-10-02 13:23:46,#P#, 38, 30400000, 38, 0 

2017-10-02 13:23:46,#P#, 38, 30400000, 39, 0 

2017-10-02 13:23:46,#P#, 37, 29600000, 40, 0 

2017-10-02 13:23:46,#P#, 37, 29600000, 41, 0 

2017-10-02 13:23:46,#P#, 37, 29600000, 42, 0 

2017-10-02 13:23:46,#P#, 38, 30400000, 43, 0 

2017-10-02 13:23:46,#P#, 37, 29600000, 44, 0 

2017-10-02 13:23:46,#P#, 37, 29600000, 45, 0 

2017-10-02 13:23:46,#P#, 37, 29600000, 46, 0 

2017-10-02 13:23:46,#P#, 38, 30400000, 47, 0 

2017-10-02 13:23:46,#P#, 38, 30400000, 48, 0 

2017-10-02 13:23:46,#P#, 38, 30400000, 49, 0 

2017-10-02 13:23:46,#P#, 38, 30400000, 50, 0 

2017-10-02 13:23:46,#P#, 38, 30400000, 51, 0 

2017-10-02 13:23:46,#P#, 37, 29600000, 52, 0 

2017-10-02 13:23:46,#P#, 38, 30400000, 53, 0 

2017-10-02 13:23:46,#P#, 37, 29600000, 54, 0 

2017-10-02 13:23:46,#P#, 38, 30400000, 55, 0 

2017-10-02 13:23:46,#P#, 38, 30400000, 56, 0 

2017-10-02 13:23:46,#P#, 39, 31200000, 57, 0 

2017-10-02 13:23:46,#P#, 38, 30400000, 58, 0 

2017-10-02 13:23:46,#P#, 38, 30400000, 59, 0 

2017-10-02 13:23:46,#P#, 37, 29600000, 60, 0 

2017-10-02 13:23:46,#P#, 38, 30400000, 61, 0 

2017-10-02 13:23:46,#P#, 38, 30400000, 62, 0 

2017-10-02 13:23:46,#P#, 38, 30400000, 63, 0 

2017-10-02 13:23:46,#P#, 37, 29600000, 64, 0 

2017-10-02 13:23:46,#P#, 37, 29600000, 65, 0 

2017-10-02 13:23:46,#P#, 37, 29600000, 66, 0 

2017-10-02 13:23:46,#P#, 37, 29600000, 67, 0 

2017-10-02 13:23:46,#P#, 38, 30400000, 68, 0 

2017-10-02 13:23:47,#P#, 38, 30400000, 69, 0 

2017-10-02 13:23:47,#P#, 38, 30400000, 70, 0 

2017-10-02 13:23:47,#P#, 38, 30400000, 71, 0 

2017-10-02 13:23:47,#P#, 38, 30400000, 72, 0 

2017-10-02 13:23:47,#P#, 37, 29600000, 73, 0 

2017-10-02 13:23:47,#P#, 38, 30400000, 74, 0 

2017-10-02 13:23:47,#P#, 38, 30400000, 75, 0 

2017-10-02 13:23:47,#P#, 38, 30400000, 76, 0 

2017-10-02 13:23:47,#P#, 38, 30400000, 77, 0 

2017-10-02 13:23:47,#P#, 37, 29600000, 78, 0 

2017-10-02 13:23:47,#P#, 38, 30400000, 79, 0 

2017-10-02 13:23:47,#P#, 38, 30400000, 80, 0 

2017-10-02 13:23:47,#P#, 38, 30400000, 81, 0 

2017-10-02 13:23:47,#P#, 37, 29600000, 82, 0 

2017-10-02 13:23:47,#P#, 38, 30400000, 83, 0 

2017-10-02 13:23:47,#P#, 37, 29600000, 84, 0 

2017-10-02 13:23:47,#P#, 37, 29600000, 85, 0 

2017-10-02 13:23:47,#P#, 38, 30400000, 86, 0 

2017-10-02 13:23:47,#P#, 38, 30400000, 87, 0 

2017-10-02 13:23:47,#P#, 37, 29600000, 88, 0 

2017-10-02 13:23:47,#P#, 39, 31200000, 89, 0 

2017-10-02 13:23:47,#P#, 37, 29600000, 90, 0 

2017-10-02 13:23:47,#P#, 37, 29600000, 91, 0 

2017-10-02 13:23:47,#P#, 38, 30400000, 92, 0 

2017-10-02 13:23:47,#P#, 38, 30400000, 93, 0 

2017-10-02 13:23:47,#P#, 39, 31200000, 94, 0 

2017-10-02 13:23:47,#P#, 38, 30400000, 95, 0 

2017-10-02 13:23:47,#P#, 37, 29600000, 96, 0 

2017-10-02 13:23:47,#P#, 37, 29600000, 97, 0 

2017-10-02 13:23:47,#P#, 38, 30400000, 98, 0 

2017-10-02 13:23:47,#P#, 38, 30400000, 99, 0 

2017-10-02 13:23:47,#P#, 37, 29600000, 100, 0 

2017-10-02 13:23:47,#P#, 38, 30400000, 101, 0 

2017-10-02 13:23:47,#P#, 38, 30400000, 102, 0 

2017-10-02 13:23:47,#P#, 37, 29600000, 103, 0 

2017-10-02 13:23:47,#P#, 38, 30400000, 104, 0 

2017-10-02 13:23:47,#P#, 38, 30400000, 105, 0 

2017-10-02 13:23:47,#P#, 36, 28800000, 106, 0 

2017-10-02 13:23:47,#P#, 38, 30400000, 107, 0 

2017-10-02 13:23:47,#P#, 38, 30400000, 108, 0 

2017-10-02 13:23:47,#P#, 37, 29600000, 109, 0 

2017-10-02 13:23:47,#P#, 38, 30400000, 110, 0 

2017-10-02 13:23:47,#P#, 38, 30400000, 111, 0 

2017-10-02 13:23:47,#P#, 39, 31200000, 112, 0 

2017-10-02 13:23:47,#P#, 38, 30400000, 113, 0 

2017-10-02 13:23:47,#P#, 38, 30400000, 114, 0 

2017-10-02 13:23:47,#P#, 38, 30400000, 115, 0 

2017-10-02 13:23:47,#P#, 36, 28800000, 116, 0 

2017-10-02 13:23:47,#P#, 37, 29600000, 117, 0 

2017-10-02 13:23:47,#P#, 37, 29600000, 118, 0 

2017-10-02 13:23:47,#P#, 37, 29600000, 119, 0 

2017-10-02 13:23:47,#P#, 38, 30400000, 120, 0 

2017-10-02 13:23:47,#P#, 38, 30400000, 121, 0 

2017-10-02 13:23:47,#P#, 38, 30400000, 122, 0 

2017-10-02 13:23:47,#P#, 38, 30400000, 123, 0 

2017-10-02 13:23:47,#P#, 38, 30400000, 124, 0 

2017-10-02 13:23:47,#P#, 38, 30400000, 125, 0 

2017-10-02 13:23:47,#P#, 37, 29600000, 126, 0 

2017-10-02 13:23:47,#P#, 38, 30400000, 127, 0 

2017-10-02 13:23:47,#P#, 37, 29600000, 128, 0 

2017-10-02 13:23:47,#P#, 37, 29600000, 129, 0 

2017-10-02 13:23:47,#P#, 37, 29600000, 130, 0 

2017-10-02 13:23:47,#P#, 38, 30400000, 131, 0 

2017-10-02 13:23:47,#P#, 38, 30400000, 132, 0 

2017-10-02 13:23:47,#P#, 38, 30400000, 133, 0 

2017-10-02 13:23:47,#P#, 38, 30400000, 134, 0 

2017-10-02 13:23:47,#P#, 38, 30400000, 135, 0 

2017-10-02 13:23:47,#P#, 37, 29600000, 136, 0 

2017-10-02 13:23:47,#P#, 38, 30400000, 137, 0 

2017-10-02 13:23:47,#P#, 38, 30400000, 138, 0 

2017-10-02 13:23:47,#P#, 37, 29600000, 139, 0 

2017-10-02 13:23:47,#P#, 38, 30400000, 140, 0 

2017-10-02 13:23:47,#P#, 37, 29600000, 141, 0 

2017-10-02 13:23:47,#P#, 38, 30400000, 142, 0 

2017-10-02 13:23:47,#P#, 37, 29600000, 143, 0 

2017-10-02 13:23:47,#P#, 38, 30400000, 144, 0 

2017-10-02 13:23:47,#P#, 37, 29600000, 145, 0 

2017-10-02 13:23:47,#P#, 37, 29600000, 146, 0 

2017-10-02 13:23:47,#P#, 38, 30400000, 147, 0 

2017-10-02 13:23:47,#P#, 38, 30400000, 148, 0 

2017-10-02 13:23:47,#P#, 37, 29600000, 149, 0 

2017-10-02 13:23:47,#P#, 37, 29600000, 150, 0 

2017-10-02 13:23:47,#P#, 38, 30400000, 151, 0 

2017-10-02 13:23:47,#P#, 38, 30400000, 152, 0 

2017-10-02 13:23:47,#P#, 38, 30400000, 153, 0 

2017-10-02 13:23:47,#P#, 38, 30400000, 154, 0 

2017-10-02 13:23:47,#P#, 38, 30400000, 155, 0 

2017-10-02 13:23:47,#P#, 37, 29600000, 156, 0 

2017-10-02 13:23:47,#P#, 38, 30400000, 157, 0 

2017-10-02 13:23:47,#P#, 37, 29600000, 158, 0 

2017-10-02 13:23:47,#P#, 38, 30400000, 159, 0 

2017-10-02 13:23:47,#P#, 37, 29600000, 160, 0 

2017-10-02 13:23:47,#P#, 37, 29600000, 161, 0 

2017-10-02 13:23:47,#P#, 38, 30400000, 162, 0 

2017-10-02 13:23:47,#P#, 38, 30400000, 163, 0 

2017-10-02 13:23:47,#P#, 37, 29600000, 164, 0 

2017-10-02 13:23:47,#P#, 37, 29600000, 165, 0 

2017-10-02 13:23:47,#P#, 38, 30400000, 166, 0 

2017-10-02 13:23:47,#P#, 38, 30400000, 167, 0 

2017-10-02 13:23:47,#P#, 38, 30400000, 168, 0 

2017-10-02 13:23:47,#P#, 38, 30400000, 169, 0 

2017-10-02 13:23:47,#P#, 37, 29600000, 170, 0 

2017-10-02 13:23:47,#P#, 38, 30400000, 171, 0 

2017-10-02 13:23:47,#P#, 38, 30400000, 172, 0 

2017-10-02 13:23:47,#P#, 38, 30400000, 173, 0 

2017-10-02 13:23:47,#P#, 37, 29600000, 174, 0 

2017-10-02 13:23:47,#P#, 37, 29600000, 175, 0 

2017-10-02 13:23:47,#P#, 37, 29600000, 176, 0 

2017-10-02 13:23:47,#P#, 38, 30400000, 177, 0 

2017-10-02 13:23:47,#P#, 38, 30400000, 178, 0 

2017-10-02 13:23:47,#P#, 38, 30400000, 179, 0 

2017-10-02 13:23:47,#P#, 38, 30400000, 180, 0 

2017-10-02 13:23:47,#P#, 38, 30400000, 181, 0 

2017-10-02 13:23:47,#P#, 37, 29600000, 182, 0 

2017-10-02 13:23:47,#P#, 37, 29600000, 183, 0 

2017-10-02 13:23:47,#P#, 37, 29600000, 184, 0 

2017-10-02 13:23:47,#P#, 37, 29600000, 185, 0 

2017-10-02 13:23:48,#P#, 38, 30400000, 186, 0 

2017-10-02 13:23:48,#P#, 37, 29600000, 187, 0 

2017-10-02 13:23:48,#P#, 38, 30400000, 188, 0 

2017-10-02 13:23:48,#P#, 38, 30400000, 189, 0 

2017-10-02 13:23:48,#P#, 38, 30400000, 190, 0 

2017-10-02 13:23:48,#P#, 38, 30400000, 191, 0 

2017-10-02 13:23:48,#P#, 38, 30400000, 192, 0 

2017-10-02 13:23:48,#P#, 37, 29600000, 193, 0 

2017-10-02 13:23:48,#P#, 37, 29600000, 194, 0 

2017-10-02 13:23:48,#P#, 38, 30400000, 195, 0 

2017-10-02 13:23:48,#P#, 37, 29600000, 196, 0 

2017-10-02 13:23:48,#P#, 37, 29600000, 197, 0 

2017-10-02 13:23:48,#P#, 37, 29600000, 198, 0 

2017-10-02 13:23:48,#P#, 38, 30400000, 199, 0 

2017-10-02 13:23:48,*******DONE*******#

Exiting PsocAmPreRad
#E0E00020C0A05IS_RAMP .

2017-10-02 13:23:49, 45,:e,:0,:2,:c,:a,:5 @

2017-10-02 13:23:49,*SeqNo,Samples,DAC_Cnt,BGapReg,GainReg,AM_VCal,BGO,Isense0,Isense1

2017-10-02 13:23:50,
2017-10-02 13:23:50,#E#,0,0,5,0,0,520,0,0,0,2,3

2017-10-02 13:23:50,#E#,0,1,5,0,0,520,0,0,0,2,3

2017-10-02 13:23:50,#E#,0,2,5,0,0,520,0,0,0,2,3

2017-10-02 13:23:50,#E#,0,3,5,0,0,519,0,0,0,2,3

2017-10-02 13:23:50,#E#,0,4,5,0,0,520,0,0,0,2,3

2017-10-02 13:23:50,#E#,0,5,5,0,0,520,0,0,0,2,3

2017-10-02 13:23:50,#E#,0,6,5,0,0,520,0,0,0,2,3

2017-10-02 13:23:50,#E#,0,7,5,0,0,520,0,0,0,2,3

2017-10-02 13:23:50,#E#,0,8,5,0,0,520,0,0,0,2,3

2017-10-02 13:23:50,#E#,0,9,5,0,0,519,0,0,0,2,3

2017-10-02 13:23:51,
2017-10-02 13:23:52,#E#,1,0,5,0,604,520,0,27,27,2,3

2017-10-02 13:23:52,#E#,1,1,5,0,604,520,0,27,27,2,3

2017-10-02 13:23:52,#E#,1,2,5,0,604,520,0,27,27,2,3

2017-10-02 13:23:52,#E#,1,3,5,0,604,519,0,27,27,2,3

2017-10-02 13:23:52,#E#,1,4,5,0,604,520,0,27,27,2,3

2017-10-02 13:23:52,#E#,1,5,5,0,604,520,0,27,27,2,3

2017-10-02 13:23:52,#E#,1,6,5,0,604,519,0,27,27,2,3

2017-10-02 13:23:52,#E#,1,7,5,0,604,520,0,27,27,2,3

2017-10-02 13:23:52,#E#,1,8,5,0,604,520,0,27,27,2,3

2017-10-02 13:23:52,#E#,1,9,5,0,604,519,0,27,27,2,3

2017-10-02 13:23:53,
2017-10-02 13:23:53,#E#,2,0,5,0,604,520,0,27,27,2,3

2017-10-02 13:23:53,#E#,2,1,5,0,604,520,0,27,27,2,3

2017-10-02 13:23:53,#E#,2,2,5,0,604,519,0,27,27,2,3

2017-10-02 13:23:53,#E#,2,3,5,0,604,520,0,27,27,2,3

2017-10-02 13:23:53,#E#,2,4,5,0,604,520,0,27,27,2,3

2017-10-02 13:23:53,#E#,2,5,5,0,604,520,0,27,27,2,3

2017-10-02 13:23:53,#E#,2,6,5,0,604,520,0,27,27,2,3

2017-10-02 13:23:53,#E#,2,7,5,0,604,520,0,27,27,2,3

2017-10-02 13:23:53,#E#,2,8,5,0,604,520,0,27,27,2,3

2017-10-02 13:23:53,#E#,2,9,5,0,604,519,0,27,27,2,3

2017-10-02 13:23:54,
2017-10-02 13:23:54,#E#,3,0,5,0,604,519,0,27,27,2,3

2017-10-02 13:23:54,#E#,3,1,5,0,604,519,0,27,27,2,3

2017-10-02 13:23:54,#E#,3,2,5,0,604,519,0,27,27,2,3

2017-10-02 13:23:54,#E#,3,3,5,0,604,520,0,27,27,2,3

2017-10-02 13:23:54,#E#,3,4,5,0,604,520,0,27,27,2,3

2017-10-02 13:23:54,#E#,3,5,5,0,604,519,0,27,27,2,3

2017-10-02 13:23:54,#E#,3,6,5,0,604,520,0,27,27,2,3

2017-10-02 13:23:54,#E#,3,7,5,0,604,520,0,27,27,2,3

2017-10-02 13:23:54,#E#,3,8,5,0,604,520,0,27,27,2,3

2017-10-02 13:23:54,#E#,3,9,5,0,604,520,0,27,27,2,3

2017-10-02 13:23:55,
2017-10-02 13:23:56,#E#,4,0,5,0,604,520,0,27,27,2,3

2017-10-02 13:23:56,#E#,4,1,5,0,604,520,0,27,27,2,3

2017-10-02 13:23:56,#E#,4,2,5,0,604,520,0,27,27,2,3

2017-10-02 13:23:56,#E#,4,3,5,0,604,519,0,27,27,2,3

2017-10-02 13:23:56,#E#,4,4,5,0,604,520,0,27,27,2,3

2017-10-02 13:23:56,#E#,4,5,5,0,604,519,0,27,27,2,3

2017-10-02 13:23:56,#E#,4,6,5,0,604,520,0,27,27,2,3

2017-10-02 13:23:56,#E#,4,7,5,0,604,520,0,27,27,2,3

2017-10-02 13:23:56,#E#,4,8,5,0,604,519,0,27,27,2,3

2017-10-02 13:23:56,#E#,4,9,5,0,604,519,0,27,27,2,3

2017-10-02 13:23:57,
2017-10-02 13:23:57,#E#,5,0,5,0,604,520,0,27,27,2,3

2017-10-02 13:23:57,#E#,5,1,5,0,604,520,0,27,27,2,3

2017-10-02 13:23:57,#E#,5,2,5,0,604,519,0,27,27,2,3

2017-10-02 13:23:57,#E#,5,3,5,0,604,519,0,27,27,2,3

2017-10-02 13:23:57,#E#,5,4,5,0,604,519,0,27,27,2,3

2017-10-02 13:23:57,#E#,5,5,5,0,604,519,0,27,27,2,3

2017-10-02 13:23:57,#E#,5,6,5,0,604,520,0,27,27,2,3

2017-10-02 13:23:57,#E#,5,7,5,0,604,520,0,27,27,2,3

2017-10-02 13:23:57,#E#,5,8,5,0,604,519,0,27,27,2,3

2017-10-02 13:23:57,#E#,5,9,5,0,604,519,0,27,27,2,3

2017-10-02 13:23:58,
2017-10-02 13:23:58,#E#,6,0,5,1,604,520,0,27,27,2,3

2017-10-02 13:23:58,#E#,6,1,5,1,604,520,0,27,27,2,3

2017-10-02 13:23:58,#E#,6,2,5,1,604,520,0,27,27,2,3

2017-10-02 13:23:58,#E#,6,3,5,1,604,519,0,27,27,2,3

2017-10-02 13:23:58,#E#,6,4,5,1,604,519,0,27,27,2,3

2017-10-02 13:23:59,#E#,6,5,5,1,604,519,0,27,27,2,3

2017-10-02 13:23:59,#E#,6,6,5,1,604,519,0,27,27,2,3

2017-10-02 13:23:59,#E#,6,7,5,1,604,520,0,27,27,2,3

2017-10-02 13:23:59,#E#,6,8,5,1,604,519,0,27,27,2,3

2017-10-02 13:23:59,#E#,6,9,5,1,604,520,0,27,27,2,3

2017-10-02 13:24:00,
2017-10-02 13:24:00,#E#,7,0,5,1,604,520,0,27,27,2,3

2017-10-02 13:24:00,#E#,7,1,5,1,604,520,0,27,27,2,3

2017-10-02 13:24:00,#E#,7,2,5,1,604,519,0,27,27,2,3

2017-10-02 13:24:00,#E#,7,3,5,1,604,519,0,27,27,2,3

2017-10-02 13:24:00,#E#,7,4,5,1,604,519,0,27,27,2,3

2017-10-02 13:24:00,#E#,7,5,5,1,604,519,0,27,27,2,3

2017-10-02 13:24:00,#E#,7,6,5,1,604,520,0,27,27,2,3

2017-10-02 13:24:00,#E#,7,7,5,1,604,520,0,27,27,2,3

2017-10-02 13:24:00,#E#,7,8,5,1,604,520,0,27,27,2,3

2017-10-02 13:24:00,#E#,7,9,5,1,604,519,0,27,27,2,3

2017-10-02 13:24:01,
2017-10-02 13:24:01,#E#,8,0,5,1,604,520,0,27,27,2,3

2017-10-02 13:24:01,#E#,8,1,5,1,604,519,0,27,27,2,3

2017-10-02 13:24:01,#E#,8,2,5,1,604,519,0,27,27,2,3

2017-10-02 13:24:01,#E#,8,3,5,1,604,519,0,27,27,2,3

2017-10-02 13:24:01,#E#,8,4,5,1,604,519,0,27,27,2,3

2017-10-02 13:24:01,#E#,8,5,5,1,604,519,0,27,27,2,3

2017-10-02 13:24:01,#E#,8,6,5,1,604,519,0,27,27,2,3

2017-10-02 13:24:01,#E#,8,7,5,1,604,519,0,27,27,2,3

2017-10-02 13:24:01,#E#,8,8,5,1,604,519,0,27,27,2,3

2017-10-02 13:24:01,#E#,8,9,5,1,604,519,0,27,27,2,3

2017-10-02 13:24:02,
2017-10-02 13:24:03,#E#,9,0,5,1,604,520,0,27,27,2,3

2017-10-02 13:24:03,#E#,9,1,5,1,604,519,0,27,27,2,3

2017-10-02 13:24:03,#E#,9,2,5,1,604,519,0,27,27,2,3

2017-10-02 13:24:03,#E#,9,3,5,1,604,520,0,27,27,2,3

2017-10-02 13:24:03,#E#,9,4,5,1,604,520,0,27,27,2,3

2017-10-02 13:24:03,#E#,9,5,5,1,604,520,0,27,27,2,3

2017-10-02 13:24:03,#E#,9,6,5,1,604,520,0,27,27,2,3

2017-10-02 13:24:03,#E#,9,7,5,1,604,519,0,27,27,2,3

2017-10-02 13:24:03,#E#,9,8,5,1,604,519,0,27,27,2,3

2017-10-02 13:24:03,#E#,9,9,5,1,604,519,0,27,27,2,3

2017-10-02 13:24:04,
2017-10-02 13:24:04,#E#,10,0,5,1,604,520,0,27,27,2,3

2017-10-02 13:24:04,#E#,10,1,5,1,604,519,0,27,27,2,3

2017-10-02 13:24:04,#E#,10,2,5,1,604,519,0,27,27,2,3

2017-10-02 13:24:04,#E#,10,3,5,1,604,519,0,27,27,2,3

2017-10-02 13:24:04,#E#,10,4,5,1,604,519,0,27,27,2,3

2017-10-02 13:24:04,#E#,10,5,5,1,604,519,0,27,27,2,3

2017-10-02 13:24:04,#E#,10,6,5,1,604,519,0,27,27,2,3

2017-10-02 13:24:04,#E#,10,7,5,1,604,519,0,27,27,2,3

2017-10-02 13:24:04,#E#,10,8,5,1,604,519,0,27,27,2,3

2017-10-02 13:24:04,#E#,10,9,5,1,604,519,0,27,27,2,3

2017-10-02 13:24:05,
2017-10-02 13:24:05,#E#,11,0,5,2,604,519,0,27,27,2,3

2017-10-02 13:24:05,#E#,11,1,5,2,604,519,0,27,27,2,3

2017-10-02 13:24:05,#E#,11,2,5,2,604,519,0,27,27,2,3

2017-10-02 13:24:05,#E#,11,3,5,2,604,520,0,27,27,2,3

2017-10-02 13:24:05,#E#,11,4,5,2,604,519,0,27,27,2,3

2017-10-02 13:24:05,#E#,11,5,5,2,604,519,0,27,27,2,3

2017-10-02 13:24:05,#E#,11,6,5,2,604,519,0,27,27,2,3

2017-10-02 13:24:05,#E#,11,7,5,2,604,519,0,27,27,2,3

2017-10-02 13:24:05,#E#,11,8,5,2,604,519,0,27,27,2,3

2017-10-02 13:24:05,#E#,11,9,5,2,604,520,0,27,27,2,3

2017-10-02 13:24:06,
2017-10-02 13:24:07,#E#,12,0,5,2,604,520,0,27,27,2,3

2017-10-02 13:24:07,#E#,12,1,5,2,604,519,0,27,27,2,3

2017-10-02 13:24:07,#E#,12,2,5,2,604,520,0,27,27,2,3

2017-10-02 13:24:07,#E#,12,3,5,2,604,519,0,27,27,2,3

2017-10-02 13:24:07,#E#,12,4,5,2,604,519,0,27,27,2,3

2017-10-02 13:24:07,#E#,12,5,5,2,604,520,0,27,27,2,3

2017-10-02 13:24:07,#E#,12,6,5,2,604,519,0,27,27,2,3

2017-10-02 13:24:07,#E#,12,7,5,2,604,520,0,27,27,2,3

2017-10-02 13:24:07,#E#,12,8,5,2,604,519,0,27,27,2,3

2017-10-02 13:24:07,#E#,12,9,5,2,604,519,0,27,27,2,3

2017-10-02 13:24:08,
2017-10-02 13:24:08,#E#,13,0,5,2,604,519,0,27,27,2,3

2017-10-02 13:24:08,#E#,13,1,5,2,604,519,0,27,27,2,3

2017-10-02 13:24:08,#E#,13,2,5,2,604,519,0,27,27,2,3

2017-10-02 13:24:08,#E#,13,3,5,2,604,519,0,27,27,2,3

2017-10-02 13:24:08,#E#,13,4,5,2,604,519,0,27,27,2,3

2017-10-02 13:24:08,#E#,13,5,5,2,604,520,0,27,27,2,3

2017-10-02 13:24:08,#E#,13,6,5,2,604,519,0,27,27,2,3

2017-10-02 13:24:08,#E#,13,7,5,2,604,519,0,27,27,2,3

2017-10-02 13:24:08,#E#,13,8,5,2,604,519,0,27,27,2,3

2017-10-02 13:24:08,#E#,13,9,5,2,604,519,0,27,27,2,3

2017-10-02 13:24:09,
2017-10-02 13:24:09,#E#,14,0,5,2,604,520,0,27,27,2,3

2017-10-02 13:24:09,#E#,14,1,5,2,604,519,0,27,27,2,3

2017-10-02 13:24:09,#E#,14,2,5,2,604,519,0,27,27,2,3

2017-10-02 13:24:09,#E#,14,3,5,2,604,519,0,27,27,2,3

2017-10-02 13:24:09,#E#,14,4,5,2,604,519,0,27,27,2,3

2017-10-02 13:24:09,#E#,14,5,5,2,604,520,0,27,27,2,3

2017-10-02 13:24:09,#E#,14,6,5,2,604,519,0,27,27,2,3

2017-10-02 13:24:09,#E#,14,7,5,2,604,519,0,27,27,2,3

2017-10-02 13:24:09,#E#,14,8,5,2,604,519,0,27,27,2,3

2017-10-02 13:24:09,#E#,14,9,5,2,604,519,0,27,27,2,3

2017-10-02 13:24:10,
2017-10-02 13:24:11,#E#,15,0,5,2,604,519,0,27,27,2,3

2017-10-02 13:24:11,#E#,15,1,5,2,604,519,0,27,27,2,3

2017-10-02 13:24:11,#E#,15,2,5,2,604,519,0,27,27,2,3

2017-10-02 13:24:11,#E#,15,3,5,2,604,520,0,27,27,2,3

2017-10-02 13:24:11,#E#,15,4,5,2,604,519,0,27,27,2,3

2017-10-02 13:24:11,#E#,15,5,5,2,604,519,0,27,27,2,3

2017-10-02 13:24:11,#E#,15,6,5,2,604,520,0,27,27,2,3

2017-10-02 13:24:11,#E#,15,7,5,2,604,519,0,27,27,2,3

2017-10-02 13:24:11,#E#,15,8,5,2,604,519,0,27,27,2,3

2017-10-02 13:24:11,#E#,15,9,5,2,604,519,0,27,27,2,3

2017-10-02 13:24:12,
2017-10-02 13:24:12,#E#,16,0,5,3,604,519,0,27,27,2,3

2017-10-02 13:24:12,#E#,16,1,5,3,604,520,0,27,27,2,3

2017-10-02 13:24:12,#E#,16,2,5,3,604,520,0,27,27,2,3

2017-10-02 13:24:12,#E#,16,3,5,3,604,519,0,27,27,2,3

2017-10-02 13:24:12,#E#,16,4,5,3,604,520,0,27,27,2,3

2017-10-02 13:24:12,#E#,16,5,5,3,604,519,0,27,27,2,3

2017-10-02 13:24:12,#E#,16,6,5,3,604,519,0,27,27,2,3

2017-10-02 13:24:12,#E#,16,7,5,3,604,519,0,27,27,2,3

2017-10-02 13:24:12,#E#,16,8,5,3,604,520,0,27,27,2,3

2017-10-02 13:24:12,#E#,16,9,5,3,604,520,0,27,27,2,3

2017-10-02 13:24:13,
2017-10-02 13:24:13,#E#,17,0,5,3,604,519,0,27,27,2,3

2017-10-02 13:24:13,#E#,17,1,5,3,604,519,0,27,27,2,3

2017-10-02 13:24:13,#E#,17,2,5,3,604,519,0,27,27,2,3

2017-10-02 13:24:13,#E#,17,3,5,3,604,519,0,27,27,2,3

2017-10-02 13:24:14,#E#,17,4,5,3,604,520,0,27,27,2,3

2017-10-02 13:24:14,#E#,17,5,5,3,604,520,0,27,27,2,3

2017-10-02 13:24:14,#E#,17,6,5,3,604,519,0,27,27,2,3

2017-10-02 13:24:14,#E#,17,7,5,3,604,519,0,27,27,2,3

2017-10-02 13:24:14,#E#,17,8,5,3,604,520,0,27,27,2,3

2017-10-02 13:24:14,#E#,17,9,5,3,604,519,0,27,27,2,3

2017-10-02 13:24:15,
2017-10-02 13:24:15,#E#,18,0,5,3,604,519,0,27,27,2,3

2017-10-02 13:24:15,#E#,18,1,5,3,604,520,0,27,27,2,3

2017-10-02 13:24:15,#E#,18,2,5,3,604,519,0,27,27,2,3

2017-10-02 13:24:15,#E#,18,3,5,3,604,520,0,27,27,2,3

2017-10-02 13:24:15,#E#,18,4,5,3,604,519,0,27,27,2,3

2017-10-02 13:24:15,#E#,18,5,5,3,604,519,0,27,27,2,3

2017-10-02 13:24:15,#E#,18,6,5,3,604,519,0,27,27,2,3

2017-10-02 13:24:15,#E#,18,7,5,3,604,520,0,27,27,2,3

2017-10-02 13:24:15,#E#,18,8,5,3,604,520,0,27,27,2,3

2017-10-02 13:24:15,#E#,18,9,5,3,604,520,0,27,27,2,3

2017-10-02 13:24:16,
2017-10-02 13:24:16,#E#,19,0,5,3,604,520,0,27,27,2,3

2017-10-02 13:24:16,#E#,19,1,5,3,604,520,0,27,27,2,3

2017-10-02 13:24:16,#E#,19,2,5,3,604,519,0,27,27,2,3

2017-10-02 13:24:16,#E#,19,3,5,3,604,519,0,27,27,2,3

2017-10-02 13:24:16,#E#,19,4,5,3,604,519,0,27,27,2,3

2017-10-02 13:24:16,#E#,19,5,5,3,604,519,0,27,27,2,3

2017-10-02 13:24:16,#E#,19,6,5,3,604,519,0,27,27,2,3

2017-10-02 13:24:16,#E#,19,7,5,3,604,519,0,27,27,2,3

2017-10-02 13:24:16,#E#,19,8,5,3,604,519,0,27,27,2,3

2017-10-02 13:24:16,#E#,19,9,5,3,604,520,0,27,27,2,3

2017-10-02 13:24:17,
2017-10-02 13:24:18,#E#,20,0,5,3,604,519,0,27,27,2,3

2017-10-02 13:24:18,#E#,20,1,5,3,604,519,0,27,27,2,3

2017-10-02 13:24:18,#E#,20,2,5,3,604,519,0,27,27,2,3

2017-10-02 13:24:18,#E#,20,3,5,3,604,519,0,27,27,2,3

2017-10-02 13:24:18,#E#,20,4,5,3,604,519,0,27,27,2,3

2017-10-02 13:24:18,#E#,20,5,5,3,604,519,0,27,27,2,3

2017-10-02 13:24:18,#E#,20,6,5,3,604,519,0,27,27,2,3

2017-10-02 13:24:18,#E#,20,7,5,3,604,519,0,27,27,2,3

2017-10-02 13:24:18,#E#,20,8,5,3,604,519,0,27,27,2,3

2017-10-02 13:24:18,#E#,20,9,5,3,604,519,0,27,27,2,3

2017-10-02 13:24:19,
2017-10-02 13:24:19,#E#,21,0,5,4,604,519,0,27,27,2,3

2017-10-02 13:24:19,#E#,21,1,5,4,604,519,0,27,27,2,3

2017-10-02 13:24:19,#E#,21,2,5,4,604,519,0,27,27,2,3

2017-10-02 13:24:19,#E#,21,3,5,4,604,519,0,27,27,2,3

2017-10-02 13:24:19,#E#,21,4,5,4,604,520,0,27,27,2,3

2017-10-02 13:24:19,#E#,21,5,5,4,604,520,0,27,27,2,3

2017-10-02 13:24:19,#E#,21,6,5,4,604,519,0,27,27,2,3

2017-10-02 13:24:19,#E#,21,7,5,4,604,519,0,27,27,2,3

2017-10-02 13:24:19,#E#,21,8,5,4,604,519,0,27,27,2,3

2017-10-02 13:24:19,#E#,21,9,5,4,604,519,0,27,27,2,3

2017-10-02 13:24:20,
2017-10-02 13:24:20,#E#,22,0,5,4,604,519,0,27,27,2,3

2017-10-02 13:24:20,#E#,22,1,5,4,604,519,0,27,27,2,3

2017-10-02 13:24:20,#E#,22,2,5,4,604,520,0,27,27,2,3

2017-10-02 13:24:20,#E#,22,3,5,4,604,519,0,27,27,2,3

2017-10-02 13:24:20,#E#,22,4,5,4,604,519,0,27,27,2,3

2017-10-02 13:24:20,#E#,22,5,5,4,604,519,0,27,27,2,3

2017-10-02 13:24:20,#E#,22,6,5,4,604,519,0,27,27,2,3

2017-10-02 13:24:20,#E#,22,7,5,4,604,520,0,27,27,2,3

2017-10-02 13:24:20,#E#,22,8,5,4,604,519,0,27,27,2,3

2017-10-02 13:24:20,#E#,22,9,5,4,604,519,0,27,27,2,3

2017-10-02 13:24:21,
2017-10-02 13:24:22,#E#,23,0,5,4,604,520,0,27,27,2,3

2017-10-02 13:24:22,#E#,23,1,5,4,604,519,0,27,27,2,3

2017-10-02 13:24:22,#E#,23,2,5,4,604,519,0,27,27,2,3

2017-10-02 13:24:22,#E#,23,3,5,4,604,519,0,27,27,2,3

2017-10-02 13:24:22,#E#,23,4,5,4,604,520,0,27,27,2,3

2017-10-02 13:24:22,#E#,23,5,5,4,604,520,0,27,27,2,3

2017-10-02 13:24:22,#E#,23,6,5,4,604,519,0,27,27,2,3

2017-10-02 13:24:22,#E#,23,7,5,4,604,520,0,27,27,2,3

2017-10-02 13:24:22,#E#,23,8,5,4,604,519,0,27,27,2,3

2017-10-02 13:24:22,#E#,23,9,5,4,604,520,0,27,27,2,3

2017-10-02 13:24:23,
2017-10-02 13:24:23,#E#,24,0,5,4,604,519,0,27,27,2,3

2017-10-02 13:24:23,#E#,24,1,5,4,604,520,0,27,27,2,3

2017-10-02 13:24:23,#E#,24,2,5,4,604,520,0,27,27,2,3

2017-10-02 13:24:23,#E#,24,3,5,4,604,520,0,27,27,2,3

2017-10-02 13:24:23,#E#,24,4,5,4,604,519,0,27,27,2,3

2017-10-02 13:24:23,#E#,24,5,5,4,604,520,0,27,27,2,3

2017-10-02 13:24:23,#E#,24,6,5,4,604,519,0,27,27,2,3

2017-10-02 13:24:23,#E#,24,7,5,4,604,519,0,27,27,2,3

2017-10-02 13:24:23,#E#,24,8,5,4,604,519,0,27,27,2,3

2017-10-02 13:24:23,#E#,24,9,5,4,604,520,0,27,27,2,3

2017-10-02 13:24:24,
2017-10-02 13:24:24,#E#,25,0,5,4,604,520,0,27,27,2,3

2017-10-02 13:24:24,#E#,25,1,5,4,604,519,0,27,27,2,3

2017-10-02 13:24:24,#E#,25,2,5,4,604,519,0,27,27,2,3

2017-10-02 13:24:24,#E#,25,3,5,4,604,520,0,27,27,2,3

2017-10-02 13:24:24,#E#,25,4,5,4,604,520,0,27,27,2,3

2017-10-02 13:24:24,#E#,25,5,5,4,604,519,0,27,27,2,3

2017-10-02 13:24:24,#E#,25,6,5,4,604,519,0,27,27,2,3

2017-10-02 13:24:24,#E#,25,7,5,4,604,519,0,27,27,2,3

2017-10-02 13:24:24,#E#,25,8,5,4,604,519,0,27,27,2,3

2017-10-02 13:24:25,#E#,25,9,5,4,604,519,0,27,27,2,3

2017-10-02 13:24:26,
2017-10-02 13:24:26,#E#,26,0,5,4,604,520,0,27,27,2,3

2017-10-02 13:24:26,#E#,26,1,5,4,604,519,0,27,27,2,3

2017-10-02 13:24:26,#E#,26,2,5,4,604,520,0,27,27,2,3

2017-10-02 13:24:26,#E#,26,3,5,4,604,520,0,27,27,2,3

2017-10-02 13:24:26,#E#,26,4,5,4,604,519,0,27,27,2,3

2017-10-02 13:24:26,#E#,26,5,5,4,604,519,0,27,27,2,3

2017-10-02 13:24:26,#E#,26,6,5,4,604,519,0,27,27,2,3

2017-10-02 13:24:26,#E#,26,7,5,4,604,519,0,27,27,2,3

2017-10-02 13:24:26,#E#,26,8,5,4,604,520,0,27,27,2,3

2017-10-02 13:24:26,#E#,26,9,5,4,604,519,0,27,27,2,3

2017-10-02 13:24:27,
2017-10-02 13:24:27,#E#,27,0,5,5,604,519,0,27,27,2,3

2017-10-02 13:24:27,#E#,27,1,5,5,604,520,0,27,27,2,3

2017-10-02 13:24:27,#E#,27,2,5,5,604,519,0,27,27,2,3

2017-10-02 13:24:27,#E#,27,3,5,5,604,519,0,27,27,2,3

2017-10-02 13:24:27,#E#,27,4,5,5,604,519,0,27,27,2,3

2017-10-02 13:24:27,#E#,27,5,5,5,604,519,0,27,27,2,3

2017-10-02 13:24:27,#E#,27,6,5,5,604,519,0,27,27,2,3

2017-10-02 13:24:27,#E#,27,7,5,5,604,519,0,27,27,2,3

2017-10-02 13:24:27,#E#,27,8,5,5,604,519,0,27,27,2,3

2017-10-02 13:24:27,#E#,27,9,5,5,604,519,0,27,27,2,3

2017-10-02 13:24:28,
2017-10-02 13:24:28,#E#,28,0,5,5,604,519,0,27,27,2,3

2017-10-02 13:24:28,#E#,28,1,5,5,604,519,0,27,27,2,3

2017-10-02 13:24:28,#E#,28,2,5,5,604,519,0,27,27,2,3

2017-10-02 13:24:29,#E#,28,3,5,5,604,519,0,27,27,2,3

2017-10-02 13:24:29,#E#,28,4,5,5,604,519,0,27,27,2,3

2017-10-02 13:24:29,#E#,28,5,5,5,604,519,0,27,27,2,3

2017-10-02 13:24:29,#E#,28,6,5,5,604,519,0,27,27,2,3

2017-10-02 13:24:29,#E#,28,7,5,5,604,519,0,27,27,2,3

2017-10-02 13:24:29,#E#,28,8,5,5,604,519,0,27,27,2,3

2017-10-02 13:24:29,#E#,28,9,5,5,604,519,0,27,27,2,3

2017-10-02 13:24:30,
2017-10-02 13:24:30,#E#,29,0,5,5,604,519,0,27,27,2,3

2017-10-02 13:24:30,#E#,29,1,5,5,604,519,0,27,27,2,3

2017-10-02 13:24:30,#E#,29,2,5,5,604,520,0,27,27,2,3

2017-10-02 13:24:30,#E#,29,3,5,5,604,519,0,27,27,2,3

2017-10-02 13:24:30,#E#,29,4,5,5,604,519,0,27,27,2,3

2017-10-02 13:24:30,#E#,29,5,5,5,604,520,0,27,27,2,3

2017-10-02 13:24:30,#E#,29,6,5,5,604,519,0,27,27,2,3

2017-10-02 13:24:30,#E#,29,7,5,5,604,520,0,27,27,2,3

2017-10-02 13:24:30,#E#,29,8,5,5,604,519,0,27,27,2,3

2017-10-02 13:24:30,#E#,29,9,5,5,604,519,0,27,27,2,3

2017-10-02 13:24:31,
2017-10-02 13:24:31,#E#,30,0,5,5,604,519,0,27,27,2,3

2017-10-02 13:24:31,#E#,30,1,5,5,604,519,0,27,27,2,3

2017-10-02 13:24:31,#E#,30,2,5,5,604,519,0,27,27,2,3

2017-10-02 13:24:31,#E#,30,3,5,5,604,519,0,27,27,2,3

2017-10-02 13:24:31,#E#,30,4,5,5,604,519,0,27,27,2,3

2017-10-02 13:24:31,#E#,30,5,5,5,604,519,0,27,27,2,3

2017-10-02 13:24:31,#E#,30,6,5,5,604,520,0,27,27,2,3

2017-10-02 13:24:31,#E#,30,7,5,5,604,519,0,27,27,2,3

2017-10-02 13:24:31,#E#,30,8,5,5,604,519,0,27,27,2,3

2017-10-02 13:24:31,#E#,30,9,5,5,604,519,0,27,27,2,3

2017-10-02 13:24:32,
2017-10-02 13:24:33,#E#,31,0,5,5,604,519,0,27,27,2,3

2017-10-02 13:24:33,#E#,31,1,5,5,604,519,0,27,27,2,3

2017-10-02 13:24:33,#E#,31,2,5,5,604,519,0,27,27,2,3

2017-10-02 13:24:33,#E#,31,3,5,5,604,518,0,27,27,2,3

2017-10-02 13:24:33,#E#,31,4,5,5,604,519,0,27,27,2,3

2017-10-02 13:24:33,#E#,31,5,5,5,604,519,0,27,27,2,3

2017-10-02 13:24:33,#E#,31,6,5,5,604,519,0,27,27,2,3

2017-10-02 13:24:33,#E#,31,7,5,5,604,519,0,27,27,2,3

2017-10-02 13:24:33,#E#,31,8,5,5,604,519,0,27,27,2,3

2017-10-02 13:24:33,#E#,31,9,5,5,604,519,0,27,27,2,3

2017-10-02 13:24:34,
2017-10-02 13:24:34,#E#,32,0,5,6,604,519,0,27,27,2,3

2017-10-02 13:24:34,#E#,32,1,5,6,604,519,0,27,27,2,3

2017-10-02 13:24:34,#E#,32,2,5,6,604,519,0,27,27,2,3

2017-10-02 13:24:34,#E#,32,3,5,6,604,519,0,27,27,2,3

2017-10-02 13:24:34,#E#,32,4,5,6,604,519,0,27,27,2,3

2017-10-02 13:24:34,#E#,32,5,5,6,604,519,0,27,27,2,3

2017-10-02 13:24:34,#E#,32,6,5,6,604,519,0,27,27,2,3

2017-10-02 13:24:34,#E#,32,7,5,6,604,519,0,27,27,2,3

2017-10-02 13:24:34,#E#,32,8,5,6,604,519,0,27,27,2,3

2017-10-02 13:24:34,#E#,32,9,5,6,604,519,0,27,27,2,3

2017-10-02 13:24:35,
2017-10-02 13:24:35,#E#,33,0,5,6,604,519,0,27,27,2,3

2017-10-02 13:24:35,#E#,33,1,5,6,604,520,0,27,27,2,3

2017-10-02 13:24:35,#E#,33,2,5,6,604,519,0,27,27,2,3

2017-10-02 13:24:35,#E#,33,3,5,6,604,519,0,27,27,2,3

2017-10-02 13:24:35,#E#,33,4,5,6,604,519,0,27,27,2,3

2017-10-02 13:24:35,#E#,33,5,5,6,604,519,0,27,27,2,3

2017-10-02 13:24:35,#E#,33,6,5,6,604,520,0,27,27,2,3

2017-10-02 13:24:35,#E#,33,7,5,6,604,520,0,27,27,2,3

2017-10-02 13:24:35,#E#,33,8,5,6,604,519,0,27,27,2,3

2017-10-02 13:24:35,#E#,33,9,5,6,604,519,0,27,27,2,3

2017-10-02 13:24:36,
2017-10-02 13:24:37,#E#,34,0,5,6,604,519,0,27,27,2,3

2017-10-02 13:24:37,#E#,34,1,5,6,604,520,0,27,27,2,3

2017-10-02 13:24:37,#E#,34,2,5,6,604,520,0,27,27,2,3

2017-10-02 13:24:37,#E#,34,3,5,6,604,519,0,27,27,2,3

2017-10-02 13:24:37,#E#,34,4,5,6,604,520,0,27,27,2,3

2017-10-02 13:24:37,#E#,34,5,5,6,604,519,0,27,27,2,3

2017-10-02 13:24:37,#E#,34,6,5,6,604,519,0,27,27,2,3

2017-10-02 13:24:37,#E#,34,7,5,6,604,519,0,27,27,2,3

2017-10-02 13:24:37,#E#,34,8,5,6,604,520,0,27,27,2,3

2017-10-02 13:24:37,#E#,34,9,5,6,604,519,0,27,27,2,3

2017-10-02 13:24:38,
2017-10-02 13:24:38,#E#,35,0,5,6,604,519,0,27,27,2,3

2017-10-02 13:24:38,#E#,35,1,5,6,604,520,0,27,27,2,3

2017-10-02 13:24:38,#E#,35,2,5,6,604,519,0,27,27,2,3

2017-10-02 13:24:38,#E#,35,3,5,6,604,519,0,27,27,2,3

2017-10-02 13:24:38,#E#,35,4,5,6,604,520,0,27,27,2,3

2017-10-02 13:24:38,#E#,35,5,5,6,604,519,0,27,27,2,3

2017-10-02 13:24:38,#E#,35,6,5,6,604,520,0,27,27,2,3

2017-10-02 13:24:38,#E#,35,7,5,6,604,519,0,27,27,2,3

2017-10-02 13:24:38,#E#,35,8,5,6,604,519,0,27,27,2,3

2017-10-02 13:24:38,#E#,35,9,5,6,604,519,0,27,27,2,3

2017-10-02 13:24:39,
2017-10-02 13:24:39,#E#,36,0,5,6,604,519,0,27,27,2,3

2017-10-02 13:24:39,#E#,36,1,5,6,604,519,0,27,27,2,3

2017-10-02 13:24:39,#E#,36,2,5,6,604,519,0,27,27,2,3

2017-10-02 13:24:39,#E#,36,3,5,6,604,520,0,27,27,2,3

2017-10-02 13:24:39,#E#,36,4,5,6,604,519,0,27,27,2,3

2017-10-02 13:24:39,#E#,36,5,5,6,604,520,0,27,27,2,3

2017-10-02 13:24:39,#E#,36,6,5,6,604,520,0,27,27,2,3

2017-10-02 13:24:40,#E#,36,7,5,6,604,519,0,27,27,2,3

2017-10-02 13:24:40,#E#,36,8,5,6,604,520,0,27,27,2,3

2017-10-02 13:24:40,#E#,36,9,5,6,604,519,0,27,27,2,3

2017-10-02 13:24:41,
2017-10-02 13:24:41,#E#,37,0,5,7,604,519,0,27,27,2,3

2017-10-02 13:24:41,#E#,37,1,5,7,604,520,0,27,27,2,3

2017-10-02 13:24:41,#E#,37,2,5,7,604,519,0,27,27,2,3

2017-10-02 13:24:41,#E#,37,3,5,7,604,519,0,27,27,2,3

2017-10-02 13:24:41,#E#,37,4,5,7,604,519,0,27,27,2,3

2017-10-02 13:24:41,#E#,37,5,5,7,604,519,0,27,27,2,3

2017-10-02 13:24:41,#E#,37,6,5,7,604,519,0,27,27,2,3

2017-10-02 13:24:41,#E#,37,7,5,7,604,519,0,27,27,2,3

2017-10-02 13:24:41,#E#,37,8,5,7,604,519,0,27,27,2,3

2017-10-02 13:24:41,#E#,37,9,5,7,604,519,0,27,27,2,3

2017-10-02 13:24:42,
2017-10-02 13:24:42,#E#,38,0,5,7,604,520,0,27,27,2,3

2017-10-02 13:24:42,#E#,38,1,5,7,604,520,0,27,27,2,3

2017-10-02 13:24:42,#E#,38,2,5,7,604,520,0,27,27,2,3

2017-10-02 13:24:42,#E#,38,3,5,7,604,520,0,27,27,2,3

2017-10-02 13:24:42,#E#,38,4,5,7,604,520,0,27,27,2,3

2017-10-02 13:24:42,#E#,38,5,5,7,604,520,0,27,27,2,3

2017-10-02 13:24:42,#E#,38,6,5,7,604,519,0,27,27,2,3

2017-10-02 13:24:42,#E#,38,7,5,7,604,519,0,27,27,2,3

2017-10-02 13:24:42,#E#,38,8,5,7,604,519,0,27,27,2,3

2017-10-02 13:24:42,#E#,38,9,5,7,604,519,0,27,27,2,3

2017-10-02 13:24:43,
2017-10-02 13:24:43,#E#,39,0,5,7,604,520,0,27,27,2,3

2017-10-02 13:24:44,#E#,39,1,5,7,604,519,0,27,27,2,3

2017-10-02 13:24:44,#E#,39,2,5,7,604,519,0,27,27,2,3

2017-10-02 13:24:44,#E#,39,3,5,7,604,519,0,27,27,2,3

2017-10-02 13:24:44,#E#,39,4,5,7,604,519,0,27,27,2,3

2017-10-02 13:24:44,#E#,39,5,5,7,604,519,0,27,27,2,3

2017-10-02 13:24:44,#E#,39,6,5,7,604,520,0,27,27,2,3

2017-10-02 13:24:44,#E#,39,7,5,7,604,519,0,27,27,2,3

2017-10-02 13:24:44,#E#,39,8,5,7,604,520,0,27,27,2,3

2017-10-02 13:24:44,#E#,39,9,5,7,604,519,0,27,27,2,3

2017-10-02 13:24:45,
2017-10-02 13:24:45,#E#,40,0,5,7,604,519,0,27,27,2,3

2017-10-02 13:24:45,#E#,40,1,5,7,604,520,0,27,27,2,3

2017-10-02 13:24:45,#E#,40,2,5,7,604,519,0,27,27,2,3

2017-10-02 13:24:45,#E#,40,3,5,7,604,519,0,27,27,2,3

2017-10-02 13:24:45,#E#,40,4,5,7,604,519,0,27,27,2,3

2017-10-02 13:24:45,#E#,40,5,5,7,604,520,0,27,27,2,3

2017-10-02 13:24:45,#E#,40,6,5,7,604,519,0,27,27,2,3

2017-10-02 13:24:45,#E#,40,7,5,7,604,519,0,27,27,2,3

2017-10-02 13:24:45,#E#,40,8,5,7,604,519,0,27,27,2,3

2017-10-02 13:24:45,#E#,40,9,5,7,604,520,0,27,27,2,3

2017-10-02 13:24:46,
2017-10-02 13:24:46,#E#,41,0,5,7,604,519,0,27,27,2,3

2017-10-02 13:24:46,#E#,41,1,5,7,604,519,0,27,27,2,3

2017-10-02 13:24:46,#E#,41,2,5,7,604,519,0,27,27,2,3

2017-10-02 13:24:46,#E#,41,3,5,7,604,519,0,27,27,2,3

2017-10-02 13:24:46,#E#,41,4,5,7,604,520,0,27,27,2,3

2017-10-02 13:24:46,#E#,41,5,5,7,604,519,0,27,27,2,3

2017-10-02 13:24:46,#E#,41,6,5,7,604,519,0,27,27,2,3

2017-10-02 13:24:46,#E#,41,7,5,7,604,519,0,27,27,2,3

2017-10-02 13:24:46,#E#,41,8,5,7,604,519,0,27,27,2,3

2017-10-02 13:24:46,#E#,41,9,5,7,604,519,0,27,27,2,3

2017-10-02 13:24:47,
2017-10-02 13:24:48,#E#,42,0,5,8,604,519,0,27,27,2,3

2017-10-02 13:24:48,#E#,42,1,5,8,604,519,0,27,27,2,3

2017-10-02 13:24:48,#E#,42,2,5,8,604,519,0,27,27,2,3

2017-10-02 13:24:48,#E#,42,3,5,8,604,519,0,27,27,2,3

2017-10-02 13:24:48,#E#,42,4,5,8,604,519,0,27,27,2,3

2017-10-02 13:24:48,#E#,42,5,5,8,604,519,0,27,27,2,3

2017-10-02 13:24:48,#E#,42,6,5,8,604,519,0,27,27,2,3

2017-10-02 13:24:48,#E#,42,7,5,8,604,519,0,27,27,2,3

2017-10-02 13:24:48,#E#,42,8,5,8,604,519,0,27,27,2,3

2017-10-02 13:24:48,#E#,42,9,5,8,604,520,0,27,27,2,3

2017-10-02 13:24:49,
2017-10-02 13:24:49,#E#,43,0,5,8,604,520,0,27,27,2,3

2017-10-02 13:24:49,#E#,43,1,5,8,604,519,0,27,27,2,3

2017-10-02 13:24:49,#E#,43,2,5,8,604,519,0,27,27,2,3

2017-10-02 13:24:49,#E#,43,3,5,8,604,520,0,27,27,2,3

2017-10-02 13:24:49,#E#,43,4,5,8,604,519,0,27,27,2,3

2017-10-02 13:24:49,#E#,43,5,5,8,604,519,0,27,27,2,3

2017-10-02 13:24:49,#E#,43,6,5,8,604,519,0,27,27,2,3

2017-10-02 13:24:49,#E#,43,7,5,8,604,519,0,27,27,2,3

2017-10-02 13:24:49,#E#,43,8,5,8,604,519,0,27,27,2,3

2017-10-02 13:24:49,#E#,43,9,5,8,604,519,0,27,27,2,3

2017-10-02 13:24:50,
2017-10-02 13:24:50,#E#,44,0,5,8,604,519,0,27,27,2,3

2017-10-02 13:24:50,#E#,44,1,5,8,604,519,0,27,27,2,3

2017-10-02 13:24:50,#E#,44,2,5,8,604,519,0,27,27,2,3

2017-10-02 13:24:50,#E#,44,3,5,8,604,519,0,27,27,2,3

2017-10-02 13:24:50,#E#,44,4,5,8,604,519,0,27,27,2,3

2017-10-02 13:24:50,#E#,44,5,5,8,604,519,0,27,27,2,3

2017-10-02 13:24:50,#E#,44,6,5,8,604,520,0,27,27,2,3

2017-10-02 13:24:50,#E#,44,7,5,8,604,519,0,27,27,2,3

2017-10-02 13:24:50,#E#,44,8,5,8,604,519,0,27,27,2,3

2017-10-02 13:24:50,#E#,44,9,5,8,604,519,0,27,27,2,3

2017-10-02 13:24:51,
2017-10-02 13:24:52,#E#,45,0,5,8,604,519,0,27,27,2,3

2017-10-02 13:24:52,#E#,45,1,5,8,604,519,0,27,27,2,3

2017-10-02 13:24:52,#E#,45,2,5,8,604,519,0,27,27,2,3

2017-10-02 13:24:52,#E#,45,3,5,8,604,519,0,27,27,2,3

2017-10-02 13:24:52,#E#,45,4,5,8,604,519,0,27,27,2,3

2017-10-02 13:24:52,#E#,45,5,5,8,604,519,0,27,27,2,3

2017-10-02 13:24:52,#E#,45,6,5,8,604,520,0,27,27,2,3

2017-10-02 13:24:52,#E#,45,7,5,8,604,520,0,27,27,2,3

2017-10-02 13:24:52,#E#,45,8,5,8,604,520,0,27,27,2,3

2017-10-02 13:24:52,#E#,45,9,5,8,604,519,0,27,27,2,3

2017-10-02 13:24:53,
2017-10-02 13:24:53,#E#,46,0,5,8,604,519,0,27,27,2,3

2017-10-02 13:24:53,#E#,46,1,5,8,604,520,0,27,27,2,3

2017-10-02 13:24:53,#E#,46,2,5,8,604,519,0,27,27,2,3

2017-10-02 13:24:53,#E#,46,3,5,8,604,519,0,27,27,2,3

2017-10-02 13:24:53,#E#,46,4,5,8,604,519,0,27,27,2,3

2017-10-02 13:24:53,#E#,46,5,5,8,604,520,0,27,27,2,3

2017-10-02 13:24:53,#E#,46,6,5,8,604,519,0,27,27,2,3

2017-10-02 13:24:53,#E#,46,7,5,8,604,519,0,27,27,2,3

2017-10-02 13:24:53,#E#,46,8,5,8,604,519,0,27,27,2,3

2017-10-02 13:24:53,#E#,46,9,5,8,604,519,0,27,27,2,3

2017-10-02 13:24:54,
2017-10-02 13:24:54,#E#,47,0,5,8,604,519,0,27,27,2,3

2017-10-02 13:24:54,#E#,47,1,5,8,604,519,0,27,27,2,3

2017-10-02 13:24:54,#E#,47,2,5,8,604,519,0,27,27,2,3

2017-10-02 13:24:54,#E#,47,3,5,8,604,519,0,27,27,2,3

2017-10-02 13:24:54,#E#,47,4,5,8,604,519,0,27,27,2,3

2017-10-02 13:24:54,#E#,47,5,5,8,604,519,0,27,27,2,3

2017-10-02 13:24:55,#E#,47,6,5,8,604,519,0,27,27,2,3

2017-10-02 13:24:55,#E#,47,7,5,8,604,520,0,27,27,2,3

2017-10-02 13:24:55,#E#,47,8,5,8,604,520,0,27,27,2,3

2017-10-02 13:24:55,#E#,47,9,5,8,604,519,0,27,27,2,3

2017-10-02 13:24:56,
2017-10-02 13:24:56,#E#,48,0,5,9,604,519,0,27,27,2,3

2017-10-02 13:24:56,#E#,48,1,5,9,604,519,0,27,27,2,3

2017-10-02 13:24:56,#E#,48,2,5,9,604,519,0,27,27,2,3

2017-10-02 13:24:56,#E#,48,3,5,9,604,519,0,27,27,2,3

2017-10-02 13:24:56,#E#,48,4,5,9,604,519,0,27,27,2,3

2017-10-02 13:24:56,#E#,48,5,5,9,604,519,0,27,27,2,3

2017-10-02 13:24:56,#E#,48,6,5,9,604,519,0,27,27,2,3

2017-10-02 13:24:56,#E#,48,7,5,9,604,520,0,27,27,2,3

2017-10-02 13:24:56,#E#,48,8,5,9,604,519,0,27,27,2,3

2017-10-02 13:24:56,#E#,48,9,5,9,604,519,0,27,27,2,3

2017-10-02 13:24:57,
2017-10-02 13:24:57,#E#,49,0,5,9,604,519,0,27,27,2,3

2017-10-02 13:24:57,#E#,49,1,5,9,604,519,0,27,27,2,3

2017-10-02 13:24:57,#E#,49,2,5,9,604,519,0,27,27,2,3

2017-10-02 13:24:57,#E#,49,3,5,9,604,519,0,27,27,2,3

2017-10-02 13:24:57,#E#,49,4,5,9,604,519,0,27,27,2,3

2017-10-02 13:24:57,#E#,49,5,5,9,604,519,0,27,27,2,3

2017-10-02 13:24:57,#E#,49,6,5,9,604,520,0,27,27,2,3

2017-10-02 13:24:57,#E#,49,7,5,9,604,519,0,27,27,2,3

2017-10-02 13:24:57,#E#,49,8,5,9,604,520,0,27,27,2,3

2017-10-02 13:24:57,#E#,49,9,5,9,604,519,0,27,27,2,3

2017-10-02 13:24:58,
2017-10-02 13:24:59,#E#,50,0,5,9,604,519,0,27,27,2,3

2017-10-02 13:24:59,#E#,50,1,5,9,604,520,0,27,27,2,3

2017-10-02 13:24:59,#E#,50,2,5,9,604,519,0,27,27,2,3

2017-10-02 13:24:59,#E#,50,3,5,9,604,520,0,27,27,2,3

2017-10-02 13:24:59,#E#,50,4,5,9,604,519,0,27,27,2,3

2017-10-02 13:24:59,#E#,50,5,5,9,604,519,0,27,27,2,3

2017-10-02 13:24:59,#E#,50,6,5,9,604,519,0,27,27,2,3

2017-10-02 13:24:59,#E#,50,7,5,9,604,520,0,27,27,2,3

2017-10-02 13:24:59,#E#,50,8,5,9,604,519,0,27,27,2,3

2017-10-02 13:24:59,#E#,50,9,5,9,604,520,0,27,27,2,3

2017-10-02 13:25:00,
2017-10-02 13:25:00,#E#,51,0,5,9,604,519,0,27,27,2,3

2017-10-02 13:25:00,#E#,51,1,5,9,604,519,0,27,27,2,3

2017-10-02 13:25:00,#E#,51,2,5,9,604,519,0,27,27,2,3

2017-10-02 13:25:00,#E#,51,3,5,9,604,520,0,27,27,2,3

2017-10-02 13:25:00,#E#,51,4,5,9,604,519,0,27,27,2,3

2017-10-02 13:25:00,#E#,51,5,5,9,604,519,0,27,27,2,3

2017-10-02 13:25:00,#E#,51,6,5,9,604,519,0,27,27,2,3

2017-10-02 13:25:00,#E#,51,7,5,9,604,519,0,27,27,2,3

2017-10-02 13:25:00,#E#,51,8,5,9,604,519,0,27,27,2,3

2017-10-02 13:25:00,#E#,51,9,5,9,604,519,0,27,27,2,3

2017-10-02 13:25:01,
2017-10-02 13:25:01,#E#,52,0,5,9,604,519,0,27,27,2,3

2017-10-02 13:25:01,#E#,52,1,5,9,604,520,0,27,27,2,3

2017-10-02 13:25:01,#E#,52,2,5,9,604,519,0,27,27,2,3

2017-10-02 13:25:01,#E#,52,3,5,9,604,520,0,27,27,2,3

2017-10-02 13:25:01,#E#,52,4,5,9,604,519,0,27,27,2,3

2017-10-02 13:25:01,#E#,52,5,5,9,604,519,0,27,27,2,3

2017-10-02 13:25:01,#E#,52,6,5,9,604,519,0,27,27,2,3

2017-10-02 13:25:01,#E#,52,7,5,9,604,520,0,27,27,2,3

2017-10-02 13:25:01,#E#,52,8,5,9,604,519,0,27,27,2,3

2017-10-02 13:25:01,#E#,52,9,5,9,604,520,0,27,27,2,3

2017-10-02 13:25:02,
2017-10-02 13:25:03,#E#,53,0,5,a,604,519,0,27,27,2,3

2017-10-02 13:25:03,#E#,53,1,5,a,604,520,0,27,27,2,3

2017-10-02 13:25:03,#E#,53,2,5,a,604,520,0,27,27,2,3

2017-10-02 13:25:03,#E#,53,3,5,a,604,520,0,27,27,2,3

2017-10-02 13:25:03,#E#,53,4,5,a,604,519,0,27,27,2,3

2017-10-02 13:25:03,#E#,53,5,5,a,604,519,0,27,27,2,3

2017-10-02 13:25:03,#E#,53,6,5,a,604,519,0,27,27,2,3

2017-10-02 13:25:03,#E#,53,7,5,a,604,519,0,27,27,2,3

2017-10-02 13:25:03,#E#,53,8,5,a,604,519,0,27,27,2,3

2017-10-02 13:25:03,#E#,53,9,5,a,604,519,0,27,27,2,3

2017-10-02 13:25:04,
2017-10-02 13:25:04,#E#,54,0,5,a,604,519,0,27,27,2,3

2017-10-02 13:25:04,#E#,54,1,5,a,604,519,0,27,27,2,3

2017-10-02 13:25:04,#E#,54,2,5,a,604,520,0,27,27,2,3

2017-10-02 13:25:04,#E#,54,3,5,a,604,520,0,27,27,2,3

2017-10-02 13:25:04,#E#,54,4,5,a,604,519,0,27,27,2,3

2017-10-02 13:25:04,#E#,54,5,5,a,604,520,0,27,27,2,3

2017-10-02 13:25:04,#E#,54,6,5,a,604,520,0,27,27,2,3

2017-10-02 13:25:04,#E#,54,7,5,a,604,519,0,27,27,2,3

2017-10-02 13:25:04,#E#,54,8,5,a,604,519,0,27,27,2,3

2017-10-02 13:25:04,#E#,54,9,5,a,604,519,0,27,27,2,3

2017-10-02 13:25:05,
2017-10-02 13:25:05,#E#,55,0,5,a,604,519,0,27,27,2,3

2017-10-02 13:25:05,#E#,55,1,5,a,604,519,0,27,27,2,3

2017-10-02 13:25:05,#E#,55,2,5,a,604,520,0,27,27,2,3

2017-10-02 13:25:05,#E#,55,3,5,a,604,520,0,27,27,2,3

2017-10-02 13:25:05,#E#,55,4,5,a,604,520,0,27,27,2,3

2017-10-02 13:25:05,#E#,55,5,5,a,604,519,0,27,27,2,3

2017-10-02 13:25:05,#E#,55,6,5,a,604,520,0,27,27,2,3

2017-10-02 13:25:05,#E#,55,7,5,a,604,519,0,27,27,2,3

2017-10-02 13:25:05,#E#,55,8,5,a,604,519,0,27,27,2,3

2017-10-02 13:25:05,#E#,55,9,5,a,604,519,0,27,27,2,3

2017-10-02 13:25:06,
2017-10-02 13:25:07,#E#,56,0,5,a,604,519,0,27,27,2,3

2017-10-02 13:25:07,#E#,56,1,5,a,604,519,0,27,27,2,3

2017-10-02 13:25:07,#E#,56,2,5,a,604,519,0,27,27,2,3

2017-10-02 13:25:07,#E#,56,3,5,a,604,519,0,27,27,2,3

2017-10-02 13:25:07,#E#,56,4,5,a,604,519,0,27,27,2,3

2017-10-02 13:25:07,#E#,56,5,5,a,604,519,0,27,27,2,3

2017-10-02 13:25:07,#E#,56,6,5,a,604,519,0,27,27,2,3

2017-10-02 13:25:07,#E#,56,7,5,a,604,519,0,27,27,2,3

2017-10-02 13:25:07,#E#,56,8,5,a,604,520,0,27,27,2,3

2017-10-02 13:25:07,#E#,56,9,5,a,604,519,0,27,27,2,3

2017-10-02 13:25:08,
2017-10-02 13:25:08,#E#,57,0,5,a,604,519,0,27,27,2,3

2017-10-02 13:25:08,#E#,57,1,5,a,604,519,0,27,27,2,3

2017-10-02 13:25:08,#E#,57,2,5,a,604,519,0,27,27,2,3

2017-10-02 13:25:08,#E#,57,3,5,a,604,519,0,27,27,2,3

2017-10-02 13:25:08,#E#,57,4,5,a,604,520,0,27,27,2,3

2017-10-02 13:25:08,#E#,57,5,5,a,604,519,0,27,27,2,3

2017-10-02 13:25:08,#E#,57,6,5,a,604,519,0,27,27,2,3

2017-10-02 13:25:08,#E#,57,7,5,a,604,519,0,27,27,2,3

2017-10-02 13:25:08,#E#,57,8,5,a,604,519,0,27,27,2,3

2017-10-02 13:25:08,#E#,57,9,5,a,604,519,0,27,27,2,3

2017-10-02 13:25:09,
2017-10-02 13:25:09,#E#,58,0,5,b,604,520,0,27,27,2,3

2017-10-02 13:25:09,#E#,58,1,5,b,604,520,0,27,27,2,3

2017-10-02 13:25:09,#E#,58,2,5,b,604,519,0,27,27,2,3

2017-10-02 13:25:09,#E#,58,3,5,b,604,520,0,27,27,2,3

2017-10-02 13:25:09,#E#,58,4,5,b,604,519,0,27,27,2,3

2017-10-02 13:25:10,#E#,58,5,5,b,604,519,0,27,27,2,3

2017-10-02 13:25:10,#E#,58,6,5,b,604,519,0,27,27,2,3

2017-10-02 13:25:10,#E#,58,7,5,b,604,519,0,27,27,2,3

2017-10-02 13:25:10,#E#,58,8,5,b,604,520,0,27,27,2,3

2017-10-02 13:25:10,#E#,58,9,5,b,604,519,0,27,27,2,3

2017-10-02 13:25:11,
2017-10-02 13:25:11,#E#,59,0,5,b,604,519,0,27,27,2,3

2017-10-02 13:25:11,#E#,59,1,5,b,604,519,0,27,27,2,3

2017-10-02 13:25:11,#E#,59,2,5,b,604,519,0,27,27,2,3

2017-10-02 13:25:11,#E#,59,3,5,b,604,519,0,27,27,2,3

2017-10-02 13:25:11,#E#,59,4,5,b,604,519,0,27,27,2,3

2017-10-02 13:25:11,#E#,59,5,5,b,604,519,0,27,27,2,3

2017-10-02 13:25:11,#E#,59,6,5,b,604,520,0,27,27,2,3

2017-10-02 13:25:11,#E#,59,7,5,b,604,519,0,27,27,2,3

2017-10-02 13:25:11,#E#,59,8,5,b,604,520,0,27,27,2,3

2017-10-02 13:25:11,#E#,59,9,5,b,604,520,0,27,27,2,3

2017-10-02 13:25:12,
2017-10-02 13:25:12,#E#,60,0,5,b,604,519,0,27,27,2,3

2017-10-02 13:25:12,#E#,60,1,5,b,604,520,0,27,27,2,3

2017-10-02 13:25:12,#E#,60,2,5,b,604,519,0,27,27,2,3

2017-10-02 13:25:12,#E#,60,3,5,b,604,520,0,27,27,2,3

2017-10-02 13:25:12,#E#,60,4,5,b,604,519,0,27,27,2,3

2017-10-02 13:25:12,#E#,60,5,5,b,604,520,0,27,27,2,3

2017-10-02 13:25:12,#E#,60,6,5,b,604,519,0,27,27,2,3

2017-10-02 13:25:12,#E#,60,7,5,b,604,519,0,27,27,2,3

2017-10-02 13:25:12,#E#,60,8,5,b,604,519,0,27,27,2,3

2017-10-02 13:25:12,#E#,60,9,5,b,604,519,0,27,27,2,3

2017-10-02 13:25:13,
2017-10-02 13:25:14,#E#,61,0,5,b,604,519,0,27,27,2,3

2017-10-02 13:25:14,#E#,61,1,5,b,604,519,0,27,27,2,3

2017-10-02 13:25:14,#E#,61,2,5,b,604,519,0,27,27,2,3

2017-10-02 13:25:14,#E#,61,3,5,b,604,519,0,27,27,2,3

2017-10-02 13:25:14,#E#,61,4,5,b,604,519,0,27,27,2,3

2017-10-02 13:25:14,#E#,61,5,5,b,604,519,0,27,27,2,3

2017-10-02 13:25:14,#E#,61,6,5,b,604,519,0,27,27,2,3

2017-10-02 13:25:14,#E#,61,7,5,b,604,519,0,27,27,2,3

2017-10-02 13:25:14,#E#,61,8,5,b,604,519,0,27,27,2,3

2017-10-02 13:25:14,#E#,61,9,5,b,604,519,0,27,27,2,3

2017-10-02 13:25:15,
2017-10-02 13:25:15,#E#,62,0,5,b,604,519,0,27,27,2,3

2017-10-02 13:25:15,#E#,62,1,5,b,604,519,0,27,27,2,3

2017-10-02 13:25:15,#E#,62,2,5,b,604,519,0,27,27,2,3

2017-10-02 13:25:15,#E#,62,3,5,b,604,519,0,27,27,2,3

2017-10-02 13:25:15,#E#,62,4,5,b,604,520,0,27,27,2,3

2017-10-02 13:25:15,#E#,62,5,5,b,604,519,0,27,27,2,3

2017-10-02 13:25:15,#E#,62,6,5,b,604,519,0,27,27,2,3

2017-10-02 13:25:15,#E#,62,7,5,b,604,519,0,27,27,2,3

2017-10-02 13:25:15,#E#,62,8,5,b,604,519,0,27,27,2,3

2017-10-02 13:25:15,#E#,62,9,5,b,604,519,0,27,27,2,3

2017-10-02 13:25:16,
2017-10-02 13:25:16,#E#,63,0,5,c,604,519,0,27,27,2,3

2017-10-02 13:25:16,#E#,63,1,5,c,604,519,0,27,27,2,3

2017-10-02 13:25:16,#E#,63,2,5,c,604,519,0,27,27,2,3

2017-10-02 13:25:16,#E#,63,3,5,c,604,520,0,27,27,2,3

2017-10-02 13:25:16,#E#,63,4,5,c,604,519,0,27,27,2,3

2017-10-02 13:25:16,#E#,63,5,5,c,604,519,0,27,27,2,3

2017-10-02 13:25:16,#E#,63,6,5,c,604,519,0,27,27,2,3

2017-10-02 13:25:16,#E#,63,7,5,c,604,519,0,27,27,2,3

2017-10-02 13:25:16,#E#,63,8,5,c,604,519,0,27,27,2,3

2017-10-02 13:25:16,#E#,63,9,5,c,604,519,0,27,27,2,3

2017-10-02 13:25:17,
2017-10-02 13:25:18,#E#,64,0,5,c,604,519,0,27,27,2,3

2017-10-02 13:25:18,#E#,64,1,5,c,604,519,0,27,27,2,3

2017-10-02 13:25:18,#E#,64,2,5,c,604,519,0,27,27,2,3

2017-10-02 13:25:18,#E#,64,3,5,c,604,520,0,27,27,2,3

2017-10-02 13:25:18,#E#,64,4,5,c,604,519,0,27,27,2,3

2017-10-02 13:25:18,#E#,64,5,5,c,604,520,0,27,27,2,3

2017-10-02 13:25:18,#E#,64,6,5,c,604,519,0,27,27,2,3

2017-10-02 13:25:18,#E#,64,7,5,c,604,519,0,27,27,2,3

2017-10-02 13:25:18,#E#,64,8,5,c,604,519,0,27,27,2,3

2017-10-02 13:25:18,#E#,64,9,5,c,604,520,0,27,27,2,3

2017-10-02 13:25:19,
2017-10-02 13:25:19,#E#,65,0,5,c,604,519,0,27,27,2,3

2017-10-02 13:25:19,#E#,65,1,5,c,604,519,0,27,27,2,3

2017-10-02 13:25:19,#E#,65,2,5,c,604,520,0,27,27,2,3

2017-10-02 13:25:19,#E#,65,3,5,c,604,519,0,27,27,2,3

2017-10-02 13:25:19,#E#,65,4,5,c,604,519,0,27,27,2,3

2017-10-02 13:25:19,#E#,65,5,5,c,604,519,0,27,27,2,3

2017-10-02 13:25:19,#E#,65,6,5,c,604,519,0,27,27,2,3

2017-10-02 13:25:19,#E#,65,7,5,c,604,519,0,27,27,2,3

2017-10-02 13:25:19,#E#,65,8,5,c,604,519,0,27,27,2,3

2017-10-02 13:25:19,#E#,65,9,5,c,604,519,0,27,27,2,3

2017-10-02 13:25:20,
2017-10-02 13:25:20,#E#,66,0,5,c,604,519,0,27,27,2,3

2017-10-02 13:25:20,#E#,66,1,5,c,604,519,0,27,27,2,3

2017-10-02 13:25:20,#E#,66,2,5,c,604,519,0,27,27,2,3

2017-10-02 13:25:20,#E#,66,3,5,c,604,520,0,27,27,2,3

2017-10-02 13:25:20,#E#,66,4,5,c,604,519,0,27,27,2,3

2017-10-02 13:25:20,#E#,66,5,5,c,604,519,0,27,27,2,3

2017-10-02 13:25:20,#E#,66,6,5,c,604,519,0,27,27,2,3

2017-10-02 13:25:20,#E#,66,7,5,c,604,520,0,27,27,2,3

2017-10-02 13:25:20,#E#,66,8,5,c,604,519,0,27,27,2,3

2017-10-02 13:25:20,#E#,66,9,5,c,604,519,0,27,27,2,3

2017-10-02 13:25:22,
2017-10-02 13:25:22,#E#,67,0,5,c,604,519,0,27,27,2,3

2017-10-02 13:25:22,#E#,67,1,5,c,604,519,0,27,27,2,3

2017-10-02 13:25:22,#E#,67,2,5,c,604,519,0,27,27,2,3

2017-10-02 13:25:22,#E#,67,3,5,c,604,519,0,27,27,2,3

2017-10-02 13:25:22,#E#,67,4,5,c,604,519,0,27,27,2,3

2017-10-02 13:25:22,#E#,67,5,5,c,604,519,0,27,27,2,3

2017-10-02 13:25:22,#E#,67,6,5,c,604,519,0,27,27,2,3

2017-10-02 13:25:22,#E#,67,7,5,c,604,519,0,27,27,2,3

2017-10-02 13:25:22,#E#,67,8,5,c,604,519,0,27,27,2,3

2017-10-02 13:25:22,#E#,67,9,5,c,604,519,0,27,27,2,3

2017-10-02 13:25:23,
2017-10-02 13:25:23,#E#,68,0,5,c,604,519,0,27,27,2,3

2017-10-02 13:25:23,#E#,68,1,5,c,604,519,0,27,27,2,3

2017-10-02 13:25:23,#E#,68,2,5,c,604,520,0,27,27,2,3

2017-10-02 13:25:23,#E#,68,3,5,c,604,519,0,27,27,2,3

2017-10-02 13:25:23,#E#,68,4,5,c,604,519,0,27,27,2,3

2017-10-02 13:25:23,#E#,68,5,5,c,604,519,0,27,27,2,3

2017-10-02 13:25:23,#E#,68,6,5,c,604,519,0,27,27,2,3

2017-10-02 13:25:23,#E#,68,7,5,c,604,519,0,27,27,2,3

2017-10-02 13:25:23,#E#,68,8,5,c,604,520,0,27,27,2,3

2017-10-02 13:25:23,#E#,68,9,5,c,604,519,0,27,27,2,3

2017-10-02 13:25:24,
2017-10-02 13:25:24,#E#,69,0,5,d,604,519,0,27,27,2,3

2017-10-02 13:25:24,#E#,69,1,5,d,604,519,0,27,27,2,3

2017-10-02 13:25:24,#E#,69,2,5,d,604,519,0,27,27,2,3

2017-10-02 13:25:24,#E#,69,3,5,d,604,519,0,27,27,2,3

2017-10-02 13:25:25,#E#,69,4,5,d,604,519,0,27,27,2,3

2017-10-02 13:25:25,#E#,69,5,5,d,604,519,0,27,27,2,3

2017-10-02 13:25:25,#E#,69,6,5,d,604,519,0,27,27,2,3

2017-10-02 13:25:25,#E#,69,7,5,d,604,519,0,27,27,2,3

2017-10-02 13:25:25,#E#,69,8,5,d,604,519,0,27,27,2,3

2017-10-02 13:25:25,#E#,69,9,5,d,604,519,0,27,27,2,3

2017-10-02 13:25:26,
2017-10-02 13:25:26,#E#,70,0,5,d,604,519,0,27,27,2,3

2017-10-02 13:25:26,#E#,70,1,5,d,604,519,0,27,27,2,3

2017-10-02 13:25:26,#E#,70,2,5,d,604,520,0,27,27,2,3

2017-10-02 13:25:26,#E#,70,3,5,d,604,519,0,27,27,2,3

2017-10-02 13:25:26,#E#,70,4,5,d,604,519,0,27,27,2,3

2017-10-02 13:25:26,#E#,70,5,5,d,604,519,0,27,27,2,3

2017-10-02 13:25:26,#E#,70,6,5,d,604,519,0,27,27,2,3

2017-10-02 13:25:26,#E#,70,7,5,d,604,519,0,27,27,2,3

2017-10-02 13:25:26,#E#,70,8,5,d,604,519,0,27,27,2,3

2017-10-02 13:25:26,#E#,70,9,5,d,604,519,0,27,27,2,3

2017-10-02 13:25:27,
2017-10-02 13:25:27,#E#,71,0,5,d,604,519,0,27,27,2,3

2017-10-02 13:25:27,#E#,71,1,5,d,604,519,0,27,27,2,3

2017-10-02 13:25:27,#E#,71,2,5,d,604,519,0,27,27,2,3

2017-10-02 13:25:27,#E#,71,3,5,d,604,519,0,27,27,2,3

2017-10-02 13:25:27,#E#,71,4,5,d,604,519,0,27,27,2,3

2017-10-02 13:25:27,#E#,71,5,5,d,604,519,0,27,27,2,3

2017-10-02 13:25:27,#E#,71,6,5,d,604,519,0,27,27,2,3

2017-10-02 13:25:27,#E#,71,7,5,d,604,519,0,27,27,2,3

2017-10-02 13:25:27,#E#,71,8,5,d,604,519,0,27,27,2,3

2017-10-02 13:25:27,#E#,71,9,5,d,604,519,0,27,27,2,3

2017-10-02 13:25:28,
2017-10-02 13:25:29,#E#,72,0,5,d,604,519,0,27,27,2,3

2017-10-02 13:25:29,#E#,72,1,5,d,604,519,0,27,27,2,3

2017-10-02 13:25:29,#E#,72,2,5,d,604,519,0,27,27,2,3

2017-10-02 13:25:29,#E#,72,3,5,d,604,519,0,27,27,2,3

2017-10-02 13:25:29,#E#,72,4,5,d,604,519,0,27,27,2,3

2017-10-02 13:25:29,#E#,72,5,5,d,604,519,0,27,27,2,3

2017-10-02 13:25:29,#E#,72,6,5,d,604,519,0,27,27,2,3

2017-10-02 13:25:29,#E#,72,7,5,d,604,519,0,27,27,2,3

2017-10-02 13:25:29,#E#,72,8,5,d,604,519,0,27,27,2,3

2017-10-02 13:25:29,#E#,72,9,5,d,604,519,0,27,27,2,3

2017-10-02 13:25:30,
2017-10-02 13:25:30,#E#,73,0,5,d,604,519,0,27,27,2,3

2017-10-02 13:25:30,#E#,73,1,5,d,604,519,0,27,27,2,3

2017-10-02 13:25:30,#E#,73,2,5,d,604,519,0,27,27,2,3

2017-10-02 13:25:30,#E#,73,3,5,d,604,519,0,27,27,2,3

2017-10-02 13:25:30,#E#,73,4,5,d,604,519,0,27,27,2,3

2017-10-02 13:25:30,#E#,73,5,5,d,604,519,0,27,27,2,3

2017-10-02 13:25:30,#E#,73,6,5,d,604,519,0,27,27,2,3

2017-10-02 13:25:30,#E#,73,7,5,d,604,519,0,27,27,2,3

2017-10-02 13:25:30,#E#,73,8,5,d,604,519,0,27,27,2,3

2017-10-02 13:25:30,#E#,73,9,5,d,604,519,0,27,27,2,3

2017-10-02 13:25:31,
2017-10-02 13:25:31,#E#,74,0,5,e,604,519,0,27,27,2,3

2017-10-02 13:25:31,#E#,74,1,5,e,604,519,0,27,27,2,3

2017-10-02 13:25:31,#E#,74,2,5,e,604,519,0,27,27,2,3

2017-10-02 13:25:31,#E#,74,3,5,e,604,519,0,27,27,2,3

2017-10-02 13:25:31,#E#,74,4,5,e,604,519,0,27,27,2,3

2017-10-02 13:25:31,#E#,74,5,5,e,604,519,0,27,27,2,3

2017-10-02 13:25:31,#E#,74,6,5,e,604,519,0,27,27,2,3

2017-10-02 13:25:31,#E#,74,7,5,e,604,519,0,27,27,2,3

2017-10-02 13:25:31,#E#,74,8,5,e,604,519,0,27,27,2,3

2017-10-02 13:25:31,#E#,74,9,5,e,604,519,0,27,27,2,3

2017-10-02 13:25:32,
2017-10-02 13:25:33,#E#,75,0,5,e,604,519,0,27,27,2,3

2017-10-02 13:25:33,#E#,75,1,5,e,604,519,0,27,27,2,3

2017-10-02 13:25:33,#E#,75,2,5,e,604,519,0,27,27,2,3

2017-10-02 13:25:33,#E#,75,3,5,e,604,519,0,27,27,2,3

2017-10-02 13:25:33,#E#,75,4,5,e,604,519,0,27,27,2,3

2017-10-02 13:25:33,#E#,75,5,5,e,604,519,0,27,27,2,3

2017-10-02 13:25:33,#E#,75,6,5,e,604,519,0,27,27,2,3

2017-10-02 13:25:33,#E#,75,7,5,e,604,519,0,27,27,2,3

2017-10-02 13:25:33,#E#,75,8,5,e,604,519,0,27,27,2,3

2017-10-02 13:25:33,#E#,75,9,5,e,604,519,0,27,27,2,3

2017-10-02 13:25:34,
2017-10-02 13:25:34,#E#,76,0,5,e,604,519,0,27,27,2,3

2017-10-02 13:25:34,#E#,76,1,5,e,604,519,0,27,27,2,3

2017-10-02 13:25:34,#E#,76,2,5,e,604,520,0,27,27,2,3

2017-10-02 13:25:34,#E#,76,3,5,e,604,519,0,27,27,2,3

2017-10-02 13:25:34,#E#,76,4,5,e,604,519,0,27,27,2,3

2017-10-02 13:25:34,#E#,76,5,5,e,604,519,0,27,27,2,3

2017-10-02 13:25:34,#E#,76,6,5,e,604,519,0,27,27,2,3

2017-10-02 13:25:34,#E#,76,7,5,e,604,519,0,27,27,2,3

2017-10-02 13:25:34,#E#,76,8,5,e,604,519,0,27,27,2,3

2017-10-02 13:25:34,#E#,76,9,5,e,604,519,0,27,27,2,3

2017-10-02 13:25:35,
2017-10-02 13:25:35,#E#,77,0,5,e,604,519,0,27,27,2,3

2017-10-02 13:25:35,#E#,77,1,5,e,604,519,0,27,27,2,3

2017-10-02 13:25:35,#E#,77,2,5,e,604,519,0,27,27,2,3

2017-10-02 13:25:35,#E#,77,3,5,e,604,519,0,27,27,2,3

2017-10-02 13:25:35,#E#,77,4,5,e,604,519,0,27,27,2,3

2017-10-02 13:25:35,#E#,77,5,5,e,604,519,0,27,27,2,3

2017-10-02 13:25:35,#E#,77,6,5,e,604,519,0,27,27,2,3

2017-10-02 13:25:35,#E#,77,7,5,e,604,519,0,27,27,2,3

2017-10-02 13:25:36,#E#,77,8,5,e,604,520,0,27,27,2,3

2017-10-02 13:25:36,#E#,77,9,5,e,604,519,0,27,27,2,3

2017-10-02 13:25:37,
2017-10-02 13:25:37,#E#,78,0,5,e,604,519,0,27,27,2,3

2017-10-02 13:25:37,#E#,78,1,5,e,604,519,0,27,27,2,3

2017-10-02 13:25:37,#E#,78,2,5,e,604,519,0,27,27,2,3

2017-10-02 13:25:37,#E#,78,3,5,e,604,519,0,27,27,2,3

2017-10-02 13:25:37,#E#,78,4,5,e,604,519,0,27,27,2,3

2017-10-02 13:25:37,#E#,78,5,5,e,604,519,0,27,27,2,3

2017-10-02 13:25:37,#E#,78,6,5,e,604,519,0,27,27,2,3

2017-10-02 13:25:37,#E#,78,7,5,e,604,519,0,27,27,2,3

2017-10-02 13:25:37,#E#,78,8,5,e,604,519,0,27,27,2,3

2017-10-02 13:25:37,#E#,78,9,5,e,604,519,0,27,27,2,3

2017-10-02 13:25:38,
2017-10-02 13:25:38,#E#,79,0,5,f,604,519,0,27,27,2,3

2017-10-02 13:25:38,#E#,79,1,5,f,604,519,0,27,27,2,3

2017-10-02 13:25:38,#E#,79,2,5,f,604,519,0,27,27,2,3

2017-10-02 13:25:38,#E#,79,3,5,f,604,519,0,27,27,2,3

2017-10-02 13:25:38,#E#,79,4,5,f,604,519,0,27,27,2,3

2017-10-02 13:25:38,#E#,79,5,5,f,604,519,0,27,27,2,3

2017-10-02 13:25:38,#E#,79,6,5,f,604,519,0,27,27,2,3

2017-10-02 13:25:38,#E#,79,7,5,f,604,518,0,27,27,2,3

2017-10-02 13:25:38,#E#,79,8,5,f,604,519,0,27,27,2,3

2017-10-02 13:25:38,#E#,79,9,5,f,604,519,0,27,27,2,3

2017-10-02 13:25:39,
2017-10-02 13:25:40,#E#,80,0,5,f,604,519,0,27,27,2,3

2017-10-02 13:25:40,#E#,80,1,5,f,604,519,0,27,27,2,3

2017-10-02 13:25:40,#E#,80,2,5,f,604,519,0,27,27,2,3

2017-10-02 13:25:40,#E#,80,3,5,f,604,519,0,27,27,2,3

2017-10-02 13:25:40,#E#,80,4,5,f,604,519,0,27,27,2,3

2017-10-02 13:25:40,#E#,80,5,5,f,604,519,0,27,27,2,3

2017-10-02 13:25:40,#E#,80,6,5,f,604,519,0,27,27,2,3

2017-10-02 13:25:40,#E#,80,7,5,f,604,520,0,27,27,2,3

2017-10-02 13:25:40,#E#,80,8,5,f,604,519,0,27,27,2,3

2017-10-02 13:25:40,#E#,80,9,5,f,604,519,0,27,27,2,3

2017-10-02 13:25:41,
2017-10-02 13:25:42,
2017-10-02 13:25:43,
2017-10-02 13:25:44,
2017-10-02 13:25:45,
