#E0E0004180A05IS_RAMP .

2017-10-02 13:43:10, 45,:e,:0,:4,:18,:a,:5 @

2017-10-02 13:43:10,*SeqNo,Samples,DAC_Cnt,BGapReg,GainReg,AM_VCal,BGO,Isense0,Isense1

2017-10-02 13:43:11,#E#,0,0,5,c8,d1,604,518,0,27,27,2,3

2017-10-02 13:43:11,#E#,0,1,5,c8,d1,604,519,0,27,27,2,3

2017-10-02 13:43:11,#E#,0,2,5,c8,d1,604,519,0,27,27,2,3

2017-10-02 13:43:11,#E#,0,3,5,c8,d1,604,519,0,27,27,2,3

2017-10-02 13:43:11,#E#,0,4,5,c8,d1,604,519,0,27,27,2,3

2017-10-02 13:43:11,#E#,0,5,5,c8,d1,604,519,0,27,27,2,3

2017-10-02 13:43:11,#E#,0,6,5,c8,d1,604,519,0,27,27,2,3

2017-10-02 13:43:11,#E#,0,7,5,c8,d1,604,519,0,27,27,2,3

2017-10-02 13:43:11,#E#,0,8,5,c8,d1,604,518,0,27,27,2,3

2017-10-02 13:43:11,#E#,0,9,5,c8,d1,604,519,0,27,27,2,3

2017-10-02 13:43:12,#E#,1,0,5,cd,d1,604,519,0,27,27,2,3

2017-10-02 13:43:12,#E#,1,1,5,cd,d1,604,519,0,27,27,2,3

2017-10-02 13:43:12,#E#,1,2,5,cd,d1,604,519,0,27,27,2,3

2017-10-02 13:43:12,#E#,1,3,5,cd,d1,604,518,0,27,27,2,3

2017-10-02 13:43:12,#E#,1,4,5,cd,d1,604,519,0,27,27,2,3

2017-10-02 13:43:12,#E#,1,5,5,cd,d1,604,519,0,27,27,2,3

2017-10-02 13:43:12,#E#,1,6,5,cd,d1,604,519,0,27,27,2,3

2017-10-02 13:43:12,#E#,1,7,5,cd,d1,604,519,0,27,27,2,3

2017-10-02 13:43:12,#E#,1,8,5,cd,d1,604,519,0,27,27,2,3

2017-10-02 13:43:12,#E#,1,9,5,cd,d1,604,519,0,27,27,2,3

2017-10-02 13:43:13,
2017-10-02 13:43:13,#E#,0,0,5,c8,d1,604,519,11,63,63,202,227

2017-10-02 13:43:13,#E#,0,1,5,c8,d1,604,519,11,63,63,202,207

2017-10-02 13:43:13,#E#,0,2,5,c8,d1,604,519,11,63,63,202,211

2017-10-02 13:43:13,#E#,0,3,5,c8,d1,604,519,11,63,63,206,219

2017-10-02 13:43:13,#E#,0,4,5,c8,d1,604,519,11,63,63,206,207

2017-10-02 13:43:13,#E#,0,5,5,c8,d1,604,519,11,63,63,202,215

2017-10-02 13:43:13,#E#,0,6,5,c8,d1,604,518,11,63,63,210,211

2017-10-02 13:43:13,#E#,0,7,5,c8,d1,604,519,11,63,63,202,227

2017-10-02 13:43:13,#E#,0,8,5,c8,d1,604,519,11,63,63,202,207

2017-10-02 13:43:13,#E#,0,9,5,c8,d1,604,519,11,63,63,202,223

2017-10-02 13:43:14,#E#,1,0,5,cd,d1,604,519,11,63,63,202,211

2017-10-02 13:43:14,#E#,1,1,5,cd,d1,604,518,11,63,63,202,211

2017-10-02 13:43:14,#E#,1,2,5,cd,d1,604,518,11,63,63,206,211

2017-10-02 13:43:14,#E#,1,3,5,cd,d1,604,518,11,63,63,202,207

2017-10-02 13:43:14,#E#,1,4,5,cd,d1,604,519,11,63,63,206,223

2017-10-02 13:43:14,#E#,1,5,5,cd,d1,604,519,11,63,63,206,207

2017-10-02 13:43:14,#E#,1,6,5,cd,d1,604,518,11,63,63,206,215

2017-10-02 13:43:14,#E#,1,7,5,cd,d1,604,519,11,63,63,206,207

2017-10-02 13:43:14,#E#,1,8,5,cd,d1,604,519,11,63,63,202,223

2017-10-02 13:43:14,#E#,1,9,5,cd,d1,604,519,11,63,63,206,207

2017-10-02 13:43:15,
2017-10-02 13:43:15,#E#,0,0,5,c8,d1,604,518,22,63,63,50,51

2017-10-02 13:43:15,#E#,0,1,5,c8,d1,604,519,22,63,63,50,51

2017-10-02 13:43:15,#E#,0,2,5,c8,d1,604,518,22,63,63,50,51

2017-10-02 13:43:15,#E#,0,3,5,c8,d1,604,519,22,63,63,50,51

2017-10-02 13:43:15,#E#,0,4,5,c8,d1,604,519,22,63,63,50,51

2017-10-02 13:43:15,#E#,0,5,5,c8,d1,604,519,22,63,63,50,51

2017-10-02 13:43:15,#E#,0,6,5,c8,d1,604,519,22,63,63,50,51

2017-10-02 13:43:15,#E#,0,7,5,c8,d1,604,519,22,63,63,50,51

2017-10-02 13:43:15,#E#,0,8,5,c8,d1,604,519,22,63,63,50,51

2017-10-02 13:43:15,#E#,0,9,5,c8,d1,604,518,22,63,63,50,51

2017-10-02 13:43:16,#E#,1,0,5,cd,d1,604,519,22,63,63,50,51

2017-10-02 13:43:16,#E#,1,1,5,cd,d1,604,518,22,63,63,50,51

2017-10-02 13:43:16,#E#,1,2,5,cd,d1,604,519,22,63,63,50,51

2017-10-02 13:43:16,#E#,1,3,5,cd,d1,604,518,22,63,63,50,51

2017-10-02 13:43:16,#E#,1,4,5,cd,d1,604,519,22,63,63,50,51

2017-10-02 13:43:16,#E#,1,5,5,cd,d1,604,519,22,63,63,50,51

2017-10-02 13:43:16,#E#,1,6,5,cd,d1,604,518,22,63,63,50,51

2017-10-02 13:43:16,#E#,1,7,5,cd,d1,604,518,22,63,63,50,51

2017-10-02 13:43:16,#E#,1,8,5,cd,d1,604,519,22,63,63,50,51

2017-10-02 13:43:16,#E#,1,9,5,cd,d1,604,519,22,63,63,50,51

2017-10-02 13:43:17,
2017-10-02 13:43:17,#E#,0,0,5,c8,d1,604,518,33,63,63,46,51

2017-10-02 13:43:18,#E#,0,1,5,c8,d1,604,519,33,63,63,46,47

2017-10-02 13:43:18,#E#,0,2,5,c8,d1,604,518,33,63,63,46,47

2017-10-02 13:43:18,#E#,0,3,5,c8,d1,604,518,33,63,63,46,47

2017-10-02 13:43:18,#E#,0,4,5,c8,d1,604,518,33,63,63,46,51

2017-10-02 13:43:18,#E#,0,5,5,c8,d1,604,519,33,63,63,46,47

2017-10-02 13:43:18,#E#,0,6,5,c8,d1,604,519,33,63,63,46,47

2017-10-02 13:43:18,#E#,0,7,5,c8,d1,604,519,33,63,63,46,47

2017-10-02 13:43:18,#E#,0,8,5,c8,d1,604,518,33,63,63,46,47

2017-10-02 13:43:18,#E#,0,9,5,c8,d1,604,519,33,63,63,46,47

2017-10-02 13:43:19,#E#,1,0,5,cd,d1,604,518,33,63,63,46,47

2017-10-02 13:43:19,#E#,1,1,5,cd,d1,604,518,33,63,63,46,47

2017-10-02 13:43:19,#E#,1,2,5,cd,d1,604,518,33,63,63,46,51

2017-10-02 13:43:19,#E#,1,3,5,cd,d1,604,518,33,63,63,46,47

2017-10-02 13:43:19,#E#,1,4,5,cd,d1,604,519,33,63,63,46,51

2017-10-02 13:43:19,#E#,1,5,5,cd,d1,604,518,33,63,63,46,47

2017-10-02 13:43:19,#E#,1,6,5,cd,d1,604,519,33,63,63,46,47

2017-10-02 13:43:19,#E#,1,7,5,cd,d1,604,518,33,63,63,46,47

2017-10-02 13:43:19,#E#,1,8,5,cd,d1,604,519,33,63,63,46,47

2017-10-02 13:43:19,#E#,1,9,5,cd,d1,604,519,33,63,63,46,47

2017-10-02 13:43:20,
2017-10-02 13:43:20,#E#,0,0,5,c8,d1,604,518,44,63,63,30,31

2017-10-02 13:43:20,#E#,0,1,5,c8,d1,604,518,44,63,63,30,31

2017-10-02 13:43:20,#E#,0,2,5,c8,d1,604,518,44,63,63,30,31

2017-10-02 13:43:20,#E#,0,3,5,c8,d1,604,518,44,63,63,30,31

2017-10-02 13:43:20,#E#,0,4,5,c8,d1,604,518,44,63,63,30,31

2017-10-02 13:43:20,#E#,0,5,5,c8,d1,604,518,44,63,63,30,31

2017-10-02 13:43:20,#E#,0,6,5,c8,d1,604,518,44,63,63,30,31

2017-10-02 13:43:20,#E#,0,7,5,c8,d1,604,519,44,63,63,30,31

2017-10-02 13:43:20,#E#,0,8,5,c8,d1,604,518,44,63,63,30,31

2017-10-02 13:43:20,#E#,0,9,5,c8,d1,604,518,44,63,63,30,31

2017-10-02 13:43:21,#E#,1,0,5,cd,d1,604,519,44,63,63,30,31

2017-10-02 13:43:21,#E#,1,1,5,cd,d1,604,519,44,63,63,30,31

2017-10-02 13:43:21,#E#,1,2,5,cd,d1,604,519,44,63,63,30,31

2017-10-02 13:43:21,#E#,1,3,5,cd,d1,604,518,44,63,63,30,31

2017-10-02 13:43:21,#E#,1,4,5,cd,d1,604,519,44,63,63,30,31

2017-10-02 13:43:21,#E#,1,5,5,cd,d1,604,518,44,63,63,30,31

2017-10-02 13:43:21,#E#,1,6,5,cd,d1,604,518,44,63,63,30,31

2017-10-02 13:43:21,#E#,1,7,5,cd,d1,604,519,44,63,63,30,31

2017-10-02 13:43:21,#E#,1,8,5,cd,d1,604,518,44,63,63,30,31

2017-10-02 13:43:21,#E#,1,9,5,cd,d1,604,519,44,63,63,30,31

2017-10-02 13:43:22,
2017-10-02 13:43:22,#E#,0,0,5,c8,d1,604,518,55,63,63,30,31

2017-10-02 13:43:22,#E#,0,1,5,c8,d1,604,518,55,63,63,30,31

2017-10-02 13:43:22,#E#,0,2,5,c8,d1,604,518,55,63,63,30,31

2017-10-02 13:43:22,#E#,0,3,5,c8,d1,604,519,55,63,63,30,31

2017-10-02 13:43:22,#E#,0,4,5,c8,d1,604,518,55,63,63,30,31

2017-10-02 13:43:22,#E#,0,5,5,c8,d1,604,519,55,63,63,30,31

2017-10-02 13:43:22,#E#,0,6,5,c8,d1,604,519,55,63,63,30,31

2017-10-02 13:43:22,#E#,0,7,5,c8,d1,604,519,55,63,63,30,31

2017-10-02 13:43:22,#E#,0,8,5,c8,d1,604,518,55,63,63,30,31

2017-10-02 13:43:22,#E#,0,9,5,c8,d1,604,519,55,63,63,30,31

2017-10-02 13:43:23,#E#,1,0,5,cd,d1,604,518,55,63,63,30,31

2017-10-02 13:43:23,#E#,1,1,5,cd,d1,604,519,55,63,63,30,31

2017-10-02 13:43:23,#E#,1,2,5,cd,d1,604,518,55,63,63,30,31

2017-10-02 13:43:23,#E#,1,3,5,cd,d1,604,519,55,63,63,30,31

2017-10-02 13:43:23,#E#,1,4,5,cd,d1,604,518,55,63,63,30,31

2017-10-02 13:43:23,#E#,1,5,5,cd,d1,604,519,55,63,63,30,31

2017-10-02 13:43:23,#E#,1,6,5,cd,d1,604,519,55,63,63,30,31

2017-10-02 13:43:23,#E#,1,7,5,cd,d1,604,518,55,63,63,30,31

2017-10-02 13:43:23,#E#,1,8,5,cd,d1,604,519,55,63,63,30,31

2017-10-02 13:43:23,#E#,1,9,5,cd,d1,604,518,55,63,63,30,31

2017-10-02 13:43:24,
2017-10-02 13:43:24,#E#,0,0,5,c8,d1,604,518,66,63,63,30,27

2017-10-02 13:43:24,#E#,0,1,5,c8,d1,604,518,66,63,63,30,31

2017-10-02 13:43:24,#E#,0,2,5,c8,d1,604,519,66,63,63,30,27

2017-10-02 13:43:24,#E#,0,3,5,c8,d1,604,518,66,63,63,30,31

2017-10-02 13:43:24,#E#,0,4,5,c8,d1,604,519,66,63,63,30,27

2017-10-02 13:43:24,#E#,0,5,5,c8,d1,604,519,66,63,63,30,31

2017-10-02 13:43:24,#E#,0,6,5,c8,d1,604,519,66,63,63,30,27

2017-10-02 13:43:24,#E#,0,7,5,c8,d1,604,519,66,63,63,30,27

2017-10-02 13:43:24,#E#,0,8,5,c8,d1,604,519,66,63,63,30,31

2017-10-02 13:43:24,#E#,0,9,5,c8,d1,604,518,66,63,63,30,27

2017-10-02 13:43:25,#E#,1,0,5,cd,d1,604,518,66,63,63,30,31

2017-10-02 13:43:25,#E#,1,1,5,cd,d1,604,518,66,63,63,30,27

2017-10-02 13:43:25,#E#,1,2,5,cd,d1,604,518,66,63,63,30,31

2017-10-02 13:43:25,#E#,1,3,5,cd,d1,604,518,66,63,63,30,27

2017-10-02 13:43:25,#E#,1,4,5,cd,d1,604,519,66,63,63,30,31

2017-10-02 13:43:25,#E#,1,5,5,cd,d1,604,518,66,63,63,30,27

2017-10-02 13:43:25,#E#,1,6,5,cd,d1,604,518,66,63,63,30,27

2017-10-02 13:43:25,#E#,1,7,5,cd,d1,604,519,66,63,63,30,27

2017-10-02 13:43:25,#E#,1,8,5,cd,d1,604,519,66,63,63,30,31

2017-10-02 13:43:25,#E#,1,9,5,cd,d1,604,518,66,63,63,30,27

2017-10-02 13:43:26,
2017-10-02 13:43:26,#E#,0,0,5,c8,d1,604,519,77,63,63,30,27

2017-10-02 13:43:26,#E#,0,1,5,c8,d1,604,518,77,63,63,30,31

2017-10-02 13:43:26,#E#,0,2,5,c8,d1,604,519,77,63,63,30,31

2017-10-02 13:43:27,#E#,0,3,5,c8,d1,604,519,77,63,63,30,27

2017-10-02 13:43:27,#E#,0,4,5,c8,d1,604,518,77,63,63,30,27

2017-10-02 13:43:27,#E#,0,5,5,c8,d1,604,518,77,63,63,30,31

2017-10-02 13:43:27,#E#,0,6,5,c8,d1,604,518,77,63,63,30,27

2017-10-02 13:43:27,#E#,0,7,5,c8,d1,604,518,77,63,63,30,27

2017-10-02 13:43:27,#E#,0,8,5,c8,d1,604,518,77,63,63,30,27

2017-10-02 13:43:27,#E#,0,9,5,c8,d1,604,519,77,63,63,30,27

2017-10-02 13:43:28,#E#,1,0,5,cd,d1,604,519,77,63,63,30,27

2017-10-02 13:43:28,#E#,1,1,5,cd,d1,604,518,77,63,63,30,27

2017-10-02 13:43:28,#E#,1,2,5,cd,d1,604,519,77,63,63,30,31

2017-10-02 13:43:28,#E#,1,3,5,cd,d1,604,519,77,63,63,30,27

2017-10-02 13:43:28,#E#,1,4,5,cd,d1,604,519,77,63,63,30,27

2017-10-02 13:43:28,#E#,1,5,5,cd,d1,604,518,77,63,63,30,27

2017-10-02 13:43:28,#E#,1,6,5,cd,d1,604,519,77,63,63,30,27

2017-10-02 13:43:28,#E#,1,7,5,cd,d1,604,519,77,63,63,30,31

2017-10-02 13:43:28,#E#,1,8,5,cd,d1,604,518,77,63,63,30,27

2017-10-02 13:43:28,#E#,1,9,5,cd,d1,604,518,77,63,63,30,31

2017-10-02 13:43:29,
2017-10-02 13:43:29,#E#,0,0,5,c8,d1,604,518,88,63,63,26,27

2017-10-02 13:43:29,#E#,0,1,5,c8,d1,604,519,88,63,63,26,27

2017-10-02 13:43:29,#E#,0,2,5,c8,d1,604,519,88,63,63,26,27

2017-10-02 13:43:29,#E#,0,3,5,c8,d1,604,518,88,63,63,26,27

2017-10-02 13:43:29,#E#,0,4,5,c8,d1,604,518,88,63,63,26,27

2017-10-02 13:43:29,#E#,0,5,5,c8,d1,604,519,88,63,63,26,27

2017-10-02 13:43:29,#E#,0,6,5,c8,d1,604,518,88,63,63,26,27

2017-10-02 13:43:29,#E#,0,7,5,c8,d1,604,518,88,63,63,26,27

2017-10-02 13:43:29,#E#,0,8,5,c8,d1,604,519,88,63,63,26,27

2017-10-02 13:43:29,#E#,0,9,5,c8,d1,604,519,88,63,63,26,27

2017-10-02 13:43:30,#E#,1,0,5,cd,d1,603,519,88,63,63,26,27

2017-10-02 13:43:30,#E#,1,1,5,cd,d1,603,518,88,63,63,26,27

2017-10-02 13:43:30,#E#,1,2,5,cd,d1,603,519,88,63,63,26,27

2017-10-02 13:43:30,#E#,1,3,5,cd,d1,603,519,88,63,63,26,27

2017-10-02 13:43:30,#E#,1,4,5,cd,d1,603,519,88,63,63,26,27

2017-10-02 13:43:30,#E#,1,5,5,cd,d1,603,519,88,63,63,26,27

2017-10-02 13:43:30,#E#,1,6,5,cd,d1,603,519,88,63,63,26,27

2017-10-02 13:43:30,#E#,1,7,5,cd,d1,603,519,88,63,63,26,27

2017-10-02 13:43:30,#E#,1,8,5,cd,d1,603,519,88,63,63,26,27

2017-10-02 13:43:30,#E#,1,9,5,cd,d1,603,518,88,63,63,26,27

2017-10-02 13:43:31,
2017-10-02 13:43:31,#E#,0,0,5,c8,d1,604,518,99,63,63,26,27

2017-10-02 13:43:31,#E#,0,1,5,c8,d1,604,519,99,63,63,26,27

2017-10-02 13:43:31,#E#,0,2,5,c8,d1,604,519,99,63,63,26,27

2017-10-02 13:43:31,#E#,0,3,5,c8,d1,604,519,99,63,63,26,27

2017-10-02 13:43:31,#E#,0,4,5,c8,d1,604,519,99,63,63,26,27

2017-10-02 13:43:31,#E#,0,5,5,c8,d1,604,518,99,63,63,26,27

2017-10-02 13:43:31,#E#,0,6,5,c8,d1,604,518,99,63,63,26,27

2017-10-02 13:43:31,#E#,0,7,5,c8,d1,604,518,99,63,63,26,27

2017-10-02 13:43:31,#E#,0,8,5,c8,d1,604,519,99,63,63,26,27

2017-10-02 13:43:31,#E#,0,9,5,c8,d1,604,519,99,63,63,26,27

2017-10-02 13:43:32,#E#,1,0,5,cd,d1,603,518,99,63,63,26,27

2017-10-02 13:43:32,#E#,1,1,5,cd,d1,603,519,99,63,63,26,27

2017-10-02 13:43:32,#E#,1,2,5,cd,d1,603,519,99,63,63,26,27

2017-10-02 13:43:32,#E#,1,3,5,cd,d1,603,518,99,63,63,26,27

2017-10-02 13:43:32,#E#,1,4,5,cd,d1,603,519,99,63,63,26,27

2017-10-02 13:43:32,#E#,1,5,5,cd,d1,603,518,99,63,63,26,27

2017-10-02 13:43:32,#E#,1,6,5,cd,d1,603,519,99,63,63,26,27

2017-10-02 13:43:32,#E#,1,7,5,cd,d1,603,518,99,63,63,26,27

2017-10-02 13:43:32,#E#,1,8,5,cd,d1,603,518,99,63,63,26,27

2017-10-02 13:43:32,#E#,1,9,5,cd,d1,603,519,99,63,63,26,27

2017-10-02 13:43:33,
2017-10-02 13:43:33,#E#,0,0,5,c8,d1,604,519,aa,63,63,26,27

2017-10-02 13:43:33,#E#,0,1,5,c8,d1,604,519,aa,63,63,26,27

2017-10-02 13:43:33,#E#,0,2,5,c8,d1,604,518,aa,63,63,26,27

2017-10-02 13:43:33,#E#,0,3,5,c8,d1,604,518,aa,63,63,26,27

2017-10-02 13:43:33,#E#,0,4,5,c8,d1,604,518,aa,63,63,26,27

2017-10-02 13:43:33,#E#,0,5,5,c8,d1,604,519,aa,63,63,26,27

2017-10-02 13:43:33,#E#,0,6,5,c8,d1,604,518,aa,63,63,26,27

2017-10-02 13:43:33,#E#,0,7,5,c8,d1,604,519,aa,63,63,26,27

2017-10-02 13:43:33,#E#,0,8,5,c8,d1,604,519,aa,63,63,26,27

2017-10-02 13:43:33,#E#,0,9,5,c8,d1,604,519,aa,63,63,26,27

2017-10-02 13:43:34,#E#,1,0,5,cd,d1,603,519,aa,63,63,26,27

2017-10-02 13:43:34,#E#,1,1,5,cd,d1,603,519,aa,63,63,26,27

2017-10-02 13:43:34,#E#,1,2,5,cd,d1,603,519,aa,63,63,26,27

2017-10-02 13:43:34,#E#,1,3,5,cd,d1,603,519,aa,63,63,26,27

2017-10-02 13:43:34,#E#,1,4,5,cd,d1,603,519,aa,63,63,26,27

2017-10-02 13:43:34,#E#,1,5,5,cd,d1,603,518,aa,63,63,26,27

2017-10-02 13:43:34,#E#,1,6,5,cd,d1,603,519,aa,63,63,26,27

2017-10-02 13:43:34,#E#,1,7,5,cd,d1,603,519,aa,63,63,26,27

2017-10-02 13:43:34,#E#,1,8,5,cd,d1,603,518,aa,63,63,26,27

2017-10-02 13:43:34,#E#,1,9,5,cd,d1,603,519,aa,63,63,26,27

2017-10-02 13:43:35,
2017-10-02 13:43:35,#E#,0,0,5,c8,d1,603,518,bb,63,63,26,27

2017-10-02 13:43:35,#E#,0,1,5,c8,d1,603,519,bb,63,63,26,27

2017-10-02 13:43:35,#E#,0,2,5,c8,d1,603,518,bb,63,63,26,27

2017-10-02 13:43:35,#E#,0,3,5,c8,d1,603,518,bb,63,63,26,27

2017-10-02 13:43:35,#E#,0,4,5,c8,d1,603,519,bb,63,63,26,27

2017-10-02 13:43:35,#E#,0,5,5,c8,d1,603,519,bb,63,63,26,27

2017-10-02 13:43:36,#E#,0,6,5,c8,d1,603,519,bb,63,63,26,27

2017-10-02 13:43:36,#E#,0,7,5,c8,d1,603,519,bb,63,63,26,27

2017-10-02 13:43:36,#E#,0,8,5,c8,d1,603,519,bb,63,63,26,27

2017-10-02 13:43:36,#E#,0,9,5,c8,d1,603,519,bb,63,63,26,27

2017-10-02 13:43:36,#E#,1,0,5,cd,d1,603,519,bb,63,63,26,27

2017-10-02 13:43:37,#E#,1,1,5,cd,d1,603,519,bb,63,63,26,27

2017-10-02 13:43:37,#E#,1,2,5,cd,d1,603,518,bb,63,63,26,27

2017-10-02 13:43:37,#E#,1,3,5,cd,d1,603,519,bb,63,63,26,27

2017-10-02 13:43:37,#E#,1,4,5,cd,d1,603,518,bb,63,63,26,27

2017-10-02 13:43:37,#E#,1,5,5,cd,d1,603,519,bb,63,63,26,27

2017-10-02 13:43:37,#E#,1,6,5,cd,d1,603,519,bb,63,63,26,27

2017-10-02 13:43:37,#E#,1,7,5,cd,d1,603,519,bb,63,63,26,27

2017-10-02 13:43:37,#E#,1,8,5,cd,d1,603,518,bb,63,63,26,27

2017-10-02 13:43:37,#E#,1,9,5,cd,d1,603,518,bb,63,63,26,27

2017-10-02 13:43:38,
2017-10-02 13:43:38,#E#,0,0,5,c8,d1,604,519,cc,63,63,26,27

2017-10-02 13:43:38,#E#,0,1,5,c8,d1,604,518,cc,63,63,26,27

2017-10-02 13:43:38,#E#,0,2,5,c8,d1,604,518,cc,63,63,26,27

2017-10-02 13:43:38,#E#,0,3,5,c8,d1,604,519,cc,63,63,26,27

2017-10-02 13:43:38,#E#,0,4,5,c8,d1,604,519,cc,63,63,26,27

2017-10-02 13:43:38,#E#,0,5,5,c8,d1,604,518,cc,63,63,26,27

2017-10-02 13:43:38,#E#,0,6,5,c8,d1,604,518,cc,63,63,26,27

2017-10-02 13:43:38,#E#,0,7,5,c8,d1,604,519,cc,63,63,26,27

2017-10-02 13:43:38,#E#,0,8,5,c8,d1,604,518,cc,63,63,26,27

2017-10-02 13:43:38,#E#,0,9,5,c8,d1,604,518,cc,63,63,26,27

2017-10-02 13:43:39,#E#,1,0,5,cd,d1,604,519,cc,63,63,26,27

2017-10-02 13:43:39,#E#,1,1,5,cd,d1,604,518,cc,63,63,26,27

2017-10-02 13:43:39,#E#,1,2,5,cd,d1,604,519,cc,63,63,26,27

2017-10-02 13:43:39,#E#,1,3,5,cd,d1,604,519,cc,63,63,26,27

2017-10-02 13:43:39,#E#,1,4,5,cd,d1,604,519,cc,63,63,26,27

2017-10-02 13:43:39,#E#,1,5,5,cd,d1,604,519,cc,63,63,26,27

2017-10-02 13:43:39,#E#,1,6,5,cd,d1,604,518,cc,63,63,26,27

2017-10-02 13:43:39,#E#,1,7,5,cd,d1,604,518,cc,63,63,26,27

2017-10-02 13:43:39,#E#,1,8,5,cd,d1,604,518,cc,63,63,26,27

2017-10-02 13:43:39,#E#,1,9,5,cd,d1,604,519,cc,63,63,26,27

2017-10-02 13:43:40,
2017-10-02 13:43:40,#E#,0,0,5,c8,d1,603,519,dd,63,63,26,27

2017-10-02 13:43:40,#E#,0,1,5,c8,d1,603,519,dd,63,63,26,27

2017-10-02 13:43:40,#E#,0,2,5,c8,d1,603,519,dd,63,63,26,27

2017-10-02 13:43:40,#E#,0,3,5,c8,d1,603,519,dd,63,63,26,27

2017-10-02 13:43:40,#E#,0,4,5,c8,d1,603,519,dd,63,63,26,27

2017-10-02 13:43:40,#E#,0,5,5,c8,d1,603,519,dd,63,63,26,27

2017-10-02 13:43:40,#E#,0,6,5,c8,d1,603,519,dd,63,63,26,27

2017-10-02 13:43:40,#E#,0,7,5,c8,d1,603,518,dd,63,63,26,27

2017-10-02 13:43:40,#E#,0,8,5,c8,d1,603,518,dd,63,63,26,27

2017-10-02 13:43:40,#E#,0,9,5,c8,d1,603,518,dd,63,63,26,27

2017-10-02 13:43:41,#E#,1,0,5,cd,d1,604,519,dd,63,63,26,27

2017-10-02 13:43:41,#E#,1,1,5,cd,d1,604,518,dd,63,63,26,27

2017-10-02 13:43:41,#E#,1,2,5,cd,d1,604,518,dd,63,63,26,27

2017-10-02 13:43:41,#E#,1,3,5,cd,d1,604,518,dd,63,63,26,27

2017-10-02 13:43:41,#E#,1,4,5,cd,d1,604,519,dd,63,63,26,27

2017-10-02 13:43:41,#E#,1,5,5,cd,d1,604,519,dd,63,63,26,27

2017-10-02 13:43:41,#E#,1,6,5,cd,d1,604,519,dd,63,63,26,27

2017-10-02 13:43:41,#E#,1,7,5,cd,d1,604,519,dd,63,63,26,27

2017-10-02 13:43:41,#E#,1,8,5,cd,d1,604,518,dd,63,63,26,27

2017-10-02 13:43:41,#E#,1,9,5,cd,d1,604,518,dd,63,63,26,27

2017-10-02 13:43:42,
2017-10-02 13:43:42,#E#,0,0,5,c8,d1,603,519,ee,63,63,26,27

2017-10-02 13:43:42,#E#,0,1,5,c8,d1,603,519,ee,63,63,26,27

2017-10-02 13:43:42,#E#,0,2,5,c8,d1,603,518,ee,63,63,26,27

2017-10-02 13:43:42,#E#,0,3,5,c8,d1,603,519,ee,63,63,26,27

2017-10-02 13:43:42,#E#,0,4,5,c8,d1,603,518,ee,63,63,26,27

2017-10-02 13:43:42,#E#,0,5,5,c8,d1,603,518,ee,63,63,26,27

2017-10-02 13:43:42,#E#,0,6,5,c8,d1,603,519,ee,63,63,26,27

2017-10-02 13:43:42,#E#,0,7,5,c8,d1,603,519,ee,63,63,26,27

2017-10-02 13:43:42,#E#,0,8,5,c8,d1,603,518,ee,63,63,26,27

2017-10-02 13:43:42,#E#,0,9,5,c8,d1,603,519,ee,63,63,26,27

2017-10-02 13:43:43,#E#,1,0,5,cd,d1,604,518,ee,63,63,26,27

2017-10-02 13:43:43,#E#,1,1,5,cd,d1,604,519,ee,63,63,26,27

2017-10-02 13:43:43,#E#,1,2,5,cd,d1,604,518,ee,63,63,26,27

2017-10-02 13:43:43,#E#,1,3,5,cd,d1,604,519,ee,63,63,26,27

2017-10-02 13:43:43,#E#,1,4,5,cd,d1,604,519,ee,63,63,26,27

2017-10-02 13:43:43,#E#,1,5,5,cd,d1,604,518,ee,63,63,26,27

2017-10-02 13:43:43,#E#,1,6,5,cd,d1,604,519,ee,63,63,26,27

2017-10-02 13:43:43,#E#,1,7,5,cd,d1,604,518,ee,63,63,26,27

2017-10-02 13:43:43,#E#,1,8,5,cd,d1,604,518,ee,63,63,26,27

2017-10-02 13:43:43,#E#,1,9,5,cd,d1,604,519,ee,63,63,26,27

2017-10-02 13:43:44,
2017-10-02 13:43:44,#E#,0,0,5,c8,d1,604,519,ff,63,63,26,27

2017-10-02 13:43:44,#E#,0,1,5,c8,d1,604,518,ff,63,63,26,27

2017-10-02 13:43:44,#E#,0,2,5,c8,d1,604,519,ff,63,63,26,27

2017-10-02 13:43:44,#E#,0,3,5,c8,d1,604,518,ff,63,63,26,27

2017-10-02 13:43:44,#E#,0,4,5,c8,d1,604,519,ff,63,63,26,27

2017-10-02 13:43:44,#E#,0,5,5,c8,d1,604,518,ff,63,63,26,27

2017-10-02 13:43:44,#E#,0,6,5,c8,d1,604,519,ff,63,63,26,27

2017-10-02 13:43:44,#E#,0,7,5,c8,d1,604,519,ff,63,63,26,27

2017-10-02 13:43:45,#E#,0,8,5,c8,d1,604,519,ff,63,63,26,27

2017-10-02 13:43:45,#E#,0,9,5,c8,d1,604,519,ff,63,63,26,27

2017-10-02 13:43:45,#E#,1,0,5,cd,d1,603,518,ff,63,63,26,27

2017-10-02 13:43:45,#E#,1,1,5,cd,d1,603,519,ff,63,63,26,27

2017-10-02 13:43:45,#E#,1,2,5,cd,d1,603,518,ff,63,63,26,27

2017-10-02 13:43:45,#E#,1,3,5,cd,d1,603,518,ff,63,63,26,27

2017-10-02 13:43:46,#E#,1,4,5,cd,d1,603,519,ff,63,63,26,27

2017-10-02 13:43:46,#E#,1,5,5,cd,d1,603,519,ff,63,63,26,27

2017-10-02 13:43:46,#E#,1,6,5,cd,d1,603,518,ff,63,63,26,27

2017-10-02 13:43:46,#E#,1,7,5,cd,d1,603,518,ff,63,63,26,27

2017-10-02 13:43:46,#E#,1,8,5,cd,d1,603,519,ff,63,63,26,27

2017-10-02 13:43:46,#E#,1,9,5,cd,d1,603,518,ff,63,63,26,27

2017-10-02 13:43:46,*******DONE*******#

Exiting PsocAmPreRad
