2017-09-09 05:06:26,Serial Error, G
2017-09-09 05:06:26,Serial Error, 
2017-09-09 05:06:26,Serial Error, 
2017-09-09 05:06:26,Serial Error, i 
2017-09-09 05:06:26,Serial Error, PeRd
2017-09-09 05:06:26,Serial Error, A
2017-09-09 05:06:26,Serial Error, 
2017-09-09 05:06:26,Serial Error, x
2017-09-09 05:06:36,Serial Error, *e
2017-09-09 05:06:36,Serial Error, B,
2017-09-09 05:06:36,Serial Error, 0A
2017-09-09 05:06:36,Serial Error, 
2017-09-09 05:06:36,Serial Error, 
2017-09-09 05:06:39,Serial Error, 1
2017-09-09 05:06:39,  222 
2017-09-09 05:06:39,Serial Error, 0
2017-09-09 05:06:39,Serial Error, 
2017-09-09 05:06:39,Serial Error, 
2017-09-09 05:06:39,Serial Error, 
2017-09-09 05:06:39,Serial Error, 
2017-09-09 05:06:39,Serial Error, 
2017-09-09 05:06:39,Serial Error, 
2017-09-09 05:06:39,Serial Error, 
2017-09-09 05:06:39,Serial Error, 
2017-09-09 05:06:39,Serial Error, 1
2017-09-09 05:06:39,Serial Error, 32 0 ,73
2017-09-09 05:06:39,Serial Error, 
2017-09-09 05:06:39,Serial Error, 1
2017-09-09 05:06:39,Serial Error, 2  3
2017-09-09 05:06:39,Serial Error, 
2017-09-09 05:06:39,Serial Error, 
2017-09-09 05:06:39,Serial Error,  0
2017-09-09 05:06:39,Serial Error,  3 ,,,,1
2017-09-09 05:06:39,Serial Error, 0330 ,32131
2017-09-09 05:06:39,Serial Error,  
2017-09-09 05:06:39,Serial Error,  
2017-09-09 05:06:39,Serial Error, 
2017-09-09 05:06:39,Serial Error, 17
2017-09-09 05:06:39,Serial Error, ,
2017-09-09 05:06:39,Serial Error, 
2017-09-09 05:06:39,Serial Error, 
2017-09-09 05:06:39,Serial Error, 
2017-09-09 05:06:39,Serial Error, , 
2017-09-09 05:06:39,Serial Error, 32222 
2017-09-09 05:06:39,Serial Error, 
2017-09-09 05:06:39,Serial Error, 
2017-09-09 05:06:39,Serial Error, 
2017-09-09 05:06:39,Serial Error, 
2017-09-09 05:06:39,Serial Error, 
2017-09-09 05:06:39,Serial Error, 
2017-09-09 05:06:39,Serial Error, 
2017-09-09 05:06:39,Serial Error, 
2017-09-09 05:06:39,Serial Error, 
2017-09-09 05:06:39,Serial Error, 
2017-09-09 05:06:39,Serial Error, 
2017-09-09 05:06:39,Serial Error, 9
2017-09-09 05:06:39,Serial Error, 7
2017-09-09 05:06:39,Serial Error, 
2017-09-09 05:06:39,Serial Error, 
2017-09-09 05:06:39,Serial Error, 
2017-09-09 05:06:39,Serial Error, 
2017-09-09 05:06:39,Serial Error, 
2017-09-09 05:06:39,Serial Error, 
2017-09-09 05:06:39,Serial Error, 
2017-09-09 05:06:39,Serial Error, 
2017-09-09 05:06:39,Serial Error, 
2017-09-09 05:06:39,Serial Error, 
2017-09-09 05:06:39,Serial Error, 
2017-09-09 05:06:39,Serial Error, 
2017-09-09 05:06:39,Serial Error, 
2017-09-09 05:06:39,Serial Error, 
2017-09-09 05:06:39,Serial Error, 
2017-09-09 05:06:39,Serial Error, ,
2017-09-09 05:06:39,Serial Error, 
2017-09-09 05:06:39,Serial Error, 
2017-09-09 05:06:39,Serial Error, 
2017-09-09 05:06:39,Serial Error, 
2017-09-09 05:06:39,Serial Error, 
2017-09-09 05:06:39,Serial Error, 
2017-09-09 05:06:39,Serial Error, 
2017-09-09 05:06:39,Serial Error, 
2017-09-09 05:06:39,Serial Error, 
2017-09-09 05:06:39,Serial Error, 
2017-09-09 05:06:39,Serial Error, 
2017-09-09 05:06:39,Serial Error, 
2017-09-09 05:06:39,Serial Error, 
2017-09-09 05:06:39, 26, 733, 0, 0 391, 372, 22, 21, 23, 21 
2017-09-09 05:06:39, 1, 26, 733, 0, 0 391, 373, 22, 21, 23, 21 
2017-09-09 05:06:39, 1, 26, 733, 0, 0 391, 372, 22, 21, 23, 21 
2017-09-09 05:06:39, 1, 26, 733, 0, 0 391, 373, 22, 21, 23, 21 
2017-09-09 05:06:39, 1, 26, 733, 0, 0 391, 372, 22, 21, 23, 21 
2017-09-09 05:06:39, 1, 26, 733, 0, 0 391, 373, 22, 21, 23, 21 
2017-09-09 05:06:39, 2, 39, 733, 0, 0 391, 372, 22, 21, 23, 21 
2017-09-09 05:06:39, 2, 39, 733, 0, 0 391, 372, 22, 21, 23, 21 
2017-09-09 05:06:39, 2, 39, 733, 0, 0 391, 372, 22, 21, 23, 21 
2017-09-09 05:06:39, 2, 39, 733, 0, 0 391, 372, 22, 21, 23, 21 
2017-09-09 05:06:39, 2, 39, 733, 0, 0 391, 372, 22, 21, 23, 21 
2017-09-09 05:06:39, 2, 39, 733, 0, 0 391, 373, 22, 21, 23, 21 
2017-09-09 05:06:39, 2, 39, 733, 0, 0 391, 373, 22, 21, 23, 21 
2017-09-09 05:06:39, 2, 39, 733, 0, 0 391, 373, 22, 21, 23, 21 
2017-09-09 05:06:39, 2, 39, 733, 0, 0 390, 373, 22, 21, 23, 21 
2017-09-09 05:06:39, 2, 39, 733, 0, 0 391, 373, 22, 21, 23, 21 
2017-09-09 05:06:40, 3, 52, 733, 0, 0 391, 372, 22, 21, 23, 21 
2017-09-09 05:06:40, 3, 52, 733, 0, 0 391, 373, 22, 21, 23, 21 
2017-09-09 05:06:40, 3, 52, 733, 0, 0 391, 372, 22, 21, 23, 21 
2017-09-09 05:06:40, 3, 52, 733, 0, 0 391, 372, 22, 21, 23, 21 
2017-09-09 05:06:40, 3, 52, 733, 0, 0 391, 373, 22, 21, 23, 21 
2017-09-09 05:06:40, 3, 52, 733, 0, 0 391, 373, 22, 21, 23, 21 
2017-09-09 06:58:20,Serial Error, 
2017-09-09 07:00:00,
2017-09-09 07:01:40,
2017-09-09 07:03:20,
2017-09-09 07:05:00,
2017-09-09 07:05:12,St0 AIN 20MD3DD,G,TPRN,D_VH_s,VI0
2017-09-09 07:05:32, BOSe:0A:0,,00000,0,0
2017-09-09 07:05:51,000,,00000000
2017-09-09 07:06:21,:,Meue0,,0,0, 4 ,,,,,0  G e1 _gue0 00,0,0,0,0
2017-09-09 07:06:21,Serial Error, 
2017-09-09 07:06:21,Serial Error, 
2017-09-09 07:06:30,Serial Error, 0,0,,0,00  G e:7 Meue0
2017-09-09 07:06:35,Serial Error, BO t0AI e:
2017-09-09 07:06:46,Serial Error, BGO Set:,
2017-09-09 07:06:46,Serial Error, 
2017-09-09 07:06:46,Serial Error, 
2017-09-09 07:06:46,Serial Error, 
2017-09-09 07:06:46,Serial Error, Pc
2017-09-09 07:06:46,Serial Error, eR
2017-09-09 07:06:48,dxt12D6MRamp .
2017-09-09 07:06:48,Serial Error, A
2017-09-09 07:06:48,omed.Exitig 0A_dPRD.
2017-09-09 07:06:48,Serial Error, C800C8AAmr
2017-09-09 07:06:48,Serial Error, .Exiti
2017-09-09 07:06:50,cleaxAaNI.
2017-09-09 07:06:50,Serial Error, 1
2017-09-09 07:06:50,Serial Error, 
2017-09-09 07:06:50,Serial Error, 
2017-09-09 07:08:30,
2017-09-09 07:10:10,
2017-09-09 07:11:51,
2017-09-09 07:13:31,
2017-09-09 07:15:11,
2017-09-09 07:16:51,
2017-09-09 07:18:31,
2017-09-09 07:20:11,
2017-09-09 07:21:51,
2017-09-09 07:23:31,
2017-09-09 07:25:12,
2017-09-09 07:26:52,
2017-09-09 07:28:32,
2017-09-09 07:30:12,
2017-09-09 07:31:52,
2017-09-09 07:33:32,
2017-09-09 07:35:12,
2017-09-09 07:36:52,
2017-09-09 07:38:32,
2017-09-09 07:40:13,
2017-09-09 07:41:53,
2017-09-09 07:43:33,
2017-09-09 07:45:13,
2017-09-09 07:46:53,
2017-09-09 07:48:33,
2017-09-09 07:50:13,
2017-09-09 07:51:53,
2017-09-09 07:53:33,
2017-09-09 07:55:14,
2017-09-09 07:56:54,
2017-09-09 07:58:34,
2017-09-09 08:00:14,
2017-09-09 08:01:54,
2017-09-09 08:03:34,
2017-09-09 08:05:13,:q
2017-09-09 08:05:13,,G,T1Meue1
2017-09-09 08:05:32,Serial Error, 5632020,026,,62008  GS:,Meue6
2017-09-09 08:05:32,,19191126,,6008B1Mgf6
2017-09-09 08:05:42,Serial Error, 
2017-09-09 08:05:42,Serial Error, 7,
2017-09-09 08:05:42,Serial Error, B
2017-09-09 08:05:42,Serial Error, 
2017-09-09 08:05:42,:
2017-09-09 08:05:52,Serial Error,  3321,5,01 ,,546011 e,_Be8
2017-09-09 08:06:11,Serial Error,  5781,5,01 ,,546011 Ot,Mgf:78,15,16
2017-09-09 08:06:11,Serial Error, ,27,0
2017-09-09 08:06:11,Serial Error, 
2017-09-09 08:06:11,,326,11
2017-09-09 08:06:11,Serial Error, Mg
2017-09-09 08:06:11,Serial Error, r5
2017-09-09 08:06:21,Serial Error, 2557,1
2017-09-09 08:06:21,Serial Error, 116102962,6011 Oe1 Mge9
2017-09-09 08:06:30,Serial Error, 85
2017-09-09 08:06:40,Serial Error, 
2017-09-09 08:06:50,, 2316,1B t9ARu:
2017-09-09 08:06:50,Serial Error, *
2017-09-09 08:08:25,*D***
2017-09-09 08:08:29,tP
2017-09-09 08:08:29,Serial Error,  ::
2017-09-09 08:08:30,Serial Error,  **
2017-09-09 08:08:30,Serial Error, 
2017-09-09 08:08:30,Serial Error, e
2017-09-09 08:08:30,Serial Error, et&Fq n
2017-09-09 08:08:30,Serial Error, *****eidn,r,eoSt,...
2017-09-09 08:08:30,900 
2017-09-09 08:08:30,0,,  7,260   3,260003 
2017-09-09 08:08:30,Serial Error, 004038, 3
2017-09-09 08:08:30,Serial Error, 
2017-09-09 08:08:30,Serial Error, 0
2017-09-09 08:08:30,Serial Error, 000
2017-09-09 08:08:30,Serial Error, 
2017-09-09 08:08:30,10,50
2017-09-09 08:08:30,0 60 9 20,70 ,0001  3,3400,9 
2017-09-09 08:08:30,Serial Error, 000 ,03 00
2017-09-09 08:08:30,Serial Error, 
2017-09-09 08:08:30,Serial Error, 
2017-09-09 08:08:30,Serial Error, 5 
2017-09-09 08:08:30,Serial Error,  
2017-09-09 08:08:30,Serial Error, 
2017-09-09 08:08:30,Serial Error, 
2017-09-09 08:08:30,Serial Error, 
2017-09-09 08:08:30,Serial Error, 
2017-09-09 08:08:30,Serial Error, 
2017-09-09 08:08:30,Serial Error, 
2017-09-09 08:08:30,Serial Error, 
2017-09-09 08:45:38,Serial Error, ***M
2017-09-09 08:45:38,Serial Error, p
2017-09-09 08:45:38,Serial Error,  e n
2017-09-09 08:45:38,Serial Error, **
2017-09-09 08:45:38,Serial Error, _
2017-09-09 08:45:38,Serial Error, eqS
2017-09-09 08:45:43,Serial Error, u.....e0
2017-09-09 08:47:23,
2017-09-09 08:49:03,
2017-09-09 08:50:43,
2017-09-09 08:52:23,
2017-09-09 08:54:03,
2017-09-09 08:55:43,
2017-09-09 08:57:23,
2017-09-09 08:59:04,
2017-09-09 09:00:44,
2017-09-09 09:02:24,
2017-09-09 09:04:04,
2017-09-09 09:05:06,et:0
2017-09-09 09:05:12, ,h,VD,G,TPRN,D_VH_s,VI0
2017-09-09 09:06:45,0, GAIN
2017-09-09 09:08:25,
2017-09-09 09:10:05,
2017-09-09 09:11:45,
2017-09-09 09:13:25,
2017-09-09 09:15:06,
2017-09-09 09:16:46,
2017-09-09 09:18:26,
2017-09-09 09:20:06,
2017-09-09 09:21:46,
2017-09-09 09:23:26,
2017-09-09 09:25:06,
2017-09-09 09:26:46,
2017-09-09 09:28:26,
2017-09-09 09:30:07,
2017-09-09 09:31:47,
2017-09-09 09:33:27,
2017-09-09 09:35:07,
2017-09-09 09:36:47,
2017-09-09 09:38:27,
2017-09-09 09:40:07,
2017-09-09 09:41:47,
2017-09-09 09:43:28,
2017-09-09 09:45:08,
2017-09-09 09:46:48,
2017-09-09 09:48:28,
2017-09-09 09:50:08,
2017-09-09 09:51:48,
2017-09-09 09:53:28,
2017-09-09 09:55:08,
2017-09-09 09:56:48,
2017-09-09 09:58:29,
2017-09-09 10:00:09,
2017-09-09 10:01:49,
2017-09-09 10:03:29,
2017-09-09 10:05:06, 
2017-09-09 10:05:11,.
