2017-09-09 04:28:47,Serial Error, B e:, GN t
2017-09-09 04:28:47,Serial Error, gso
2017-09-09 04:28:47,Serial Error, 
2017-09-09 04:28:47,Serial Error, 
2017-09-09 04:28:47,Serial Error, 
2017-09-09 04:28:47,Serial Error, 
2017-09-09 04:30:08,Serial Error, 
2017-09-09 04:30:08,Serial Error, 
2017-09-09 04:30:12,Serial Error, ,, ,8,03 0 3,4 01,1,6 81,5 32,
2017-09-09 04:30:12,Serial Error,  400  5
2017-09-09 04:30:12,Serial Error, 0
2017-09-09 04:30:13,Serial Error,  00
2017-09-09 04:30:14,Serial Error, 
2017-09-09 04:30:16,Serial Error, 98,1 28
2017-09-09 04:30:18,Serial Error, 
2017-09-09 04:30:18,1 01,9 
2017-09-09 04:30:19,Serial Error, 6 6,7
2017-09-09 04:30:20,Serial Error, 
2017-09-09 04:30:20,Serial Error, 
2017-09-09 04:30:20,Serial Error, 
2017-09-09 04:30:20,
2017-09-09 04:30:21,Serial Error, 1,
2017-09-09 04:30:21,Serial Error, 8
2017-09-09 04:30:22,Serial Error, 1621
2017-09-09 04:30:23,Serial Error, 
2017-09-09 04:30:24,Serial Error, 
2017-09-09 04:30:25,Serial Error, 
2017-09-09 04:30:26,Serial Error, 
2017-09-09 04:30:27,Serial Error,  ,07  2,162,1
2017-09-09 04:30:29,Serial Error,  6 0  ,05 26 36
2017-09-09 04:30:30,Serial Error, 10 20,
2017-09-09 04:30:30,Serial Error, 
2017-09-09 04:30:30,Serial Error, , 
2017-09-09 04:30:31,Serial Error, 010
2017-09-09 04:30:31,Serial Error, 
2017-09-09 04:30:33,Serial Error, 2 1, 1 
2017-09-09 04:30:33,Serial Error, 
2017-09-09 04:30:34,Serial Error,  ,92 04
2017-09-09 04:30:34,Serial Error,  
2017-09-09 04:30:36,Serial Error, 6 3 ,12MBGap:1
2017-09-09 04:30:40,Serial Error, n:6 MSl: 10 10 06, 1 1 ,  82 ,42  
2017-09-09 04:30:44,2 ,102 ,4,,  ,231
2017-09-09 04:30:45,Serial Error, 
2017-09-09 04:30:49,Serial Error, ,
2017-09-09 04:30:50,Serial Error, 11
2017-09-09 04:30:51,Serial Error, 1
2017-09-09 04:30:53,Serial Error, ,,081 ,89 2
2017-09-09 04:30:53,Serial Error, 
2017-09-09 04:30:55,Serial Error, 3, 1 
2017-09-09 04:30:56,Serial Error,  8,,7 
2017-09-09 04:30:56,Serial Error,  ,,,,22
2017-09-09 04:30:57,Serial Error, 
2017-09-09 04:30:59,Serial Error,  3 ,521  ,,01,861 ,4 ,2
2017-09-09 04:30:59,Serial Error, 
2017-09-09 04:30:59,Serial Error, 2
2017-09-09 04:31:03,Serial Error, 1 10, MB:Aa6Al:0101, 10 8 201,10 2 5 , 96
2017-09-09 04:31:03,Serial Error, 
2017-09-09 04:31:03,Serial Error, , 2,,
2017-09-09 04:31:04,0143
2017-09-09 04:31:05,Serial Error, 2
2017-09-09 04:31:05,5 04,23 573
2017-09-09 04:31:06,Serial Error,  0
2017-09-09 04:31:06,Serial Error, 8
2017-09-09 04:31:07,Serial Error, ,0 ,
2017-09-09 04:31:07,Serial Error, 
2017-09-09 04:31:07,6   
2017-09-09 04:31:09,Serial Error, 26
2017-09-09 04:32:48,B
2017-09-09 04:34:28,
2017-09-09 04:36:08,
2017-09-09 04:37:48,
2017-09-09 04:39:29,
2017-09-09 04:41:09,
2017-09-09 04:42:49,
2017-09-09 04:44:28,O
2017-09-09 04:46:08,
2017-09-09 04:47:49,
2017-09-09 04:49:29,
2017-09-09 04:51:09,
2017-09-09 04:52:49,
2017-09-09 04:54:29,
2017-09-09 04:56:09,
2017-09-09 04:57:49,
2017-09-09 04:59:29,
2017-09-09 05:01:10,
2017-09-09 05:02:50,
2017-09-09 05:04:30,
2017-09-09 05:05:06,N Set:0
2017-09-09 05:05:13,Serial Error, V
2017-09-09 05:05:52,, :Mgfr000,,000003,00000000 G e:3 MRgufr0
2017-09-09 05:06:11,4,000000005, 0,0,000000 G e:5 MRgufr0
2017-09-09 05:06:18, Gp.
2017-09-09 05:06:18,:
2017-09-09 05:06:18,n,G,MLh,_C0A_c1A_C2A_C3A_C3
2017-09-09 05:06:22,Serial Error, ,1,
2017-09-09 05:06:22,Serial Error, 
2017-09-09 05:06:22,Serial Error, ,7 ,12  ,,31,7,2
2017-09-09 05:06:22,Serial Error,  
2017-09-09 05:06:22,Serial Error,   3, 7
2017-09-09 05:06:22,Serial Error, ,0
2017-09-09 05:06:22,Serial Error, 
2017-09-09 05:06:22,Serial Error, 
2017-09-09 05:06:22,Serial Error, 
2017-09-09 05:06:22,Serial Error, 
2017-09-09 05:06:22,Serial Error, ,1
2017-09-09 05:06:22,Serial Error, 1 
2017-09-09 05:06:43, 3, 52, 733, 0, 031 7,2,2,2,2  3, 52,73 ,030 7,2,2,2,2  3, 2 3,0  9,33 2 1 3,2  3, 2 3,0  9,33 2 1 
2017-09-09 05:06:43, 4, 5 3,0  9,33 2 1 3 1
2017-09-09 05:06:43,6,73 ,0 9,33 2 1 3 1
2017-09-09 05:06:43,6,73 ,  30 ,2,2,2,2  4, 5 3,0  9,33 2 1 3 1 
2017-09-09 05:06:43,6,73,0  9,32 2 1 3 1
2017-09-09 05:06:43,6 3,0  9,33 2 1 3 1
2017-09-09 05:06:43,6,73 ,0 9,33 2 1 3 1
2017-09-09 05:06:43,6,73 ,031,33 2 1 3,2  4, 5 3,0  9,33 2 12,2  4, 6,73 ,031 7,2,2,2,2  5, 8 3,0  90 7,2,2,2,2  5,7,73
2017-09-09 05:06:43, 9,33 2 1 3 1
2017-09-09 05:06:43,7,73 ,03133 2 1 3 1
2017-09-09 05:06:43,8 3,0,031 7,2,2,2,2  5, 7,73 ,031 7,2,2,2,2  5, 8 3,0  9,33 2 1 3 1
2017-09-09 05:06:43,7,73 ,031 7,2,2,2,2  5,8 3,0  9,33 2 1 3 1
2017-09-09 05:06:43, 8 73 ,031 7,2,2,2,2  5, 8 3,0  9,32 2 1 3 1
2017-09-09 05:06:43,9,73 ,  9,33 2 1 3 1
2017-09-09 05:06:46,Serial Error, 9,73 ,031 33 2 1 3 1  6,9 3,0  9,32 2 ,2   Oe0 It00
2017-09-09 05:06:46,Serial Error, O_
2017-09-09 06:55:18,
2017-09-09 06:56:58,
2017-09-09 06:58:37,
2017-09-09 07:00:17,
2017-09-09 07:01:57,
2017-09-09 07:03:37,
2017-09-09 07:05:06,Serial Error, BO
2017-09-09 07:05:32,Serial Error, A00CS. 3,e:0:,a:8: t1, ,,0,,,
2017-09-09 07:05:32, 0000000 GOS:1,MRgufr0
2017-09-09 07:05:42,Serial Error, 2,00000
2017-09-09 07:05:42,002,00000000 
2017-09-09 07:06:01,e:2 MRgufe: 0,0,
2017-09-09 07:06:01,,0
2017-09-09 07:06:01,:,MeBf:
2017-09-09 07:06:21,5 ,0,,0 5 ,,,,,0  G e:,Meue0,0
2017-09-09 07:06:37, _gfr,0,0CtGAL0MC,_hAR2MC,_h
2017-09-09 07:06:41,Serial Error, 0 3
2017-09-09 07:06:41,Serial Error, ,
2017-09-09 07:06:41,Serial Error, 7,22 ,1 
2017-09-09 07:06:41,Serial Error, 33
2017-09-09 07:06:41,Serial Error, 
2017-09-09 07:06:41,Serial Error, 
2017-09-09 07:06:41,Serial Error, 
2017-09-09 07:06:41,Serial Error, 
2017-09-09 07:06:41,Serial Error,  
2017-09-09 07:06:41,Serial Error, 
2017-09-09 07:06:41,Serial Error, 
2017-09-09 07:06:41,Serial Error, 
2017-09-09 07:06:41,Serial Error, 
2017-09-09 07:06:41,Serial Error, 
2017-09-09 07:06:41,Serial Error, 
2017-09-09 07:06:41,Serial Error, ,2 
2017-09-09 07:06:41,Serial Error, 
2017-09-09 07:06:41,Serial Error, 
2017-09-09 07:06:41,Serial Error, 
2017-09-09 07:06:41,Serial Error, 
2017-09-09 07:06:41,Serial Error, 
2017-09-09 07:06:41,Serial Error, 
2017-09-09 07:06:41,Serial Error, ,1
2017-09-09 07:06:41,Serial Error, 3
2017-09-09 07:06:41,Serial Error, 
2017-09-09 07:06:41,Serial Error, 0
2017-09-09 07:06:41,Serial Error, 
2017-09-09 07:06:41,Serial Error, 
2017-09-09 07:06:41,Serial Error, 
2017-09-09 07:06:41,Serial Error, 
2017-09-09 07:06:41,Serial Error, 
2017-09-09 07:06:41,Serial Error, 
2017-09-09 07:06:41,Serial Error, 
2017-09-09 07:06:41,Serial Error, 
2017-09-09 07:06:41,Serial Error, , 3 13,,,32 
2017-09-09 07:06:41,Serial Error, 
2017-09-09 07:06:41,Serial Error, 
2017-09-09 07:06:41,Serial Error, 
2017-09-09 07:06:41,7    
2017-09-09 07:06:41,Serial Error, 
2017-09-09 07:06:41,Serial Error, 
2017-09-09 07:06:41,Serial Error, 
2017-09-09 07:06:41,Serial Error, 3,2222   3,
2017-09-09 07:06:41,Serial Error, 
2017-09-09 07:06:41,Serial Error, 
2017-09-09 07:06:41,Serial Error, 
2017-09-09 07:06:41,Serial Error, 
2017-09-09 07:06:41,Serial Error, 
2017-09-09 07:06:41,Serial Error,  
2017-09-09 07:06:41,Serial Error, 1,
2017-09-09 07:06:41,Serial Error, 631
2017-09-09 07:06:41,Serial Error, 
2017-09-09 07:06:41,Serial Error, ,132   ,0 072
2017-09-09 07:06:41,Serial Error, 
2017-09-09 07:06:41,Serial Error, 
2017-09-09 07:06:41,Serial Error, 
2017-09-09 07:06:41,Serial Error, 
2017-09-09 07:06:41,Serial Error, 
2017-09-09 07:06:41,Serial Error, 
2017-09-09 07:06:41,Serial Error, 
2017-09-09 07:06:41,Serial Error, 
2017-09-09 07:06:41,Serial Error, 
2017-09-09 07:06:41,Serial Error, 
2017-09-09 07:06:41,Serial Error, 
2017-09-09 07:06:41,Serial Error, 
2017-09-09 07:06:41,Serial Error, 3,7
2017-09-09 07:06:41,Serial Error, ,
2017-09-09 07:06:41,Serial Error, 9
2017-09-09 07:06:41,Serial Error, 
2017-09-09 07:06:41,Serial Error, 
2017-09-09 07:06:41,Serial Error, 
2017-09-09 07:06:41,Serial Error, 
2017-09-09 07:06:41,Serial Error, 
2017-09-09 07:06:41,Serial Error, 
2017-09-09 07:06:41,Serial Error, 
2017-09-09 07:06:41,Serial Error, 
2017-09-09 07:06:41,Serial Error, 
2017-09-09 07:06:41,Serial Error, 
2017-09-09 07:06:41,Serial Error, 
2017-09-09 07:06:41,Serial Error, 
2017-09-09 07:06:41,Serial Error, 
2017-09-09 07:06:41,Serial Error, 
2017-09-09 07:06:41,Serial Error, 
2017-09-09 07:06:41,Serial Error, 
2017-09-09 08:08:30,Serial Error, r
2017-09-09 08:08:30, r*
2017-09-09 08:08:30,c FqSN as...
2017-09-09 08:08:30,Serial Error,  7
2017-09-09 08:08:30,00,00 7 90001 
2017-09-09 08:08:30,900,,0 7900,,0 8 000  
2017-09-09 08:08:30,Serial Error,  
2017-09-09 08:08:30,Serial Error, 
2017-09-09 08:08:30,Serial Error, 
2017-09-09 08:08:30,3,300  3,900, 3,300 , 3 40,8
2017-09-09 08:08:30,Serial Error, 103 400 840 , 3 40,20 8300 , 3 40,40
2017-09-09 08:08:30,Serial Error,  
2017-09-09 08:08:30,Serial Error, 
2017-09-09 08:08:30,Serial Error, 
2017-09-09 08:08:30,Serial Error, 
2017-09-09 08:08:30,
2017-09-09 08:08:30,Serial Error, 
2017-09-09 08:08:30,Serial Error, 
2017-09-09 08:08:30,Serial Error, 
2017-09-09 08:08:30,Serial Error, 
2017-09-09 08:08:30,Serial Error, 
2017-09-09 08:08:30,Serial Error, 
2017-09-09 08:08:30,Serial Error, 
2017-09-09 08:08:30,Serial Error, 
2017-09-09 08:08:30,Serial Error, 9
2017-09-09 08:08:30,Serial Error, 00,
2017-09-09 08:08:30,Serial Error, 
2017-09-09 08:08:30,Serial Error, 
2017-09-09 08:08:30,Serial Error, 
2017-09-09 08:08:30,Serial Error, 
2017-09-09 08:08:30,Serial Error, 000
2017-09-09 08:08:30, 0 
2017-09-09 08:08:30,Serial Error,  
2017-09-09 08:08:30,Serial Error, 
2017-09-09 08:08:30,Serial Error, 
2017-09-09 08:08:30,Serial Error, 
2017-09-09 08:08:30,Serial Error, 
2017-09-09 08:08:30,Serial Error, 
2017-09-09 08:08:30,Serial Error, 
2017-09-09 08:08:30,Serial Error,  38
2017-09-09 08:08:30,Serial Error, 
2017-09-09 08:08:30,Serial Error, 0, 32, 0
2017-09-09 08:08:30,Serial Error, 
2017-09-09 08:08:30,Serial Error, 
2017-09-09 08:08:30,Serial Error, 
2017-09-09 08:08:30,Serial Error, 
2017-09-09 08:08:30,Serial Error, 
2017-09-09 08:08:30,Serial Error, 
2017-09-09 08:08:30,Serial Error, 
2017-09-09 08:08:30,Serial Error, 
2017-09-09 08:08:30,Serial Error, 
2017-09-09 08:08:30,Serial Error, 
2017-09-09 08:08:30,Serial Error, 
2017-09-09 08:08:30,Serial Error, 0, 
2017-09-09 08:08:30, 
2017-09-09 08:08:30,Serial Error,  37, 29600000, 35,
2017-09-09 08:08:30,Serial Error, 
2017-09-09 08:08:30,Serial Error, 304
2017-09-09 08:08:30,Serial Error, 
2017-09-09 08:08:30,Serial Error, 
2017-09-09 08:08:30,Serial Error, 
2017-09-09 08:08:30,Serial Error, 
2017-09-09 08:08:30,Serial Error, 
2017-09-09 08:08:30,Serial Error, 040000, 37,
2017-09-09 08:08:30,Serial Error, 
2017-09-09 08:08:30,Serial Error, 
2017-09-09 08:08:30,Serial Error, 
2017-09-09 08:08:30,Serial Error, 
2017-09-09 08:08:30,Serial Error, 
2017-09-09 08:08:30,Serial Error, 
2017-09-09 08:08:30,Serial Error, 
2017-09-09 08:08:30,Serial Error, 
2017-09-09 08:08:30,Serial Error, 
2017-09-09 08:08:30,Serial Error, 
2017-09-09 08:08:30,Serial Error, 
2017-09-09 08:08:30,0 
2017-09-09 08:08:30,Serial Error,  
2017-09-09 08:08:30,Serial Error, 
2017-09-09 08:08:30,Serial Error, 
2017-09-09 08:08:30,Serial Error, 
2017-09-09 08:08:30,Serial Error, 
2017-09-09 08:08:30,Serial Error, 
2017-09-09 08:08:30,Serial Error,  37, 296000
2017-09-09 08:08:30,Serial Error, 
2017-09-09 08:08:30,0 
2017-09-09 08:08:30,Serial Error,  
2017-09-09 08:08:30,Serial Error, 
2017-09-09 08:08:30,Serial Error, 
2017-09-09 08:08:30,Serial Error, 
2017-09-09 08:08:30,Serial Error, 
2017-09-09 08:08:30,Serial Error, 
2017-09-09 08:08:30,Serial Error, 
2017-09-09 08:08:30, 38, 30400000, 43, 0 
2017-09-09 08:08:30, 38, 30400000, 44, 0 
2017-09-09 08:08:30, 38, 30400000, 45, 0 
2017-09-09 08:08:30, 38, 30400000, 46, 0 
2017-09-09 08:08:30, 37, 29600000, 47, 0 
2017-09-09 08:08:30, 38, 30400000, 48, 0 
2017-09-09 08:08:30, 38, 30400000, 49, 0 
2017-09-09 08:08:30, 38, 30400000, 50, 0 
