2017-09-09 13:46:25,0, 733, 44, 50, 50, 547, 5719, 3623, 4806, 10707 
2017-09-09 13:46:26, 0, 733, 44, 100, 6756, 67, 468, 30, 7838, 9990 
2017-09-09 13:46:27, 0, 733, 44, 150, 10048, 5384, 102, 9409, 2344, 110 
2017-09-09 13:46:28, 0, 733, 44, 200, 140, 124, 2829, 130, 139, 128 
2017-09-09 13:46:29, 0, 733, 44, 250, 168, 153, 160, 158, 167, 1522 
2017-09-09 13:46:30,  3048,  40804,  54540,  560,  7060,  0 
2017-09-09 13:46:31,0, 0, 55, 50, 109, 172, 1049, 698, 908, 1877 
2017-09-09 13:46:32, 0, 0, 55, 100, 1301, 141, 234, 160, 1481, 1818 
2017-09-09 13:46:33, 0, 0, 55, 150, 1916, 1099, 216, 1784, 629, 232 
2017-09-09 13:46:34, 0, 0, 55, 200, 331, 283, 748, 275, 330, 297 
2017-09-09 13:46:35, 0, 0, 55, 250, 401, 348, 363, 367, 371, 588 
2017-09-09 13:46:36,  23840,  19160,  10640,  1840,  2980,  0 
2017-09-09 13:46:37,0, 0, 66, 50, 64, 77, 232, 173, 213, 371 
2017-09-09 13:46:38, 0, 0, 66, 100, 317, 84, 132, 119, 344, 396 
2017-09-09 13:46:39, 0, 0, 66, 150, 458, 304, 129, 426, 242, 166 
2017-09-09 13:46:40, 0, 0, 66, 200, 232, 204, 290, 164, 229, 215 
2017-09-09 13:46:41, 0, 0, 66, 250, 281, 251, 261, 261, 214, 298 
2017-09-09 13:46:42,  5060,  4400,  3220,  1940,  6120,  0 
2017-09-09 13:46:43,0, 0, 77, 50, 61, 59, 93, 83, 92, 116 
2017-09-09 13:46:44, 0, 0, 77, 100, 149, 81, 111, 108, 150, 155 
2017-09-09 13:46:45, 0, 0, 77, 150, 208, 166, 124, 194, 169, 150 
2017-09-09 13:46:46, 0, 0, 77, 200, 207, 184, 206, 157, 203, 192 
2017-09-09 13:46:47, 0, 0, 77, 250, 251, 226, 235, 234, 201, 242 
2017-09-09 13:46:48,  1760,  1700,  1640,  1540,  6380,  0 
2017-09-09 13:46:49,1, 0, 44, 50, 50, 48, 62, 59, 66, 65 
2017-09-09 13:46:50, 1, 0, 44, 100, 104, 68, 93, 92, 104, 97 
2017-09-09 13:46:51, 1, 0, 44, 150, 144, 124, 104, 135, 139, 127 
2017-09-09 13:46:52, 1, 0, 44, 200, 174, 156, 167, 132, 172, 164 
2017-09-09 13:46:53, 1, 0, 44, 250, 210, 192, 200, 199, 170, 202 
2017-09-09 13:46:54,  1080, AM_BGap:1, AM_Gain:68, AM_Slope:1080 
2017-09-09 13:46:54, 1120,  1260,  1340,  7000,  0 
2017-09-09 13:46:55,1, 0, 55, 50, 111, 89, 107, 105, 121, 108 
2017-09-09 13:46:56, 1, 0, 55, 100, 195, 142, 173, 171, 192, 173 
2017-09-09 13:46:57, 1, 0, 55, 150, 268, 224, 218, 240, 266, 238 
2017-09-09 13:46:58, 1, 0, 55, 200, 340, 291, 307, 278, 339, 304 
2017-09-09 13:46:59, 1, 0, 55, 250, 412, 358, 373, 372, 375, 370 
2017-09-09 13:46:59,  1680,  1640,  1780,  1880,  2900,  0 
2017-09-09 13:47:01,1, 0, 66, 50, 64, 63, 76, 75, 82, 77 
2017-09-09 13:47:02, 1, 0, 66, 100, 135, 85, 123, 122, 134, 121 
2017-09-09 13:47:03, 1, 0, 66, 150, 185, 159, 131, 170, 182, 167 
2017-09-09 13:47:04, 1, 0, 66, 200, 235, 207, 218, 166, 234, 216 
2017-09-09 13:47:05, 1, 0, 66, 250, 285, 255, 265, 264, 214, 261 
2017-09-09 13:47:05,  1420,  1480,  1740,  1960,  6120,  0 
2017-09-09 13:47:07,1, 0, 77, 50, 61, 57, 68, 67, 74, 67 
2017-09-09 13:47:08, 1, 0, 77, 100, 120, 82, 111, 110, 119, 109 
2017-09-09 13:47:09, 1, 0, 77, 150, 165, 143, 125, 153, 163, 154 
2017-09-09 13:47:10, 1, 0, 77, 200, 210, 186, 196, 159, 208, 196 
2017-09-09 13:47:11, 1, 0, 77, 250, 254, 229, 239, 238, 205, 235 
2017-09-09 13:47:11,  1180,  1220,  1420,  1580,  6300,  0 
2017-09-09 13:47:13,2, 0, 44, 50, 51, 49, 58, 58, 63, 57 
2017-09-09 13:47:14, 2, 0, 44, 100, 101, 69, 94, 94, 102, 93 
2017-09-09 13:47:15, 2, 0, 44, 150, 138, 121, 105, 130, 138, 131 
2017-09-09 13:47:16, 2, 0, 44, 200, 176, 158, 166, 133, 177, 164 
2017-09-09 13:47:17, 2, 0, 44, 250, 214, 195, 202, 202, 171, 201 
2017-09-09 13:47:17,  1000, AM_BGap:2, AM_Gain:68, AM_Slope:1000 
2017-09-09 13:47:17, 1040,  1220,  1380,  6980,  0 
2017-09-09 13:47:19,2, 0, 55, 50, 112, 90, 107, 106, 121, 107 
2017-09-09 13:47:20, 2, 0, 55, 100, 196, 144, 175, 173, 196, 172 
2017-09-09 13:47:21, 2, 0, 55, 150, 270, 226, 221, 241, 268, 242 
2017-09-09 13:47:22, 2, 0, 55, 200, 343, 294, 310, 281, 340, 308 
2017-09-09 13:47:23, 2, 0, 55, 250, 416, 362, 377, 375, 379, 374 
2017-09-09 13:47:23,  1680,  1640,  1780,  1880,  2820,  0 
2017-09-09 13:47:24,2, 0, 66, 50, 65, 65, 76, 76, 84, 76 
2017-09-09 13:47:26, 2, 0, 66, 100, 136, 87, 125, 123, 134, 121 
2017-09-09 13:47:27, 2, 0, 66, 150, 187, 161, 132, 172, 186, 172 
2017-09-09 13:47:28, 2, 0, 66, 200, 238, 210, 220, 168, 235, 221 
2017-09-09 13:47:29, 2, 0, 66, 250, 289, 258, 268, 267, 218, 266 
2017-09-09 13:47:29,  1420,  1480,  1760,  1980,  6040,  0 
2017-09-09 13:47:30,2, 0, 77, 50, 62, 58, 69, 68, 75, 71 
2017-09-09 13:47:31, 2, 0, 77, 100, 121, 83, 112, 111, 119, 109 
2017-09-09 13:47:32, 2, 0, 77, 150, 167, 145, 127, 154, 164, 155 
2017-09-09 13:47:34, 2, 0, 77, 200, 212, 189, 198, 161, 208, 198 
2017-09-09 13:47:35, 2, 0, 77, 250, 258, 232, 241, 240, 209, 240 
2017-09-09 13:47:35,  1180,  1240,  1420,  1580,  6220,  0 
2017-09-09 13:47:36,3, 0, 44, 50, 52, 49, 59, 58, 63, 57 
2017-09-09 13:47:37, 3, 0, 44, 100, 102, 70, 95, 94, 102, 94 
2017-09-09 13:47:38, 3, 0, 44, 150, 140, 123, 106, 131, 139, 131 
2017-09-09 13:47:40, 3, 0, 44, 200, 178, 160, 169, 135, 177, 167 
2017-09-09 13:47:41, 3, 0, 44, 250, 217, 197, 205, 205, 175, 206 
2017-09-09 13:47:41,  1000,  1060,  1260,  1400,  6900,  0 
2017-09-09 13:47:42,3, 0, 55, 50, 113, 91, 108, 107, 121, 107 
2017-09-09 13:47:43, 3, 0, 55, 100, 198, 146, 176, 175, 196, 177 
2017-09-09 13:47:44, 3, 0, 55, 150, 272, 228, 223, 243, 270, 242 
2017-09-09 13:47:45, 3, 0, 55, 200, 347, 297, 313, 283, 344, 311 
2017-09-09 13:47:46, 3, 0, 55, 250, 421, 365, 380, 379, 383, 379 
2017-09-09 13:47:47,  1700,  1640,  1800,  1920,  2740,  0 
2017-09-09 13:47:48,3, 0, 66, 50, 66, 65, 78, 76, 86, 76 
2017-09-09 13:47:49, 3, 0, 66, 100, 138, 88, 126, 125, 134, 127 
2017-09-09 13:47:50, 3, 0, 66, 150, 189, 163, 134, 174, 187, 172 
2017-09-09 13:47:51, 3, 0, 66, 200, 241, 212, 223, 171, 239, 221 
2017-09-09 13:47:52, 3, 0, 66, 250, 293, 261, 272, 271, 222, 272 
2017-09-09 13:47:53,  1440,  1500,  1780,  2000,  5960,  0 
2017-09-09 13:47:54,3, 0, 77, 50, 63, 58, 70, 69, 75, 71 
2017-09-09 13:47:55, 3, 0, 77, 100, 123, 84, 114, 112, 119, 114 
2017-09-09 13:47:56, 3, 0, 77, 150, 169, 147, 128, 159, 168, 156 
2017-09-09 13:47:57, 3, 0, 77, 200, 215, 191, 201, 163, 212, 200 
2017-09-09 13:47:58, 3, 0, 77, 250, 261, 235, 245, 244, 209, 241 
2017-09-09 13:47:59,  1200,  1260,  1460,  1620,  6220,  0 
2017-09-09 13:48:00,4, 0, 44, 50, 52, 50, 59, 59, 63, 62 
2017-09-09 13:48:01, 4, 0, 44, 100, 103, 71, 97, 96, 102, 95 
