2017-09-09 08:08:34,0000, 62, 0 
2017-09-09 08:08:34, 38, 30400000, 63, 0 
2017-09-09 08:08:34, 38, 30400000, 64, 0 
2017-09-09 08:08:34, 38, 30400000, 65, 0 
2017-09-09 08:08:34, 37, 29600000, 66, 00000, 71, 0 
2017-09-09 08:08:34, 38, 30400000, 72, 0 
2017-09-09 08:08:34, 37, 29600000, 73, 0 
2017-09-09 08:08:34, 37, 29600000, 74, 0 
2017-09-09 08:08:34, 38, 30400000, 75, 0  3,2600,7,0
2017-09-09 08:08:34,900 , 3,26007 
2017-09-09 08:08:34,00 , 3,320,00 7 9008 
2017-09-09 08:08:34,00 , 3,2600 , 3,320,40 9 100 , 3,340,60 8 0008 
2017-09-09 08:08:34,60,80 8 00 03,340,00 8 0009 
2017-09-09 08:08:34,00 , 3,30,30 7 9009 
2017-09-09 08:08:34,00 , 3,340,60 8 0009 
2017-09-09 08:08:34,00 , 3,20,90 8 000 00 8 000 10 8 0001, 3,340,0 
2017-09-09 08:08:34,0 40 8 0001, 3,260,0 
2017-09-09 08:08:34,00 70 7 9001,0
2017-09-09 08:08:34,000 90 8 000,1  3,260,1 
2017-09-09 08:08:34,0,1 
2017-09-09 08:08:34,00,1, 3,340,1 
2017-09-09 08:08:34,00 50 7 900,1, 3,340,1 
2017-09-09 08:08:34,00 80 8 000 90 8 000 2 
2017-09-09 08:08:34,00 10 8 00001,  7 601, 3,340,2 
2017-09-09 08:08:34,0,2 
2017-09-09 08:08:34,00160 7 9001, 3,340,2 
2017-09-09 08:08:34,20,2 
2017-09-09 08:08:34,000  
2017-09-09 08:08:34,00 10 3,260,3 
2017-09-09 08:08:34,001,0 7 900 3 
2017-09-09 08:08:34,00 50 7,200 60 7 9001, 38 0001,3,200 90 7 9001, 3,320,4 
2017-09-09 08:08:34,00 20 8 300 30 8 0001, 3,34001, 3,260,4, 3,340,4 
2017-09-09 08:08:34,001, 3,26001, 3,340,5 
2017-09-09 08:08:34,00 10 8 0001,  9 1001, 3,300 40 8 0001, 3,320,5 
2017-09-09 08:08:34,00 7 
2017-09-09 08:08:34,00 80 8 0001, 3,260,6 
2017-09-09 08:08:34,00 10 8 0001, 3,20 30 7 9001, 3,260,6 
2017-09-09 08:08:34,00 60
2017-09-09 08:08:34,40,6 
2017-09-09 08:08:34,00 80 8 0001, 3,34001, 3,2600 10 9 1001, 3,340,7 
2017-09-09 08:08:34,Serial Error, 00 40
2017-09-09 08:08:34,Serial Error, 
2017-09-09 08:08:34,Serial Error,  
2017-09-09 08:08:34,Serial Error, 
2017-09-09 08:08:34,:0
2017-09-09 08:08:35,Serial Error, scAm
2017-09-09 08:08:35,Serial Error, 
2017-09-09 08:08:35,Serial Error, 
2017-09-09 08:08:35,Serial Error, 
2017-09-09 08:08:35,Serial Error, 
2017-09-09 08:08:35,Serial Error, 
2017-09-09 08:08:35,Serial Error, 
2017-09-09 08:08:35,Serial Error, 
2017-09-09 08:08:35,Serial Error, 
2017-09-09 08:08:35,Serial Error, 
2017-09-09 08:08:35,Serial Error, _Ca
2017-09-09 08:08:35,Serial Error, 
2017-09-09 08:08:35,Serial Error, 
2017-09-09 08:08:35,Serial Error, 
2017-09-09 08:08:35,Serial Error, m
2017-09-09 08:08:35,Serial Error, 
2017-09-09 08:08:37,p
2017-09-09 08:08:37,Serial Error, 
2017-09-09 08:08:37,Serial Error, 
2017-09-09 08:08:37,Serial Error, 6
2017-09-09 08:08:37,Serial Error, 
2017-09-09 08:08:37,Serial Error, 
2017-09-09 08:08:37,Serial Error, 
2017-09-09 08:08:37,Serial Error, Ei
2017-09-09 08:08:37,Serial Error,  
2017-09-09 08:08:37,Serial Error, 
2017-09-09 08:08:37,Serial Error, P
2017-09-09 08:08:37,Serial Error, 
2017-09-09 08:08:39,Serial Error, G6
2017-09-09 08:08:39,Serial Error, I_Ca. ,
2017-09-09 08:08:39,Serial Error, 3:
2017-09-09 08:08:39,Serial Error,  
2017-09-09 08:08:50,Serial Error,  GS
2017-09-09 08:10:28,Nt
2017-09-09 08:12:08,
2017-09-09 08:13:49,
2017-09-09 08:15:29,
2017-09-09 08:17:09,
2017-09-09 08:18:49,
2017-09-09 08:20:29,
2017-09-09 08:22:09,
2017-09-09 08:23:49,
2017-09-09 08:25:29,
2017-09-09 08:27:10,
2017-09-09 08:28:50,
2017-09-09 08:30:30,
2017-09-09 08:32:10,
2017-09-09 08:33:50,
2017-09-09 08:35:30,
2017-09-09 08:37:10,
2017-09-09 08:38:50,
2017-09-09 08:40:30,
2017-09-09 08:42:11,
2017-09-09 08:43:51,
2017-09-09 08:45:31,
2017-09-09 11:21:19,GSt0 GIS:
2017-09-09 11:22:59,
2017-09-09 11:24:39,
2017-09-09 11:26:20,
2017-09-09 11:28:00,
2017-09-09 11:29:40,
2017-09-09 11:31:20,
2017-09-09 11:33:00,
2017-09-09 11:34:40,
2017-09-09 11:36:20,
2017-09-09 11:38:00,
2017-09-09 11:39:40,
2017-09-09 11:41:21,
2017-09-09 11:43:01,
2017-09-09 11:44:41,
2017-09-09 11:46:21,
2017-09-09 11:48:01,
2017-09-09 11:49:41,
2017-09-09 11:51:21,
2017-09-09 11:53:01,
2017-09-09 11:54:42,
2017-09-09 11:56:22,
2017-09-09 11:58:02,
2017-09-09 11:59:42,
2017-09-09 12:01:22,
2017-09-09 12:03:02,
2017-09-09 12:04:42,
