2017-09-26 16:17:57, 50,:e,:0,:0,:0,:c8,:0 @

2017-09-26 16:17:57,*******Measure Period per Event & Freq in MHz*******

2017-09-26 16:17:57,****Period_cnt , Freq, SeqNo, Status,..........

2017-09-26 16:17:57,#P#, 24, 19200000, 0, 1 

2017-09-26 16:17:57,#P#, 37, 29600000, 1, 0 

2017-09-26 16:17:57,#P#, 36, 28800000, 2, 0 

2017-09-26 16:17:57,#P#, 36, 28800000, 3, 0 

2017-09-26 16:17:57,#P#, 38, 30400000, 4, 0 

2017-09-26 16:17:57,#P#, 36, 28800000, 5, 0 

2017-09-26 16:17:57,#P#, 37, 29600000, 6, 0 

2017-09-26 16:17:57,#P#, 37, 29600000, 7, 0 

2017-09-26 16:17:57,#P#, 36, 28800000, 8, 0 

2017-09-26 16:17:57,#P#, 38, 30400000, 9, 0 

2017-09-26 16:17:57,#P#, 37, 29600000, 10, 0 

2017-09-26 16:17:57,#P#, 0, 0, 11, 1 

2017-09-26 16:17:57,#P#, 0, 0, 12, 1 

2017-09-26 16:17:57,#P#, 0, 0, 13, 1 

2017-09-26 16:17:57,#P#, 0, 0, 14, 1 

2017-09-26 16:17:57,#P#, 1, 800000, 15, 1 

2017-09-26 16:17:57,#P#, 1, 800000, 16, 1 

2017-09-26 16:17:57,#P#, 1, 800000, 17, 1 

2017-09-26 16:17:57,#P#, 1, 800000, 18, 1 

2017-09-26 16:17:57,#P#, 1, 800000, 19, 1 

2017-09-26 16:17:57,#P#, 1, 800000, 20, 1 

2017-09-26 16:17:57,#P#, 1, 800000, 21, 1 

2017-09-26 16:17:57,#P#, 0, 0, 22, 1 

2017-09-26 16:17:57,#P#, 30, 24000000, 23, 1 

2017-09-26 16:17:57,#P#, 29, 23200000, 24, 1 

2017-09-26 16:17:58,
2017-09-26 16:17:58,System Error 

2017-09-26 16:17:59,
2017-09-26 16:18:00,
2017-09-26 16:18:01,
2017-09-26 16:18:02, BGO Set:0, GAIN Set:0

2017-09-26 16:18:03,
2017-09-26 16:18:04,
2017-09-26 16:18:05,
2017-09-26 16:18:06,
2017-09-26 16:18:07,
2017-09-26 16:18:08,
2017-09-26 16:18:09,
2017-09-26 16:18:10,
2017-09-26 16:18:11,
2017-09-26 16:18:12,
Exiting PsocAmPreRad2017-09-26 16:18:15, 47,:e,:0,:3,:95,:13,:0 @

2017-09-26 16:18:15,BandGap,VbandGap,AmacGain,AM_Isense0,AM_Isense1,AM_Vsense

2017-09-26 16:18:15,AM_LCh0,AM_RCh0,AM_Rch1,AM_RCh2,AM_LCh3,AM_RCh3

2017-09-26 16:18:16,
2017-09-26 16:18:17,
2017-09-26 16:18:18,
2017-09-26 16:18:19,
2017-09-26 16:18:19,#G#,0,724,68,31,31,101,81,78,76,74,78,80

2017-09-26 16:18:20,#G#,0,724,68,31,31,201,143,140,137,135,142,138

2017-09-26 16:18:20,#G#,0,724,68,31,31,399,265,261,260,258,264,264

2017-09-26 16:18:21,#G#,0,724,68,31,31,598,388,383,382,381,390,385

2017-09-26 16:18:21,#G#,0,724,68,31,31,796,512,505,505,503,512,506

2017-09-26 16:18:22,#G#,0,724,68,31,31,995,636,626,627,628,638,624

2017-09-26 16:18:22,#G#,0,724,68,31,31,1193,761,750,751,751,761,749

2017-09-26 16:18:22,0,724,68,000,622,511,513,515,523,504,OACS:531 

2017-09-26 16:18:23,#G#,0,724,85,31,31,101,176,164,161,156,168,169

2017-09-26 16:18:24,#G#,0,724,85,31,31,201,312,295,291,287,306,297

2017-09-26 16:18:24,#G#,0,724,85,31,31,399,583,552,549,546,578,556

2017-09-26 16:18:25,#G#,0,724,85,31,31,598,856,811,809,807,854,813

2017-09-26 16:18:25,#G#,0,724,85,31,31,796,1103,1071,1070,1069,1100,1072

2017-09-26 16:18:26,#G#,0,724,85,31,31,995,1110,1078,1077,1076,1107,1078

2017-09-26 16:18:26,#G#,0,724,85,31,31,1193,1116,1084,1083,1082,1114,1084

2017-09-26 16:18:26,0,724,85,000,1005,961,962,967,989,953,OACS:972 

2017-09-26 16:18:26,AM_BGap:0,AM_Gain:85,AM_Slope:972,Percentage:972

2017-09-26 16:18:27,#G#,0,724,102,31,31,101,112,107,104,102,108,110

2017-09-26 16:18:27,#G#,0,724,102,31,31,201,198,191,189,186,195,194

2017-09-26 16:18:28,#G#,0,724,102,31,31,399,369,358,356,354,369,360

2017-09-26 16:18:28,#G#,0,724,102,31,31,598,542,525,524,523,539,526

2017-09-26 16:18:29,#G#,0,724,102,31,31,796,713,693,693,692,712,693

2017-09-26 16:18:30,#G#,0,724,102,31,31,995,872,847,848,848,873,847

2017-09-26 16:18:30,#G#,0,724,102,31,31,1193,1033,1003,1004,1005,1033,1000

2017-09-26 16:18:30,0,724,102,000,1011,850,855,856,878,846,OACS:882 

2017-09-26 16:18:31,#G#,0,724,119,31,31,101,104,100,98,95,99,103

2017-09-26 16:18:31,#G#,0,724,119,31,31,201,184,178,176,174,179,179

2017-09-26 16:18:32,#G#,0,724,119,31,31,399,342,334,332,330,340,336

2017-09-26 16:18:32,#G#,0,724,119,31,31,598,502,490,489,487,501,494

2017-09-26 16:18:33,#G#,0,724,119,31,31,796,662,646,646,645,661,647

2017-09-26 16:18:33,#G#,0,724,119,31,31,995,821,801,802,802,821,799

2017-09-26 16:18:34,#G#,0,724,119,31,31,1193,983,959,960,960,981,958

2017-09-26 16:18:34,0,724,119,000,972,794,797,801,818,787,OACS:828 

2017-09-26 16:18:35,
2017-09-26 16:18:35,#G#,1,716,68,31,31,102,82,79,78,75,83,80

2017-09-26 16:18:36,#G#,1,716,68,31,31,201,144,142,140,137,146,143

2017-09-26 16:18:36,#G#,1,716,68,31,31,399,268,264,263,261,268,268

2017-09-26 16:18:37,#G#,1,716,68,31,31,598,393,387,386,386,394,389

2017-09-26 16:18:37,#G#,1,716,68,31,31,796,518,511,510,510,521,511

2017-09-26 16:18:38,#G#,1,716,68,31,31,995,644,634,634,635,643,632

2017-09-26 16:18:38,#G#,1,716,68,31,31,1193,771,759,760,760,771,758

2017-09-26 16:18:38,1,716,68,000,630,519,519,522,523,516,OACS:538 

2017-09-26 16:18:39,#G#,1,716,85,31,31,101,177,166,162,157,172,169

2017-09-26 16:18:40,#G#,1,716,85,31,31,201,316,298,293,290,311,299

2017-09-26 16:18:40,#G#,1,716,85,31,31,399,589,557,554,551,587,560

2017-09-26 16:18:41,#G#,1,716,85,31,31,598,865,819,817,815,863,823

2017-09-26 16:18:41,#G#,1,716,85,31,31,796,1091,1080,1080,1078,1089,1081

2017-09-26 16:18:42,#G#,1,716,85,31,31,995,1098,1088,1087,1086,1095,1088

2017-09-26 16:18:42,#G#,1,716,85,31,31,1193,1104,1094,1093,1092,1102,1094

2017-09-26 16:18:42,1,716,85,000,998,970,971,977,977,965,OACS:976 

2017-09-26 16:18:42,AM_BGap:1,AM_Gain:85,AM_Slope:976,Percentage:976

2017-09-26 16:18:43,#G#,1,716,102,31,31,101,113,108,105,103,112,111

2017-09-26 16:18:43,#G#,1,716,102,31,31,201,200,193,191,188,199,194

2017-09-26 16:18:44,#G#,1,716,102,31,31,399,374,361,359,358,374,365

2017-09-26 16:18:45,#G#,1,716,102,31,31,598,548,531,530,528,548,531

2017-09-26 16:18:45,#G#,1,716,102,31,31,796,720,700,700,699,720,703

2017-09-26 16:18:46,#G#,1,716,102,31,31,995,881,856,857,857,880,856

2017-09-26 16:18:46,#G#,1,716,102,31,31,1193,1044,1014,1015,1015,1042,1013

2017-09-26 16:18:46,1,716,102,000,1020,859,864,865,879,854,OACS:890 

2017-09-26 16:18:47,#G#,1,716,119,31,31,102,105,101,99,96,103,103

2017-09-26 16:18:47,#G#,1,716,119,31,31,201,186,180,178,176,184,183

2017-09-26 16:18:48,#G#,1,716,119,31,31,399,346,337,335,334,344,341

2017-09-26 16:18:48,#G#,1,716,119,31,31,598,508,495,494,493,505,498

2017-09-26 16:18:49,#G#,1,716,119,31,31,796,669,653,653,652,666,651

2017-09-26 16:18:50,#G#,1,716,119,31,31,995,831,810,811,811,830,808

2017-09-26 16:18:50,#G#,1,716,119,31,31,1193,994,969,970,971,993,969

2017-09-26 16:18:50,1,716,119,000,985,804,807,811,825,801,OACS:838 

2017-09-26 16:18:51,
2017-09-26 16:18:51,#G#,2,708,68,31,31,102,83,80,79,76,83,80

2017-09-26 16:18:52,#G#,2,708,68,31,31,201,146,143,141,139,146,143

2017-09-26 16:18:52,#G#,2,708,68,31,31,399,272,267,266,264,272,268

2017-09-26 16:18:53,#G#,2,708,68,31,31,598,398,392,391,390,398,394

2017-09-26 16:18:53,#G#,2,708,68,31,31,796,525,517,517,516,525,520

2017-09-26 16:18:54,#G#,2,708,68,31,31,995,652,642,643,643,651,642

2017-09-26 16:18:54,#G#,2,708,68,31,31,1193,781,768,769,770,782,767

2017-09-26 16:18:54,2,708,68,000,639,524,525,529,529,524,OACS:545 

2017-09-26 16:18:55,#G#,2,708,85,31,31,101,179,167,164,159,174,169

2017-09-26 16:18:56,#G#,2,708,85,31,31,201,319,301,296,292,316,302

2017-09-26 16:18:56,#G#,2,708,85,31,31,399,596,563,560,557,592,564

2017-09-26 16:18:57,#G#,2,708,85,31,31,598,875,827,825,823,872,831

2017-09-26 16:18:57,#G#,2,708,85,31,31,796,1066,1092,1091,1090,1064,1095

2017-09-26 16:18:58,#G#,2,708,85,31,31,995,1073,1099,1098,1097,1071,1102

2017-09-26 16:18:58,#G#,2,708,85,31,31,1193,1080,1105,1104,1103,1078,1108

2017-09-26 16:18:58,2,708,85,000,978,981,981,986,958,981,OACS:977 

2017-09-26 16:18:58,AM_BGap:2,AM_Gain:85,AM_Slope:977,Percentage:977

2017-09-26 16:18:59,#G#,2,708,102,31,31,102,115,110,107,104,112,111

2017-09-26 16:19:00,#G#,2,708,102,31,31,201,203,195,193,190,199,199

2017-09-26 16:19:00,#G#,2,708,102,31,31,399,378,366,364,362,378,369

2017-09-26 16:19:01,#G#,2,708,102,31,31,598,555,537,536,534,553,537

2017-09-26 16:19:01,#G#,2,708,102,31,31,796,727,709,708,707,727,710

2017-09-26 16:19:02,#G#,2,708,102,31,31,995,890,866,867,867,887,866

2017-09-26 16:19:02,#G#,2,708,102,31,31,1193,1054,1026,1027,1027,1052,1024

2017-09-26 16:19:02,2,708,102,000,1025,869,873,877,883,871,OACS:899 

2017-09-26 16:19:03,#G#,2,708,119,31,31,102,106,102,100,97,103,103

2017-09-26 16:19:03,#G#,2,708,119,31,31,201,188,182,180,175,184,184

2017-09-26 16:19:04,#G#,2,708,119,31,31,399,350,341,339,338,349,341

2017-09-26 16:19:04,#G#,2,708,119,31,31,598,514,501,499,499,513,503

2017-09-26 16:19:05,#G#,2,708,119,31,31,796,678,661,660,660,675,661

2017-09-26 16:19:06,#G#,2,708,119,31,31,995,841,819,820,821,839,819

2017-09-26 16:19:06,#G#,2,708,119,31,31,1193,1006,980,982,982,1003,983

2017-09-26 16:19:06,2,708,119,000,995,814,817,819,833,814,OACS:848 

2017-09-26 16:19:07,
2017-09-26 16:19:07,#G#,3,700,68,31,31,102,84,81,79,78,83,80

2017-09-26 16:19:08,#G#,3,700,68,31,31,201,148,145,143,141,146,147

2017-09-26 16:19:08,#G#,3,700,68,31,31,399,275,270,269,268,276,272

2017-09-26 16:19:09,#G#,3,700,68,31,31,598,404,397,396,395,403,398

2017-09-26 16:19:09,#G#,3,700,68,31,31,796,532,524,524,523,533,525

2017-09-26 16:19:10,#G#,3,700,68,31,31,995,661,650,651,651,662,650

2017-09-26 16:19:10,#G#,3,700,68,31,31,1193,791,778,779,780,790,777

2017-09-26 16:19:10,3,700,68,000,647,531,534,534,539,534,OACS:553 

2017-09-26 16:19:11,#G#,3,700,85,31,31,101,181,169,165,161,178,173

2017-09-26 16:19:12,#G#,3,700,85,31,31,201,323,304,300,295,320,307

2017-09-26 16:19:12,#G#,3,700,85,31,31,399,603,569,566,563,600,570

2017-09-26 16:19:13,#G#,3,700,85,31,31,598,885,836,833,832,881,836

2017-09-26 16:19:13,#G#,3,700,85,31,31,796,1059,1103,1102,1101,1056,1104

2017-09-26 16:19:14,#G#,3,700,85,31,31,995,1066,1110,1109,1107,1063,1111

2017-09-26 16:19:14,#G#,3,700,85,31,31,1193,1073,1116,1115,1114,1070,1117

2017-09-26 16:19:14,3,700,85,000,974,990,993,994,950,987,OACS:981 

2017-09-26 16:19:14,AM_BGap:3,AM_Gain:85,AM_Slope:981,Percentage:981

2017-09-26 16:19:15,#G#,3,700,102,31,31,102,116,111,108,105,112,111

2017-09-26 16:19:16,#G#,3,700,102,31,31,201,205,198,195,192,204,199

2017-09-26 16:19:16,#G#,3,700,102,31,31,399,383,370,368,366,383,371

2017-09-26 16:19:17,#G#,3,700,102,31,31,598,562,543,542,541,562,546

2017-09-26 16:19:17,#G#,3,700,102,31,31,796,735,718,717,716,735,718

2017-09-26 16:19:18,#G#,3,700,102,31,31,995,900,876,877,878,900,875

2017-09-26 16:19:18,#G#,3,700,102,31,31,1193,1067,1038,1039,1040,1064,1037

2017-09-26 16:19:18,3,700,102,000,1035,880,884,887,897,879,OACS:910 

2017-09-26 16:19:19,#G#,3,700,119,31,31,102,107,104,101,98,103,103

2017-09-26 16:19:19,#G#,3,700,119,31,31,201,190,185,182,180,188,189

2017-09-26 16:19:20,#G#,3,700,119,31,31,399,355,345,344,342,353,347

2017-09-26 16:19:21,#G#,3,700,119,31,31,598,521,507,506,505,519,508

2017-09-26 16:19:21,#G#,3,700,119,31,31,796,687,670,669,668,683,670

2017-09-26 16:19:22,#G#,3,700,119,31,31,995,852,830,831,831,851,831

2017-09-26 16:19:22,#G#,3,700,119,31,31,1193,1019,993,994,995,1017,995

2017-09-26 16:19:22,3,700,119,000,1008,824,828,832,849,830,OACS:861 

2017-09-26 16:19:23,
2017-09-26 16:19:23,#G#,4,691,68,31,31,102,85,82,80,78,83,84

2017-09-26 16:19:24,#G#,4,691,68,31,31,201,150,147,145,143,150,147

2017-09-26 16:19:24,#G#,4,691,68,31,31,399,279,274,273,271,281,273

2017-09-26 16:19:25,#G#,4,691,68,31,31,598,409,403,402,401,411,404

2017-09-26 16:19:25,#G#,4,691,68,31,31,796,540,531,531,530,542,533

2017-09-26 16:19:26,#G#,4,691,68,31,31,995,670,659,660,660,672,660

2017-09-26 16:19:27,#G#,4,691,68,31,31,1193,802,789,790,791,803,789

2017-09-26 16:19:27,4,691,68,000,656,539,541,543,550,536,OACS:560 

2017-09-26 16:19:27,#G#,4,691,85,31,31,101,184,172,167,163,178,174

2017-09-26 16:19:28,#G#,4,691,85,31,31,201,327,308,303,299,324,311

2017-09-26 16:19:28,#G#,4,691,85,31,31,399,611,576,573,570,608,578

2017-09-26 16:19:29,#G#,4,691,85,31,31,598,897,846,844,842,894,846

2017-09-26 16:19:29,#G#,4,691,85,31,31,796,1078,1102,1101,1100,1078,1104

2017-09-26 16:19:30,#G#,4,691,85,31,31,995,1085,1109,1108,1107,1084,1111

2017-09-26 16:19:30,#G#,4,691,85,31,31,1193,1092,1116,1115,1114,1091,1118

2017-09-26 16:19:30,4,691,85,000,990,989,992,995,973,989,OACS:988 

2017-09-26 16:19:30,AM_BGap:4,AM_Gain:85,AM_Slope:988,Percentage:988

2017-09-26 16:19:31,#G#,4,691,102,31,31,102,117,112,109,106,116,115

2017-09-26 16:19:32,#G#,4,691,102,31,31,201,208,201,198,195,208,203

2017-09-26 16:19:32,#G#,4,691,102,31,31,399,388,375,373,371,387,375

2017-09-26 16:19:33,#G#,4,691,102,31,31,598,570,551,549,548,567,550

2017-09-26 16:19:33,#G#,4,691,102,31,31,796,746,726,726,725,745,727

2017-09-26 16:19:34,#G#,4,691,102,31,31,995,913,887,888,888,913,887

2017-09-26 16:19:34,#G#,4,691,102,31,31,1193,1082,1051,1052,1053,1082,1052

2017-09-26 16:19:34,4,691,102,000,1052,890,894,897,908,886,OACS:921 

2017-09-26 16:19:35,#G#,4,691,119,31,31,102,109,105,102,100,107,108

2017-09-26 16:19:35,#G#,4,691,119,31,31,201,193,187,185,182,189,189

2017-09-26 16:19:36,#G#,4,691,119,31,31,399,360,350,348,346,358,351

2017-09-26 16:19:37,#G#,4,691,119,31,31,598,528,514,513,512,527,513

2017-09-26 16:19:37,#G#,4,691,119,31,31,796,696,678,678,676,693,679

2017-09-26 16:19:38,#G#,4,691,119,31,31,995,864,841,842,842,861,841

2017-09-26 16:19:38,#G#,4,691,119,31,31,1193,1033,1006,1007,1008,1030,1004

2017-09-26 16:19:38,4,691,119,000,1022,835,840,841,853,831,OACS:870 

2017-09-26 16:19:39,
2017-09-26 16:19:39,#G#,5,682,68,31,31,102,86,83,82,79,87,84

2017-09-26 16:19:40,#G#,5,682,68,31,31,201,152,149,147,145,150,149

2017-09-26 16:19:40,#G#,5,682,68,31,31,399,284,278,276,275,285,277

2017-09-26 16:19:41,#G#,5,682,68,31,31,598,415,408,407,406,415,408

2017-09-26 16:19:41,#G#,5,682,68,31,31,796,548,538,542,537,550,541

2017-09-26 16:19:42,#G#,5,682,68,31,31,995,680,668,669,669,681,668

2017-09-26 16:19:43,#G#,5,682,68,31,31,1193,814,800,801,802,815,803

2017-09-26 16:19:43,5,682,68,000,666,546,547,550,551,544,OACS:567 

2017-09-26 16:19:43,#G#,5,682,85,31,31,102,186,174,169,165,182,178

2017-09-26 16:19:44,#G#,5,682,85,31,31,201,332,312,307,303,328,316

2017-09-26 16:19:44,#G#,5,682,85,31,31,399,618,583,579,576,613,584

2017-09-26 16:19:45,#G#,5,682,85,31,31,598,908,856,854,852,906,856

2017-09-26 16:19:45,#G#,5,682,85,31,31,796,1070,1097,1096,1095,1065,1101

2017-09-26 16:19:46,#G#,5,682,85,31,31,995,1077,1104,1103,1102,1072,1107

2017-09-26 16:19:46,#G#,5,682,85,31,31,1193,1084,1111,1110,1109,1079,1114

2017-09-26 16:19:46,5,682,85,000,988,988,991,994,962,987,OACS:985 

2017-09-26 16:19:47,#G#,5,682,102,31,31,102,119,114,111,108,116,115

2017-09-26 16:19:48,#G#,5,682,102,31,31,201,211,203,200,198,208,208

2017-09-26 16:19:48,#G#,5,682,102,31,31,399,394,380,378,376,392,380

2017-09-26 16:19:49,#G#,5,682,102,31,31,598,578,558,557,555,576,560

2017-09-26 16:19:49,#G#,5,682,102,31,31,796,755,735,734,733,752,735

2017-09-26 16:19:50,#G#,5,682,102,31,31,995,925,898,899,900,925,898

2017-09-26 16:19:50,#G#,5,682,102,31,31,1193,1096,1065,1066,1066,1094,1067

2017-09-26 16:19:50,5,682,102,000,1062,897,901,906,916,900,OACS:930 

2017-09-26 16:19:51,#G#,5,682,119,31,31,102,110,106,103,101,108,108

2017-09-26 16:19:52,#G#,5,682,119,31,31,201,196,190,187,185,193,194

2017-09-26 16:19:52,#G#,5,682,119,31,31,399,365,355,353,351,362,359

2017-09-26 16:19:53,#G#,5,682,119,31,31,598,535,521,520,518,532,523

2017-09-26 16:19:53,#G#,5,682,119,31,31,796,706,688,687,686,705,689

2017-09-26 16:19:54,#G#,5,682,119,31,31,995,876,852,853,854,875,854

2017-09-26 16:19:54,#G#,5,682,119,31,31,1193,1048,1020,1021,1022,1048,1021

2017-09-26 16:19:54,5,682,119,000,1037,846,850,853,868,848,OACS:883 

2017-09-26 16:19:55,
2017-09-26 16:19:55,#G#,6,673,68,31,31,102,87,85,83,81,87,84

2017-09-26 16:19:56,#G#,6,673,68,31,31,201,154,151,149,147,154,151

2017-09-26 16:19:56,#G#,6,673,68,31,31,399,288,282,281,279,289,282

2017-09-26 16:19:57,#G#,6,673,68,31,31,598,422,414,413,412,424,412

2017-09-26 16:19:58,#G#,6,673,68,31,31,796,556,546,546,545,555,546

2017-09-26 16:19:58,#G#,6,673,68,31,31,995,690,678,678,679,689,677

2017-09-26 16:19:59,#G#,6,673,68,31,31,1193,826,812,813,813,828,810

2017-09-26 16:19:59,6,673,68,000,676,553,554,557,561,554,OACS:575 

2017-09-26 16:19:59,#G#,6,673,85,31,31,102,188,176,171,167,182,178

2017-09-26 16:20:00,#G#,6,673,85,31,31,201,336,315,311,306,333,320

2017-09-26 16:20:00,#G#,6,673,85,31,31,399,627,590,586,584,622,592

2017-09-26 16:20:01,#G#,6,673,85,31,31,598,920,867,865,863,916,869

2017-09-26 16:20:01,#G#,6,673,85,31,31,796,1094,1085,1085,1083,1091,1087

2017-09-26 16:20:02,#G#,6,673,85,31,31,995,1101,1092,1092,1090,1098,1094

2017-09-26 16:20:02,#G#,6,673,85,31,31,1193,1108,1099,1099,1097,1105,1101

2017-09-26 16:20:02,6,673,85,000,1009,978,984,985,990,981,OACS:987 

2017-09-26 16:20:03,#G#,6,673,102,31,31,102,120,115,112,109,117,116

2017-09-26 16:20:04,#G#,6,673,102,31,31,201,214,206,203,199,213,208

2017-09-26 16:20:04,#G#,6,673,102,31,31,399,399,385,383,381,396,384

2017-09-26 16:20:05,#G#,6,673,102,31,31,598,586,566,564,563,585,566

2017-09-26 16:20:05,#G#,6,673,102,31,31,796,766,743,743,742,766,743

2017-09-26 16:20:06,#G#,6,673,102,31,31,995,938,909,910,911,936,910

2017-09-26 16:20:06,#G#,6,673,102,31,31,1193,1113,1078,1081,1089,1121,1077

2017-09-26 16:20:06,6,673,102,000,1081,906,910,913,933,907,OACS:941 

2017-09-26 16:20:07,#G#,6,673,119,31,31,102,112,108,105,102,108,108

2017-09-26 16:20:08,#G#,6,673,119,31,31,201,199,192,190,187,197,194

2017-09-26 16:20:08,#G#,6,673,119,31,31,399,370,360,358,355,367,361

2017-09-26 16:20:09,#G#,6,673,119,31,31,598,543,528,527,526,541,527

2017-09-26 16:20:09,#G#,6,673,119,31,31,796,716,697,696,695,715,699

2017-09-26 16:20:10,#G#,6,673,119,31,31,995,889,864,865,865,888,862

2017-09-26 16:20:10,#G#,6,673,119,31,31,1193,1071,1034,1035,1037,1065,1035

2017-09-26 16:20:10,6,673,119,000,1058,856,861,864,885,856,OACS:896 

2017-09-26 16:20:11,
2017-09-26 16:20:11,#G#,7,664,68,31,31,102,88,86,84,81,87,87

2017-09-26 16:20:12,#G#,7,664,68,31,31,201,157,153,151,149,158,155

2017-09-26 16:20:12,#G#,7,664,68,31,31,399,292,287,285,284,293,286

2017-09-26 16:20:13,#G#,7,664,68,31,31,598,428,421,419,418,428,421

2017-09-26 16:20:14,#G#,7,664,68,31,31,796,565,554,554,554,567,551

2017-09-26 16:20:14,#G#,7,664,68,31,31,995,702,688,689,690,702,686

2017-09-26 16:20:15,#G#,7,664,68,31,31,1193,832,821,822,825,832,817

2017-09-26 16:20:15,7,664,68,000,682,561,564,568,576,559,OACS:585 

2017-09-26 16:20:15,#G#,7,664,85,31,31,102,190,177,173,168,186,182

2017-09-26 16:20:16,#G#,7,664,85,31,31,201,340,319,314,310,336,320

2017-09-26 16:20:16,#G#,7,664,85,31,31,399,635,598,594,591,631,599

2017-09-26 16:20:17,#G#,7,664,85,31,31,598,934,878,876,874,931,879

2017-09-26 16:20:17,#G#,7,664,85,31,31,796,1076,1086,1084,1083,1075,1087

2017-09-26 16:20:18,#G#,7,664,85,31,31,995,1083,1093,1092,1091,1082,1095

2017-09-26 16:20:19,#G#,7,664,85,31,31,1193,1090,1100,1099,1098,1089,1101

2017-09-26 16:20:19,7,664,85,000,995,982,984,989,974,976,OACS:983 

2017-09-26 16:20:19,#G#,7,664,102,31,31,102,123,117,114,111,121,121

2017-09-26 16:20:20,#G#,7,664,102,31,31,201,217,209,206,203,217,213

2017-09-26 16:20:20,#G#,7,664,102,31,31,399,405,391,388,386,402,390

2017-09-26 16:20:21,#G#,7,664,102,31,31,598,594,573,572,571,594,575

2017-09-26 16:20:21,#G#,7,664,102,31,31,796,775,752,752,751,774,753

2017-09-26 16:20:22,#G#,7,664,102,31,31,995,950,921,922,922,951,923

2017-09-26 16:20:22,#G#,7,664,102,31,31,1193,1106,1071,1072,1073,1103,1068

2017-09-26 16:20:22,7,664,102,000,1070,916,919,923,939,913,OACS:946 

2017-09-26 16:20:23,#G#,7,664,119,31,31,102,114,109,106,103,112,112

2017-09-26 16:20:24,#G#,7,664,119,31,31,201,201,195,192,190,197,198

2017-09-26 16:20:24,#G#,7,664,119,31,31,399,376,365,363,361,371,365

2017-09-26 16:20:25,#G#,7,664,119,31,31,598,551,535,534,533,550,536

2017-09-26 16:20:25,#G#,7,664,119,31,31,796,726,706,706,705,723,708

2017-09-26 16:20:26,#G#,7,664,119,31,31,995,902,876,877,878,901,874

2017-09-26 16:20:26,#G#,7,664,119,31,31,1193,1055,1036,1037,1038,1052,1035

2017-09-26 16:20:26,7,664,119,000,1041,868,872,877,890,864,OACS:902 

2017-09-26 16:20:27,
2017-09-26 16:20:27,#G#,8,654,68,31,31,102,90,87,85,83,91,88

2017-09-26 16:20:28,#G#,8,654,68,31,31,201,160,156,153,151,158,156

2017-09-26 16:20:29,#G#,8,654,68,31,31,399,297,291,290,288,297,291

2017-09-26 16:20:29,#G#,8,654,68,31,31,598,436,428,427,426,436,429

2017-09-26 16:20:30,#G#,8,654,68,31,31,796,575,565,564,564,575,565

2017-09-26 16:20:30,#G#,8,654,68,31,31,995,715,701,702,703,714,700

2017-09-26 16:20:31,#G#,8,654,68,31,31,1193,827,811,812,812,828,808

2017-09-26 16:20:31,8,654,68,000,677,573,574,577,579,570,OACS:591 

2017-09-26 16:20:31,#G#,8,654,85,31,31,102,192,179,175,170,187,182

2017-09-26 16:20:32,#G#,8,654,85,31,31,201,344,322,318,313,341,326

2017-09-26 16:20:32,#G#,8,654,85,31,31,399,644,605,601,598,639,606

2017-09-26 16:20:33,#G#,8,654,85,31,31,598,947,890,888,886,946,893

2017-09-26 16:20:33,#G#,8,654,85,31,31,796,1088,1099,1097,1096,1083,1102

2017-09-26 16:20:34,#G#,8,654,85,31,31,995,1095,1106,1104,1103,1091,1109

2017-09-26 16:20:35,#G#,8,654,85,31,31,1193,1101,1112,1110,1109,1097,1115

2017-09-26 16:20:35,8,654,85,000,1004,994,996,1000,985,995,OACS:995 

2017-09-26 16:20:35,AM_BGap:8,AM_Gain:85,AM_Slope:995,Percentage:995

2017-09-26 16:20:35,#G#,8,654,102,31,31,102,124,118,115,112,121,121

2017-09-26 16:20:36,#G#,8,654,102,31,31,201,220,211,209,205,217,216

2017-09-26 16:20:36,#G#,8,654,102,31,31,399,411,396,394,392,410,398

2017-09-26 16:20:37,#G#,8,654,102,31,31,598,603,582,580,579,603,584

2017-09-26 16:20:37,#G#,8,654,102,31,31,796,787,764,764,763,787,762

2017-09-26 16:20:38,#G#,8,654,102,31,31,995,966,935,936,937,964,934

2017-09-26 16:20:38,#G#,8,654,102,31,31,1193,1108,1072,1074,1074,1108,1069

2017-09-26 16:20:38,8,654,102,000,1074,929,934,937,952,928,OACS:959 

2017-09-26 16:20:39,#G#,8,654,119,31,31,102,115,110,108,105,112,112

2017-09-26 16:20:40,#G#,8,654,119,31,31,201,205,198,195,192,201,202

2017-09-26 16:20:40,#G#,8,654,119,31,31,399,381,370,368,366,380,370

2017-09-26 16:20:41,#G#,8,654,119,31,31,598,560,544,542,541,559,546

2017-09-26 16:20:41,#G#,8,654,119,31,31,796,738,717,717,716,737,713

2017-09-26 16:20:42,#G#,8,654,119,31,31,995,917,890,891,892,914,889

2017-09-26 16:20:42,#G#,8,654,119,31,31,1193,1040,1036,1038,1040,1040,1035

2017-09-26 16:20:42,8,654,119,000,1031,883,886,889,906,882,OACS:912 

2017-09-26 16:20:43,
2017-09-26 16:20:43,#G#,9,642,68,31,31,102,91,88,86,84,91,89

2017-09-26 16:20:44,#G#,9,642,68,31,31,201,163,158,156,154,163,161

2017-09-26 16:20:45,#G#,9,642,68,31,31,399,303,297,295,294,302,297

2017-09-26 16:20:45,#G#,9,642,68,31,31,598,445,436,435,434,445,437

2017-09-26 16:20:46,#G#,9,642,68,31,31,796,587,575,575,575,588,574

2017-09-26 16:20:46,#G#,9,642,68,31,31,995,731,715,716,717,731,717

2017-09-26 16:20:47,#G#,9,642,68,31,31,1193,823,805,806,806,824,807

2017-09-26 16:20:47,9,642,68,000,675,585,587,590,597,587,OACS:603 

2017-09-26 16:20:47,#G#,9,642,85,31,31,102,195,181,176,171,191,183

2017-09-26 16:20:48,#G#,9,642,85,31,31,201,349,327,322,317,346,330

2017-09-26 16:20:48,#G#,9,642,85,31,31,399,654,614,610,607,650,616

2017-09-26 16:20:49,#G#,9,642,85,31,31,598,962,903,900,898,959,903

2017-09-26 16:20:50,#G#,9,642,85,31,31,796,1053,1091,1091,1089,1050,1093

2017-09-26 16:20:50,#G#,9,642,85,31,31,995,1060,1098,1098,1096,1058,1100

2017-09-26 16:20:51,#G#,9,642,85,31,31,1193,1065,1103,1103,1101,1063,1105

2017-09-26 16:20:51,9,642,85,000,972,990,995,998,958,991,OACS:984 

2017-09-26 16:20:51,#G#,9,642,102,31,31,102,125,120,116,113,122,121

2017-09-26 16:20:52,#G#,9,642,102,31,31,201,223,215,211,209,222,218

2017-09-26 16:20:52,#G#,9,642,102,31,31,399,418,402,400,398,415,404

2017-09-26 16:20:53,#G#,9,642,102,31,31,598,614,592,590,589,612,590

2017-09-26 16:20:53,#G#,9,642,102,31,31,796,799,775,776,776,798,775

2017-09-26 16:20:54,#G#,9,642,102,31,31,995,982,951,952,952,980,951

2017-09-26 16:20:55,#G#,9,642,102,31,31,1193,1060,1078,1079,1080,1060,1077

2017-09-26 16:20:55,9,642,102,000,1029,942,947,951,964,943,OACS:962 

2017-09-26 16:20:55,#G#,9,642,119,31,31,102,116,112,109,107,112,113

2017-09-26 16:20:56,#G#,9,642,119,31,31,201,208,201,198,194,206,203

2017-09-26 16:20:56,#G#,9,642,119,31,31,399,388,376,374,372,385,374

2017-09-26 16:20:57,#G#,9,642,119,31,31,598,543,553,552,551,568,555

2017-09-26 16:20:57,#G#,9,642,119,31,31,796,752,729,730,730,750,727

2017-09-26 16:20:58,#G#,9,642,119,31,31,995,935,906,908,910,932,907

2017-09-26 16:20:58,#G#,9,642,119,31,31,1193,1031,1000,1003,1003,1029,999

2017-09-26 16:20:58,9,642,119,000,1017,898,903,905,928,899,OACS:925 

2017-09-26 16:20:59,
2017-09-26 16:21:00,#G#,10,629,68,31,31,102,93,90,87,85,91,90

2017-09-26 16:21:00,#G#,10,629,68,31,31,201,166,162,160,157,167,165

2017-09-26 16:21:01,#G#,10,629,68,31,31,399,310,303,302,300,310,304

2017-09-26 16:21:01,#G#,10,629,68,31,31,598,455,446,445,444,455,448

2017-09-26 16:21:02,#G#,10,629,68,31,31,796,601,588,588,588,601,587

2017-09-26 16:21:02,#G#,10,629,68,31,31,995,748,731,732,732,748,731

2017-09-26 16:21:03,#G#,10,629,68,31,31,1193,788,769,770,770,786,767

2017-09-26 16:21:03,10,629,68,000,644,598,602,603,615,601,OACS:610 

2017-09-26 16:21:03,#G#,10,629,85,31,31,102,197,183,178,174,191,187

2017-09-26 16:21:04,#G#,10,629,85,31,31,201,354,331,326,321,350,335

2017-09-26 16:21:05,#G#,10,629,85,31,31,399,665,623,620,616,661,625

2017-09-26 16:21:05,#G#,10,629,85,31,31,598,979,917,915,913,976,916

2017-09-26 16:21:06,#G#,10,629,85,31,31,796,987,1070,1068,1067,984,1071

2017-09-26 16:21:06,#G#,10,629,85,31,31,995,995,1078,1076,1075,992,1079

2017-09-26 16:21:07,#G#,10,629,85,31,31,1193,997,1080,1078,1077,994,1081

2017-09-26 16:21:07,10,629,85,000,911,975,979,980,908,973,OACS:954 

2017-09-26 16:21:07,#G#,10,629,102,31,31,102,127,121,118,115,126,125

2017-09-26 16:21:08,#G#,10,629,102,31,31,201,228,218,216,212,227,222

2017-09-26 16:21:08,#G#,10,629,102,31,31,399,427,410,408,406,425,413

2017-09-26 16:21:09,#G#,10,629,102,31,31,598,627,604,602,601,627,604

2017-09-26 16:21:09,#G#,10,629,102,31,31,796,812,788,789,789,812,791

2017-09-26 16:21:10,#G#,10,629,102,31,31,995,998,968,969,970,998,968

2017-09-26 16:21:11,#G#,10,629,102,31,31,1193,1096,1061,1062,1063,1095,1062

2017-09-26 16:21:11,10,629,102,000,1050,955,959,962,968,951,OACS:974 

2017-09-26 16:21:11,#G#,10,629,119,31,31,102,118,114,110,108,117,118

2017-09-26 16:21:12,#G#,10,629,119,31,31,201,212,205,201,199,210,208

2017-09-26 16:21:12,#G#,10,629,119,31,31,399,397,384,382,380,393,384

2017-09-26 16:21:13,#G#,10,629,119,31,31,598,583,565,564,562,581,565

2017-09-26 16:21:13,#G#,10,629,119,31,31,796,769,744,745,745,768,745

2017-09-26 16:21:14,#G#,10,629,119,31,31,995,956,926,927,927,954,922

2017-09-26 16:21:14,#G#,10,629,119,31,31,1193,1029,993,994,995,1027,993

2017-09-26 16:21:14,10,629,119,000,1018,917,922,924,942,909,OACS:938 

2017-09-26 16:21:15,
2017-09-26 16:21:16,#G#,11,616,68,31,31,102,95,91,89,87,95,93

2017-09-26 16:21:16,#G#,11,616,68,31,31,201,169,165,162,160,167,165

2017-09-26 16:21:17,#G#,11,616,68,31,31,399,316,310,308,306,318,310

2017-09-26 16:21:17,#G#,11,616,68,31,31,598,466,455,454,453,466,456

2017-09-26 16:21:18,#G#,11,616,68,31,31,796,615,601,602,602,615,601

2017-09-26 16:21:18,#G#,11,616,68,31,31,995,765,748,749,749,765,745

2017-09-26 16:21:19,#G#,11,616,68,31,31,1193,766,748,749,749,765,745

2017-09-26 16:21:19,11,616,68,000,625,613,615,617,622,607,OACS:616 

2017-09-26 16:21:19,#G#,11,616,85,31,31,102,200,186,181,176,195,191

2017-09-26 16:21:20,#G#,11,616,85,31,31,201,360,337,331,327,355,341

2017-09-26 16:21:21,#G#,11,616,85,31,31,399,679,635,631,627,674,635

2017-09-26 16:21:21,#G#,11,616,85,31,31,598,1000,935,934,931,998,935

2017-09-26 16:21:22,#G#,11,616,85,31,31,796,1041,953,950,949,1035,955

2017-09-26 16:21:22,#G#,11,616,85,31,31,995,1049,961,958,957,1043,963

2017-09-26 16:21:23,#G#,11,616,85,31,31,1193,1049,961,958,957,1043,963

2017-09-26 16:21:23,11,616,85,000,952,880,881,885,950,875,OACS:903 

2017-09-26 16:21:23,#G#,11,616,102,31,31,102,130,123,120,116,127,125

2017-09-26 16:21:24,#G#,11,616,102,31,31,201,232,223,219,216,232,227

2017-09-26 16:21:24,#G#,11,616,102,31,31,399,436,419,417,414,434,422

2017-09-26 16:21:25,#G#,11,616,102,31,31,598,642,617,616,614,640,618

2017-09-26 16:21:26,#G#,11,616,102,31,31,796,833,799,800,800,832,796

2017-09-26 16:21:26,#G#,11,616,102,31,31,995,1024,983,984,985,1022,984

2017-09-26 16:21:27,#G#,11,616,102,31,31,1193,1071,1024,1026,1026,1068,1024

2017-09-26 16:21:27,11,616,102,000,1034,952,955,961,998,952,OACS:975 

2017-09-26 16:21:27,#G#,11,616,119,31,31,102,121,116,112,109,117,118

2017-09-26 16:21:28,#G#,11,616,119,31,31,201,216,208,205,202,215,213

2017-09-26 16:21:28,#G#,11,616,119,31,31,399,406,392,390,388,402,393

2017-09-26 16:21:29,#G#,11,616,119,31,31,598,596,577,576,574,594,575

2017-09-26 16:21:29,#G#,11,616,119,31,31,796,787,760,761,761,785,759

2017-09-26 16:21:30,#G#,11,616,119,31,31,995,979,946,947,948,976,945

2017-09-26 16:21:30,#G#,11,616,119,31,31,1193,1036,998,1000,1000,1034,997

2017-09-26 16:21:30,11,616,119,000,1020,932,938,942,969,932,OACS:955 

2017-09-26 16:21:31,
2017-09-26 16:21:32,#G#,12,603,68,31,31,102,96,93,90,88,95,93

2017-09-26 16:21:32,#G#,12,603,68,31,31,201,172,168,166,163,171,169

2017-09-26 16:21:33,#G#,12,603,68,31,31,399,324,316,314,313,323,317

2017-09-26 16:21:33,#G#,12,603,68,31,31,598,477,466,465,464,478,466

2017-09-26 16:21:34,#G#,12,603,68,31,31,796,630,614,615,615,630,614

2017-09-26 16:21:34,#G#,12,603,68,31,31,995,784,765,766,767,786,763

2017-09-26 16:21:35,#G#,12,603,68,31,31,1193,785,766,767,767,786,763

2017-09-26 16:21:35,12,603,68,000,642,627,631,632,643,626,OACS:633 

2017-09-26 16:21:36,#G#,12,603,85,31,31,102,203,188,184,178,199,192

2017-09-26 16:21:36,#G#,12,603,85,31,31,201,368,343,338,332,363,348

2017-09-26 16:21:37,#G#,12,603,85,31,31,399,694,648,643,640,691,649

2017-09-26 16:21:37,#G#,12,603,85,31,31,598,1024,955,953,950,1019,958

2017-09-26 16:21:38,#G#,12,603,85,31,31,796,1088,995,992,989,1086,992

2017-09-26 16:21:38,#G#,12,603,85,31,31,995,1097,1003,1000,997,1095,1000

2017-09-26 16:21:39,#G#,12,603,85,31,31,1193,1097,1003,1000,997,1095,1000

2017-09-26 16:21:39,12,603,85,000,996,919,919,922,997,914,OACS:944 

2017-09-26 16:21:39,#G#,12,603,102,31,31,102,132,125,122,118,131,130

2017-09-26 16:21:40,#G#,12,603,102,31,31,201,237,227,224,220,237,228

2017-09-26 16:21:40,#G#,12,603,102,31,31,399,446,428,425,423,447,433

2017-09-26 16:21:41,#G#,12,603,102,31,31,598,657,631,629,627,658,633

2017-09-26 16:21:42,#G#,12,603,102,31,31,796,855,818,819,819,856,815

2017-09-26 16:21:42,#G#,12,603,102,31,31,995,1050,1006,1008,1008,1050,1004

2017-09-26 16:21:43,#G#,12,603,102,31,31,1193,1050,1006,1008,1008,1050,1004

2017-09-26 16:21:43,12,603,102,000,1025,978,982,986,1026,968,OACS:994 

2017-09-26 16:21:43,#G#,12,603,119,31,31,102,123,117,114,111,121,121

2017-09-26 16:21:44,#G#,12,603,119,31,31,201,220,213,209,206,219,217

2017-09-26 16:21:44,#G#,12,603,119,31,31,399,415,401,398,396,411,403

2017-09-26 16:21:45,#G#,12,603,119,31,31,598,610,591,589,587,608,589

2017-09-26 16:21:45,#G#,12,603,119,31,31,796,806,778,779,779,804,778

2017-09-26 16:21:46,#G#,12,603,119,31,31,995,1003,968,969,969,999,968

2017-09-26 16:21:47,#G#,12,603,119,31,31,1193,1003,968,969,969,999,968

2017-09-26 16:21:47,12,603,119,000,990,958,961,964,990,953,OACS:969 

2017-09-26 16:21:48,
2017-09-26 16:21:48,#G#,13,589,68,31,31,102,98,95,92,89,96,97

2017-09-26 16:21:48,#G#,13,589,68,31,31,201,176,171,169,166,175,173

2017-09-26 16:21:49,#G#,13,589,68,31,31,399,331,324,322,320,331,327

2017-09-26 16:21:49,#G#,13,589,68,31,31,598,488,476,476,474,487,475

2017-09-26 16:21:50,#G#,13,589,68,31,31,796,646,629,630,630,647,628

2017-09-26 16:21:50,#G#,13,589,68,31,31,995,804,784,785,785,803,785

2017-09-26 16:21:51,#G#,13,589,68,31,31,1193,804,823,785,785,803,823

2017-09-26 16:21:51,13,589,68,000,657,642,646,648,659,641,OACS:648 

2017-09-26 16:21:52,#G#,13,589,85,31,31,102,207,191,186,181,204,196

2017-09-26 16:21:52,#G#,13,589,85,31,31,201,375,349,344,339,373,355

2017-09-26 16:21:53,#G#,13,589,85,31,31,399,710,662,658,654,708,662

2017-09-26 16:21:53,#G#,13,589,85,31,31,598,1048,976,975,972,1046,976

2017-09-26 16:21:54,#G#,13,589,85,31,31,796,1058,984,983,980,1055,984

2017-09-26 16:21:54,#G#,13,589,85,31,31,995,1066,992,991,988,1063,992

2017-09-26 16:21:55,#G#,13,589,85,31,31,1193,1066,994,991,988,1063,994

2017-09-26 16:21:55,13,589,85,000,972,912,916,918,973,909,OACS:933 

2017-09-26 16:21:55,#G#,13,589,102,31,31,102,134,127,124,121,132,130

2017-09-26 16:21:56,#G#,13,589,102,31,31,201,242,232,228,225,241,233

2017-09-26 16:21:57,#G#,13,589,102,31,31,399,457,437,435,432,457,442

2017-09-26 16:21:57,#G#,13,589,102,31,31,598,673,645,644,642,672,648

2017-09-26 16:21:58,#G#,13,589,102,31,31,796,872,835,837,836,871,836

2017-09-26 16:21:58,#G#,13,589,102,31,31,995,1073,1028,1030,1029,1073,1026

2017-09-26 16:21:59,#G#,13,589,102,31,31,1193,1074,1028,1030,1029,1073,1027

2017-09-26 16:21:59,13,589,102,000,1042,996,1000,1002,1044,990,OACS:1012 

2017-09-26 16:21:59,#G#,13,589,119,31,31,102,125,119,116,113,121,122

2017-09-26 16:22:00,#G#,13,589,119,31,31,201,225,217,214,210,224,221

2017-09-26 16:22:00,#G#,13,589,119,31,31,399,424,410,407,404,420,412

2017-09-26 16:22:01,#G#,13,589,119,31,31,598,625,604,603,601,621,603

2017-09-26 16:22:01,#G#,13,589,119,31,31,796,826,796,797,797,825,793

2017-09-26 16:22:02,#G#,13,589,119,31,31,995,1027,991,992,992,1025,991

2017-09-26 16:22:03,#G#,13,589,119,31,31,1193,1028,990,992,992,1025,991

2017-09-26 16:22:03,13,589,119,000,1016,980,984,986,1019,977,OACS:993 

2017-09-26 16:22:04,
2017-09-26 16:22:04,#G#,14,576,68,31,31,102,100,96,93,91,100,97

2017-09-26 16:22:04,#G#,14,576,68,31,31,201,180,175,172,170,180,178

2017-09-26 16:22:05,#G#,14,576,68,31,31,399,339,331,329,327,340,335

2017-09-26 16:22:05,#G#,14,576,68,31,31,598,500,488,487,486,500,488

2017-09-26 16:22:06,#G#,14,576,68,31,31,796,662,644,645,645,663,645

2017-09-26 16:22:06,#G#,14,576,68,31,31,995,824,802,804,804,824,803

2017-09-26 16:22:07,#G#,14,576,68,31,31,1193,824,803,804,804,824,803

2017-09-26 16:22:07,14,576,68,000,675,658,662,664,675,660,OACS:665 

2017-09-26 16:22:08,#G#,14,576,85,31,31,102,211,195,189,184,207,200

2017-09-26 16:22:08,#G#,14,576,85,31,31,201,384,356,351,345,382,358

2017-09-26 16:22:09,#G#,14,576,85,31,31,399,728,676,673,668,727,680

2017-09-26 16:22:09,#G#,14,576,85,31,31,598,1075,998,997,994,1072,999

2017-09-26 16:22:10,#G#,14,576,85,31,31,796,1083,1102,1103,1101,1081,1102

2017-09-26 16:22:10,#G#,14,576,85,31,31,995,1091,1110,1111,1109,1089,1110

2017-09-26 16:22:11,#G#,14,576,85,31,31,1193,1091,1110,1111,1109,1089,1110

2017-09-26 16:22:11,14,576,85,000,997,1013,1021,1023,1000,1007,OACS:1010 

2017-09-26 16:22:11,#G#,14,576,102,31,31,102,137,129,126,122,136,134

2017-09-26 16:22:12,#G#,14,576,102,31,31,201,247,236,233,229,246,237

2017-09-26 16:22:13,#G#,14,576,102,31,31,399,467,448,445,442,466,448

2017-09-26 16:22:13,#G#,14,576,102,31,31,598,690,659,659,657,691,662

2017-09-26 16:22:14,#G#,14,576,102,31,31,796,895,860,862,862,893,861

2017-09-26 16:22:14,#G#,14,576,102,31,31,995,1101,1058,1059,1059,1100,1059

2017-09-26 16:22:15,#G#,14,576,102,31,31,1193,1101,1058,1060,1060,1100,1059

2017-09-26 16:22:15,14,576,102,000,1068,1038,1043,1047,1068,1031,OACS:1049 

2017-09-26 16:22:15,#G#,14,576,119,31,31,102,127,121,118,115,126,123

2017-09-26 16:22:16,#G#,14,576,119,31,31,201,230,221,218,215,228,223

2017-09-26 16:22:16,#G#,14,576,119,31,31,399,435,419,417,414,434,422

2017-09-26 16:22:17,#G#,14,576,119,31,31,598,641,617,617,615,639,618

2017-09-26 16:22:18,#G#,14,576,119,31,31,796,847,815,816,816,843,812

2017-09-26 16:22:18,#G#,14,576,119,31,31,995,1054,1015,1016,1016,1052,1012

2017-09-26 16:22:19,#G#,14,576,119,31,31,1193,1053,1015,1016,1016,1052,1012

2017-09-26 16:22:19,14,576,119,000,931,1007,1012,1015,1041,1002,OACS:1001 

2017-09-26 16:22:19,AM_BGap:14,AM_Gain:119,AM_Slope:1001,Percentage:999

2017-09-26 16:22:20,
2017-09-26 16:22:20,#G#,15,562,68,31,31,102,101,98,95,92,100,98

2017-09-26 16:22:20,#G#,15,562,68,31,31,201,184,179,176,174,184,183

2017-09-26 16:22:21,#G#,15,562,68,31,31,399,348,339,337,335,348,343

2017-09-26 16:22:21,#G#,15,562,68,31,31,598,514,500,500,499,513,500

2017-09-26 16:22:22,#G#,15,562,68,31,31,796,680,661,663,663,681,663

2017-09-26 16:22:22,#G#,15,562,68,31,31,995,842,822,830,834,841,826

2017-09-26 16:22:23,#G#,15,562,68,31,31,1193,842,822,830,834,841,826

2017-09-26 16:22:23,15,562,68,000,692,676,685,692,692,682,OACS:686 

2017-09-26 16:22:24,#G#,15,562,85,31,31,102,215,198,193,187,211,201

2017-09-26 16:22:24,#G#,15,562,85,31,31,201,392,364,358,353,390,367

2017-09-26 16:22:25,#G#,15,562,85,31,31,399,747,693,689,685,744,698

2017-09-26 16:22:25,#G#,15,562,85,31,31,598,1103,1023,1023,1021,1102,1026

2017-09-26 16:22:26,#G#,15,562,85,31,31,796,1112,1031,1031,1029,1111,1031

2017-09-26 16:22:26,#G#,15,562,85,31,31,995,1121,1040,1040,1038,1120,1040

2017-09-26 16:22:27,#G#,15,562,85,31,31,1193,1121,1040,1040,1038,1120,1040

2017-09-26 16:22:27,15,562,85,000,1024,959,964,969,1029,957,OACS:983 

2017-09-26 16:22:28,#G#,15,562,102,31,31,102,139,132,129,125,138,134

2017-09-26 16:22:28,#G#,15,562,102,31,31,201,253,242,238,234,252,242

2017-09-26 16:22:29,#G#,15,562,102,31,31,399,480,459,456,453,480,457

2017-09-26 16:22:29,#G#,15,562,102,31,31,598,708,676,676,674,709,676

2017-09-26 16:22:30,#G#,15,562,102,31,31,796,920,878,879,879,920,876

2017-09-26 16:22:30,#G#,15,562,102,31,31,995,1124,1078,1072,1072,1123,1073

2017-09-26 16:22:31,#G#,15,562,102,31,31,1193,1124,1078,1072,1072,1123,1073

2017-09-26 16:22:31,15,562,102,000,1093,1046,1044,1048,1094,1038,OACS:1060 

2017-09-26 16:22:31,#G#,15,562,119,31,31,102,130,124,120,117,126,127

2017-09-26 16:22:32,#G#,15,562,119,31,31,201,235,226,223,219,233,227

2017-09-26 16:22:32,#G#,15,562,119,31,31,399,446,430,430,424,443,431

2017-09-26 16:22:33,#G#,15,562,119,31,31,598,658,633,633,632,657,636

2017-09-26 16:22:34,#G#,15,562,119,31,31,796,871,836,838,838,870,836

2017-09-26 16:22:34,#G#,15,562,119,31,31,995,1066,1043,1034,1035,1074,1039

2017-09-26 16:22:35,#G#,15,562,119,31,31,1193,1066,1043,1034,1035,1074,1039

2017-09-26 16:22:35,15,562,119,000,1056,1031,1028,1031,1068,1023,OACS:1039 

2017-09-26 16:22:36,
2017-09-26 16:22:36,#G#,16,548,68,31,31,102,103,100,97,94,104,102

2017-09-26 16:22:36,#G#,16,548,68,31,31,201,188,183,181,177,188,187

2017-09-26 16:22:37,#G#,16,548,68,31,31,399,357,348,346,344,356,349

2017-09-26 16:22:37,#G#,16,548,68,31,31,598,528,513,513,512,529,513

2017-09-26 16:22:38,#G#,16,548,68,31,31,796,699,678,680,680,697,677

2017-09-26 16:22:39,#G#,16,548,68,31,31,995,822,796,797,798,820,798

2017-09-26 16:22:39,#G#,16,548,68,31,31,1193,822,796,797,798,820,798

2017-09-26 16:22:39,16,548,68,000,675,654,658,660,671,656,OACS:662 

2017-09-26 16:22:40,#G#,16,548,85,31,31,102,219,202,196,190,216,206

2017-09-26 16:22:40,#G#,16,548,85,31,31,201,402,372,367,361,399,376

2017-09-26 16:22:41,#G#,16,548,85,31,31,399,767,710,706,702,766,710

2017-09-26 16:22:41,#G#,16,548,85,31,31,598,1087,1048,1049,1047,1086,1045

2017-09-26 16:22:42,#G#,16,548,85,31,31,796,1096,1057,1057,1056,1095,1054

2017-09-26 16:22:42,#G#,16,548,85,31,31,995,1103,1064,1064,1063,1102,1060

2017-09-26 16:22:43,#G#,16,548,85,31,31,1193,1103,1064,1064,1063,1102,1060

2017-09-26 16:22:43,16,548,85,000,1009,976,982,987,1010,969,OACS:988 

2017-09-26 16:22:44,#G#,16,548,102,31,31,102,142,135,131,127,141,139

2017-09-26 16:22:44,#G#,16,548,102,31,31,201,259,247,243,240,259,248

2017-09-26 16:22:45,#G#,16,548,102,31,31,399,492,470,467,465,494,472

2017-09-26 16:22:45,#G#,16,548,102,31,31,598,725,694,694,693,725,691

2017-09-26 16:22:46,#G#,16,548,102,31,31,796,942,900,902,902,941,899

2017-09-26 16:22:46,#G#,16,548,102,31,31,0,1050,1000,1001,997,1038,1017

2017-09-26 16:22:47,#G#,16,548,102,31,31,0,501,499,436,689,753,751

2017-09-26 16:22:47,16,548,102,000,938,990,988,1004,990,938,OACS:974 

2017-09-26 16:22:48,
2017-09-26 16:22:49,
2017-09-26 16:22:50,
2017-09-26 16:22:51,
2017-09-26 16:22:51, BGO Set:0, GAIN Set:0

2017-09-26 16:22:52,
2017-09-26 16:22:53,
2017-09-26 16:22:54,
