NOTE I INTENTIONALLY KILLED THE POWER SUPPLY HERE--THIS PUTS US INTO AN INFINITE LOOP!

2017-09-26 15:58:18, 50,:e,:0,:0,:0,:c8,:0 @

2017-09-26 15:58:18,*******Measure Period per Event & Freq in MHz*******

2017-09-26 15:58:18,****Period_cnt , Freq, SeqNo, Status,..........

2017-09-26 15:58:18,#P#, 32, 25600000, 0, 0 

2017-09-26 15:58:18,#P#, 36, 28800000, 1, 0 

2017-09-26 15:58:18,#P#, 37, 29600000, 2, 0 

2017-09-26 15:58:18,#P#, 36, 28800000, 3, 0 

2017-09-26 15:58:18,#P#, 36, 28800000, 4, 0 

2017-09-26 15:58:18,#P#, 36, 28800000, 5, 0 

2017-09-26 15:58:18,#P#, 36, 28800000, 6, 0 

2017-09-26 15:58:18,#P#, 36, 28800000, 7, 0 

2017-09-26 15:58:18,#P#, 37, 29600000, 8, 0 

2017-09-26 15:58:18,#P#, 37, 29600000, 9, 0 

2017-09-26 15:58:18,#P#, 37, 29600000, 10, 0 

2017-09-26 15:58:18,#P#, 37, 29600000, 11, 0 

2017-09-26 15:58:18,#P#, 37, 29600000, 12, 0 

2017-09-26 15:58:18,#P#, 37, 29600000, 13, 0 

2017-09-26 15:58:18,#P#, 36, 28800000, 14, 0 

2017-09-26 15:58:18,#P#, 37, 29600000, 15, 0 

2017-09-26 15:58:18,#P#, 37, 29600000, 16, 0 

2017-09-26 15:58:18,#P#, 36, 28800000, 17, 0 

2017-09-26 15:58:18,#P#, 37, 29600000, 18, 0 

2017-09-26 15:58:18,#P#, 37, 29600000, 19, 0 

2017-09-26 15:58:18,#P#, 37, 29600000, 20, 0 

2017-09-26 15:58:18,#P#, 37, 29600000, 21, 0 

2017-09-26 15:58:18,#P#, 37, 29600000, 22, 0 

2017-09-26 15:58:19,#P#, 36, 28800000, 23, 0 

2017-09-26 15:58:19,#P#, 37, 29600000, 24, 0 

2017-09-26 15:58:19,#P#, 37, 29600000, 25, 0 

2017-09-26 15:58:19,#P#, 37, 29600000, 26, 0 

2017-09-26 15:58:19,#P#, 37, 29600000, 27, 0 

2017-09-26 15:58:19,#P#, 36, 28800000, 28, 0 

2017-09-26 15:58:19,#P#, 36, 28800000, 29, 0 

2017-09-26 15:58:19,#P#, 36, 28800000, 30, 0 

2017-09-26 15:58:19,#P#, 38, 30400000, 31, 0 

2017-09-26 15:58:19,#P#, 38, 30400000, 32, 0 

2017-09-26 15:58:19,#P#, 36, 28800000, 33, 0 

2017-09-26 15:58:19,#P#, 37, 29600000, 34, 0 

2017-09-26 15:58:19,#P#, 37, 29600000, 35, 0 

2017-09-26 15:58:19,#P#, 37, 29600000, 36, 0 

2017-09-26 15:58:19,#P#, 38, 30400000, 37, 0 

2017-09-26 15:58:19,#P#, 37, 29600000, 38, 0 

2017-09-26 15:58:19,#P#, 38, 30400000, 39, 0 

2017-09-26 15:58:19,#P#, 38, 30400000, 40, 0 

2017-09-26 15:58:19,#P#, 36, 28800000, 41, 0 

2017-09-26 15:58:19,#P#, 37, 29600000, 42, 0 

2017-09-26 15:58:19,#P#, 37, 29600000, 43, 0 

2017-09-26 15:58:19,#P#, 37, 29600000, 44, 0 

2017-09-26 15:58:19,#P#, 37, 29600000, 45, 0 

2017-09-26 15:58:19,#P#, 37, 29600000, 46, 0 

2017-09-26 15:58:19,#P#, 36, 28800000, 47, 0 

2017-09-26 15:58:19,#P#, 37, 29600000, 48, 0 

2017-09-26 15:58:19,#P#, 36, 28800000, 49, 0 

2017-09-26 15:58:19,#P#, 37, 29600000, 50, 0 

2017-09-26 15:58:19,#P#, 36, 28800000, 51, 0 

2017-09-26 15:58:19,#P#, 37, 29600000, 52, 0 

2017-09-26 15:58:19,#P#, 36, 28800000, 53, 0 

2017-09-26 15:58:19,#P#, 37, 29600000, 54, 0 

2017-09-26 15:58:19,#P#, 36, 28800000, 55, 0 

2017-09-26 15:58:19,#P#, 36, 28800000, 56, 0 

2017-09-26 15:58:19,#P#, 37, 29600000, 57, 0 

2017-09-26 15:58:19,#P#, 36, 28800000, 58, 0 

2017-09-26 15:58:19,#P#, 36, 28800000, 59, 0 

2017-09-26 15:58:19,#P#, 36, 28800000, 60, 0 

2017-09-26 15:58:19,#P#, 37, 29600000, 61, 0 

2017-09-26 15:58:19,#P#, 37, 29600000, 62, 0 

2017-09-26 15:58:19,#P#, 36, 28800000, 63, 0 

2017-09-26 15:58:19,#P#, 37, 29600000, 64, 0 

2017-09-26 15:58:19,#P#, 36, 28800000, 65, 0 

2017-09-26 15:58:19,#P#, 37, 29600000, 66, 0 

2017-09-26 15:58:19,#P#, 36, 28800000, 67, 0 

2017-09-26 15:58:19,#P#, 37, 29600000, 68, 0 

2017-09-26 15:58:19,#P#, 37, 29600000, 69, 0 

2017-09-26 15:58:19,#P#, 36, 28800000, 70, 0 

2017-09-26 15:58:19,#P#, 38, 30400000, 71, 0 

2017-09-26 15:58:19,#P#, 37, 29600000, 72, 0 

2017-09-26 15:58:19,#P#, 37, 29600000, 73, 0 

2017-09-26 15:58:19,#P#, 37, 29600000, 74, 0 

2017-09-26 15:58:19,#P#, 37, 29600000, 75, 0 

2017-09-26 15:58:19,#P#, 36, 28800000, 76, 0 

2017-09-26 15:58:19,#P#, 37, 29600000, 77, 0 

2017-09-26 15:58:19,#P#, 37, 29600000, 78, 0 

2017-09-26 15:58:19,#P#, 36, 28800000, 79, 0 

2017-09-26 15:58:19,#P#, 36, 28800000, 80, 0 

2017-09-26 15:58:19,#P#, 37, 29600000, 81, 0 

2017-09-26 15:58:19,#P#, 37, 29600000, 82, 0 

2017-09-26 15:58:19,#P#, 37, 29600000, 83, 0 

2017-09-26 15:58:19,#P#, 37, 29600000, 84, 0 

2017-09-26 15:58:19,#P#, 37, 29600000, 85, 0 

2017-09-26 15:58:19,#P#, 37, 29600000, 86, 0 

2017-09-26 15:58:19,#P#, 37, 29600000, 87, 0 

2017-09-26 15:58:19,#P#, 37, 29600000, 88, 0 

2017-09-26 15:58:19,#P#, 37, 29600000, 89, 0 

2017-09-26 15:58:19,#P#, 37, 29600000, 90, 0 

2017-09-26 15:58:19,#P#, 37, 29600000, 91, 0 

2017-09-26 15:58:19,#P#, 38, 30400000, 92, 0 

2017-09-26 15:58:19,#P#, 37, 29600000, 93, 0 

2017-09-26 15:58:19,#P#, 37, 29600000, 94, 0 

2017-09-26 15:58:19,#P#, 37, 29600000, 95, 0 

2017-09-26 15:58:19,#P#, 37, 29600000, 96, 0 

2017-09-26 15:58:19,#P#, 36, 28800000, 97, 0 

2017-09-26 15:58:19,#P#, 37, 29600000, 98, 0 

2017-09-26 15:58:19,#P#, 37, 29600000, 99, 0 

2017-09-26 15:58:19,#P#, 37, 29600000, 100, 0 

2017-09-26 15:58:19,#P#, 36, 28800000, 101, 0 

2017-09-26 15:58:19,#P#, 37, 29600000, 102, 0 

2017-09-26 15:58:19,#P#, 37, 29600000, 103, 0 

2017-09-26 15:58:19,#P#, 37, 29600000, 104, 0 

2017-09-26 15:58:19,#P#, 38, 30400000, 105, 0 

2017-09-26 15:58:19,#P#, 37, 29600000, 106, 0 

2017-09-26 15:58:19,#P#, 37, 29600000, 107, 0 

2017-09-26 15:58:19,#P#, 36, 28800000, 108, 0 

2017-09-26 15:58:19,#P#, 37, 29600000, 109, 0 

2017-09-26 15:58:19,#P#, 36, 28800000, 110, 0 

2017-09-26 15:58:19,#P#, 36, 28800000, 111, 0 

2017-09-26 15:58:19,#P#, 37, 29600000, 112, 0 

2017-09-26 15:58:19,#P#, 36, 28800000, 113, 0 

2017-09-26 15:58:19,#P#, 36, 28800000, 114, 0 

2017-09-26 15:58:19,#P#, 36, 28800000, 115, 0 

2017-09-26 15:58:19,#P#, 36, 28800000, 116, 0 

2017-09-26 15:58:19,#P#, 36, 28800000, 117, 0 

2017-09-26 15:58:19,#P#, 36, 28800000, 118, 0 

2017-09-26 15:58:19,#P#, 37, 29600000, 119, 0 

2017-09-26 15:58:19,#P#, 37, 29600000, 120, 0 

2017-09-26 15:58:19,#P#, 37, 29600000, 121, 0 

2017-09-26 15:58:19,#P#, 37, 29600000, 122, 0 

2017-09-26 15:58:19,#P#, 36, 28800000, 123, 0 

2017-09-26 15:58:19,#P#, 36, 28800000, 124, 0 

2017-09-26 15:58:19,#P#, 37, 29600000, 125, 0 

2017-09-26 15:58:19,#P#, 37, 29600000, 126, 0 

2017-09-26 15:58:19,#P#, 38, 30400000, 127, 0 

2017-09-26 15:58:19,#P#, 36, 28800000, 128, 0 

2017-09-26 15:58:19,#P#, 36, 28800000, 129, 0 

2017-09-26 15:58:19,#P#, 37, 29600000, 130, 0 

2017-09-26 15:58:19,#P#, 36, 28800000, 131, 0 

2017-09-26 15:58:19,#P#, 37, 29600000, 132, 0 

2017-09-26 15:58:19,#P#, 37, 29600000, 133, 0 

2017-09-26 15:58:19,#P#, 37, 29600000, 134, 0 

2017-09-26 15:58:19,#P#, 37, 29600000, 135, 0 

2017-09-26 15:58:19,#P#, 37, 29600000, 136, 0 

2017-09-26 15:58:19,#P#, 37, 29600000, 137, 0 

2017-09-26 15:58:19,#P#, 37, 29600000, 138, 0 

2017-09-26 15:58:19,#P#, 37, 29600000, 139, 0 

2017-09-26 15:58:19,#P#, 38, 30400000, 140, 0 

2017-09-26 15:58:19,#P#, 36, 28800000, 141, 0 

2017-09-26 15:58:19,#P#, 36, 28800000, 142, 0 

2017-09-26 15:58:19,#P#, 37, 29600000, 143, 0 

2017-09-26 15:58:19,#P#, 37, 29600000, 144, 0 

2017-09-26 15:58:19,#P#, 36, 28800000, 145, 0 

2017-09-26 15:58:20,#P#, 36, 28800000, 146, 0 

2017-09-26 15:58:20,#P#, 37, 29600000, 147, 0 

2017-09-26 15:58:20,#P#, 37, 29600000, 148, 0 

2017-09-26 15:58:20,#P#, 36, 28800000, 149, 0 

2017-09-26 15:58:20,#P#, 36, 28800000, 150, 0 

2017-09-26 15:58:20,#P#, 37, 29600000, 151, 0 

2017-09-26 15:58:20,#P#, 36, 28800000, 152, 0 

2017-09-26 15:58:20,#P#, 37, 29600000, 153, 0 

2017-09-26 15:58:20,#P#, 37, 29600000, 154, 0 

2017-09-26 15:58:20,#P#, 36, 28800000, 155, 0 

2017-09-26 15:58:20,#P#, 37, 29600000, 156, 0 

2017-09-26 15:58:20,#P#, 36, 28800000, 157, 0 

2017-09-26 15:58:20,#P#, 37, 29600000, 158, 0 

2017-09-26 15:58:20,#P#, 37, 29600000, 159, 0 

2017-09-26 15:58:20,#P#, 36, 28800000, 160, 0 

2017-09-26 15:58:20,#P#, 38, 30400000, 161, 0 

2017-09-26 15:58:20,#P#, 37, 29600000, 162, 0 

2017-09-26 15:58:20,#P#, 37, 29600000, 163, 0 

2017-09-26 15:58:20,#P#, 36, 28800000, 164, 0 

2017-09-26 15:58:20,#P#, 37, 29600000, 165, 0 

2017-09-26 15:58:20,#P#, 36, 28800000, 166, 0 

2017-09-26 15:58:20,#P#, 36, 28800000, 167, 0 

2017-09-26 15:58:20,#P#, 36, 28800000, 168, 0 

2017-09-26 15:58:20,#P#, 36, 28800000, 169, 0 

2017-09-26 15:58:20,#P#, 37, 29600000, 170, 0 

2017-09-26 15:58:20,#P#, 36, 28800000, 171, 0 

2017-09-26 15:58:20,#P#, 36, 28800000, 172, 0 

2017-09-26 15:58:20,#P#, 36, 28800000, 173, 0 

2017-09-26 15:58:20,#P#, 36, 28800000, 174, 0 

2017-09-26 15:58:20,#P#, 36, 28800000, 175, 0 

2017-09-26 15:58:20,#P#, 38, 30400000, 176, 0 

2017-09-26 15:58:20,#P#, 37, 29600000, 177, 0 

2017-09-26 15:58:20,#P#, 38, 30400000, 178, 0 

2017-09-26 15:58:20,#P#, 37, 29600000, 179, 0 

2017-09-26 15:58:20,#P#, 36, 28800000, 180, 0 

2017-09-26 15:58:20,#P#, 37, 29600000, 181, 0 

2017-09-26 15:58:20,#P#, 37, 29600000, 182, 0 

2017-09-26 15:58:20,#P#, 36, 28800000, 183, 0 

2017-09-26 15:58:20,#P#, 36, 28800000, 184, 0 

2017-09-26 15:58:20,#P#, 37, 29600000, 185, 0 

2017-09-26 15:58:20,#P#, 36, 28800000, 186, 0 

2017-09-26 15:58:20,#P#, 36, 28800000, 187, 0 

2017-09-26 15:58:20,#P#, 38, 30400000, 188, 0 

2017-09-26 15:58:20,#P#, 36, 28800000, 189, 0 

2017-09-26 15:58:20,#P#, 37, 29600000, 190, 0 

2017-09-26 15:58:20,#P#, 37, 29600000, 191, 0 

2017-09-26 15:58:20,#P#, 36, 28800000, 192, 0 

2017-09-26 15:58:20,#P#, 37, 29600000, 193, 0 

2017-09-26 15:58:20,#P#, 36, 28800000, 194, 0 

2017-09-26 15:58:20,#P#, 37, 29600000, 195, 0 

2017-09-26 15:58:20,#P#, 36, 28800000, 196, 0 

2017-09-26 15:58:20,#P#, 37, 29600000, 197, 0 

2017-09-26 15:58:20,#P#, 36, 28800000, 198, 0 

2017-09-26 15:58:20,#P#, 37, 29600000, 199, 0 

2017-09-26 15:58:20,*******DONE*******#

Exiting PsocAmPreRad2017-09-26 15:58:21, 47,:e,:0,:3,:95,:13,:0 @

2017-09-26 15:58:21,BandGap,VbandGap,AmacGain,AM_Isense0,AM_Isense1,AM_Vsense

2017-09-26 15:58:21,AM_LCh0,AM_RCh0,AM_Rch1,AM_RCh2,AM_LCh3,AM_RCh3

2017-09-26 15:58:22,
2017-09-26 15:58:23,
2017-09-26 15:58:24,
2017-09-26 15:58:25,
2017-09-26 15:58:26,#G#,0,724,68,31,31,101,81,78,76,74,78,80

2017-09-26 15:58:26,#G#,0,724,68,31,31,201,143,140,137,135,142,138

2017-09-26 15:58:27,#G#,0,724,68,31,31,399,265,261,259,258,264,264

2017-09-26 15:58:27,#G#,0,724,68,31,31,598,389,383,382,381,390,385

2017-09-26 15:58:28,#G#,0,724,68,31,31,796,512,505,504,504,512,506

2017-09-26 15:58:28,#G#,0,724,68,31,31,995,636,626,627,627,638,624

2017-09-26 15:58:29,#G#,0,724,68,31,31,1193,762,749,750,751,761,749

2017-09-26 15:58:29,0,724,68,000,623,511,513,514,523,504,OACS:531 

2017-09-26 15:58:30,#G#,0,724,85,31,31,101,176,164,160,156,169,167

2017-09-26 15:58:30,#G#,0,724,85,31,31,201,313,295,291,287,307,297

2017-09-26 15:58:31,#G#,0,724,85,31,31,399,584,579,549,546,579,556

2017-09-26 15:58:31,#G#,0,724,85,31,31,598,857,810,808,806,855,813

2017-09-26 15:58:32,#G#,0,724,85,31,31,796,1093,1070,1069,1068,1089,1071

2017-09-26 15:58:32,#G#,0,724,85,31,31,995,1099,1077,1077,1076,1095,1078

2017-09-26 15:58:33,#G#,0,724,85,31,31,1193,1106,1083,1083,1082,1102,1084

2017-09-26 15:58:33,0,724,85,000,998,960,964,966,978,956,OACS:970 

2017-09-26 15:58:33,AM_BGap:0,AM_Gain:85,AM_Slope:970,Percentage:970

2017-09-26 15:58:34,#G#,0,724,102,31,31,101,112,107,104,102,109,110

2017-09-26 15:58:34,#G#,0,724,102,31,31,201,198,191,189,186,195,194

2017-09-26 15:58:35,#G#,0,724,102,31,31,399,370,359,356,354,369,360

2017-09-26 15:58:35,#G#,0,724,102,31,31,598,542,525,524,522,539,525

2017-09-26 15:58:36,#G#,0,724,102,31,31,796,713,693,692,691,712,693

2017-09-26 15:58:36,#G#,0,724,102,31,31,995,872,846,847,848,872,847

2017-09-26 15:58:37,#G#,0,724,102,31,31,1193,1032,1002,1003,1004,1032,1000

2017-09-26 15:58:37,0,724,102,000,1009,849,854,856,874,847,OACS:881 

2017-09-26 15:58:37,#G#,0,724,119,31,31,102,104,100,98,95,99,103

2017-09-26 15:58:38,#G#,0,724,119,31,31,201,184,178,176,174,179,179

2017-09-26 15:58:38,#G#,0,724,119,31,31,399,342,334,332,330,340,336

2017-09-26 15:58:39,#G#,0,724,119,31,31,598,502,489,488,487,501,493

2017-09-26 15:58:40,#G#,0,724,119,31,31,796,662,646,645,645,661,647

2017-09-26 15:58:40,#G#,0,724,119,31,31,995,822,801,802,802,821,799

2017-09-26 15:58:41,#G#,0,724,119,31,31,1193,983,958,959,960,981,958

2017-09-26 15:58:41,0,724,119,000,973,795,798,802,819,789,OACS:829 

2017-09-26 15:58:42,
2017-09-26 15:58:42,#G#,1,717,68,31,31,102,82,79,78,75,83,80

2017-09-26 15:58:42,#G#,1,717,68,31,31,201,144,141,139,137,145,143

2017-09-26 15:58:43,#G#,1,717,68,31,31,2322,282,264,262,261,268,267

2017-09-26 15:58:43,#G#,1,717,68,31,31,0,874,874,1026,1064,268,268

2017-09-26 15:58:44,#G#,1,717,68,31,31,0,874,874,1026,1064,268,268

2017-09-26 15:58:44,#G#,1,717,68,31,31,0,874,874,1026,1064,268,268

2017-09-26 15:58:45,#G#,1,717,68,31,31,0,874,874,1026,1064,268,268

2017-09-26 15:58:45,1,717,68,000,115,113,112,114,113,115,OACS:113 

2017-09-26 15:58:46,
2017-09-26 15:58:47,
2017-09-26 15:58:48,
2017-09-26 15:58:49,
2017-09-26 15:58:49, BGO Set:0, GAIN Set:0

2017-09-26 15:58:50,
2017-09-26 15:58:51,
2017-09-26 15:58:52,
2017-09-26 15:58:53,
2017-09-26 15:58:54,
2017-09-26 15:58:55,
2017-09-26 15:58:56,
2017-09-26 15:58:57,
2017-09-26 15:58:58,
2017-09-26 15:58:59,
2017-09-26 15:59:00,
2017-09-26 15:59:01,
2017-09-26 15:59:02,
2017-09-26 15:59:03,
2017-09-26 15:59:04,
2017-09-26 15:59:05,
2017-09-26 15:59:06,
2017-09-26 15:59:07,
2017-09-26 15:59:08,
2017-09-26 15:59:09,
2017-09-26 15:59:10,
2017-09-26 15:59:11,
2017-09-26 15:59:12,
2017-09-26 15:59:13,
2017-09-26 15:59:14,
2017-09-26 15:59:15,
2017-09-26 15:59:16,
2017-09-26 15:59:17,
2017-09-26 15:59:18,
2017-09-26 15:59:19,
2017-09-26 15:59:20,
2017-09-26 15:59:21,
2017-09-26 15:59:22,
2017-09-26 15:59:23,
2017-09-26 15:59:24,
2017-09-26 15:59:25,
2017-09-26 15:59:26,
2017-09-26 15:59:27,
2017-09-26 15:59:28,
2017-09-26 15:59:29,
2017-09-26 15:59:30,
2017-09-26 15:59:31,
2017-09-26 15:59:32,
2017-09-26 15:59:33,
2017-09-26 15:59:34,
2017-09-26 15:59:35,
2017-09-26 15:59:36,
2017-09-26 15:59:37,
2017-09-26 15:59:38,
2017-09-26 15:59:39,
2017-09-26 15:59:40,
2017-09-26 15:59:41,
