#P0E0000001900AM_RdFreq

2017-10-31 16:37:02, 50,:e,:0,:0,:19,:0,:a0 @

2017-10-31 16:37:02,*******Measure Period per Event & Freq in MHz*******

2017-10-31 16:37:02,****Period_cnt , Freq, SeqNo, Status,..........

2017-10-31 16:37:02,#P#, 38, 30400000, 0, 0 

2017-10-31 16:37:02,#P#, 38, 30400000, 1, 0 

2017-10-31 16:37:02,#P#, 39, 31200000, 2, 0 

2017-10-31 16:37:02,#P#, 37, 29600000, 3, 0 

2017-10-31 16:37:02,#P#, 39, 31200000, 4, 0 

2017-10-31 16:37:02,#P#, 38, 30400000, 5, 0 

2017-10-31 16:37:02,#P#, 39, 31200000, 6, 0 

2017-10-31 16:37:02,#P#, 38, 30400000, 7, 0 

2017-10-31 16:37:02,#P#, 39, 31200000, 8, 0 

2017-10-31 16:37:02,#P#, 38, 30400000, 9, 0 

2017-10-31 16:37:02,#P#, 39, 31200000, 10, 0 

2017-10-31 16:37:02,#P#, 38, 30400000, 11, 0 

2017-10-31 16:37:02,#P#, 39, 31200000, 12, 0 

2017-10-31 16:37:02,#P#, 38, 30400000, 13, 0 

2017-10-31 16:37:02,#P#, 39, 31200000, 14, 0 

2017-10-31 16:37:02,#P#, 39, 31200000, 15, 0 

2017-10-31 16:37:02,#P#, 39, 31200000, 16, 0 

2017-10-31 16:37:02,#P#, 38, 30400000, 17, 0 

2017-10-31 16:37:02,#P#, 38, 30400000, 18, 0 

2017-10-31 16:37:02,#P#, 37, 29600000, 19, 0 

2017-10-31 16:37:02,#P#, 39, 31200000, 20, 0 

2017-10-31 16:37:03,#P#, 39, 31200000, 21, 0 

2017-10-31 16:37:03,#P#, 39, 31200000, 22, 0 

2017-10-31 16:37:03,#P#, 38, 30400000, 23, 0 

2017-10-31 16:37:03,#P#, 38, 30400000, 24, 0 

2017-10-31 16:37:03,*******DONE*******#

Exiting PsocAmPreRad
#M0E0000000022AMAC_PWR 

2017-10-31 16:37:04, 4d,:e,:0,:0,:0,:22,:22a2 @

2017-10-31 16:37:04,*******Measure AMAC PWR *******

2017-10-31 16:37:04,Bg_Reg, BGO, BG_Ref, NTC_Pwr, AM_Temp, Vdd_Out, AM_VDD/2, Dvdd_in, AM_DVDD/2, Idvdd

2017-10-31 16:37:04,AMAC IN RESET STATE(Reset pulled LOW) 

2017-10-31 16:37:05,
2017-10-31 16:37:05,#H#,0,758,614,361,614,1416,614,1487,409,44 

2017-10-31 16:37:05,AMAC IN NON-RESET STATE (Reset pulled HI) 

2017-10-31 16:37:06,
2017-10-31 16:37:07,#H#,0,751,557,359,496,1408,32,1498,567,36 

2017-10-31 16:37:08,
2017-10-31 16:37:09,#H#,1,742,557,355,502,1392,32,1498,575,36 

2017-10-31 16:37:10,
2017-10-31 16:37:10,#H#,2,732,557,351,508,1375,32,1499,583,35 

2017-10-31 16:37:11,
2017-10-31 16:37:12,#H#,3,722,556,346,512,1357,33,1500,590,34 

2017-10-31 16:37:13,
2017-10-31 16:37:14,#H#,4,711,556,342,519,1338,33,1501,600,34 

2017-10-31 16:37:15,
2017-10-31 16:37:15,#H#,5,699,555,336,526,1316,33,1503,610,33 

2017-10-31 16:37:16,
2017-10-31 16:37:17,#H#,6,685,556,330,535,1292,33,1504,622,32 

2017-10-31 16:37:18,
2017-10-31 16:37:18,#H#,7,672,556,324,544,1267,33,1505,635,31 

2017-10-31 16:37:19,
2017-10-31 16:37:20,#H#,8,658,556,317,554,1241,33,1507,651,30 

2017-10-31 16:37:21,
2017-10-31 16:37:22,#H#,9,644,557,311,565,1215,33,1508,666,29 

2017-10-31 16:37:23,
2017-10-31 16:37:23,#H#,10,631,557,304,576,1189,33,1510,681,28 

2017-10-31 16:37:24,
2017-10-31 16:37:25,#H#,11,617,558,298,587,1163,33,1511,697,27 

2017-10-31 16:37:26,
2017-10-31 16:37:26,#H#,12,603,559,291,600,1137,33,1513,714,26 

2017-10-31 16:37:27,
2017-10-31 16:37:28,#H#,13,590,560,285,613,1111,33,1514,732,25 

2017-10-31 16:37:29,
2017-10-31 16:37:30,#H#,14,576,562,278,626,1085,33,1515,751,24 

2017-10-31 16:37:31,
2017-10-31 16:37:31,#H#,15,561,562,271,640,1057,33,1517,772,23 

2017-10-31 16:37:32,
2017-10-31 16:37:33,#H#,16,547,563,265,653,1031,33,1518,792,22 

2017-10-31 16:37:33,*******DONE*******#

Exiting PsocAmPreRad
#F0E0000000A66Set_Bg&Gn

2017-10-31 16:37:33, 46,:e,:0,:0,:a,:66,:6666 @

2017-10-31 16:37:33,*******DONE*******#

Exiting PsocAmPreRad
#D0E01FFFF0A001AAM Ramp

2017-10-31 16:37:35, 44,:e,:1,:ffff,:a,:0,:1a @

2017-10-31 16:37:35,*SeqNo,Samples,DAC_Cnt,BGapReg,GainReg,AM_VCal,BGO,Isense0,Isense1

2017-10-31 16:37:35,Vsense,AM_LCh0,AM_RCh0,AM_Rch1,AM_RCh2,AM_LCh3,AM_RCh3

2017-10-31 16:37:36,
2017-10-31 16:37:37,
2017-10-31 16:37:38,
2017-10-31 16:37:39,
2017-10-31 16:37:40,
2017-10-31 16:37:41,
2017-10-31 16:37:42,
2017-10-31 16:37:43,#D#,0,0,849,386,364,359,4,0,1189,1509,28,304,106,576,10,102,0,631,681,557,70,0,938,885,9,33,17,28,27,30,25

2017-10-31 16:37:43,#D#,0,1,849,386,364,359,4,0,1189,1509,28,304,106,576,10,102,0,631,680,557,70,0,936,885,9,33,17,28,27,30,25

2017-10-31 16:37:43,#D#,0,2,849,386,364,359,4,0,1189,1509,28,304,106,576,10,102,0,631,681,557,70,0,936,885,9,33,17,28,27,30,25

2017-10-31 16:37:43,#D#,0,3,849,386,364,359,4,0,1189,1509,28,304,106,576,10,102,0,631,680,557,70,0,939,883,9,33,17,28,27,30,25

2017-10-31 16:37:43,#D#,0,4,849,386,364,359,4,0,1189,1509,28,304,106,576,10,102,0,631,681,557,70,0,935,887,9,33,17,28,27,30,25

2017-10-31 16:37:43,#D#,0,5,849,386,364,359,4,0,1189,1509,28,304,106,576,10,102,0,631,681,557,70,0,934,887,9,33,17,28,27,30,25

2017-10-31 16:37:43,#D#,0,6,849,386,364,359,4,0,1189,1509,28,304,106,576,10,102,0,631,680,557,70,0,939,883,9,33,17,28,27,30,25

2017-10-31 16:37:43,#D#,0,7,849,386,364,359,4,0,1189,1509,28,304,106,577,10,102,0,631,681,557,70,0,937,888,9,33,17,28,27,30,25

2017-10-31 16:37:43,#D#,0,8,849,386,364,359,4,0,1189,1509,28,304,106,576,10,102,0,631,681,557,70,0,936,886,9,33,17,28,27,30,25

2017-10-31 16:37:43,#D#,0,9,849,386,364,359,4,0,1189,1509,28,304,106,577,10,102,0,631,681,558,70,0,937,881,9,33,17,28,27,30,25

2017-10-31 16:37:44,#D#,1,0,849,386,364,359,4,0,1189,1509,28,304,106,576,10,102,0,631,680,557,70,0,937,895,9,33,17,28,27,30,25

2017-10-31 16:37:44,#D#,1,1,849,386,364,359,4,0,1189,1509,28,304,106,577,10,102,0,631,680,557,70,0,939,887,9,33,17,28,27,30,25

2017-10-31 16:37:44,#D#,1,2,849,386,364,359,4,0,1189,1509,28,304,106,576,10,102,0,631,680,557,70,0,940,882,9,33,17,28,27,30,25

2017-10-31 16:37:44,#D#,1,3,849,386,364,359,4,0,1189,1509,28,304,106,576,10,102,0,631,681,557,70,0,937,888,9,33,17,28,27,30,25

2017-10-31 16:37:44,#D#,1,4,849,386,364,359,4,0,1189,1509,28,304,106,577,10,102,0,631,680,557,70,0,937,890,9,33,17,28,27,30,25

2017-10-31 16:37:44,#D#,1,5,849,386,364,359,4,0,1189,1509,28,304,106,576,10,102,0,631,680,557,70,0,934,883,9,33,17,28,27,30,25

2017-10-31 16:37:44,#D#,1,6,849,386,364,359,4,0,1189,1509,28,304,106,576,10,102,0,631,681,557,70,0,939,885,9,33,17,28,27,30,25

2017-10-31 16:37:44,#D#,1,7,849,386,364,359,4,0,1189,1509,28,304,106,576,10,102,0,631,681,557,70,0,933,886,9,33,17,28,27,30,25

2017-10-31 16:37:44,#D#,1,8,849,386,364,359,4,0,1189,1509,28,304,106,576,10,102,0,631,681,557,70,0,937,883,9,33,17,28,27,30,25

2017-10-31 16:37:44,#D#,1,9,849,386,364,359,4,0,1189,1509,28,304,106,576,10,102,0,631,681,557,70,0,936,885,9,33,17,28,27,30,25

2017-10-31 16:37:45,
2017-10-31 16:37:46,#D#,2,0,849,386,364,359,4,0,1189,1509,28,304,106,576,10,102,0,631,681,557,70,0,938,885,9,33,17,28,27,30,25

2017-10-31 16:37:46,#D#,2,1,849,386,364,359,4,0,1189,1509,28,304,106,576,10,102,0,631,681,557,70,0,939,882,9,33,17,28,27,30,25

2017-10-31 16:37:46,#D#,2,2,849,386,364,359,4,0,1189,1509,28,304,106,576,10,102,0,631,681,557,70,0,939,888,9,33,17,28,27,30,25

2017-10-31 16:37:46,#D#,2,3,849,386,364,359,4,0,1189,1509,28,304,106,577,10,102,0,631,681,557,70,0,937,885,9,33,17,28,27,30,25

2017-10-31 16:37:46,#D#,2,4,849,386,364,359,4,0,1189,1509,28,304,106,576,10,102,0,631,681,557,70,0,935,885,9,33,17,28,27,30,25

2017-10-31 16:37:46,#D#,2,5,849,386,364,359,4,0,1189,1509,28,304,106,577,10,102,0,631,681,557,70,0,938,885,9,33,17,28,27,30,25

2017-10-31 16:37:46,#D#,2,6,849,386,364,359,4,0,1189,1509,28,304,106,576,10,102,0,631,681,557,70,0,940,886,9,33,17,28,27,30,25

2017-10-31 16:37:46,#D#,2,7,849,386,364,359,4,0,1189,1509,28,304,106,577,10,102,0,631,681,557,70,0,935,881,9,33,17,28,27,30,25

2017-10-31 16:37:46,#D#,2,8,849,386,364,359,4,0,1189,1509,28,304,106,577,10,102,0,631,681,557,70,0,937,889,9,33,17,28,27,30,25

2017-10-31 16:37:46,#D#,2,9,849,386,364,359,4,0,1189,1509,28,304,106,577,10,102,0,631,680,557,70,0,938,883,9,33,17,27,27,30,25

2017-10-31 16:37:47,#D#,3,0,849,386,364,359,4,0,1189,1509,28,304,106,576,10,102,0,631,681,557,70,0,938,886,9,33,17,28,27,30,25

2017-10-31 16:37:47,#D#,3,1,849,386,364,359,4,0,1189,1509,28,304,106,577,10,102,0,631,681,557,70,0,936,870,9,33,17,28,27,30,25

2017-10-31 16:37:47,#D#,3,2,849,386,364,359,4,0,1189,1509,28,304,106,576,10,102,0,631,680,557,70,0,935,885,9,33,17,28,27,30,25

2017-10-31 16:37:47,#D#,3,3,849,386,364,359,4,0,1189,1509,28,304,106,577,10,102,0,631,680,557,70,0,936,882,9,33,17,28,27,30,25

2017-10-31 16:37:47,#D#,3,4,849,386,364,359,4,0,1189,1509,28,304,106,577,10,102,0,631,680,557,70,0,938,886,9,33,17,28,27,30,25

2017-10-31 16:37:47,#D#,3,5,849,386,364,359,4,0,1189,1509,28,304,106,576,10,102,0,631,680,557,70,0,942,887,9,33,17,28,27,30,25

2017-10-31 16:37:47,#D#,3,6,849,386,364,359,4,0,1189,1509,28,304,106,576,10,102,0,631,680,557,70,0,936,883,9,33,17,28,27,30,25

2017-10-31 16:37:47,#D#,3,7,849,386,364,359,4,0,1189,1509,28,304,106,576,10,102,0,631,680,557,70,0,935,885,9,33,17,28,27,30,25

2017-10-31 16:37:47,#D#,3,8,849,386,364,359,4,0,1189,1509,28,304,106,575,10,102,0,631,681,557,70,0,934,886,9,33,17,28,27,30,25

2017-10-31 16:37:47,#D#,3,9,849,386,364,359,4,0,1189,1509,28,304,106,576,10,102,0,631,680,558,70,0,938,888,9,33,17,28,27,30,25

2017-10-31 16:37:48,
2017-10-31 16:37:49,#D#,4,0,849,386,364,359,4,0,1189,1509,28,304,106,576,10,102,0,631,680,557,70,0,937,884,9,33,17,28,27,30,25

2017-10-31 16:37:49,#D#,4,1,849,386,364,359,4,0,1189,1509,28,304,106,576,10,102,0,631,680,557,70,0,938,891,9,33,17,28,27,30,25

2017-10-31 16:37:49,#D#,4,2,849,386,364,359,4,0,1189,1509,28,304,106,577,10,102,0,631,680,557,70,0,941,888,9,33,17,28,27,30,25

2017-10-31 16:37:49,#D#,4,3,849,386,364,359,4,0,1189,1509,28,304,106,577,10,102,0,631,680,557,70,0,935,885,9,33,17,28,27,30,25

2017-10-31 16:37:49,#D#,4,4,849,386,364,359,4,0,1189,1509,28,304,106,577,10,102,0,631,681,557,70,0,940,887,9,33,17,28,27,30,25

2017-10-31 16:37:49,#D#,4,5,849,386,364,359,4,0,1189,1509,28,304,106,576,10,102,0,631,681,558,70,0,939,888,9,33,17,28,27,30,25

2017-10-31 16:37:49,#D#,4,6,849,386,364,359,4,0,1189,1509,28,304,106,577,10,102,0,631,681,557,70,0,940,884,9,33,17,28,27,30,25

2017-10-31 16:37:49,#D#,4,7,849,386,364,359,4,0,1189,1509,28,304,106,576,10,102,0,631,681,557,70,0,939,882,9,33,17,28,27,30,25

2017-10-31 16:37:49,#D#,4,8,849,386,364,359,4,0,1189,1509,28,304,106,576,10,102,0,631,681,557,70,0,939,887,9,33,17,28,27,30,25

2017-10-31 16:37:49,#D#,4,9,849,386,364,359,4,0,1189,1509,28,304,106,576,10,102,0,631,681,557,70,0,936,885,9,33,17,28,27,30,25

2017-10-31 16:37:50,#D#,5,0,849,386,364,359,4,0,1189,1509,28,304,106,576,10,102,0,631,681,557,70,0,928,873,9,33,17,28,27,30,25

2017-10-31 16:37:50,#D#,5,1,849,386,364,359,4,0,1189,1509,28,304,106,576,10,102,0,631,681,557,70,0,928,870,9,33,17,28,27,30,25

2017-10-31 16:37:50,#D#,5,2,849,386,364,359,4,0,1189,1509,28,304,106,576,10,102,0,631,681,557,70,0,930,876,9,33,17,28,27,30,25

2017-10-31 16:37:50,#D#,5,3,849,386,364,359,4,0,1189,1509,28,304,106,576,10,102,0,631,681,557,70,0,933,872,9,33,17,28,27,30,25

2017-10-31 16:37:50,#D#,5,4,849,386,364,359,4,0,1189,1509,28,304,106,576,10,102,0,631,680,557,70,0,930,870,9,33,17,28,27,30,25

2017-10-31 16:37:50,#D#,5,5,849,386,364,359,4,0,1189,1509,28,304,106,577,10,102,0,631,681,557,70,0,941,873,9,33,17,28,27,30,25

2017-10-31 16:37:50,#D#,5,6,849,386,364,359,4,0,1189,1509,28,304,106,576,10,102,0,631,680,557,70,0,943,876,9,33,17,28,27,30,25

2017-10-31 16:37:50,#D#,5,7,849,386,364,359,4,0,1189,1509,28,304,106,576,10,102,0,631,680,557,70,0,930,873,9,33,17,28,27,30,25

2017-10-31 16:37:50,#D#,5,8,849,386,364,359,4,0,1189,1509,28,304,106,576,10,102,0,631,681,557,70,0,928,878,9,33,17,28,27,30,25

2017-10-31 16:37:50,#D#,5,9,849,386,364,359,4,0,1189,1509,28,304,106,576,10,102,0,631,681,557,70,0,928,867,9,33,17,28,27,30,25

2017-10-31 16:37:51,
2017-10-31 16:37:52,#D#,6,0,849,386,364,359,4,0,1189,1509,28,304,106,576,10,102,0,631,680,557,70,0,931,871,9,33,17,28,27,30,25

2017-10-31 16:37:52,#D#,6,1,849,386,364,359,4,0,1189,1509,28,304,106,576,10,102,0,631,680,557,70,0,941,876,9,33,17,28,27,30,25

2017-10-31 16:37:52,#D#,6,2,849,386,364,359,4,0,1189,1509,28,304,106,576,10,102,0,631,680,557,70,0,930,874,9,33,17,28,27,30,25

2017-10-31 16:37:52,#D#,6,3,849,386,364,359,4,0,1189,1509,28,304,106,576,10,102,0,631,681,557,70,0,928,874,9,33,17,28,27,30,25

2017-10-31 16:37:52,#D#,6,4,849,386,364,359,4,0,1189,1509,28,304,106,577,10,102,0,631,681,557,70,0,928,871,9,33,17,28,27,30,25

2017-10-31 16:37:52,#D#,6,5,849,386,364,359,4,0,1189,1509,28,304,106,577,10,102,0,631,681,557,70,0,928,878,9,33,17,28,27,30,25

2017-10-31 16:37:52,#D#,6,6,849,386,364,359,4,0,1189,1509,28,304,106,576,10,102,0,631,681,557,70,0,927,873,9,33,17,28,27,30,25

2017-10-31 16:37:52,#D#,6,7,849,386,364,359,4,0,1189,1509,28,304,106,576,10,102,0,631,680,557,70,0,930,874,9,33,17,28,27,30,25

2017-10-31 16:37:52,#D#,6,8,849,386,364,359,4,0,1189,1509,28,304,106,577,10,102,0,631,681,557,70,0,942,872,9,33,17,28,27,30,25

2017-10-31 16:37:52,#D#,6,9,849,386,364,359,4,0,1189,1509,28,304,106,576,10,102,0,631,680,557,70,0,932,877,9,33,17,28,27,30,25

2017-10-31 16:37:53,#D#,7,0,849,386,364,359,4,0,1189,1509,28,304,106,577,10,102,0,631,680,557,70,0,943,876,9,33,17,28,27,30,25

2017-10-31 16:37:53,#D#,7,1,849,386,364,359,4,0,1189,1509,28,304,106,576,10,102,0,631,681,557,70,0,926,874,9,33,17,28,27,30,25

2017-10-31 16:37:53,#D#,7,2,849,386,364,359,4,0,1189,1509,28,304,106,576,10,102,0,631,681,557,70,0,930,872,9,33,17,28,27,30,25

2017-10-31 16:37:53,#D#,7,3,849,386,364,359,4,0,1189,1509,28,304,106,576,10,102,0,631,681,557,70,0,915,872,9,33,17,28,27,30,25

2017-10-31 16:37:53,#D#,7,4,849,386,364,359,4,0,1189,1509,28,304,106,576,10,102,0,631,680,557,70,0,913,873,9,33,17,28,27,30,25

2017-10-31 16:37:54,#D#,7,5,849,386,364,359,4,0,1189,1509,28,304,106,576,10,102,0,631,681,558,70,0,927,876,9,33,17,28,27,30,25

2017-10-31 16:37:54,#D#,7,6,849,386,364,359,4,0,1189,1509,28,304,106,576,10,102,0,631,681,557,70,0,931,872,9,33,17,28,27,30,25

2017-10-31 16:37:54,#D#,7,7,849,386,364,359,4,0,1189,1509,28,304,106,576,10,102,0,631,680,557,70,0,930,874,9,33,17,28,27,30,25

2017-10-31 16:37:54,#D#,7,8,849,386,364,359,4,0,1189,1509,28,304,106,576,10,102,0,631,681,557,70,0,930,874,9,33,17,28,27,30,25

2017-10-31 16:37:54,#D#,7,9,849,386,364,359,4,0,1189,1509,28,304,106,576,10,102,0,631,680,557,70,0,926,873,9,33,17,28,27,30,25

2017-10-31 16:37:55,
2017-10-31 16:37:55,#D#,8,0,849,386,364,359,4,0,1189,1509,28,304,106,576,10,102,0,631,681,557,70,0,942,874,9,33,17,28,27,30,25

2017-10-31 16:37:55,#D#,8,1,849,386,364,359,4,0,1189,1509,28,304,106,576,10,102,0,631,680,557,70,0,932,871,9,33,17,28,27,30,25

2017-10-31 16:37:55,#D#,8,2,849,386,364,359,4,0,1189,1509,28,304,106,577,10,102,0,631,681,557,70,0,941,873,9,33,17,28,27,30,25

2017-10-31 16:37:55,#D#,8,3,849,386,364,359,4,0,1189,1509,28,304,106,577,10,102,0,631,680,557,70,0,929,873,9,33,17,28,27,30,25

2017-10-31 16:37:56,#D#,8,4,849,386,364,359,4,0,1189,1509,28,304,106,576,10,102,0,631,681,557,70,0,930,875,9,33,17,28,27,30,25

2017-10-31 16:37:56,#D#,8,5,849,386,364,359,4,0,1189,1509,28,304,106,577,10,102,0,631,681,558,70,0,929,873,9,33,17,28,27,30,25

2017-10-31 16:37:56,#D#,8,6,849,386,364,359,4,0,1189,1509,28,304,106,577,10,102,0,631,681,558,70,0,929,879,9,33,17,28,27,30,25

2017-10-31 16:37:56,#D#,8,7,849,386,364,359,4,0,1189,1509,28,304,106,577,10,102,0,631,681,557,70,0,928,874,9,33,17,28,27,30,25

2017-10-31 16:37:56,#D#,8,8,849,386,364,359,4,0,1189,1509,28,304,106,577,10,102,0,631,681,557,70,0,928,871,9,33,17,28,27,30,25

2017-10-31 16:37:56,#D#,8,9,849,386,364,359,4,0,1189,1509,28,304,106,576,10,102,0,631,680,557,70,0,912,874,9,33,17,28,27,30,25

2017-10-31 16:37:57,#D#,9,0,849,386,364,359,4,0,1189,1509,28,304,106,576,10,102,0,631,681,557,70,0,928,876,9,33,17,28,27,30,25

2017-10-31 16:37:57,#D#,9,1,849,386,364,359,4,0,1189,1509,28,304,106,576,10,102,0,631,681,557,70,0,914,873,9,33,17,28,27,30,25

2017-10-31 16:37:57,#D#,9,2,849,386,364,359,4,0,1189,1509,28,304,106,576,10,102,0,631,681,557,70,0,930,871,9,33,17,28,27,30,25

2017-10-31 16:37:57,#D#,9,3,849,386,364,359,4,0,1189,1509,28,304,106,576,10,102,0,631,681,557,70,0,933,872,9,33,17,28,27,30,25

2017-10-31 16:37:57,#D#,9,4,849,386,364,359,4,0,1189,1509,28,304,106,577,10,102,0,631,681,557,70,0,928,871,9,33,17,28,27,30,25

2017-10-31 16:37:57,#D#,9,5,849,386,364,359,4,0,1189,1509,28,304,106,576,10,102,0,631,680,557,70,0,929,873,9,33,17,28,27,30,25

2017-10-31 16:37:57,#D#,9,6,849,386,364,359,4,0,1189,1509,28,304,106,577,10,102,0,631,680,557,70,0,931,875,9,33,17,28,27,30,25

2017-10-31 16:37:57,#D#,9,7,849,386,364,359,4,0,1189,1509,28,304,106,577,10,102,0,631,681,557,70,0,925,872,9,33,17,28,27,30,25

2017-10-31 16:37:57,#D#,9,8,849,386,364,359,4,0,1189,1509,28,304,106,577,10,102,0,631,681,557,70,0,929,872,9,33,17,28,27,30,25

2017-10-31 16:37:57,#D#,9,9,849,386,364,359,4,0,1189,1509,28,304,106,576,10,102,0,631,680,558,70,0,929,873,9,33,17,28,27,30,25

2017-10-31 16:37:58,
2017-10-31 16:37:59,#D#,10,0,849,386,364,359,4,0,1189,1509,28,304,106,576,10,102,0,631,681,557,70,0,937,885,9,33,17,28,27,30,25

2017-10-31 16:37:59,#D#,10,1,849,386,364,359,4,0,1189,1509,28,304,106,577,10,102,0,631,680,557,70,0,937,886,9,33,17,28,27,30,25

2017-10-31 16:37:59,#D#,10,2,849,386,364,359,4,0,1189,1509,28,304,106,576,10,102,0,631,681,557,70,0,941,885,9,33,17,28,27,30,25

2017-10-31 16:37:59,#D#,10,3,849,386,364,359,4,0,1189,1509,28,304,106,576,10,102,0,631,681,557,70,0,940,887,9,33,17,28,27,30,25

2017-10-31 16:37:59,#D#,10,4,849,386,364,359,4,0,1189,1509,28,304,106,576,10,102,0,631,681,557,70,0,940,882,9,33,17,28,27,30,25

2017-10-31 16:37:59,#D#,10,5,849,386,364,359,4,0,1189,1509,28,304,106,576,10,102,0,631,681,557,70,0,934,890,9,33,17,28,27,30,25

2017-10-31 16:37:59,#D#,10,6,849,386,364,359,4,0,1189,1509,28,304,106,577,10,102,0,631,680,557,70,0,938,887,9,33,17,28,27,30,25

2017-10-31 16:37:59,#D#,10,7,849,386,364,359,4,0,1189,1509,28,304,106,576,10,102,0,631,681,557,70,0,938,884,9,33,17,28,27,30,25

2017-10-31 16:37:59,#D#,10,8,849,386,364,359,4,0,1189,1509,28,304,106,577,10,102,0,631,681,557,70,0,936,884,9,33,17,28,27,30,25

2017-10-31 16:37:59,#D#,10,9,849,386,364,359,4,0,1189,1509,28,304,106,577,10,102,0,631,681,557,70,0,941,888,9,33,17,28,27,30,25

2017-10-31 16:38:00,#D#,11,0,849,386,364,359,4,0,1189,1509,28,304,106,576,10,102,0,631,680,558,70,0,937,882,9,33,17,28,27,30,25

2017-10-31 16:38:00,#D#,11,1,849,386,364,359,4,0,1189,1509,28,304,106,576,10,102,0,631,681,557,70,0,935,891,9,33,17,28,27,30,25

2017-10-31 16:38:00,#D#,11,2,849,386,364,359,4,0,1189,1509,28,304,106,577,10,102,0,631,680,557,70,0,941,883,9,33,17,28,27,30,25

2017-10-31 16:38:00,#D#,11,3,849,386,364,359,4,0,1189,1509,28,304,106,576,10,102,0,631,680,557,70,0,937,887,9,33,17,28,27,30,25

2017-10-31 16:38:00,#D#,11,4,849,386,364,359,4,0,1189,1509,28,304,106,576,10,102,0,631,681,558,70,0,937,890,9,33,17,28,27,30,25

2017-10-31 16:38:00,#D#,11,5,849,386,364,359,4,0,1189,1509,28,304,106,576,10,102,0,631,681,557,70,0,937,881,9,33,17,28,27,30,25

2017-10-31 16:38:00,#D#,11,6,849,386,364,359,4,0,1189,1509,28,304,106,577,10,102,0,631,681,557,70,0,935,887,9,33,17,28,27,30,25

2017-10-31 16:38:00,#D#,11,7,849,386,364,359,4,0,1189,1509,28,304,106,576,10,102,0,631,680,558,70,0,937,883,9,33,17,28,27,30,25

2017-10-31 16:38:00,#D#,11,8,849,386,364,359,4,0,1189,1509,28,304,106,576,10,102,0,631,681,557,70,0,938,885,9,33,17,28,27,30,25

2017-10-31 16:38:00,#D#,11,9,849,386,364,359,4,0,1189,1509,28,304,106,576,10,102,0,631,680,557,70,0,938,885,9,33,17,28,27,30,25

2017-10-31 16:38:01,
2017-10-31 16:38:02,#D#,12,0,849,386,364,359,4,0,1189,1509,28,304,106,576,10,102,0,631,681,557,70,0,937,886,9,33,17,28,27,34,25

2017-10-31 16:38:02,#D#,12,1,849,386,364,359,4,0,1189,1509,28,304,106,576,10,102,0,631,681,557,70,0,940,885,9,33,17,28,27,34,25

2017-10-31 16:38:02,#D#,12,2,849,386,364,359,4,0,1189,1509,28,304,106,577,10,102,0,631,681,557,70,0,934,886,9,33,17,28,27,34,25

2017-10-31 16:38:02,#D#,12,3,849,386,364,359,4,0,1189,1509,28,304,106,576,10,102,0,631,681,557,70,0,934,887,9,33,17,28,27,34,25

2017-10-31 16:38:02,#D#,12,4,849,386,364,359,4,0,1189,1509,28,304,106,577,10,102,0,631,681,558,70,0,934,886,9,33,17,28,28,34,25

2017-10-31 16:38:02,#D#,12,5,849,386,364,359,4,0,1189,1509,28,304,106,577,10,102,0,631,681,558,70,0,941,889,9,33,17,28,27,34,25

2017-10-31 16:38:02,#D#,12,6,849,386,364,359,4,0,1189,1509,28,304,106,577,10,102,0,631,681,557,70,0,942,889,9,33,17,28,27,34,25

2017-10-31 16:38:02,#D#,12,7,849,386,364,359,4,0,1189,1509,28,304,106,576,10,102,0,631,681,558,70,0,936,884,9,33,17,28,27,34,25

2017-10-31 16:38:02,#D#,12,8,849,386,364,359,4,0,1189,1509,28,304,106,576,10,102,0,631,681,557,70,0,938,886,9,33,17,28,27,34,25

2017-10-31 16:38:02,#D#,12,9,849,386,364,359,4,0,1189,1509,28,304,106,577,10,102,0,631,681,558,70,0,938,889,9,33,17,28,27,34,25

2017-10-31 16:38:03,#D#,13,0,849,386,364,359,4,0,1189,1509,28,304,106,576,10,102,0,631,681,557,70,0,935,885,9,33,17,29,27,34,29

2017-10-31 16:38:03,#D#,13,1,849,386,364,359,4,0,1189,1509,28,304,106,576,10,102,0,631,681,557,70,0,939,883,9,33,18,29,28,34,29

2017-10-31 16:38:03,#D#,13,2,849,386,364,359,4,0,1189,1509,28,304,106,577,10,102,0,631,681,557,70,0,938,888,9,33,18,28,28,34,29

2017-10-31 16:38:03,#D#,13,3,849,386,364,359,4,0,1189,1509,28,304,106,576,10,102,0,631,681,558,70,0,937,883,9,33,18,29,28,34,29

2017-10-31 16:38:03,#D#,13,4,849,386,364,359,4,0,1189,1509,28,304,106,577,10,102,0,631,681,557,70,0,933,886,9,33,18,28,28,34,29

2017-10-31 16:38:03,#D#,13,5,849,386,364,359,4,0,1189,1509,28,304,106,577,10,102,0,631,681,557,70,0,943,887,9,33,18,28,28,34,29

2017-10-31 16:38:03,#D#,13,6,849,386,364,359,4,0,1189,1509,28,304,106,577,10,102,0,631,681,557,70,0,939,887,9,34,17,28,28,34,29

2017-10-31 16:38:03,#D#,13,7,849,386,364,359,4,0,1189,1509,28,304,106,577,10,102,0,631,681,557,70,0,938,886,9,33,18,29,28,34,29

2017-10-31 16:38:03,#D#,13,8,849,386,364,359,4,0,1189,1509,28,304,106,576,10,102,0,631,681,558,70,0,939,884,9,33,18,28,28,34,29

2017-10-31 16:38:03,#D#,13,9,849,386,364,359,4,0,1189,1509,28,304,106,576,10,102,0,631,681,557,70,0,940,881,9,34,18,29,28,34,29

2017-10-31 16:38:04,
2017-10-31 16:38:05,#D#,14,0,849,386,364,359,4,0,1189,1509,28,304,106,576,10,102,0,631,681,558,70,0,933,887,10,34,18,29,28,34,29

2017-10-31 16:38:05,#D#,14,1,849,386,364,359,4,0,1189,1509,28,304,106,576,10,102,0,631,681,557,70,0,936,887,10,34,18,29,28,34,29

2017-10-31 16:38:05,#D#,14,2,849,386,364,359,4,0,1189,1509,28,304,106,576,10,102,0,631,681,557,70,0,934,883,10,34,18,29,28,34,29

2017-10-31 16:38:05,#D#,14,3,849,386,364,359,4,0,1189,1509,28,304,106,576,10,102,0,631,681,557,70,0,937,886,10,34,18,29,28,34,29

2017-10-31 16:38:05,#D#,14,4,849,386,364,359,4,0,1189,1509,28,304,106,576,10,102,0,631,681,557,70,0,939,888,10,34,18,29,28,34,29

2017-10-31 16:38:05,#D#,14,5,849,386,364,359,4,0,1189,1509,28,304,106,577,10,102,0,631,681,557,70,0,941,887,10,34,18,29,28,34,29

2017-10-31 16:38:05,#D#,14,6,849,386,364,359,4,0,1189,1509,28,304,106,576,10,102,0,631,681,558,70,0,939,884,10,34,18,29,28,34,29

2017-10-31 16:38:05,#D#,14,7,849,386,364,359,4,0,1189,1509,28,304,106,576,10,102,0,631,680,557,70,0,938,889,10,34,18,29,28,34,29

2017-10-31 16:38:05,#D#,14,8,849,386,364,359,4,0,1189,1509,28,304,106,577,10,102,0,631,681,558,70,0,938,885,10,34,18,29,28,34,29

2017-10-31 16:38:05,#D#,14,9,849,386,364,359,4,0,1189,1509,28,304,106,576,10,102,0,631,681,558,70,0,940,889,10,34,18,29,28,34,29

2017-10-31 16:38:06,#D#,15,0,849,386,364,359,4,0,1189,1509,28,304,106,576,10,102,0,631,680,557,70,0,926,876,10,34,19,30,29,34,29

2017-10-31 16:38:06,#D#,15,1,849,386,364,359,4,0,1189,1509,28,304,106,576,10,102,0,631,681,557,70,0,930,868,10,34,19,30,29,34,29

2017-10-31 16:38:06,#D#,15,2,849,386,364,359,4,0,1189,1509,28,304,106,576,10,102,0,631,681,558,70,0,926,873,10,34,19,30,29,34,29

2017-10-31 16:38:06,#D#,15,3,849,386,364,359,4,0,1189,1509,28,304,106,576,10,102,0,631,681,557,70,0,942,874,10,35,19,30,29,34,29

2017-10-31 16:38:06,#D#,15,4,849,386,364,359,4,0,1189,1509,28,304,106,576,10,102,0,631,680,557,70,0,929,873,10,34,19,30,29,34,29

2017-10-31 16:38:06,#D#,15,5,849,386,364,359,4,0,1189,1509,28,304,106,576,10,102,0,631,680,557,70,0,923,872,10,35,19,30,29,34,29

2017-10-31 16:38:06,#D#,15,6,849,386,364,359,4,0,1189,1509,28,304,106,576,10,102,0,631,681,557,70,0,929,875,10,35,19,29,29,34,29

2017-10-31 16:38:06,#D#,15,7,849,386,364,359,4,0,1189,1509,28,304,106,576,10,102,0,631,680,557,70,0,932,877,10,34,19,29,29,34,29

2017-10-31 16:38:06,#D#,15,8,849,386,364,359,4,0,1189,1509,28,304,106,576,10,102,0,631,681,557,70,0,928,872,10,34,18,30,28,34,29

2017-10-31 16:38:06,#D#,15,9,849,386,364,359,4,0,1189,1509,28,304,106,577,10,102,0,631,681,557,70,0,930,876,10,34,19,29,29,34,29

