#P0E0000001900AM_RdFreq

2017-10-31 03:05:13, 50,:e,:0,:0,:19,:0,:a0 @

2017-10-31 03:05:14,*******Measure Period per Event & Freq in MHz*******

2017-10-31 03:05:14,****Period_cnt , Freq, SeqNo, Status,..........

2017-10-31 03:05:14,#P#, 38, 30400000, 0, 0 

2017-10-31 03:05:14,#P#, 38, 30400000, 1, 0 

2017-10-31 03:05:14,#P#, 38, 30400000, 2, 0 

2017-10-31 03:05:14,#P#, 39, 31200000, 3, 0 

2017-10-31 03:05:14,#P#, 38, 30400000, 4, 0 

2017-10-31 03:05:14,#P#, 39, 31200000, 5, 0 

2017-10-31 03:05:14,#P#, 39, 31200000, 6, 0 

2017-10-31 03:05:14,#P#, 38, 30400000, 7, 0 

2017-10-31 03:05:14,#P#, 38, 30400000, 8, 0 

2017-10-31 03:05:14,#P#, 39, 31200000, 9, 0 

2017-10-31 03:05:14,#P#, 39, 31200000, 10, 0 

2017-10-31 03:05:14,#P#, 38, 30400000, 11, 0 

2017-10-31 03:05:14,#P#, 39, 31200000, 12, 0 

2017-10-31 03:05:14,#P#, 39, 31200000, 13, 0 

2017-10-31 03:05:14,#P#, 38, 30400000, 14, 0 

2017-10-31 03:05:14,#P#, 38, 30400000, 15, 0 

2017-10-31 03:05:14,#P#, 38, 30400000, 16, 0 

2017-10-31 03:05:14,#P#, 38, 30400000, 17, 0 

2017-10-31 03:05:14,#P#, 39, 31200000, 18, 0 

2017-10-31 03:05:14,#P#, 38, 30400000, 19, 0 

2017-10-31 03:05:14,#P#, 38, 30400000, 20, 0 

2017-10-31 03:05:14,#P#, 38, 30400000, 21, 0 

2017-10-31 03:05:14,#P#, 38, 30400000, 22, 0 

2017-10-31 03:05:14,#P#, 38, 30400000, 23, 0 

2017-10-31 03:05:14,#P#, 38, 30400000, 24, 0 

2017-10-31 03:05:14,*******DONE*******#

Exiting PsocAmPreRad
#M0E0000000100AMAC_PWR 

2017-10-31 03:05:16, 4d,:e,:0,:0,:1,:0,:a0 @

2017-10-31 03:05:16,*******Measure AMAC PWR *******

2017-10-31 03:05:16,AMAC IN RESET STATE(Reset pulled LOW) 

2017-10-31 03:05:17,
2017-10-31 03:05:17,#H#,4361,0,758,16,364,1416,1488,44,257 

2017-10-31 03:05:17,AMAC IN NON-RESET STATE (Reset pulled HI 

2017-10-31 03:05:18,
2017-10-31 03:05:18,#H#,0,0,759,440,365,1420,1498,36,390 

2017-10-31 03:05:19,
2017-10-31 03:05:20,#H#,1,0,759,439,365,1420,1498,36,390 

2017-10-31 03:05:21,
2017-10-31 03:05:22,#H#,0,1,749,440,362,1406,1499,36,394 

2017-10-31 03:05:23,
2017-10-31 03:05:23,#H#,1,1,749,440,362,1406,1499,36,394 

2017-10-31 03:05:24,
2017-10-31 03:05:25,#H#,0,2,739,440,357,1388,1499,35,399 

2017-10-31 03:05:26,
2017-10-31 03:05:26,#H#,1,2,739,440,357,1388,1499,35,399 

2017-10-31 03:05:27,
2017-10-31 03:05:28,#H#,0,3,727,440,352,1369,1501,34,404 

2017-10-31 03:05:29,
2017-10-31 03:05:29,#H#,1,3,727,440,352,1369,1501,34,403 

2017-10-31 03:05:30,
2017-10-31 03:05:31,#H#,0,4,714,439,347,1346,1502,33,409 

2017-10-31 03:05:32,
2017-10-31 03:05:32,#H#,1,4,714,439,347,1346,1502,33,409 

2017-10-31 03:05:33,
2017-10-31 03:05:34,#H#,0,5,701,438,340,1321,1503,32,416 

2017-10-31 03:05:35,
2017-10-31 03:05:36,#H#,1,5,701,439,340,1321,1503,32,416 

2017-10-31 03:05:37,
2017-10-31 03:05:37,#H#,0,6,687,439,334,1296,1505,31,423 

2017-10-31 03:05:38,
2017-10-31 03:05:39,#H#,1,6,687,438,334,1296,1505,31,423 

2017-10-31 03:05:40,
2017-10-31 03:05:40,#H#,0,7,673,439,327,1270,1506,30,430 

2017-10-31 03:05:41,
2017-10-31 03:05:42,#H#,1,7,673,439,327,1270,1506,30,430 

2017-10-31 03:05:43,
2017-10-31 03:05:43,#H#,0,8,660,439,321,1244,1507,29,438 

2017-10-31 03:05:44,
2017-10-31 03:05:45,#H#,1,8,660,439,321,1244,1507,29,438 

2017-10-31 03:05:46,
2017-10-31 03:05:46,#H#,0,9,646,439,314,1218,1509,28,447 

2017-10-31 03:05:47,
2017-10-31 03:05:48,#H#,1,9,646,439,314,1218,1509,28,446 

2017-10-31 03:05:49,
2017-10-31 03:05:50,#H#,0,10,632,439,308,1191,1510,27,455 

2017-10-31 03:05:51,
2017-10-31 03:05:51,#H#,1,10,632,439,308,1191,1510,27,455 

2017-10-31 03:05:52,
2017-10-31 03:05:53,#H#,0,11,618,440,301,1165,1512,26,464 

2017-10-31 03:05:54,
2017-10-31 03:05:54,#H#,1,11,618,440,301,1165,1512,26,464 

2017-10-31 03:05:55,
2017-10-31 03:05:56,#H#,0,12,604,441,294,1139,1513,25,473 

2017-10-31 03:05:57,
2017-10-31 03:05:57,#H#,1,12,604,441,294,1139,1513,25,473 

2017-10-31 03:05:58,
2017-10-31 03:05:59,#H#,0,13,591,441,288,1113,1514,24,483 

2017-10-31 03:06:00,
2017-10-31 03:06:00,#H#,1,13,591,441,288,1113,1514,24,484 

2017-10-31 03:06:01,
2017-10-31 03:06:02,#H#,0,14,577,441,281,1087,1516,23,493 

2017-10-31 03:06:03,
2017-10-31 03:06:04,#H#,1,14,577,442,281,1087,1516,23,493 

2017-10-31 03:06:05,
2017-10-31 03:06:05,#H#,0,15,562,443,274,1059,1517,22,504 

2017-10-31 03:06:06,
2017-10-31 03:06:07,#H#,1,15,562,443,274,1059,1517,22,504 

2017-10-31 03:06:08,
2017-10-31 03:06:08,#H#,0,16,548,443,267,1033,1518,21,515 

2017-10-31 03:06:09,
2017-10-31 03:06:10,#H#,1,16,548,443,267,1033,1518,21,515 

2017-10-31 03:06:10,*******DONE*******#

Exiting PsocAmPreRad
