#E#,2,0,524,5978,7,600,559,22,-245,-245,131,123

2017-10-03 18:48:12,#E#,2,1,524,5978,7,600,559,22,-245,-245,131,122

2017-10-03 18:48:12,#E#,2,2,524,5978,7,600,558,22,-245,-245,131,122

2017-10-03 18:48:12,#E#,2,3,524,5978,7,600,558,22,-245,-245,131,123

2017-10-03 18:48:12,#E#,2,4,524,5978,7,600,559,22,-245,-245,131,122

2017-10-03 18:48:12,#E#,2,5,524,5978,7,600,559,22,-245,-245,131,122

2017-10-03 18:48:12,#E#,2,6,524,5978,7,600,559,22,-245,-245,131,122

2017-10-03 18:48:12,#E#,2,7,524,5978,7,600,559,22,-245,-245,131,122

2017-10-03 18:48:12,#E#,2,8,524,5978,7,600,559,22,-245,-245,131,122

2017-10-03 18:48:12,#E#,2,9,524,5978,7,600,558,22,-245,-245,131,122

2017-10-03 18:48:13,#E#,3,0,524,6502,7,600,558,22,-261,-261,139,131

2017-10-03 18:48:13,#E#,3,1,524,6502,7,600,559,22,-261,-261,139,130

2017-10-03 18:48:13,#E#,3,2,524,6502,7,600,559,22,-261,-261,139,131

2017-10-03 18:48:13,#E#,3,3,524,6502,7,600,559,22,-261,-261,139,130

2017-10-03 18:48:13,#E#,3,4,524,6502,7,600,559,22,-261,-261,139,130

2017-10-03 18:48:13,#E#,3,5,524,6502,7,600,559,22,-261,-261,139,130

2017-10-03 18:48:13,#E#,3,6,524,6502,7,600,559,22,-261,-261,139,130

2017-10-03 18:48:13,#E#,3,7,524,6502,7,600,559,22,-261,-261,139,130

2017-10-03 18:48:13,#E#,3,8,524,6502,7,600,559,22,-261,-261,139,130

2017-10-03 18:48:13,#E#,3,9,524,6502,7,600,559,22,-261,-261,139,130

2017-10-03 18:48:14,#E#,4,0,524,7026,7,600,559,22,-276,-276,147,134

2017-10-03 18:48:14,#E#,4,1,524,7026,7,600,559,22,-276,-276,147,134

2017-10-03 18:48:14,#E#,4,2,524,7026,7,600,559,22,-276,-276,147,134

2017-10-03 18:48:14,#E#,4,3,524,7026,7,600,558,22,-276,-276,147,134

2017-10-03 18:48:14,#E#,4,4,524,7026,7,600,559,22,-276,-276,147,134

2017-10-03 18:48:14,#E#,4,5,524,7026,7,600,559,22,-276,-276,147,134

2017-10-03 18:48:14,#E#,4,6,524,7026,7,600,559,22,-276,-276,147,135

2017-10-03 18:48:14,#E#,4,7,524,7026,7,600,559,22,-276,-276,147,135

2017-10-03 18:48:14,#E#,4,8,524,7026,7,600,559,22,-276,-276,147,134

2017-10-03 18:48:14,#E#,4,9,524,7026,7,600,559,22,-276,-276,147,134

2017-10-03 18:48:15,#E#,5,0,524,7550,7,600,559,22,-291,-291,151,142

2017-10-03 18:48:15,#E#,5,1,524,7550,7,600,559,22,-291,-291,151,142

2017-10-03 18:48:15,#E#,5,2,524,7550,7,600,559,22,-291,-291,151,142

2017-10-03 18:48:15,#E#,5,3,524,7550,7,600,558,22,-291,-291,151,142

2017-10-03 18:48:15,#E#,5,4,524,7550,7,600,558,22,-291,-291,151,142

2017-10-03 18:48:16,#E#,5,5,524,7550,7,600,558,22,-291,-291,151,142

2017-10-03 18:48:16,#E#,5,6,524,7550,7,600,559,22,-291,-291,151,143

2017-10-03 18:48:16,#E#,5,7,524,7550,7,600,558,22,-291,-291,151,142

2017-10-03 18:48:16,#E#,5,8,524,7550,7,600,559,22,-291,-291,151,142

2017-10-03 18:48:16,#E#,5,9,524,7550,7,600,559,22,-291,-291,151,143

2017-10-03 18:48:16,#E#,6,0,524,8074,7,600,559,22,-306,-307,159,146

2017-10-03 18:48:17,#E#,6,1,524,8074,7,600,559,22,-306,-307,159,150

2017-10-03 18:48:17,#E#,6,2,524,8074,7,600,559,22,-306,-307,159,146

2017-10-03 18:48:17,#E#,6,3,524,8074,7,600,558,22,-306,-307,159,146

2017-10-03 18:48:17,#E#,6,4,524,8074,7,600,559,22,-306,-307,159,147

2017-10-03 18:48:17,#E#,6,5,524,8074,7,600,559,22,-306,-307,159,146

2017-10-03 18:48:17,#E#,6,6,524,8074,7,600,559,22,-306,-307,159,146

2017-10-03 18:48:17,#E#,6,7,524,8074,7,600,559,22,-306,-307,159,150

2017-10-03 18:48:17,#E#,6,8,524,8074,7,600,559,22,-306,-307,159,150

2017-10-03 18:48:17,#E#,6,9,524,8074,7,600,559,22,-306,-307,159,146

2017-10-03 18:48:18,#E#,7,0,524,8598,7,599,559,22,-322,-322,167,154

2017-10-03 18:48:18,#E#,7,1,524,8598,7,599,559,22,-322,-322,167,155

2017-10-03 18:48:18,#E#,7,2,524,8598,7,599,559,22,-322,-322,167,154

2017-10-03 18:48:18,#E#,7,3,524,8598,7,599,559,22,-322,-322,167,154

2017-10-03 18:48:18,#E#,7,4,524,8598,7,599,559,22,-322,-322,167,154

2017-10-03 18:48:18,#E#,7,5,524,8598,7,599,559,22,-322,-322,167,155

2017-10-03 18:48:18,#E#,7,6,524,8598,7,599,559,22,-322,-322,167,154

2017-10-03 18:48:18,#E#,7,7,524,8598,7,599,559,22,-322,-322,167,154

2017-10-03 18:48:18,#E#,7,8,524,8598,7,599,559,22,-322,-322,167,155

2017-10-03 18:48:18,#E#,7,9,524,8598,7,599,559,22,-322,-322,167,154

2017-10-03 18:48:19,
2017-10-03 18:48:19,#E#,0,0,524,4930,7,600,559,33,-214,-214,111,102

2017-10-03 18:48:19,#E#,0,1,524,4930,7,600,559,33,-214,-214,111,102

2017-10-03 18:48:19,#E#,0,2,524,4930,7,600,559,33,-214,-214,111,102

2017-10-03 18:48:19,#E#,0,3,524,4930,7,600,559,33,-214,-214,111,102

2017-10-03 18:48:19,#E#,0,4,524,4930,7,600,559,33,-214,-214,111,103

2017-10-03 18:48:19,#E#,0,5,524,4930,7,600,559,33,-214,-214,111,102

2017-10-03 18:48:19,#E#,0,6,524,4930,7,600,559,33,-214,-214,111,102

2017-10-03 18:48:19,#E#,0,7,524,4930,7,600,558,33,-214,-214,111,102

2017-10-03 18:48:19,#E#,0,8,524,4930,7,600,559,33,-214,-214,111,102

2017-10-03 18:48:19,#E#,0,9,524,4930,7,600,559,33,-214,-214,111,102

2017-10-03 18:48:20,#E#,1,0,524,5454,7,600,559,33,-229,-229,119,110

2017-10-03 18:48:20,#E#,1,1,524,5454,7,600,559,33,-229,-229,119,110

2017-10-03 18:48:20,#E#,1,2,524,5454,7,600,559,33,-229,-229,119,110

2017-10-03 18:48:20,#E#,1,3,524,5454,7,600,559,33,-229,-229,119,111

2017-10-03 18:48:20,#E#,1,4,524,5454,7,600,558,33,-229,-229,119,110

2017-10-03 18:48:20,#E#,1,5,524,5454,7,600,559,33,-229,-229,119,110

2017-10-03 18:48:20,#E#,1,6,524,5454,7,600,559,33,-229,-229,119,110

2017-10-03 18:48:20,#E#,1,7,524,5454,7,600,559,33,-229,-229,119,110

2017-10-03 18:48:20,#E#,1,8,524,5454,7,600,559,33,-229,-229,119,110

2017-10-03 18:48:20,#E#,1,9,524,5454,7,600,559,33,-229,-229,119,110

2017-10-03 18:48:21,#E#,2,0,524,5978,7,600,558,33,-245,-245,123,114

2017-10-03 18:48:21,#E#,2,1,524,5978,7,600,559,33,-245,-245,123,114

2017-10-03 18:48:21,#E#,2,2,524,5978,7,600,558,33,-245,-245,123,114

2017-10-03 18:48:21,#E#,2,3,524,5978,7,600,559,33,-245,-245,123,114

2017-10-03 18:48:21,#E#,2,4,524,5978,7,600,559,33,-245,-245,123,114

2017-10-03 18:48:21,#E#,2,5,524,5978,7,600,559,33,-245,-245,123,114

2017-10-03 18:48:21,#E#,2,6,524,5978,7,600,559,33,-245,-245,123,114

2017-10-03 18:48:21,#E#,2,7,524,5978,7,600,559,33,-245,-245,123,114

2017-10-03 18:48:21,#E#,2,8,524,5978,7,600,559,33,-245,-245,123,114

2017-10-03 18:48:21,#E#,2,9,524,5978,7,600,559,33,-245,-245,123,114

2017-10-03 18:48:22,#E#,3,0,524,6502,7,600,559,33,-261,-261,131,122

2017-10-03 18:48:22,#E#,3,1,524,6502,7,600,559,33,-261,-261,131,122

2017-10-03 18:48:22,#E#,3,2,524,6502,7,600,559,33,-261,-261,131,122

2017-10-03 18:48:22,#E#,3,3,524,6502,7,600,559,33,-261,-261,131,122

2017-10-03 18:48:22,#E#,3,4,524,6502,7,600,544,33,-261,-261,131,122

2017-10-03 18:48:22,#E#,3,5,524,6502,7,600,559,33,-261,-261,131,122

2017-10-03 18:48:22,#E#,3,6,524,6502,7,600,559,33,-261,-261,131,122

2017-10-03 18:48:22,#E#,3,7,524,6502,7,600,559,33,-261,-261,131,122

2017-10-03 18:48:22,#E#,3,8,524,6502,7,600,559,33,-261,-261,131,122

2017-10-03 18:48:22,#E#,3,9,524,6502,7,600,559,33,-261,-261,131,122

2017-10-03 18:48:23,#E#,4,0,524,7026,7,600,559,33,-276,-276,135,126

2017-10-03 18:48:23,#E#,4,1,524,7026,7,600,559,33,-276,-276,135,126

2017-10-03 18:48:23,#E#,4,2,524,7026,7,600,558,33,-276,-276,135,127

2017-10-03 18:48:23,#E#,4,3,524,7026,7,600,558,33,-276,-276,135,126

2017-10-03 18:48:23,#E#,4,4,524,7026,7,600,544,33,-276,-276,135,126

2017-10-03 18:48:23,#E#,4,5,524,7026,7,600,559,33,-276,-276,135,126

2017-10-03 18:48:23,#E#,4,6,524,7026,7,600,575,33,-276,-276,135,126

2017-10-03 18:48:23,#E#,4,7,524,7026,7,600,559,33,-276,-276,135,126

2017-10-03 18:48:23,#E#,4,8,524,7026,7,600,559,33,-276,-276,135,126

2017-10-03 18:48:23,#E#,4,9,524,7026,7,600,559,33,-276,-276,135,126

2017-10-03 18:48:24,#E#,5,0,524,7550,7,600,559,33,-291,-291,143,131

2017-10-03 18:48:24,#E#,5,1,524,7550,7,600,559,33,-291,-291,143,130

2017-10-03 18:48:24,#E#,5,2,524,7550,7,600,559,33,-291,-291,143,130

2017-10-03 18:48:24,#E#,5,3,524,7550,7,600,558,33,-291,-291,143,130

2017-10-03 18:48:24,#E#,5,4,524,7550,7,600,559,33,-291,-291,143,130

2017-10-03 18:48:24,#E#,5,5,524,7550,7,600,559,33,-291,-291,143,130

2017-10-03 18:48:24,#E#,5,6,524,7550,7,600,558,33,-291,-291,143,130

2017-10-03 18:48:24,#E#,5,7,524,7550,7,600,559,33,-291,-291,143,130

2017-10-03 18:48:24,#E#,5,8,524,7550,7,600,559,33,-291,-291,143,130

2017-10-03 18:48:24,#E#,5,9,524,7550,7,600,559,33,-291,-291,143,130

2017-10-03 18:48:25,#E#,6,0,524,8074,7,600,559,33,-306,-307,147,138

2017-10-03 18:48:25,#E#,6,1,524,8074,7,600,558,33,-306,-307,147,138

2017-10-03 18:48:25,#E#,6,2,524,8074,7,600,558,33,-306,-307,147,138

2017-10-03 18:48:25,#E#,6,3,524,8074,7,600,558,33,-306,-307,147,138

2017-10-03 18:48:25,#E#,6,4,524,8074,7,600,559,33,-306,-307,147,138

2017-10-03 18:48:25,#E#,6,5,524,8074,7,600,558,33,-306,-307,147,138

2017-10-03 18:48:25,#E#,6,6,524,8074,7,600,559,33,-306,-307,147,138

2017-10-03 18:48:25,#E#,6,7,524,8074,7,600,559,33,-306,-307,147,138

2017-10-03 18:48:25,#E#,6,8,524,8074,7,600,558,33,-306,-307,147,138

2017-10-03 18:48:25,#E#,6,9,524,8074,7,600,559,33,-306,-307,147,138

2017-10-03 18:48:26,#E#,7,0,524,8598,7,600,559,33,-322,-322,155,142

2017-10-03 18:48:26,#E#,7,1,524,8598,7,600,558,33,-322,-322,155,142

2017-10-03 18:48:26,#E#,7,2,524,8598,7,600,559,33,-322,-322,155,142

2017-10-03 18:48:26,#E#,7,3,524,8598,7,600,559,33,-322,-322,155,142

2017-10-03 18:48:26,#E#,7,4,524,8598,7,600,559,33,-322,-322,155,142

2017-10-03 18:48:26,#E#,7,5,524,8598,7,600,559,33,-322,-322,155,142

2017-10-03 18:48:26,#E#,7,6,524,8598,7,600,559,33,-322,-322,155,142

2017-10-03 18:48:26,#E#,7,7,524,8598,7,600,559,33,-322,-322,155,142

2017-10-03 18:48:26,#E#,7,8,524,8598,7,600,559,33,-322,-322,155,142

2017-10-03 18:48:26,#E#,7,9,524,8598,7,600,559,33,-322,-322,155,142

2017-10-03 18:48:27,
2017-10-03 18:48:28,#E#,0,0,524,4930,7,600,559,44,-214,-214,47,42

2017-10-03 18:48:28,#E#,0,1,524,4930,7,600,559,44,-214,-214,47,42

2017-10-03 18:48:28,#E#,0,2,524,4930,7,600,559,44,-214,-214,47,42

2017-10-03 18:48:28,#E#,0,3,524,4930,7,600,559,44,-214,-214,47,43

2017-10-03 18:48:28,#E#,0,4,524,4930,7,600,559,44,-214,-214,47,42

2017-10-03 18:48:28,#E#,0,5,524,4930,7,600,559,44,-214,-214,47,42

2017-10-03 18:48:28,#E#,0,6,524,4930,7,600,559,44,-214,-214,47,42

2017-10-03 18:48:28,#E#,0,7,524,4930,7,600,559,44,-214,-214,47,42

2017-10-03 18:48:28,#E#,0,8,524,4930,7,600,559,44,-214,-214,47,42

2017-10-03 18:48:28,#E#,0,9,524,4930,7,600,559,44,-214,-214,47,42

2017-10-03 18:48:29,#E#,1,0,524,5454,7,600,559,44,-229,-229,51,46

2017-10-03 18:48:29,#E#,1,1,524,5454,7,600,559,44,-229,-229,51,46

2017-10-03 18:48:29,#E#,1,2,524,5454,7,600,559,44,-229,-229,51,46

2017-10-03 18:48:29,#E#,1,3,524,5454,7,600,559,44,-229,-229,51,46

2017-10-03 18:48:29,#E#,1,4,524,5454,7,600,559,44,-229,-229,51,46

2017-10-03 18:48:29,#E#,1,5,524,5454,7,600,559,44,-229,-229,51,46

2017-10-03 18:48:29,#E#,1,6,524,5454,7,600,559,44,-229,-229,51,46

2017-10-03 18:48:29,#E#,1,7,524,5454,7,600,559,44,-229,-229,51,46

2017-10-03 18:48:29,#E#,1,8,524,5454,7,600,559,44,-229,-229,51,46

2017-10-03 18:48:29,#E#,1,9,524,5454,7,600,559,44,-229,-229,51,46

2017-10-03 18:48:30,#E#,2,0,524,5978,7,600,559,44,-245,-245,51,46

2017-10-03 18:48:30,#E#,2,1,524,5978,7,600,559,44,-245,-245,51,46

2017-10-03 18:48:30,#E#,2,2,524,5978,7,600,559,44,-245,-245,51,46

2017-10-03 18:48:30,#E#,2,3,524,5978,7,600,559,44,-245,-245,51,46

2017-10-03 18:48:30,#E#,2,4,524,5978,7,600,559,44,-245,-245,51,46

2017-10-03 18:48:30,#E#,2,5,524,5978,7,600,559,44,-245,-245,51,46

2017-10-03 18:48:30,#E#,2,6,524,5978,7,600,559,44,-245,-245,51,46

2017-10-03 18:48:30,#E#,2,7,524,5978,7,600,559,44,-245,-245,51,46

2017-10-03 18:48:30,#E#,2,8,524,5978,7,600,559,44,-245,-245,51,46

2017-10-03 18:48:30,#E#,2,9,524,5978,7,600,559,44,-245,-245,51,46

2017-10-03 18:48:31,#E#,3,0,524,6502,7,600,559,44,-261,-260,51,46

2017-10-03 18:48:31,#E#,3,1,524,6502,7,600,559,44,-261,-260,51,46

2017-10-03 18:48:31,#E#,3,2,524,6502,7,600,559,44,-261,-260,51,46

2017-10-03 18:48:31,#E#,3,3,524,6502,7,600,558,44,-261,-260,51,46

2017-10-03 18:48:31,#E#,3,4,524,6502,7,600,559,44,-261,-260,51,46

2017-10-03 18:48:31,#E#,3,5,524,6502,7,600,559,44,-261,-260,51,46

2017-10-03 18:48:31,#E#,3,6,524,6502,7,600,559,44,-261,-260,51,46

2017-10-03 18:48:31,#E#,3,7,524,6502,7,600,559,44,-261,-260,51,46

2017-10-03 18:48:31,#E#,3,8,524,6502,7,600,559,44,-261,-260,51,46

2017-10-03 18:48:31,#E#,3,9,524,6502,7,600,558,44,-261,-260,51,46

2017-10-03 18:48:32,#E#,4,0,524,7026,7,600,559,44,-276,-276,55,50

2017-10-03 18:48:32,#E#,4,1,524,7026,7,600,558,44,-276,-276,55,50

2017-10-03 18:48:32,#E#,4,2,524,7026,7,600,559,44,-276,-276,55,50

2017-10-03 18:48:32,#E#,4,3,524,7026,7,600,559,44,-276,-276,55,50

2017-10-03 18:48:32,#E#,4,4,524,7026,7,600,559,44,-276,-276,55,50

2017-10-03 18:48:32,#E#,4,5,524,7026,7,600,559,44,-276,-276,55,50

2017-10-03 18:48:32,#E#,4,6,524,7026,7,600,559,44,-276,-276,55,50

2017-10-03 18:48:32,#E#,4,7,524,7026,7,600,559,44,-276,-276,55,50

2017-10-03 18:48:32,#E#,4,8,524,7026,7,600,559,44,-276,-276,55,50

2017-10-03 18:48:32,#E#,4,9,524,7026,7,600,558,44,-276,-276,55,50

2017-10-03 18:48:33,#E#,5,0,524,7550,7,599,559,44,-291,-291,55,50

2017-10-03 18:48:33,#E#,5,1,524,7550,7,599,559,44,-291,-291,55,50

2017-10-03 18:48:33,#E#,5,2,524,7550,7,599,559,44,-291,-291,55,50

2017-10-03 18:48:33,#E#,5,3,524,7550,7,599,559,44,-291,-291,55,50

2017-10-03 18:48:33,#E#,5,4,524,7550,7,599,559,44,-291,-291,55,50

2017-10-03 18:48:33,#E#,5,5,524,7550,7,599,559,44,-291,-291,55,50

2017-10-03 18:48:33,#E#,5,6,524,7550,7,599,558,44,-291,-291,55,50

2017-10-03 18:48:33,#E#,5,7,524,7550,7,599,559,44,-291,-291,55,50

2017-10-03 18:48:33,#E#,5,8,524,7550,7,599,559,44,-291,-291,55,50

2017-10-03 18:48:33,#E#,5,9,524,7550,7,599,558,44,-291,-291,55,50

2017-10-03 18:48:34,#E#,6,0,524,8074,7,599,559,44,-306,-307,55,50

2017-10-03 18:48:34,#E#,6,1,524,8074,7,599,559,44,-306,-307,55,50

2017-10-03 18:48:34,#E#,6,2,524,8074,7,599,559,44,-306,-307,55,50

2017-10-03 18:48:34,#E#,6,3,524,8074,7,599,558,44,-306,-307,55,50

2017-10-03 18:48:34,#E#,6,4,524,8074,7,599,559,44,-306,-307,55,50

2017-10-03 18:48:34,#E#,6,5,524,8074,7,599,559,44,-306,-307,55,50

2017-10-03 18:48:34,#E#,6,6,524,8074,7,599,559,44,-306,-307,55,50

2017-10-03 18:48:34,#E#,6,7,524,8074,7,599,559,44,-306,-307,55,50

2017-10-03 18:48:34,#E#,6,8,524,8074,7,599,559,44,-306,-307,55,50

2017-10-03 18:48:34,#E#,6,9,524,8074,7,599,559,44,-306,-307,55,50

2017-10-03 18:48:35,#E#,7,0,524,8598,7,600,559,44,-322,-322,59,54

2017-10-03 18:48:35,#E#,7,1,524,8598,7,600,559,44,-322,-322,59,54

2017-10-03 18:48:35,#E#,7,2,524,8598,7,600,559,44,-322,-322,59,54

2017-10-03 18:48:35,#E#,7,3,524,8598,7,600,559,44,-322,-322,59,54

2017-10-03 18:48:35,#E#,7,4,524,8598,7,600,558,44,-322,-322,59,54

2017-10-03 18:48:35,#E#,7,5,524,8598,7,600,558,44,-322,-322,59,54

2017-10-03 18:48:35,#E#,7,6,524,8598,7,600,559,44,-322,-322,59,54

2017-10-03 18:48:35,#E#,7,7,524,8598,7,600,559,44,-322,-322,59,54

2017-10-03 18:48:35,#E#,7,8,524,8598,7,600,558,44,-322,-322,59,54

2017-10-03 18:48:35,#E#,7,9,524,8598,7,600,559,44,-322,-322,59,54

2017-10-03 18:48:36,
2017-10-03 18:48:36,#E#,0,0,524,4930,7,600,558,55,-214,-214,47,42

2017-10-03 18:48:36,#E#,0,1,524,4930,7,600,559,55,-214,-214,47,42

2017-10-03 18:48:36,#E#,0,2,524,4930,7,600,559,55,-214,-214,47,42

2017-10-03 18:48:36,#E#,0,3,524,4930,7,600,559,55,-214,-214,47,42

2017-10-03 18:48:36,#E#,0,4,524,4930,7,600,559,55,-214,-214,47,42

2017-10-03 18:48:36,#E#,0,5,524,4930,7,600,559,55,-214,-214,47,42

2017-10-03 18:48:36,#E#,0,6,524,4930,7,600,559,55,-214,-214,47,42

2017-10-03 18:48:36,#E#,0,7,524,4930,7,600,559,55,-214,-214,47,42

2017-10-03 18:48:36,#E#,0,8,524,4930,7,600,559,55,-214,-214,47,42

2017-10-03 18:48:36,#E#,0,9,524,4930,7,600,559,55,-214,-214,47,42

2017-10-03 18:48:37,#E#,1,0,524,5454,7,600,559,55,-229,-229,51,46

2017-10-03 18:48:37,#E#,1,1,524,5454,7,600,558,55,-229,-229,51,46

2017-10-03 18:48:37,#E#,1,2,524,5454,7,600,559,55,-229,-229,51,46

2017-10-03 18:48:37,#E#,1,3,524,5454,7,600,559,55,-229,-229,51,46

2017-10-03 18:48:37,#E#,1,4,524,5454,7,600,559,55,-229,-229,47,46

2017-10-03 18:48:37,#E#,1,5,524,5454,7,600,559,55,-229,-229,51,46

2017-10-03 18:48:37,#E#,1,6,524,5454,7,600,559,55,-229,-229,51,46

2017-10-03 18:48:37,#E#,1,7,524,5454,7,600,559,55,-229,-229,51,46

2017-10-03 18:48:37,#E#,1,8,524,5454,7,600,559,55,-229,-229,47,46

2017-10-03 18:48:37,#E#,1,9,524,5454,7,600,559,55,-229,-229,51,46

2017-10-03 18:48:38,#E#,2,0,524,5978,7,600,558,55,-245,-245,51,46

2017-10-03 18:48:38,#E#,2,1,524,5978,7,600,559,55,-245,-245,51,46

2017-10-03 18:48:38,#E#,2,2,524,5978,7,600,558,55,-245,-245,51,46

2017-10-03 18:48:38,#E#,2,3,524,5978,7,600,558,55,-245,-245,51,46

2017-10-03 18:48:38,#E#,2,4,524,5978,7,600,559,55,-245,-245,51,46

2017-10-03 18:48:38,#E#,2,5,524,5978,7,600,559,55,-245,-245,51,46

2017-10-03 18:48:38,#E#,2,6,524,5978,7,600,558,55,-245,-245,51,46

2017-10-03 18:48:39,#E#,2,7,524,5978,7,600,559,55,-245,-245,51,46

2017-10-03 18:48:39,#E#,2,8,524,5978,7,600,558,55,-245,-245,51,46

2017-10-03 18:48:39,#E#,2,9,524,5978,7,600,558,55,-245,-245,51,46

2017-10-03 18:48:39,#E#,3,0,524,6502,7,599,559,55,-261,-261,51,46

2017-10-03 18:48:39,#E#,3,1,524,6502,7,599,558,55,-261,-261,51,46

2017-10-03 18:48:39,#E#,3,2,524,6502,7,599,559,55,-261,-261,51,46

2017-10-03 18:48:40,#E#,3,3,524,6502,7,599,558,55,-261,-261,51,46

2017-10-03 18:48:40,#E#,3,4,524,6502,7,599,558,55,-261,-261,51,46

2017-10-03 18:48:40,#E#,3,5,524,6502,7,599,559,55,-261,-261,51,46

2017-10-03 18:48:40,#E#,3,6,524,6502,7,599,558,55,-261,-261,51,46

2017-10-03 18:48:40,#E#,3,7,524,6502,7,599,558,55,-261,-261,51,46

2017-10-03 18:48:40,#E#,3,8,524,6502,7,599,559,55,-261,-261,51,46

2017-10-03 18:48:40,#E#,3,9,524,6502,7,599,559,55,-261,-261,51,46

2017-10-03 18:48:41,#E#,4,0,524,7026,7,600,559,55,-276,-276,55,50

2017-10-03 18:48:41,#E#,4,1,524,7026,7,600,559,55,-276,-276,55,50

2017-10-03 18:48:41,#E#,4,2,524,7026,7,600,559,55,-276,-276,55,50

2017-10-03 18:48:41,#E#,4,3,524,7026,7,600,559,55,-276,-276,55,50

2017-10-03 18:48:41,#E#,4,4,524,7026,7,600,558,55,-276,-276,55,50

2017-10-03 18:48:41,#E#,4,5,524,7026,7,600,559,55,-276,-276,55,50

2017-10-03 18:48:41,#E#,4,6,524,7026,7,600,559,55,-276,-276,55,50

2017-10-03 18:48:41,#E#,4,7,524,7026,7,600,559,55,-276,-276,55,50

2017-10-03 18:48:41,#E#,4,8,524,7026,7,600,559,55,-276,-276,55,50

2017-10-03 18:48:41,#E#,4,9,524,7026,7,600,559,55,-276,-276,55,50

2017-10-03 18:48:42,#E#,5,0,524,7550,7,600,559,55,-291,-291,55,50

2017-10-03 18:48:42,#E#,5,1,524,7550,7,600,559,55,-291,-291,55,50

2017-10-03 18:48:42,#E#,5,2,524,7550,7,600,558,55,-291,-291,55,50

2017-10-03 18:48:42,#E#,5,3,524,7550,7,600,559,55,-291,-291,55,50

2017-10-03 18:48:42,#E#,5,4,524,7550,7,600,558,55,-291,-291,55,50

2017-10-03 18:48:42,#E#,5,5,524,7550,7,600,559,55,-291,-291,55,50

2017-10-03 18:48:42,#E#,5,6,524,7550,7,600,559,55,-291,-291,55,50

2017-10-03 18:48:42,#E#,5,7,524,7550,7,600,559,55,-291,-291,55,50

2017-10-03 18:48:42,#E#,5,8,524,7550,7,600,558,55,-291,-291,55,50

2017-10-03 18:48:42,#E#,5,9,524,7550,7,600,559,55,-291,-291,55,50

2017-10-03 18:48:43,#E#,6,0,524,8074,7,600,559,55,-306,-307,55,50

2017-10-03 18:48:43,#E#,6,1,524,8074,7,600,559,55,-306,-307,55,50

2017-10-03 18:48:43,#E#,6,2,524,8074,7,600,558,55,-306,-307,55,50

2017-10-03 18:48:43,#E#,6,3,524,8074,7,600,559,55,-306,-307,55,50

2017-10-03 18:48:43,#E#,6,4,524,8074,7,600,559,55,-306,-307,55,50

2017-10-03 18:48:43,#E#,6,5,524,8074,7,600,558,55,-306,-307,55,50

2017-10-03 18:48:43,#E#,6,6,524,8074,7,600,559,55,-306,-307,55,50

2017-10-03 18:48:43,#E#,6,7,524,8074,7,600,559,55,-306,-307,55,50

2017-10-03 18:48:43,#E#,6,8,524,8074,7,600,559,55,-306,-307,55,50

2017-10-03 18:48:43,#E#,6,9,524,8074,7,600,559,55,-306,-307,55,50

2017-10-03 18:48:44,#E#,7,0,524,8598,7,600,559,55,-322,-322,59,54

2017-10-03 18:48:44,#E#,7,1,524,8598,7,600,559,55,-322,-322,59,54

2017-10-03 18:48:44,#E#,7,2,524,8598,7,600,559,55,-322,-322,59,54

2017-10-03 18:48:44,#E#,7,3,524,8598,7,600,559,55,-322,-322,59,54

2017-10-03 18:48:44,#E#,7,4,524,8598,7,600,558,55,-322,-322,59,54

2017-10-03 18:48:44,#E#,7,5,524,8598,7,600,558,55,-322,-322,59,50

2017-10-03 18:48:44,#E#,7,6,524,8598,7,600,559,55,-322,-322,59,54

2017-10-03 18:48:44,#E#,7,7,524,8598,7,600,559,55,-322,-322,59,54

2017-10-03 18:48:44,#E#,7,8,524,8598,7,600,559,55,-322,-322,59,54

2017-10-03 18:48:44,#E#,7,9,524,8598,7,600,559,55,-322,-322,59,54

2017-10-03 18:48:45,
2017-10-03 18:48:45,#E#,0,0,524,4930,7,600,559,66,-214,-214,43,42

2017-10-03 18:48:45,#E#,0,1,524,4930,7,600,558,66,-214,-214,43,38

2017-10-03 18:48:45,#E#,0,2,524,4930,7,600,559,66,-214,-214,43,42

2017-10-03 18:48:45,#E#,0,3,524,4930,7,600,558,66,-214,-214,43,42

2017-10-03 18:48:45,#E#,0,4,524,4930,7,600,559,66,-214,-214,43,42

2017-10-03 18:48:45,#E#,0,5,524,4930,7,600,559,66,-214,-214,43,42

2017-10-03 18:48:45,#E#,0,6,524,4930,7,600,559,66,-214,-214,43,38

2017-10-03 18:48:45,#E#,0,7,524,4930,7,600,559,66,-214,-214,43,42

2017-10-03 18:48:45,#E#,0,8,524,4930,7,600,559,66,-214,-214,43,38

2017-10-03 18:48:45,#E#,0,9,524,4930,7,600,559,66,-214,-214,43,42

2017-10-03 18:48:46,#E#,1,0,524,5454,7,600,559,66,-229,-229,47,42

2017-10-03 18:48:46,#E#,1,1,524,5454,7,600,559,66,-229,-229,47,42

2017-10-03 18:48:46,#E#,1,2,524,5454,7,600,559,66,-229,-229,47,42

2017-10-03 18:48:46,#E#,1,3,524,5454,7,600,558,66,-229,-229,47,42

2017-10-03 18:48:46,#E#,1,4,524,5454,7,600,559,66,-229,-229,47,42

2017-10-03 18:48:46,#E#,1,5,524,5454,7,600,559,66,-229,-229,47,42

2017-10-03 18:48:46,#E#,1,6,524,5454,7,600,559,66,-229,-229,47,42

2017-10-03 18:48:46,#E#,1,7,524,5454,7,600,558,66,-229,-229,47,42

2017-10-03 18:48:46,#E#,1,8,524,5454,7,600,559,66,-229,-229,47,42

2017-10-03 18:48:46,#E#,1,9,524,5454,7,600,559,66,-229,-229,47,42

2017-10-03 18:48:47,#E#,2,0,524,5978,7,600,559,66,-245,-245,47,42

2017-10-03 18:48:47,#E#,2,1,524,5978,7,600,558,66,-245,-245,47,42

2017-10-03 18:48:47,#E#,2,2,524,5978,7,600,559,66,-245,-245,47,42

2017-10-03 18:48:47,#E#,2,3,524,5978,7,600,558,66,-245,-245,47,42

2017-10-03 18:48:47,#E#,2,4,524,5978,7,600,558,66,-245,-245,47,42

2017-10-03 18:48:47,#E#,2,5,524,5978,7,600,559,66,-245,-245,47,42

2017-10-03 18:48:47,#E#,2,6,524,5978,7,600,559,66,-245,-245,47,42

2017-10-03 18:48:47,#E#,2,7,524,5978,7,600,559,66,-245,-245,47,42

2017-10-03 18:48:47,#E#,2,8,524,5978,7,600,558,66,-245,-245,47,42

2017-10-03 18:48:47,#E#,2,9,524,5978,7,600,559,66,-245,-245,47,42

2017-10-03 18:48:48,#E#,3,0,524,6502,7,600,558,66,-261,-261,47,42

2017-10-03 18:48:48,#E#,3,1,524,6502,7,600,559,66,-261,-261,47,42

2017-10-03 18:48:48,#E#,3,2,524,6502,7,600,558,66,-261,-261,47,42

2017-10-03 18:48:48,#E#,3,3,524,6502,7,600,559,66,-261,-261,47,42

2017-10-03 18:48:48,#E#,3,4,524,6502,7,600,558,66,-261,-261,47,42

2017-10-03 18:48:48,#E#,3,5,524,6502,7,600,558,66,-261,-261,47,42

2017-10-03 18:48:48,#E#,3,6,524,6502,7,600,559,66,-261,-261,47,42

2017-10-03 18:48:48,#E#,3,7,524,6502,7,600,559,66,-261,-261,47,42

2017-10-03 18:48:48,#E#,3,8,524,6502,7,600,559,66,-261,-261,47,42

2017-10-03 18:48:48,#E#,3,9,524,6502,7,600,559,66,-261,-261,47,42

2017-10-03 18:48:49,#E#,4,0,524,7026,7,600,559,66,-276,-276,51,46

2017-10-03 18:48:49,#E#,4,1,524,7026,7,600,559,66,-276,-276,51,46

2017-10-03 18:48:49,#E#,4,2,524,7026,7,600,559,66,-276,-276,51,46

2017-10-03 18:48:49,#E#,4,3,524,7026,7,600,559,66,-276,-276,51,46

2017-10-03 18:48:49,#E#,4,4,524,7026,7,600,558,66,-276,-276,51,46

2017-10-03 18:48:49,#E#,4,5,524,7026,7,600,559,66,-276,-276,51,46

2017-10-03 18:48:49,#E#,4,6,524,7026,7,600,559,66,-276,-276,51,46

2017-10-03 18:48:49,#E#,4,7,524,7026,7,600,559,66,-276,-276,51,46

2017-10-03 18:48:49,#E#,4,8,524,7026,7,600,558,66,-276,-276,51,46

2017-10-03 18:48:49,#E#,4,9,524,7026,7,600,559,66,-276,-276,51,46

2017-10-03 18:48:50,#E#,5,0,524,7550,7,600,559,66,-291,-291,51,46

2017-10-03 18:48:50,#E#,5,1,524,7550,7,600,559,66,-291,-291,51,46

2017-10-03 18:48:50,#E#,5,2,524,7550,7,600,559,66,-291,-291,51,46

2017-10-03 18:48:50,#E#,5,3,524,7550,7,600,559,66,-291,-291,51,46

2017-10-03 18:48:50,#E#,5,4,524,7550,7,600,559,66,-291,-291,51,46

2017-10-03 18:48:50,#E#,5,5,524,7550,7,600,559,66,-291,-291,51,46

2017-10-03 18:48:50,#E#,5,6,524,7550,7,600,559,66,-291,-291,51,46

2017-10-03 18:48:50,#E#,5,7,524,7550,7,600,559,66,-291,-291,51,46

2017-10-03 18:48:50,#E#,5,8,524,7550,7,600,559,66,-291,-291,51,46

2017-10-03 18:48:51,#E#,5,9,524,7550,7,600,558,66,-291,-291,51,46

2017-10-03 18:48:51,#E#,6,0,524,8074,7,600,559,66,-306,-307,51,46

2017-10-03 18:48:51,#E#,6,1,524,8074,7,600,559,66,-306,-307,51,46

2017-10-03 18:48:51,#E#,6,2,524,8074,7,600,559,66,-306,-307,51,46

2017-10-03 18:48:51,#E#,6,3,524,8074,7,600,559,66,-306,-307,51,46

2017-10-03 18:48:51,#E#,6,4,524,8074,7,600,559,66,-306,-307,51,46

2017-10-03 18:48:52,#E#,6,5,524,8074,7,600,559,66,-306,-307,51,46

2017-10-03 18:48:52,#E#,6,6,524,8074,7,600,559,66,-306,-307,51,46

2017-10-03 18:48:52,#E#,6,7,524,8074,7,600,559,66,-306,-307,51,46

2017-10-03 18:48:52,#E#,6,8,524,8074,7,600,559,66,-306,-307,51,46

2017-10-03 18:48:52,#E#,6,9,524,8074,7,600,558,66,-306,-307,51,46

2017-10-03 18:48:53,#E#,7,0,524,8598,7,600,558,66,-322,-322,51,46

2017-10-03 18:48:53,#E#,7,1,524,8598,7,600,559,66,-322,-322,51,46

2017-10-03 18:48:53,#E#,7,2,524,8598,7,600,559,66,-322,-322,55,46

2017-10-03 18:48:53,#E#,7,3,524,8598,7,600,559,66,-322,-322,55,46

2017-10-03 18:48:53,#E#,7,4,524,8598,7,600,559,66,-322,-322,55,46

2017-10-03 18:48:53,#E#,7,5,524,8598,7,600,559,66,-322,-322,55,46

2017-10-03 18:48:53,#E#,7,6,524,8598,7,600,558,66,-322,-322,51,46

2017-10-03 18:48:53,#E#,7,7,524,8598,7,600,558,66,-322,-322,51,46

2017-10-03 18:48:53,#E#,7,8,524,8598,7,600,559,66,-322,-322,55,46

2017-10-03 18:48:53,#E#,7,9,524,8598,7,600,559,66,-322,-322,55,46

2017-10-03 18:48:54,
2017-10-03 18:48:54,#E#,0,0,524,4930,7,600,559,77,-214,-214,43,38

2017-10-03 18:48:54,#E#,0,1,524,4930,7,600,558,77,-214,-214,43,38

2017-10-03 18:48:54,#E#,0,2,524,4930,7,600,559,77,-214,-214,43,38

2017-10-03 18:48:54,#E#,0,3,524,4930,7,600,559,77,-214,-214,43,38

2017-10-03 18:48:54,#E#,0,4,524,4930,7,600,559,77,-214,-214,43,38

2017-10-03 18:48:54,#E#,0,5,524,4930,7,600,559,77,-214,-214,43,38

2017-10-03 18:48:54,#E#,0,6,524,4930,7,600,559,77,-214,-214,43,38

2017-10-03 18:48:54,#E#,0,7,524,4930,7,600,559,77,-214,-214,43,38

2017-10-03 18:48:54,#E#,0,8,524,4930,7,600,558,77,-214,-214,43,38

2017-10-03 18:48:54,#E#,0,9,524,4930,7,600,559,77,-214,-214,43,38

2017-10-03 18:48:55,#E#,1,0,524,5454,7,600,559,77,-229,-229,47,42

2017-10-03 18:48:55,#E#,1,1,524,5454,7,600,559,77,-229,-229,47,42

2017-10-03 18:48:55,#E#,1,2,524,5454,7,600,559,77,-229,-229,47,42

2017-10-03 18:48:55,#E#,1,3,524,5454,7,600,559,77,-229,-229,47,42

2017-10-03 18:48:55,#E#,1,4,524,5454,7,600,559,77,-229,-229,47,42

2017-10-03 18:48:55,#E#,1,5,524,5454,7,600,559,77,-229,-229,47,42

2017-10-03 18:48:55,#E#,1,6,524,5454,7,600,559,77,-229,-229,47,42

2017-10-03 18:48:55,#E#,1,7,524,5454,7,600,559,77,-229,-229,47,42

2017-10-03 18:48:55,#E#,1,8,524,5454,7,600,559,77,-229,-229,47,42

2017-10-03 18:48:55,#E#,1,9,524,5454,7,600,559,77,-229,-229,47,42

2017-10-03 18:48:56,#E#,2,0,524,5978,7,600,559,77,-245,-245,47,42

2017-10-03 18:48:56,#E#,2,1,524,5978,7,600,559,77,-245,-245,47,42

2017-10-03 18:48:56,#E#,2,2,524,5978,7,600,559,77,-245,-245,47,42

2017-10-03 18:48:56,#E#,2,3,524,5978,7,600,559,77,-245,-245,47,42

2017-10-03 18:48:56,#E#,2,4,524,5978,7,600,558,77,-245,-245,47,42

2017-10-03 18:48:56,#E#,2,5,524,5978,7,600,559,77,-245,-245,47,42

2017-10-03 18:48:56,#E#,2,6,524,5978,7,600,558,77,-245,-245,47,42

2017-10-03 18:48:56,#E#,2,7,524,5978,7,600,559,77,-245,-245,47,42

2017-10-03 18:48:56,#E#,2,8,524,5978,7,600,559,77,-245,-245,47,42

2017-10-03 18:48:56,#E#,2,9,524,5978,7,600,558,77,-245,-245,47,42

2017-10-03 18:48:57,#E#,3,0,524,6502,7,600,559,77,-261,-261,47,42

2017-10-03 18:48:57,#E#,3,1,524,6502,7,600,559,77,-261,-261,47,42

2017-10-03 18:48:57,#E#,3,2,524,6502,7,600,559,77,-261,-261,47,42

2017-10-03 18:48:57,#E#,3,3,524,6502,7,600,559,77,-261,-261,47,42

2017-10-03 18:48:57,#E#,3,4,524,6502,7,600,559,77,-261,-261,47,42

2017-10-03 18:48:57,#E#,3,5,524,6502,7,600,559,77,-261,-261,47,42

2017-10-03 18:48:57,#E#,3,6,524,6502,7,600,558,77,-261,-261,47,42

2017-10-03 18:48:57,#E#,3,7,524,6502,7,600,559,77,-261,-261,47,42

2017-10-03 18:48:57,#E#,3,8,524,6502,7,600,559,77,-261,-261,47,42

2017-10-03 18:48:57,#E#,3,9,524,6502,7,600,559,77,-261,-261,47,42

2017-10-03 18:48:58,#E#,4,0,524,7026,7,600,559,77,-276,-276,51,46

2017-10-03 18:48:58,#E#,4,1,524,7026,7,600,558,77,-276,-276,51,46

2017-10-03 18:48:58,#E#,4,2,524,7026,7,600,559,77,-276,-276,51,46

2017-10-03 18:48:58,#E#,4,3,524,7026,7,600,559,77,-276,-276,51,46

2017-10-03 18:48:58,#E#,4,4,524,7026,7,600,559,77,-276,-276,51,46

2017-10-03 18:48:58,#E#,4,5,524,7026,7,600,559,77,-276,-276,51,46

2017-10-03 18:48:58,#E#,4,6,524,7026,7,600,558,77,-276,-276,51,46

2017-10-03 18:48:58,#E#,4,7,524,7026,7,600,559,77,-276,-276,51,46

2017-10-03 18:48:58,#E#,4,8,524,7026,7,600,559,77,-276,-276,51,46

2017-10-03 18:48:58,#E#,4,9,524,7026,7,600,559,77,-276,-276,51,46

2017-10-03 18:48:59,#E#,5,0,524,7550,7,600,558,77,-291,-291,51,46

2017-10-03 18:48:59,#E#,5,1,524,7550,7,600,559,77,-291,-291,51,46

2017-10-03 18:48:59,#E#,5,2,524,7550,7,600,559,77,-291,-291,51,46

2017-10-03 18:48:59,#E#,5,3,524,7550,7,600,559,77,-291,-291,51,46

2017-10-03 18:48:59,#E#,5,4,524,7550,7,600,558,77,-291,-291,51,46

2017-10-03 18:48:59,#E#,5,5,524,7550,7,600,558,77,-291,-291,51,46

2017-10-03 18:48:59,#E#,5,6,524,7550,7,600,559,77,-291,-291,51,46

2017-10-03 18:48:59,#E#,5,7,524,7550,7,600,559,77,-291,-291,51,46

2017-10-03 18:48:59,#E#,5,8,524,7550,7,600,559,77,-291,-291,51,46

2017-10-03 18:48:59,#E#,5,9,524,7550,7,600,558,77,-291,-291,51,46

2017-10-03 18:49:00,#E#,6,0,524,8074,7,600,559,77,-306,-307,51,46

2017-10-03 18:49:00,#E#,6,1,524,8074,7,600,559,77,-306,-307,51,46

2017-10-03 18:49:00,#E#,6,2,524,8074,7,600,559,77,-306,-307,51,46

2017-10-03 18:49:00,#E#,6,3,524,8074,7,600,559,77,-306,-307,51,46

2017-10-03 18:49:00,#E#,6,4,524,8074,7,600,559,77,-306,-307,51,46

2017-10-03 18:49:00,#E#,6,5,524,8074,7,600,559,77,-306,-307,51,46

2017-10-03 18:49:00,#E#,6,6,524,8074,7,600,559,77,-306,-307,51,46

2017-10-03 18:49:00,#E#,6,7,524,8074,7,600,559,77,-306,-307,51,46

2017-10-03 18:49:00,#E#,6,8,524,8074,7,600,559,77,-306,-307,51,46

2017-10-03 18:49:00,#E#,6,9,524,8074,7,600,559,77,-306,-307,51,46

2017-10-03 18:49:01,#E#,7,0,524,8598,7,600,559,77,-322,-322,51,46

2017-10-03 18:49:01,#E#,7,1,524,8598,7,600,559,77,-322,-322,51,46

2017-10-03 18:49:01,#E#,7,2,524,8598,7,600,559,77,-322,-322,51,46

2017-10-03 18:49:01,#E#,7,3,524,8598,7,600,559,77,-322,-322,51,46

2017-10-03 18:49:01,#E#,7,4,524,8598,7,600,558,77,-322,-322,51,46

2017-10-03 18:49:01,#E#,7,5,524,8598,7,600,559,77,-322,-322,51,46

2017-10-03 18:49:01,#E#,7,6,524,8598,7,600,559,77,-322,-322,51,46

2017-10-03 18:49:01,#E#,7,7,524,8598,7,600,559,77,-322,-322,51,46

2017-10-03 18:49:01,#E#,7,8,524,8598,7,600,559,77,-322,-322,51,46

2017-10-03 18:49:01,#E#,7,9,524,8598,7,600,559,77,-322,-322,51,46

2017-10-03 18:49:02,
2017-10-03 18:49:02,#E#,0,0,524,4930,7,600,559,88,-214,-214,39,34

2017-10-03 18:49:02,#E#,0,1,524,4930,7,600,558,88,-214,-214,39,34

2017-10-03 18:49:02,#E#,0,2,524,4930,7,600,559,88,-214,-214,39,34

2017-10-03 18:49:02,#E#,0,3,524,4930,7,600,559,88,-214,-214,39,34

2017-10-03 18:49:02,#E#,0,4,524,4930,7,600,559,88,-214,-214,39,34

2017-10-03 18:49:03,#E#,0,5,524,4930,7,600,559,88,-214,-214,39,34

2017-10-03 18:49:03,#E#,0,6,524,4930,7,600,558,88,-214,-214,39,34

2017-10-03 18:49:03,#E#,0,7,524,4930,7,600,559,88,-214,-214,39,34

2017-10-03 18:49:03,#E#,0,8,524,4930,7,600,559,88,-214,-214,39,34

2017-10-03 18:49:03,#E#,0,9,524,4930,7,600,559,88,-214,-214,39,34

2017-10-03 18:49:03,#E#,1,0,524,5454,7,600,559,88,-229,-229,39,34

2017-10-03 18:49:04,#E#,1,1,524,5454,7,600,559,88,-229,-229,39,34

2017-10-03 18:49:04,#E#,1,2,524,5454,7,600,559,88,-229,-229,39,34

2017-10-03 18:49:04,#E#,1,3,524,5454,7,600,559,88,-229,-229,39,34

2017-10-03 18:49:04,#E#,1,4,524,5454,7,600,559,88,-229,-229,39,34

2017-10-03 18:49:04,#E#,1,5,524,5454,7,600,559,88,-229,-229,39,34

2017-10-03 18:49:04,#E#,1,6,524,5454,7,600,559,88,-229,-229,39,34

2017-10-03 18:49:04,#E#,1,7,524,5454,7,600,559,88,-229,-229,39,34

2017-10-03 18:49:04,#E#,1,8,524,5454,7,600,559,88,-229,-229,39,34

2017-10-03 18:49:04,#E#,1,9,524,5454,7,600,559,88,-229,-229,39,34

2017-10-03 18:49:05,#E#,2,0,524,5978,7,600,559,88,-245,-245,39,34

2017-10-03 18:49:05,#E#,2,1,524,5978,7,600,558,88,-245,-245,39,34

2017-10-03 18:49:05,#E#,2,2,524,5978,7,600,559,88,-245,-245,39,34

2017-10-03 18:49:05,#E#,2,3,524,5978,7,600,559,88,-245,-245,39,34

2017-10-03 18:49:05,#E#,2,4,524,5978,7,600,559,88,-245,-245,39,34

2017-10-03 18:49:05,#E#,2,5,524,5978,7,600,558,88,-245,-245,39,34

2017-10-03 18:49:05,#E#,2,6,524,5978,7,600,558,88,-245,-245,39,34

2017-10-03 18:49:05,#E#,2,7,524,5978,7,600,559,88,-245,-245,39,34

2017-10-03 18:49:05,#E#,2,8,524,5978,7,600,559,88,-245,-245,39,34

2017-10-03 18:49:05,#E#,2,9,524,5978,7,600,559,88,-245,-245,39,34

2017-10-03 18:49:06,#E#,3,0,524,6502,7,600,559,88,-260,-260,39,34

2017-10-03 18:49:06,#E#,3,1,524,6502,7,600,559,88,-260,-260,39,34

2017-10-03 18:49:06,#E#,3,2,524,6502,7,600,558,88,-260,-260,39,34

2017-10-03 18:49:06,#E#,3,3,524,6502,7,600,559,88,-260,-260,39,34

2017-10-03 18:49:06,#E#,3,4,524,6502,7,600,559,88,-260,-260,39,34

2017-10-03 18:49:06,#E#,3,5,524,6502,7,600,559,88,-260,-260,39,34

2017-10-03 18:49:06,#E#,3,6,524,6502,7,600,559,88,-260,-260,39,34

2017-10-03 18:49:06,#E#,3,7,524,6502,7,600,559,88,-260,-260,39,34

2017-10-03 18:49:06,#E#,3,8,524,6502,7,600,559,88,-260,-260,39,34

2017-10-03 18:49:06,#E#,3,9,524,6502,7,600,558,88,-260,-260,39,34

2017-10-03 18:49:07,#E#,4,0,524,7026,7,600,558,88,-276,-276,39,34

2017-10-03 18:49:07,#E#,4,1,524,7026,7,600,559,88,-276,-276,39,34

2017-10-03 18:49:07,#E#,4,2,524,7026,7,600,558,88,-276,-276,39,34

2017-10-03 18:49:07,#E#,4,3,524,7026,7,600,559,88,-276,-276,39,34

2017-10-03 18:49:07,#E#,4,4,524,7026,7,600,559,88,-276,-276,39,34

2017-10-03 18:49:07,#E#,4,5,524,7026,7,600,559,88,-276,-276,39,34

2017-10-03 18:49:07,#E#,4,6,524,7026,7,600,558,88,-276,-276,39,34

2017-10-03 18:49:07,#E#,4,7,524,7026,7,600,559,88,-276,-276,39,34

2017-10-03 18:49:07,#E#,4,8,524,7026,7,600,559,88,-276,-276,39,34

2017-10-03 18:49:07,#E#,4,9,524,7026,7,600,558,88,-276,-276,39,34

2017-10-03 18:49:08,#E#,5,0,524,7550,7,600,559,88,-291,-291,39,38

2017-10-03 18:49:08,#E#,5,1,524,7550,7,600,559,88,-291,-291,39,38

2017-10-03 18:49:08,#E#,5,2,524,7550,7,600,559,88,-291,-291,39,38

2017-10-03 18:49:08,#E#,5,3,524,7550,7,600,559,88,-291,-291,39,38

2017-10-03 18:49:08,#E#,5,4,524,7550,7,600,559,88,-291,-291,39,38

2017-10-03 18:49:08,#E#,5,5,524,7550,7,600,558,88,-291,-291,39,38

2017-10-03 18:49:08,#E#,5,6,524,7550,7,600,559,88,-291,-291,39,38

2017-10-03 18:49:08,#E#,5,7,524,7550,7,600,559,88,-291,-291,39,38

2017-10-03 18:49:08,#E#,5,8,524,7550,7,600,559,88,-291,-291,39,38

2017-10-03 18:49:08,#E#,5,9,524,7550,7,600,559,88,-291,-291,39,38

2017-10-03 18:49:09,#E#,6,0,524,8074,7,600,559,88,-306,-306,43,38

2017-10-03 18:49:09,#E#,6,1,524,8074,7,600,559,88,-306,-306,43,38

2017-10-03 18:49:09,#E#,6,2,524,8074,7,600,559,88,-306,-306,43,38

2017-10-03 18:49:09,#E#,6,3,524,8074,7,600,559,88,-306,-306,43,38

2017-10-03 18:49:09,#E#,6,4,524,8074,7,600,559,88,-306,-306,43,38

2017-10-03 18:49:09,#E#,6,5,524,8074,7,600,559,88,-306,-306,43,38

2017-10-03 18:49:09,#E#,6,6,524,8074,7,600,558,88,-306,-306,43,38

2017-10-03 18:49:09,#E#,6,7,524,8074,7,600,559,88,-306,-306,43,38

2017-10-03 18:49:09,#E#,6,8,524,8074,7,600,559,88,-306,-306,43,38

2017-10-03 18:49:09,#E#,6,9,524,8074,7,600,559,88,-306,-306,43,38

2017-10-03 18:49:10,#E#,7,0,524,8598,7,600,559,88,-322,-322,43,38

2017-10-03 18:49:10,#E#,7,1,524,8598,7,600,559,88,-322,-322,43,38

2017-10-03 18:49:10,#E#,7,2,524,8598,7,600,559,88,-322,-322,43,38

2017-10-03 18:49:10,#E#,7,3,524,8598,7,600,559,88,-322,-322,43,38

2017-10-03 18:49:10,#E#,7,4,524,8598,7,600,558,88,-322,-322,43,38

2017-10-03 18:49:10,#E#,7,5,524,8598,7,600,559,88,-322,-322,43,38

2017-10-03 18:49:10,#E#,7,6,524,8598,7,600,559,88,-322,-322,43,38

2017-10-03 18:49:10,#E#,7,7,524,8598,7,600,559,88,-322,-322,43,38

2017-10-03 18:49:10,#E#,7,8,524,8598,7,600,559,88,-322,-322,43,38

2017-10-03 18:49:10,#E#,7,9,524,8598,7,600,558,88,-322,-322,43,38

2017-10-03 18:49:11,
2017-10-03 18:49:11,#E#,0,0,524,4930,7,600,559,99,-214,-213,39,34

2017-10-03 18:49:11,#E#,0,1,524,4930,7,600,559,99,-214,-213,39,34

2017-10-03 18:49:11,#E#,0,2,524,4930,7,600,559,99,-214,-213,39,34

2017-10-03 18:49:11,#E#,0,3,524,4930,7,600,559,99,-214,-213,39,34

2017-10-03 18:49:11,#E#,0,4,524,4930,7,600,558,99,-214,-213,39,34

2017-10-03 18:49:11,#E#,0,5,524,4930,7,600,559,99,-214,-213,39,34

2017-10-03 18:49:11,#E#,0,6,524,4930,7,600,559,99,-214,-213,39,34

2017-10-03 18:49:11,#E#,0,7,524,4930,7,600,559,99,-214,-213,39,34

2017-10-03 18:49:11,#E#,0,8,524,4930,7,600,559,99,-214,-213,39,34

2017-10-03 18:49:11,#E#,0,9,524,4930,7,600,559,99,-214,-213,39,34

2017-10-03 18:49:12,#E#,1,0,524,5454,7,600,559,99,-229,-229,39,34

2017-10-03 18:49:12,#E#,1,1,524,5454,7,600,558,99,-229,-229,39,34

2017-10-03 18:49:12,#E#,1,2,524,5454,7,600,559,99,-229,-229,39,34

2017-10-03 18:49:12,#E#,1,3,524,5454,7,600,558,99,-229,-229,39,34

2017-10-03 18:49:12,#E#,1,4,524,5454,7,600,559,99,-229,-229,39,34

2017-10-03 18:49:12,#E#,1,5,524,5454,7,600,559,99,-229,-229,39,34

2017-10-03 18:49:12,#E#,1,6,524,5454,7,600,559,99,-229,-229,39,34

2017-10-03 18:49:12,#E#,1,7,524,5454,7,600,559,99,-229,-229,39,34

2017-10-03 18:49:12,#E#,1,8,524,5454,7,600,559,99,-229,-229,39,34

2017-10-03 18:49:12,#E#,1,9,524,5454,7,600,559,99,-229,-229,39,34

2017-10-03 18:49:13,#E#,2,0,524,5978,7,600,559,99,-245,-245,39,34

2017-10-03 18:49:13,#E#,2,1,524,5978,7,600,559,99,-245,-245,39,34

2017-10-03 18:49:13,#E#,2,2,524,5978,7,600,559,99,-245,-245,39,34

2017-10-03 18:49:13,#E#,2,3,524,5978,7,600,559,99,-245,-245,39,34

2017-10-03 18:49:13,#E#,2,4,524,5978,7,600,559,99,-245,-245,39,34

2017-10-03 18:49:13,#E#,2,5,524,5978,7,600,558,99,-245,-245,39,34

2017-10-03 18:49:13,#E#,2,6,524,5978,7,600,559,99,-245,-245,39,34

2017-10-03 18:49:13,#E#,2,7,524,5978,7,600,558,99,-245,-245,39,34

2017-10-03 18:49:13,#E#,2,8,524,5978,7,600,559,99,-245,-245,39,34

2017-10-03 18:49:13,#E#,2,9,524,5978,7,600,559,99,-245,-245,39,34

2017-10-03 18:49:14,#E#,3,0,524,6502,7,600,559,99,-260,-260,39,34

2017-10-03 18:49:14,#E#,3,1,524,6502,7,600,559,99,-260,-260,39,34

2017-10-03 18:49:14,#E#,3,2,524,6502,7,600,559,99,-260,-260,39,34

2017-10-03 18:49:14,#E#,3,3,524,6502,7,600,559,99,-260,-260,39,34

2017-10-03 18:49:14,#E#,3,4,524,6502,7,600,558,99,-260,-260,39,34

2017-10-03 18:49:14,#E#,3,5,524,6502,7,600,575,99,-260,-260,39,34

2017-10-03 18:49:14,#E#,3,6,524,6502,7,600,558,99,-260,-260,39,34

2017-10-03 18:49:15,#E#,3,7,524,6502,7,600,559,99,-260,-260,39,34

2017-10-03 18:49:15,#E#,3,8,524,6502,7,600,558,99,-260,-260,39,34

2017-10-03 18:49:15,#E#,3,9,524,6502,7,600,558,99,-260,-260,39,34

2017-10-03 18:49:15,#E#,4,0,524,7026,7,600,559,99,-276,-276,39,34

2017-10-03 18:49:15,#E#,4,1,524,7026,7,600,558,99,-276,-276,39,34

2017-10-03 18:49:15,#E#,4,2,524,7026,7,600,559,99,-276,-276,39,34

2017-10-03 18:49:16,#E#,4,3,524,7026,7,600,559,99,-276,-276,39,34

2017-10-03 18:49:16,#E#,4,4,524,7026,7,600,559,99,-276,-276,39,34

2017-10-03 18:49:16,#E#,4,5,524,7026,7,600,559,99,-276,-276,39,34

2017-10-03 18:49:16,#E#,4,6,524,7026,7,600,559,99,-276,-276,39,34

2017-10-03 18:49:16,#E#,4,7,524,7026,7,600,558,99,-276,-276,39,34

2017-10-03 18:49:16,#E#,4,8,524,7026,7,600,559,99,-276,-276,39,34

2017-10-03 18:49:16,#E#,4,9,524,7026,7,600,559,99,-276,-276,39,34

2017-10-03 18:49:17,#E#,5,0,524,7550,7,600,558,99,-291,-291,39,38

2017-10-03 18:49:17,#E#,5,1,524,7550,7,600,559,99,-291,-291,39,38

2017-10-03 18:49:17,#E#,5,2,524,7550,7,600,559,99,-291,-291,39,38

2017-10-03 18:49:17,#E#,5,3,524,7550,7,600,559,99,-291,-291,39,38

2017-10-03 18:49:17,#E#,5,4,524,7550,7,600,558,99,-291,-291,39,38

2017-10-03 18:49:17,#E#,5,5,524,7550,7,600,558,99,-291,-291,39,38

2017-10-03 18:49:17,#E#,5,6,524,7550,7,600,559,99,-291,-291,39,38

2017-10-03 18:49:17,#E#,5,7,524,7550,7,600,559,99,-291,-291,39,38

2017-10-03 18:49:17,#E#,5,8,524,7550,7,600,559,99,-291,-291,39,38

2017-10-03 18:49:17,#E#,5,9,524,7550,7,600,559,99,-291,-291,39,38

2017-10-03 18:49:18,#E#,6,0,524,8074,7,600,558,99,-306,-306,43,38

2017-10-03 18:49:18,#E#,6,1,524,8074,7,600,558,99,-306,-306,43,38

2017-10-03 18:49:18,#E#,6,2,524,8074,7,600,559,99,-306,-306,43,38

2017-10-03 18:49:18,#E#,6,3,524,8074,7,600,559,99,-306,-306,43,38

2017-10-03 18:49:18,#E#,6,4,524,8074,7,600,559,99,-306,-306,43,38

2017-10-03 18:49:18,#E#,6,5,524,8074,7,600,559,99,-306,-306,43,38

2017-10-03 18:49:18,#E#,6,6,524,8074,7,600,559,99,-306,-306,43,38

2017-10-03 18:49:18,#E#,6,7,524,8074,7,600,559,99,-306,-306,43,38

2017-10-03 18:49:18,#E#,6,8,524,8074,7,600,559,99,-306,-306,43,38

2017-10-03 18:49:18,#E#,6,9,524,8074,7,600,559,99,-306,-306,43,38

2017-10-03 18:49:19,#E#,7,0,524,8598,7,600,558,99,-322,-322,43,38

2017-10-03 18:49:19,#E#,7,1,524,8598,7,600,559,99,-322,-322,43,38

2017-10-03 18:49:19,#E#,7,2,524,8598,7,600,558,99,-322,-322,43,38

2017-10-03 18:49:19,#E#,7,3,524,8598,7,600,559,99,-322,-322,43,38

2017-10-03 18:49:19,#E#,7,4,524,8598,7,600,559,99,-322,-322,43,38

2017-10-03 18:49:19,#E#,7,5,524,8598,7,600,559,99,-322,-322,43,38

2017-10-03 18:49:19,#E#,7,6,524,8598,7,600,559,99,-322,-322,43,38

2017-10-03 18:49:19,#E#,7,7,524,8598,7,600,559,99,-322,-322,43,38

2017-10-03 18:49:19,#E#,7,8,524,8598,7,600,559,99,-322,-322,43,38

2017-10-03 18:49:19,#E#,7,9,524,8598,7,600,559,99,-322,-322,43,38

2017-10-03 18:49:20,
2017-10-03 18:49:20,#E#,0,0,524,4930,7,600,559,aa,-214,-213,35,34

2017-10-03 18:49:20,#E#,0,1,524,4930,7,600,559,aa,-214,-213,35,34

2017-10-03 18:49:20,#E#,0,2,524,4930,7,600,559,aa,-214,-213,35,34

2017-10-03 18:49:20,#E#,0,3,524,4930,7,600,559,aa,-214,-213,35,34

2017-10-03 18:49:20,#E#,0,4,524,4930,7,600,559,aa,-214,-213,35,34

2017-10-03 18:49:20,#E#,0,5,524,4930,7,600,559,aa,-214,-213,35,34

2017-10-03 18:49:20,#E#,0,6,524,4930,7,600,559,aa,-214,-213,35,34

2017-10-03 18:49:20,#E#,0,7,524,4930,7,600,559,aa,-214,-213,35,34

2017-10-03 18:49:20,#E#,0,8,524,4930,7,600,559,aa,-214,-213,35,34

2017-10-03 18:49:20,#E#,0,9,524,4930,7,600,559,aa,-214,-213,35,34

2017-10-03 18:49:21,#E#,1,0,524,5454,7,600,559,aa,-229,-229,39,34

2017-10-03 18:49:21,#E#,1,1,524,5454,7,600,559,aa,-229,-229,39,34

2017-10-03 18:49:21,#E#,1,2,524,5454,7,600,559,aa,-229,-229,39,34

2017-10-03 18:49:21,#E#,1,3,524,5454,7,600,559,aa,-229,-229,39,34

2017-10-03 18:49:21,#E#,1,4,524,5454,7,600,559,aa,-229,-229,39,34

2017-10-03 18:49:21,#E#,1,5,524,5454,7,600,559,aa,-229,-229,39,34

2017-10-03 18:49:21,#E#,1,6,524,5454,7,600,559,aa,-229,-229,39,34

2017-10-03 18:49:21,#E#,1,7,524,5454,7,600,559,aa,-229,-229,39,34

2017-10-03 18:49:21,#E#,1,8,524,5454,7,600,558,aa,-229,-229,39,34

2017-10-03 18:49:21,#E#,1,9,524,5454,7,600,559,aa,-229,-229,39,34

2017-10-03 18:49:22,#E#,2,0,524,5978,7,600,559,aa,-245,-245,39,34

2017-10-03 18:49:22,#E#,2,1,524,5978,7,600,559,aa,-245,-245,39,34

2017-10-03 18:49:22,#E#,2,2,524,5978,7,600,559,aa,-245,-245,39,34

2017-10-03 18:49:22,#E#,2,3,524,5978,7,600,559,aa,-245,-245,39,34

2017-10-03 18:49:22,#E#,2,4,524,5978,7,600,559,aa,-245,-245,39,34

2017-10-03 18:49:22,#E#,2,5,524,5978,7,600,559,aa,-245,-245,39,34

2017-10-03 18:49:22,#E#,2,6,524,5978,7,600,559,aa,-245,-245,39,34

2017-10-03 18:49:22,#E#,2,7,524,5978,7,600,559,aa,-245,-245,39,34

2017-10-03 18:49:22,#E#,2,8,524,5978,7,600,559,aa,-245,-245,39,34

2017-10-03 18:49:22,#E#,2,9,524,5978,7,600,559,aa,-245,-245,39,34

2017-10-03 18:49:23,#E#,3,0,524,6502,7,600,559,aa,-260,-260,39,34

2017-10-03 18:49:23,#E#,3,1,524,6502,7,600,558,aa,-260,-260,39,34

2017-10-03 18:49:23,#E#,3,2,524,6502,7,600,558,aa,-260,-260,39,34

2017-10-03 18:49:23,#E#,3,3,524,6502,7,600,558,aa,-260,-260,39,34

2017-10-03 18:49:23,#E#,3,4,524,6502,7,600,558,aa,-260,-260,39,34

2017-10-03 18:49:23,#E#,3,5,524,6502,7,600,559,aa,-260,-260,39,34

2017-10-03 18:49:23,#E#,3,6,524,6502,7,600,559,aa,-260,-260,39,34

2017-10-03 18:49:23,#E#,3,7,524,6502,7,600,559,aa,-260,-260,39,34

2017-10-03 18:49:23,#E#,3,8,524,6502,7,600,559,aa,-260,-260,39,34

2017-10-03 18:49:23,#E#,3,9,524,6502,7,600,559,aa,-260,-260,39,34

2017-10-03 18:49:24,#E#,4,0,524,7026,7,600,559,aa,-276,-276,39,34

2017-10-03 18:49:24,#E#,4,1,524,7026,7,600,559,aa,-276,-276,39,34

2017-10-03 18:49:24,#E#,4,2,524,7026,7,600,558,aa,-276,-276,39,34

2017-10-03 18:49:24,#E#,4,3,524,7026,7,600,559,aa,-276,-276,39,34

2017-10-03 18:49:24,#E#,4,4,524,7026,7,600,558,aa,-276,-276,39,34

2017-10-03 18:49:24,#E#,4,5,524,7026,7,600,559,aa,-276,-276,39,34

2017-10-03 18:49:24,#E#,4,6,524,7026,7,600,559,aa,-276,-276,39,34

2017-10-03 18:49:24,#E#,4,7,524,7026,7,600,558,aa,-276,-276,39,35

2017-10-03 18:49:24,#E#,4,8,524,7026,7,600,559,aa,-276,-276,39,34

2017-10-03 18:49:24,#E#,4,9,524,7026,7,600,558,aa,-276,-276,39,34

2017-10-03 18:49:25,#E#,5,0,524,7550,7,600,559,aa,-291,-291,39,34

2017-10-03 18:49:25,#E#,5,1,524,7550,7,600,558,aa,-291,-291,39,34

2017-10-03 18:49:25,#E#,5,2,524,7550,7,600,559,aa,-291,-291,39,34

2017-10-03 18:49:25,#E#,5,3,524,7550,7,600,558,aa,-291,-291,39,34

2017-10-03 18:49:25,#E#,5,4,524,7550,7,600,559,aa,-291,-291,39,34

2017-10-03 18:49:25,#E#,5,5,524,7550,7,600,559,aa,-291,-291,39,34

2017-10-03 18:49:25,#E#,5,6,524,7550,7,600,559,aa,-291,-291,39,34

2017-10-03 18:49:25,#E#,5,7,524,7550,7,600,559,aa,-291,-291,39,34

2017-10-03 18:49:25,#E#,5,8,524,7550,7,600,558,aa,-291,-291,39,34

2017-10-03 18:49:25,#E#,5,9,524,7550,7,600,559,aa,-291,-291,39,34

2017-10-03 18:49:26,#E#,6,0,524,8074,7,600,559,aa,-306,-306,39,34

2017-10-03 18:49:26,#E#,6,1,524,8074,7,600,559,aa,-306,-306,39,38

2017-10-03 18:49:26,#E#,6,2,524,8074,7,600,559,aa,-306,-306,39,38

2017-10-03 18:49:26,#E#,6,3,524,8074,7,600,559,aa,-306,-306,39,38

2017-10-03 18:49:26,#E#,6,4,524,8074,7,600,559,aa,-306,-306,39,34

2017-10-03 18:49:26,#E#,6,5,524,8074,7,600,559,aa,-306,-306,39,34

2017-10-03 18:49:26,#E#,6,6,524,8074,7,600,559,aa,-306,-306,39,34

2017-10-03 18:49:26,#E#,6,7,524,8074,7,600,559,aa,-306,-306,39,38

2017-10-03 18:49:26,#E#,6,8,524,8074,7,600,558,aa,-306,-306,39,38

2017-10-03 18:49:27,#E#,6,9,524,8074,7,600,559,aa,-306,-306,39,34

2017-10-03 18:49:27,#E#,7,0,524,8598,7,600,558,aa,-322,-322,39,38

2017-10-03 18:49:27,#E#,7,1,524,8598,7,600,558,aa,-322,-322,43,38

2017-10-03 18:49:27,#E#,7,2,524,8598,7,600,559,aa,-322,-322,43,38

2017-10-03 18:49:27,#E#,7,3,524,8598,7,600,559,aa,-322,-322,39,38

2017-10-03 18:49:27,#E#,7,4,524,8598,7,600,559,aa,-322,-322,43,38

2017-10-03 18:49:28,#E#,7,5,524,8598,7,600,558,aa,-322,-322,43,38

2017-10-03 18:49:28,#E#,7,6,524,8598,7,600,559,aa,-322,-322,39,38

2017-10-03 18:49:28,#E#,7,7,524,8598,7,600,559,aa,-322,-322,39,38

2017-10-03 18:49:28,#E#,7,8,524,8598,7,600,558,aa,-322,-322,43,38

2017-10-03 18:49:28,#E#,7,9,524,8598,7,600,559,aa,-322,-322,39,38

2017-10-03 18:49:29,
2017-10-03 18:49:29,#E#,0,0,524,4930,7,600,558,bb,-214,-214,35,34

2017-10-03 18:49:29,#E#,0,1,524,4930,7,600,559,bb,-214,-214,35,34

2017-10-03 18:49:29,#E#,0,2,524,4930,7,600,559,bb,-214,-214,35,34

2017-10-03 18:49:29,#E#,0,3,524,4930,7,600,558,bb,-214,-214,35,34

2017-10-03 18:49:29,#E#,0,4,524,4930,7,600,559,bb,-214,-214,35,34

2017-10-03 18:49:29,#E#,0,5,524,4930,7,600,558,bb,-214,-214,35,34

2017-10-03 18:49:29,#E#,0,6,524,4930,7,600,559,bb,-214,-214,35,34

2017-10-03 18:49:29,#E#,0,7,524,4930,7,600,559,bb,-214,-214,35,34

2017-10-03 18:49:29,#E#,0,8,524,4930,7,600,558,bb,-214,-214,35,34

2017-10-03 18:49:29,#E#,0,9,524,4930,7,600,559,bb,-214,-214,35,34

2017-10-03 18:49:30,#E#,1,0,524,5454,7,600,559,bb,-229,-229,39,34

2017-10-03 18:49:30,#E#,1,1,524,5454,7,600,559,bb,-229,-229,39,34

2017-10-03 18:49:30,#E#,1,2,524,5454,7,600,558,bb,-229,-229,39,34

2017-10-03 18:49:30,#E#,1,3,524,5454,7,600,559,bb,-229,-229,39,34

2017-10-03 18:49:30,#E#,1,4,524,5454,7,600,559,bb,-229,-229,39,34

2017-10-03 18:49:30,#E#,1,5,524,5454,7,600,558,bb,-229,-229,39,35

2017-10-03 18:49:30,#E#,1,6,524,5454,7,600,559,bb,-229,-229,39,34

2017-10-03 18:49:30,#E#,1,7,524,5454,7,600,559,bb,-229,-229,39,34

2017-10-03 18:49:30,#E#,1,8,524,5454,7,600,559,bb,-229,-229,39,34

2017-10-03 18:49:30,#E#,1,9,524,5454,7,600,559,bb,-229,-229,39,34

2017-10-03 18:49:31,#E#,2,0,524,5978,7,600,559,bb,-245,-245,39,34

2017-10-03 18:49:31,#E#,2,1,524,5978,7,600,558,bb,-245,-245,39,34

2017-10-03 18:49:31,#E#,2,2,524,5978,7,600,559,bb,-245,-245,39,34

2017-10-03 18:49:31,#E#,2,3,524,5978,7,600,559,bb,-245,-245,39,34

2017-10-03 18:49:31,#E#,2,4,524,5978,7,600,559,bb,-245,-245,39,34

2017-10-03 18:49:31,#E#,2,5,524,5978,7,600,559,bb,-245,-245,39,34

2017-10-03 18:49:31,#E#,2,6,524,5978,7,600,559,bb,-245,-245,39,34

2017-10-03 18:49:31,#E#,2,7,524,5978,7,600,558,bb,-245,-245,39,34

2017-10-03 18:49:31,#E#,2,8,524,5978,7,600,559,bb,-245,-245,39,34

2017-10-03 18:49:31,#E#,2,9,524,5978,7,600,559,bb,-245,-245,39,34

2017-10-03 18:49:32,#E#,3,0,524,6502,7,600,558,bb,-260,-260,39,34

2017-10-03 18:49:32,#E#,3,1,524,6502,7,600,559,bb,-260,-260,39,34

2017-10-03 18:49:32,#E#,3,2,524,6502,7,600,558,bb,-260,-260,39,34

2017-10-03 18:49:32,#E#,3,3,524,6502,7,600,558,bb,-260,-260,39,34

2017-10-03 18:49:32,#E#,3,4,524,6502,7,600,558,bb,-260,-260,39,34

2017-10-03 18:49:32,#E#,3,5,524,6502,7,600,559,bb,-260,-260,39,34

2017-10-03 18:49:32,#E#,3,6,524,6502,7,600,559,bb,-260,-260,39,34

2017-10-03 18:49:32,#E#,3,7,524,6502,7,600,559,bb,-260,-260,39,34

2017-10-03 18:49:32,#E#,3,8,524,6502,7,600,559,bb,-260,-260,39,34

2017-10-03 18:49:32,#E#,3,9,524,6502,7,600,559,bb,-260,-260,39,34

2017-10-03 18:49:33,#E#,4,0,524,7026,7,600,559,bb,-276,-276,39,34

2017-10-03 18:49:33,#E#,4,1,524,7026,7,600,559,bb,-276,-276,39,34

2017-10-03 18:49:33,#E#,4,2,524,7026,7,600,558,bb,-276,-276,39,34

2017-10-03 18:49:33,#E#,4,3,524,7026,7,600,559,bb,-276,-276,39,34

2017-10-03 18:49:33,#E#,4,4,524,7026,7,600,559,bb,-276,-276,39,34

2017-10-03 18:49:33,#E#,4,5,524,7026,7,600,559,bb,-276,-276,39,34

2017-10-03 18:49:33,#E#,4,6,524,7026,7,600,559,bb,-276,-276,39,34

2017-10-03 18:49:33,#E#,4,7,524,7026,7,600,559,bb,-276,-276,39,34

2017-10-03 18:49:33,#E#,4,8,524,7026,7,600,559,bb,-276,-276,39,34

2017-10-03 18:49:33,#E#,4,9,524,7026,7,600,559,bb,-276,-276,39,34

2017-10-03 18:49:34,#E#,5,0,524,7550,7,600,559,bb,-291,-291,39,34

2017-10-03 18:49:34,#E#,5,1,524,7550,7,600,559,bb,-291,-291,39,34

2017-10-03 18:49:34,#E#,5,2,524,7550,7,600,559,bb,-291,-291,39,34

2017-10-03 18:49:34,#E#,5,3,524,7550,7,600,559,bb,-291,-291,39,34

2017-10-03 18:49:34,#E#,5,4,524,7550,7,600,559,bb,-291,-291,39,34

2017-10-03 18:49:34,#E#,5,5,524,7550,7,600,559,bb,-291,-291,39,34

2017-10-03 18:49:34,#E#,5,6,524,7550,7,600,559,bb,-291,-291,39,34

2017-10-03 18:49:34,#E#,5,7,524,7550,7,600,559,bb,-291,-291,39,34

2017-10-03 18:49:34,#E#,5,8,524,7550,7,600,559,bb,-291,-291,39,34

2017-10-03 18:49:34,#E#,5,9,524,7550,7,600,559,bb,-291,-291,39,34

2017-10-03 18:49:35,#E#,6,0,524,8074,7,600,559,bb,-306,-306,39,34

2017-10-03 18:49:35,#E#,6,1,524,8074,7,600,559,bb,-306,-306,39,34

2017-10-03 18:49:35,#E#,6,2,524,8074,7,600,559,bb,-306,-306,39,34

2017-10-03 18:49:35,#E#,6,3,524,8074,7,600,559,bb,-306,-306,39,38

2017-10-03 18:49:35,#E#,6,4,524,8074,7,600,559,bb,-306,-306,39,34

2017-10-03 18:49:35,#E#,6,5,524,8074,7,600,558,bb,-306,-306,39,34

2017-10-03 18:49:35,#E#,6,6,524,8074,7,600,558,bb,-306,-306,39,34

2017-10-03 18:49:35,#E#,6,7,524,8074,7,600,559,bb,-306,-306,39,34

2017-10-03 18:49:35,#E#,6,8,524,8074,7,600,559,bb,-306,-306,39,34

2017-10-03 18:49:35,#E#,6,9,524,8074,7,600,559,bb,-306,-306,39,34

2017-10-03 18:49:36,#E#,7,0,524,8598,7,599,559,bb,-322,-322,39,38

2017-10-03 18:49:36,#E#,7,1,524,8598,7,599,559,bb,-322,-322,39,38

2017-10-03 18:49:36,#E#,7,2,524,8598,7,599,559,bb,-322,-322,39,38

2017-10-03 18:49:36,#E#,7,3,524,8598,7,599,558,bb,-322,-322,39,38

2017-10-03 18:49:36,#E#,7,4,524,8598,7,599,559,bb,-322,-322,39,38

2017-10-03 18:49:36,#E#,7,5,524,8598,7,599,559,bb,-322,-322,39,38

2017-10-03 18:49:36,#E#,7,6,524,8598,7,599,558,bb,-322,-322,39,38

2017-10-03 18:49:36,#E#,7,7,524,8598,7,599,559,bb,-322,-322,39,38

2017-10-03 18:49:36,#E#,7,8,524,8598,7,599,558,bb,-322,-322,39,38

2017-10-03 18:49:36,#E#,7,9,524,8598,7,599,558,bb,-322,-322,39,38

2017-10-03 18:49:37,
2017-10-03 18:49:37,#E#,0,0,524,4930,7,600,559,cc,-214,-213,35,30

2017-10-03 18:49:37,#E#,0,1,524,4930,7,600,558,cc,-214,-213,35,30

2017-10-03 18:49:37,#E#,0,2,524,4930,7,600,559,cc,-214,-213,35,30

2017-10-03 18:49:37,#E#,0,3,524,4930,7,600,559,cc,-214,-213,35,30

2017-10-03 18:49:37,#E#,0,4,524,4930,7,600,559,cc,-214,-213,35,30

2017-10-03 18:49:37,#E#,0,5,524,4930,7,600,559,cc,-214,-213,35,30

2017-10-03 18:49:37,#E#,0,6,524,4930,7,600,559,cc,-214,-213,35,30

2017-10-03 18:49:37,#E#,0,7,524,4930,7,600,559,cc,-214,-213,35,30

2017-10-03 18:49:37,#E#,0,8,524,4930,7,600,558,cc,-214,-213,35,30

2017-10-03 18:49:37,#E#,0,9,524,4930,7,600,559,cc,-214,-213,35,30

2017-10-03 18:49:38,#E#,1,0,524,5454,7,599,559,cc,-229,-229,35,30

2017-10-03 18:49:38,#E#,1,1,524,5454,7,599,559,cc,-229,-229,35,30

2017-10-03 18:49:38,#E#,1,2,524,5454,7,599,559,cc,-229,-229,35,30

2017-10-03 18:49:38,#E#,1,3,524,5454,7,599,559,cc,-229,-229,35,30

2017-10-03 18:49:38,#E#,1,4,524,5454,7,599,559,cc,-229,-229,35,30

2017-10-03 18:49:38,#E#,1,5,524,5454,7,599,559,cc,-229,-229,35,30

2017-10-03 18:49:39,#E#,1,6,524,5454,7,599,559,cc,-229,-229,35,30

2017-10-03 18:49:39,#E#,1,7,524,5454,7,599,559,cc,-229,-229,35,30

2017-10-03 18:49:39,#E#,1,8,524,5454,7,599,559,cc,-229,-229,35,30

2017-10-03 18:49:39,#E#,1,9,524,5454,7,599,559,cc,-229,-229,35,30

2017-10-03 18:49:39,#E#,2,0,524,5978,7,600,559,cc,-245,-245,35,30

2017-10-03 18:49:40,#E#,2,1,524,5978,7,600,559,cc,-245,-245,35,30

2017-10-03 18:49:40,#E#,2,2,524,5978,7,600,559,cc,-245,-245,35,30

2017-10-03 18:49:40,#E#,2,3,524,5978,7,600,559,cc,-245,-245,35,30

2017-10-03 18:49:40,#E#,2,4,524,5978,7,600,559,cc,-245,-245,35,30

2017-10-03 18:49:40,#E#,2,5,524,5978,7,600,559,cc,-245,-245,35,30

2017-10-03 18:49:40,#E#,2,6,524,5978,7,600,559,cc,-245,-245,35,30

2017-10-03 18:49:40,#E#,2,7,524,5978,7,600,559,cc,-245,-245,35,30

2017-10-03 18:49:40,#E#,2,8,524,5978,7,600,559,cc,-245,-245,35,30

2017-10-03 18:49:40,#E#,2,9,524,5978,7,600,559,cc,-245,-245,35,30

2017-10-03 18:49:41,#E#,3,0,524,6502,7,600,559,cc,-260,-260,35,30

2017-10-03 18:49:41,#E#,3,1,524,6502,7,600,559,cc,-260,-260,35,30

2017-10-03 18:49:41,#E#,3,2,524,6502,7,600,558,cc,-260,-260,35,30

2017-10-03 18:49:41,#E#,3,3,524,6502,7,600,559,cc,-260,-260,35,30

2017-10-03 18:49:41,#E#,3,4,524,6502,7,600,559,cc,-260,-260,35,30

2017-10-03 18:49:41,#E#,3,5,524,6502,7,600,559,cc,-260,-260,35,30

2017-10-03 18:49:41,#E#,3,6,524,6502,7,600,559,cc,-260,-260,35,30

2017-10-03 18:49:41,#E#,3,7,524,6502,7,600,559,cc,-260,-260,35,30

2017-10-03 18:49:41,#E#,3,8,524,6502,7,600,559,cc,-260,-260,35,30

2017-10-03 18:49:41,#E#,3,9,524,6502,7,600,559,cc,-260,-260,35,30

2017-10-03 18:49:42,#E#,4,0,524,7026,7,600,559,cc,-276,-276,35,34

2017-10-03 18:49:42,#E#,4,1,524,7026,7,600,559,cc,-276,-276,35,34

2017-10-03 18:49:42,#E#,4,2,524,7026,7,600,559,cc,-276,-276,35,34

2017-10-03 18:49:42,#E#,4,3,524,7026,7,600,559,cc,-276,-276,35,34

2017-10-03 18:49:42,#E#,4,4,524,7026,7,600,559,cc,-276,-276,35,34

2017-10-03 18:49:42,#E#,4,5,524,7026,7,600,559,cc,-276,-276,35,34

2017-10-03 18:49:42,#E#,4,6,524,7026,7,600,559,cc,-276,-276,35,34

2017-10-03 18:49:42,#E#,4,7,524,7026,7,600,559,cc,-276,-276,35,34

2017-10-03 18:49:42,#E#,4,8,524,7026,7,600,559,cc,-276,-276,35,34

2017-10-03 18:49:42,#E#,4,9,524,7026,7,600,559,cc,-276,-276,35,34

2017-10-03 18:49:43,#E#,5,0,524,7550,7,600,558,cc,-291,-291,35,34

2017-10-03 18:49:43,#E#,5,1,524,7550,7,600,558,cc,-291,-291,39,34

2017-10-03 18:49:43,#E#,5,2,524,7550,7,600,558,cc,-291,-291,35,34

2017-10-03 18:49:43,#E#,5,3,524,7550,7,600,559,cc,-291,-291,35,34

2017-10-03 18:49:43,#E#,5,4,524,7550,7,600,558,cc,-291,-291,35,34

2017-10-03 18:49:43,#E#,5,5,524,7550,7,600,559,cc,-291,-291,35,34

2017-10-03 18:49:43,#E#,5,6,524,7550,7,600,559,cc,-291,-291,35,34

2017-10-03 18:49:43,#E#,5,7,524,7550,7,600,559,cc,-291,-291,35,34

2017-10-03 18:49:43,#E#,5,8,524,7550,7,600,559,cc,-291,-291,35,34

2017-10-03 18:49:43,#E#,5,9,524,7550,7,600,559,cc,-291,-291,35,34

2017-10-03 18:49:44,#E#,6,0,524,8074,7,600,558,cc,-306,-306,39,34

2017-10-03 18:49:44,#E#,6,1,524,8074,7,600,559,cc,-306,-306,39,34

2017-10-03 18:49:44,#E#,6,2,524,8074,7,600,559,cc,-306,-306,39,34

2017-10-03 18:49:44,#E#,6,3,524,8074,7,600,559,cc,-306,-306,39,34

2017-10-03 18:49:44,#E#,6,4,524,8074,7,600,559,cc,-306,-306,39,34

2017-10-03 18:49:44,#E#,6,5,524,8074,7,600,559,cc,-306,-306,39,34

2017-10-03 18:49:44,#E#,6,6,524,8074,7,600,559,cc,-306,-306,39,34

2017-10-03 18:49:44,#E#,6,7,524,8074,7,600,559,cc,-306,-306,39,34

2017-10-03 18:49:44,#E#,6,8,524,8074,7,600,559,cc,-306,-306,39,34

2017-10-03 18:49:44,#E#,6,9,524,8074,7,600,559,cc,-306,-306,39,34

2017-10-03 18:49:45,#E#,7,0,524,8598,7,600,559,cc,-322,-322,39,34

2017-10-03 18:49:45,#E#,7,1,524,8598,7,600,559,cc,-322,-322,39,34

2017-10-03 18:49:45,#E#,7,2,524,8598,7,600,559,cc,-322,-322,39,34

2017-10-03 18:49:45,#E#,7,3,524,8598,7,600,559,cc,-322,-322,39,34

2017-10-03 18:49:45,#E#,7,4,524,8598,7,600,559,cc,-322,-322,39,34

2017-10-03 18:49:45,#E#,7,5,524,8598,7,600,559,cc,-322,-322,39,34

2017-10-03 18:49:45,#E#,7,6,524,8598,7,600,559,cc,-322,-322,39,34

2017-10-03 18:49:45,#E#,7,7,524,8598,7,600,559,cc,-322,-322,39,34

2017-10-03 18:49:45,#E#,7,8,524,8598,7,600,559,cc,-322,-322,39,34

2017-10-03 18:49:45,#E#,7,9,524,8598,7,600,559,cc,-322,-322,39,34

2017-10-03 18:49:46,
2017-10-03 18:49:46,#E#,0,0,524,4930,7,600,559,dd,-214,-213,35,30

2017-10-03 18:49:46,#E#,0,1,524,4930,7,600,558,dd,-214,-213,35,30

2017-10-03 18:49:46,#E#,0,2,524,4930,7,600,559,dd,-214,-213,35,30

2017-10-03 18:49:46,#E#,0,3,524,4930,7,600,559,dd,-214,-213,35,30

2017-10-03 18:49:46,#E#,0,4,524,4930,7,600,558,dd,-214,-213,35,30

2017-10-03 18:49:46,#E#,0,5,524,4930,7,600,559,dd,-214,-213,35,30

2017-10-03 18:49:46,#E#,0,6,524,4930,7,600,558,dd,-214,-213,35,30

2017-10-03 18:49:46,#E#,0,7,524,4930,7,600,558,dd,-214,-213,35,30

2017-10-03 18:49:46,#E#,0,8,524,4930,7,600,559,dd,-214,-213,35,30

2017-10-03 18:49:46,#E#,0,9,524,4930,7,600,558,dd,-214,-213,35,30

2017-10-03 18:49:47,#E#,1,0,524,5454,7,599,558,dd,-229,-229,35,30

2017-10-03 18:49:47,#E#,1,1,524,5454,7,599,559,dd,-229,-229,35,30

2017-10-03 18:49:47,#E#,1,2,524,5454,7,599,558,dd,-229,-229,35,30

2017-10-03 18:49:47,#E#,1,3,524,5454,7,599,559,dd,-229,-229,35,30

2017-10-03 18:49:47,#E#,1,4,524,5454,7,599,559,dd,-229,-229,35,30

2017-10-03 18:49:47,#E#,1,5,524,5454,7,599,559,dd,-229,-229,35,30

2017-10-03 18:49:47,#E#,1,6,524,5454,7,599,559,dd,-229,-229,35,30

2017-10-03 18:49:47,#E#,1,7,524,5454,7,599,559,dd,-229,-229,35,30

2017-10-03 18:49:47,#E#,1,8,524,5454,7,599,559,dd,-229,-229,35,30

2017-10-03 18:49:47,#E#,1,9,524,5454,7,599,559,dd,-229,-229,35,30

2017-10-03 18:49:48,#E#,2,0,524,5978,7,600,559,dd,-245,-245,35,30

2017-10-03 18:49:48,#E#,2,1,524,5978,7,600,558,dd,-245,-245,35,30

2017-10-03 18:49:48,#E#,2,2,524,5978,7,600,558,dd,-245,-245,35,30

2017-10-03 18:49:48,#E#,2,3,524,5978,7,600,559,dd,-245,-245,35,30

2017-10-03 18:49:48,#E#,2,4,524,5978,7,600,559,dd,-245,-245,35,30

2017-10-03 18:49:48,#E#,2,5,524,5978,7,600,559,dd,-245,-245,35,30

2017-10-03 18:49:48,#E#,2,6,524,5978,7,600,559,dd,-245,-245,35,30

2017-10-03 18:49:48,#E#,2,7,524,5978,7,600,559,dd,-245,-245,35,30

2017-10-03 18:49:48,#E#,2,8,524,5978,7,600,559,dd,-245,-245,35,30

2017-10-03 18:49:48,#E#,2,9,524,5978,7,600,559,dd,-245,-245,35,30

2017-10-03 18:49:49,#E#,3,0,524,6502,7,600,559,dd,-260,-260,35,30

2017-10-03 18:49:49,#E#,3,1,524,6502,7,600,559,dd,-260,-260,35,30

2017-10-03 18:49:49,#E#,3,2,524,6502,7,600,559,dd,-260,-260,35,30

2017-10-03 18:49:49,#E#,3,3,524,6502,7,600,559,dd,-260,-260,35,30

2017-10-03 18:49:49,#E#,3,4,524,6502,7,600,558,dd,-260,-260,35,30

2017-10-03 18:49:49,#E#,3,5,524,6502,7,600,559,dd,-260,-260,35,30

2017-10-03 18:49:49,#E#,3,6,524,6502,7,600,558,dd,-260,-260,35,30

2017-10-03 18:49:49,#E#,3,7,524,6502,7,600,559,dd,-260,-260,35,30

2017-10-03 18:49:49,#E#,3,8,524,6502,7,600,558,dd,-260,-260,35,30

2017-10-03 18:49:49,#E#,3,9,524,6502,7,600,559,dd,-260,-260,35,30

2017-10-03 18:49:50,#E#,4,0,524,7026,7,599,558,dd,-276,-276,35,34

2017-10-03 18:49:50,#E#,4,1,524,7026,7,599,559,dd,-276,-276,35,34

2017-10-03 18:49:50,#E#,4,2,524,7026,7,599,559,dd,-276,-276,35,34

2017-10-03 18:49:50,#E#,4,3,524,7026,7,599,559,dd,-276,-276,35,34

2017-10-03 18:49:50,#E#,4,4,524,7026,7,599,559,dd,-276,-276,35,34

2017-10-03 18:49:50,#E#,4,5,524,7026,7,599,559,dd,-276,-276,35,34

2017-10-03 18:49:50,#E#,4,6,524,7026,7,599,559,dd,-276,-276,35,34

2017-10-03 18:49:50,#E#,4,7,524,7026,7,599,558,dd,-276,-276,35,34

2017-10-03 18:49:51,#E#,4,8,524,7026,7,599,559,dd,-276,-276,35,34

2017-10-03 18:49:51,#E#,4,9,524,7026,7,599,559,dd,-276,-276,35,34

2017-10-03 18:49:51,#E#,5,0,524,7550,7,600,558,dd,-291,-291,35,34

2017-10-03 18:49:51,#E#,5,1,524,7550,7,600,559,dd,-291,-291,35,34

2017-10-03 18:49:51,#E#,5,2,524,7550,7,600,559,dd,-291,-291,35,34

2017-10-03 18:49:52,#E#,5,3,524,7550,7,600,559,dd,-291,-291,35,34

2017-10-03 18:49:52,#E#,5,4,524,7550,7,600,559,dd,-291,-291,35,34

2017-10-03 18:49:52,#E#,5,5,524,7550,7,600,559,dd,-291,-291,35,34

2017-10-03 18:49:52,#E#,5,6,524,7550,7,600,559,dd,-291,-291,35,34

2017-10-03 18:49:52,#E#,5,7,524,7550,7,600,559,dd,-291,-291,35,34

2017-10-03 18:49:52,#E#,5,8,524,7550,7,600,558,dd,-291,-291,35,34

2017-10-03 18:49:52,#E#,5,9,524,7550,7,600,559,dd,-291,-291,35,34

2017-10-03 18:49:53,#E#,6,0,524,8074,7,599,559,dd,-306,-306,39,34

2017-10-03 18:49:53,#E#,6,1,524,8074,7,599,558,dd,-306,-306,39,34

2017-10-03 18:49:53,#E#,6,2,524,8074,7,599,559,dd,-306,-306,39,34

2017-10-03 18:49:53,#E#,6,3,524,8074,7,599,559,dd,-306,-306,39,34

2017-10-03 18:49:53,#E#,6,4,524,8074,7,599,559,dd,-306,-306,39,34

2017-10-03 18:49:53,#E#,6,5,524,8074,7,599,559,dd,-306,-306,39,34

2017-10-03 18:49:53,#E#,6,6,524,8074,7,599,559,dd,-306,-306,39,34

2017-10-03 18:49:53,#E#,6,7,524,8074,7,599,559,dd,-306,-306,39,34

2017-10-03 18:49:53,#E#,6,8,524,8074,7,599,559,dd,-306,-306,39,34

2017-10-03 18:49:53,#E#,6,9,524,8074,7,599,559,dd,-306,-306,39,34

2017-10-03 18:49:54,#E#,7,0,524,8598,7,600,559,dd,-322,-322,39,34

2017-10-03 18:49:54,#E#,7,1,524,8598,7,600,559,dd,-322,-322,39,34

2017-10-03 18:49:54,#E#,7,2,524,8598,7,600,558,dd,-322,-322,39,34

2017-10-03 18:49:54,#E#,7,3,524,8598,7,600,559,dd,-322,-322,39,34

2017-10-03 18:49:54,#E#,7,4,524,8598,7,600,559,dd,-322,-322,39,34

2017-10-03 18:49:54,#E#,7,5,524,8598,7,600,558,dd,-322,-322,39,34

2017-10-03 18:49:54,#E#,7,6,524,8598,7,600,558,dd,-322,-322,39,34

2017-10-03 18:49:54,#E#,7,7,524,8598,7,600,559,dd,-322,-322,39,34

2017-10-03 18:49:54,#E#,7,8,524,8598,7,600,559,dd,-322,-322,39,34

2017-10-03 18:49:54,#E#,7,9,524,8598,7,600,559,dd,-322,-322,39,34

2017-10-03 18:49:55,
2017-10-03 18:49:55,#E#,0,0,524,4930,7,600,559,ee,-214,-213,35,30

2017-10-03 18:49:55,#E#,0,1,524,4930,7,600,559,ee,-214,-213,35,30

2017-10-03 18:49:55,#E#,0,2,524,4930,7,600,559,ee,-214,-213,35,30

2017-10-03 18:49:55,#E#,0,3,524,4930,7,600,558,ee,-214,-213,35,30

2017-10-03 18:49:55,#E#,0,4,524,4930,7,600,559,ee,-214,-213,35,30

2017-10-03 18:49:55,#E#,0,5,524,4930,7,600,559,ee,-214,-213,35,30

2017-10-03 18:49:55,#E#,0,6,524,4930,7,600,559,ee,-214,-213,35,30

2017-10-03 18:49:55,#E#,0,7,524,4930,7,600,559,ee,-214,-213,35,30

2017-10-03 18:49:55,#E#,0,8,524,4930,7,600,558,ee,-214,-213,35,30

2017-10-03 18:49:55,#E#,0,9,524,4930,7,600,559,ee,-214,-213,35,30

2017-10-03 18:49:56,#E#,1,0,524,5454,7,600,559,ee,-229,-229,35,30

2017-10-03 18:49:56,#E#,1,1,524,5454,7,600,559,ee,-229,-229,35,30

2017-10-03 18:49:56,#E#,1,2,524,5454,7,600,559,ee,-229,-229,35,30

2017-10-03 18:49:56,#E#,1,3,524,5454,7,600,559,ee,-229,-229,35,30

2017-10-03 18:49:56,#E#,1,4,524,5454,7,600,558,ee,-229,-229,35,30

2017-10-03 18:49:56,#E#,1,5,524,5454,7,600,559,ee,-229,-229,35,30

2017-10-03 18:49:56,#E#,1,6,524,5454,7,600,559,ee,-229,-229,35,30

2017-10-03 18:49:56,#E#,1,7,524,5454,7,600,559,ee,-229,-229,35,30

2017-10-03 18:49:56,#E#,1,8,524,5454,7,600,559,ee,-229,-229,35,30

2017-10-03 18:49:56,#E#,1,9,524,5454,7,600,559,ee,-229,-229,35,30

2017-10-03 18:49:57,#E#,2,0,524,5978,7,600,559,ee,-245,-245,35,30

2017-10-03 18:49:57,#E#,2,1,524,5978,7,600,558,ee,-245,-245,35,30

2017-10-03 18:49:57,#E#,2,2,524,5978,7,600,559,ee,-245,-245,35,30

2017-10-03 18:49:57,#E#,2,3,524,5978,7,600,558,ee,-245,-245,35,30

2017-10-03 18:49:57,#E#,2,4,524,5978,7,600,559,ee,-245,-245,35,30

2017-10-03 18:49:57,#E#,2,5,524,5978,7,600,558,ee,-245,-245,35,30

2017-10-03 18:49:57,#E#,2,6,524,5978,7,600,559,ee,-245,-245,35,30

2017-10-03 18:49:57,#E#,2,7,524,5978,7,600,559,ee,-245,-245,35,30

2017-10-03 18:49:57,#E#,2,8,524,5978,7,600,559,ee,-245,-245,35,30

2017-10-03 18:49:57,#E#,2,9,524,5978,7,600,559,ee,-245,-245,35,30

2017-10-03 18:49:58,#E#,3,0,524,6502,7,600,559,ee,-260,-260,35,30

2017-10-03 18:49:58,#E#,3,1,524,6502,7,600,559,ee,-260,-260,35,30

2017-10-03 18:49:58,#E#,3,2,524,6502,7,600,559,ee,-260,-260,35,30

2017-10-03 18:49:58,#E#,3,3,524,6502,7,600,558,ee,-260,-260,35,30

2017-10-03 18:49:58,#E#,3,4,524,6502,7,600,558,ee,-260,-260,35,30

2017-10-03 18:49:58,#E#,3,5,524,6502,7,600,559,ee,-260,-260,35,30

2017-10-03 18:49:58,#E#,3,6,524,6502,7,600,558,ee,-260,-260,35,30

2017-10-03 18:49:58,#E#,3,7,524,6502,7,600,558,ee,-260,-260,35,30

2017-10-03 18:49:58,#E#,3,8,524,6502,7,600,559,ee,-260,-260,35,30

2017-10-03 18:49:58,#E#,3,9,524,6502,7,600,559,ee,-260,-260,35,30

2017-10-03 18:49:59,#E#,4,0,524,7026,7,600,558,ee,-276,-276,35,30

2017-10-03 18:49:59,#E#,4,1,524,7026,7,600,559,ee,-276,-276,35,30

2017-10-03 18:49:59,#E#,4,2,524,7026,7,600,558,ee,-276,-276,35,30

2017-10-03 18:49:59,#E#,4,3,524,7026,7,600,558,ee,-276,-276,35,30

2017-10-03 18:49:59,#E#,4,4,524,7026,7,600,559,ee,-276,-276,35,30

2017-10-03 18:49:59,#E#,4,5,524,7026,7,600,558,ee,-276,-276,35,30

2017-10-03 18:49:59,#E#,4,6,524,7026,7,600,559,ee,-276,-276,35,30

2017-10-03 18:49:59,#E#,4,7,524,7026,7,600,558,ee,-276,-276,35,30

2017-10-03 18:49:59,#E#,4,8,524,7026,7,600,559,ee,-276,-276,35,30

2017-10-03 18:49:59,#E#,4,9,524,7026,7,600,559,ee,-276,-276,35,30

2017-10-03 18:50:00,#E#,5,0,524,7550,7,600,559,ee,-291,-291,35,34

2017-10-03 18:50:00,#E#,5,1,524,7550,7,600,559,ee,-291,-291,35,34

2017-10-03 18:50:00,#E#,5,2,524,7550,7,600,558,ee,-291,-291,35,34

2017-10-03 18:50:00,#E#,5,3,524,7550,7,600,559,ee,-291,-291,35,34

2017-10-03 18:50:00,#E#,5,4,524,7550,7,600,558,ee,-291,-291,35,34

2017-10-03 18:50:00,#E#,5,5,524,7550,7,600,559,ee,-291,-291,35,34

2017-10-03 18:50:00,#E#,5,6,524,7550,7,600,559,ee,-291,-291,35,34

2017-10-03 18:50:00,#E#,5,7,524,7550,7,600,559,ee,-291,-291,35,34

2017-10-03 18:50:00,#E#,5,8,524,7550,7,600,559,ee,-291,-291,35,34

2017-10-03 18:50:00,#E#,5,9,524,7550,7,600,559,ee,-291,-291,35,34

2017-10-03 18:50:01,#E#,6,0,524,8074,7,600,559,ee,-306,-306,35,34

2017-10-03 18:50:01,#E#,6,1,524,8074,7,600,559,ee,-306,-306,35,34

2017-10-03 18:50:01,#E#,6,2,524,8074,7,600,559,ee,-306,-306,35,34

2017-10-03 18:50:01,#E#,6,3,524,8074,7,600,559,ee,-306,-306,35,34

2017-10-03 18:50:01,#E#,6,4,524,8074,7,600,559,ee,-306,-306,35,34

2017-10-03 18:50:01,#E#,6,5,524,8074,7,600,559,ee,-306,-306,35,34

2017-10-03 18:50:01,#E#,6,6,524,8074,7,600,559,ee,-306,-306,35,34

2017-10-03 18:50:01,#E#,6,7,524,8074,7,600,559,ee,-306,-306,35,34

2017-10-03 18:50:01,#E#,6,8,524,8074,7,600,559,ee,-306,-306,35,34

2017-10-03 18:50:01,#E#,6,9,524,8074,7,600,558,ee,-306,-306,35,34

2017-10-03 18:50:02,#E#,7,0,524,8598,7,599,559,ee,-322,-322,39,34

2017-10-03 18:50:02,#E#,7,1,524,8598,7,599,559,ee,-322,-322,39,34

2017-10-03 18:50:02,#E#,7,2,524,8598,7,599,559,ee,-322,-322,39,34

2017-10-03 18:50:02,#E#,7,3,524,8598,7,599,558,ee,-322,-322,39,34

2017-10-03 18:50:02,#E#,7,4,524,8598,7,599,559,ee,-322,-322,39,34

2017-10-03 18:50:02,#E#,7,5,524,8598,7,599,559,ee,-322,-322,39,34

2017-10-03 18:50:02,#E#,7,6,524,8598,7,599,559,ee,-322,-322,39,34

2017-10-03 18:50:02,#E#,7,7,524,8598,7,599,559,ee,-322,-322,39,34

2017-10-03 18:50:02,#E#,7,8,524,8598,7,599,559,ee,-322,-322,39,34

2017-10-03 18:50:02,#E#,7,9,524,8598,7,599,559,ee,-322,-322,39,34

2017-10-03 18:50:03,
2017-10-03 18:50:04,#E#,0,0,524,4930,7,600,559,ff,-213,-213,35,30

2017-10-03 18:50:04,#E#,0,1,524,4930,7,600,559,ff,-213,-213,35,30

2017-10-03 18:50:04,#E#,0,2,524,4930,7,600,559,ff,-213,-213,35,30

2017-10-03 18:50:04,#E#,0,3,524,4930,7,600,559,ff,-213,-213,35,30

2017-10-03 18:50:04,#E#,0,4,524,4930,7,600,559,ff,-213,-213,35,30

2017-10-03 18:50:04,#E#,0,5,524,4930,7,600,559,ff,-213,-213,35,30

2017-10-03 18:50:04,#E#,0,6,524,4930,7,600,559,ff,-213,-213,35,30

2017-10-03 18:50:04,#E#,0,7,524,4930,7,600,559,ff,-213,-213,35,30

2017-10-03 18:50:04,#E#,0,8,524,4930,7,600,559,ff,-213,-213,35,30

2017-10-03 18:50:04,#E#,0,9,524,4930,7,600,559,ff,-213,-213,35,30

2017-10-03 18:50:05,#E#,1,0,524,5454,7,600,558,ff,-229,-229,35,30

2017-10-03 18:50:05,#E#,1,1,524,5454,7,600,559,ff,-229,-229,35,30

2017-10-03 18:50:05,#E#,1,2,524,5454,7,600,559,ff,-229,-229,35,30

2017-10-03 18:50:05,#E#,1,3,524,5454,7,600,558,ff,-229,-229,35,30

2017-10-03 18:50:05,#E#,1,4,524,5454,7,600,558,ff,-229,-229,35,30

2017-10-03 18:50:05,#E#,1,5,524,5454,7,600,558,ff,-229,-229,35,30

2017-10-03 18:50:05,#E#,1,6,524,5454,7,600,559,ff,-229,-229,35,30

2017-10-03 18:50:05,#E#,1,7,524,5454,7,600,559,ff,-229,-229,35,30

2017-10-03 18:50:05,#E#,1,8,524,5454,7,600,559,ff,-229,-229,35,30

2017-10-03 18:50:05,#E#,1,9,524,5454,7,600,559,ff,-229,-229,35,30

2017-10-03 18:50:06,#E#,2,0,524,5978,7,600,558,ff,-245,-245,35,30

2017-10-03 18:50:06,#E#,2,1,524,5978,7,600,559,ff,-245,-245,35,30

2017-10-03 18:50:06,#E#,2,2,524,5978,7,600,559,ff,-245,-245,35,30

2017-10-03 18:50:06,#E#,2,3,524,5978,7,600,559,ff,-245,-245,35,30

2017-10-03 18:50:06,#E#,2,4,524,5978,7,600,559,ff,-245,-245,35,30

2017-10-03 18:50:06,#E#,2,5,524,5978,7,600,558,ff,-245,-245,35,30

2017-10-03 18:50:06,#E#,2,6,524,5978,7,600,558,ff,-245,-245,35,30

2017-10-03 18:50:06,#E#,2,7,524,5978,7,600,559,ff,-245,-245,35,30

2017-10-03 18:50:06,#E#,2,8,524,5978,7,600,559,ff,-245,-245,35,30

2017-10-03 18:50:06,#E#,2,9,524,5978,7,600,559,ff,-245,-245,35,30

2017-10-03 18:50:07,#E#,3,0,524,6502,7,600,558,ff,-260,-260,35,30

2017-10-03 18:50:07,#E#,3,1,524,6502,7,600,558,ff,-260,-260,35,30

2017-10-03 18:50:07,#E#,3,2,524,6502,7,600,559,ff,-260,-260,35,30

2017-10-03 18:50:07,#E#,3,3,524,6502,7,600,559,ff,-260,-260,35,30

2017-10-03 18:50:07,#E#,3,4,524,6502,7,600,559,ff,-260,-260,35,30

2017-10-03 18:50:07,#E#,3,5,524,6502,7,600,559,ff,-260,-260,35,30

2017-10-03 18:50:07,#E#,3,6,524,6502,7,600,559,ff,-260,-260,35,30

2017-10-03 18:50:07,#E#,3,7,524,6502,7,600,559,ff,-260,-260,35,30

2017-10-03 18:50:07,#E#,3,8,524,6502,7,600,559,ff,-260,-260,35,30

2017-10-03 18:50:07,#E#,3,9,524,6502,7,600,559,ff,-260,-260,35,30

2017-10-03 18:50:08,#E#,4,0,524,7026,7,600,559,ff,-276,-276,35,30

2017-10-03 18:50:08,#E#,4,1,524,7026,7,600,559,ff,-276,-276,35,30

2017-10-03 18:50:08,#E#,4,2,524,7026,7,600,559,ff,-276,-276,35,30

2017-10-03 18:50:08,#E#,4,3,524,7026,7,600,559,ff,-276,-276,35,30

2017-10-03 18:50:08,#E#,4,4,524,7026,7,600,558,ff,-276,-276,35,30

2017-10-03 18:50:08,#E#,4,5,524,7026,7,600,559,ff,-276,-276,35,30

2017-10-03 18:50:08,#E#,4,6,524,7026,7,600,559,ff,-276,-276,35,30

2017-10-03 18:50:08,#E#,4,7,524,7026,7,600,559,ff,-276,-276,35,30

2017-10-03 18:50:08,#E#,4,8,524,7026,7,600,558,ff,-276,-276,35,30

2017-10-03 18:50:08,#E#,4,9,524,7026,7,600,559,ff,-276,-276,35,30

2017-10-03 18:50:09,#E#,5,0,524,7550,7,600,558,ff,-291,-291,35,34

2017-10-03 18:50:09,#E#,5,1,524,7550,7,600,559,ff,-291,-291,35,34

2017-10-03 18:50:09,#E#,5,2,524,7550,7,600,559,ff,-291,-291,35,34

2017-10-03 18:50:09,#E#,5,3,524,7550,7,600,559,ff,-291,-291,35,34

2017-10-03 18:50:09,#E#,5,4,524,7550,7,600,558,ff,-291,-291,35,34

2017-10-03 18:50:09,#E#,5,5,524,7550,7,600,559,ff,-291,-291,35,34

2017-10-03 18:50:09,#E#,5,6,524,7550,7,600,559,ff,-291,-291,35,34

2017-10-03 18:50:09,#E#,5,7,524,7550,7,600,559,ff,-291,-291,35,34

2017-10-03 18:50:09,#E#,5,8,524,7550,7,600,559,ff,-291,-291,35,34

2017-10-03 18:50:09,#E#,5,9,524,7550,7,600,559,ff,-291,-291,35,34

2017-10-03 18:50:10,#E#,6,0,524,8074,7,599,559,ff,-306,-306,35,34

2017-10-03 18:50:10,#E#,6,1,524,8074,7,599,559,ff,-306,-306,35,34

2017-10-03 18:50:10,#E#,6,2,524,8074,7,599,558,ff,-306,-306,35,34

2017-10-03 18:50:10,#E#,6,3,524,8074,7,599,559,ff,-306,-306,35,34

2017-10-03 18:50:10,#E#,6,4,524,8074,7,599,559,ff,-306,-306,35,34

2017-10-03 18:50:10,#E#,6,5,524,8074,7,599,559,ff,-306,-306,35,34

2017-10-03 18:50:10,#E#,6,6,524,8074,7,599,559,ff,-306,-306,35,34

2017-10-03 18:50:10,#E#,6,7,524,8074,7,599,559,ff,-306,-306,35,34

2017-10-03 18:50:10,#E#,6,8,524,8074,7,599,558,ff,-306,-306,35,34

2017-10-03 18:50:10,#E#,6,9,524,8074,7,599,559,ff,-306,-306,35,34

2017-10-03 18:50:11,#E#,7,0,524,8598,7,599,559,ff,-322,-322,39,34

2017-10-03 18:50:11,#E#,7,1,524,8598,7,599,558,ff,-322,-322,39,34

2017-10-03 18:50:11,#E#,7,2,524,8598,7,599,559,ff,-322,-322,39,34

2017-10-03 18:50:11,#E#,7,3,524,8598,7,599,559,ff,-322,-322,39,34

2017-10-03 18:50:11,#E#,7,4,524,8598,7,599,559,ff,-322,-322,39,34

2017-10-03 18:50:11,#E#,7,5,524,8598,7,599,559,ff,-322,-322,39,34

2017-10-03 18:50:11,#E#,7,6,524,8598,7,599,559,ff,-322,-322,39,34

2017-10-03 18:50:11,#E#,7,7,524,8598,7,599,559,ff,-322,-322,39,34

2017-10-03 18:50:11,#E#,7,8,524,8598,7,599,558,ff,-322,-322,39,34

2017-10-03 18:50:11,#E#,7,9,524,8598,7,599,559,ff,-322,-322,39,34

2017-10-03 18:50:11,*******DONE*******#

Exiting PsocAmPreRad
#P0E000000C800AM_RdFreq

2017-10-03 18:50:20, 50,:e,:0,:0,:c8,:0,:a0 @

2017-10-03 18:50:20,*******Measure Period per Event & Freq in MHz*******

2017-10-03 18:50:20,****Period_cnt , Freq, SeqNo, Status,..........

2017-10-03 18:50:20,#P#, 1, 800000, 0, 1 

2017-10-03 18:50:20,#P#, 1, 800000, 1, 1 

2017-10-03 18:50:20,#P#, 1, 800000, 2, 1 

2017-10-03 18:50:20,#P#, 1, 800000, 3, 1 

2017-10-03 18:50:20,#P#, 1, 800000, 4, 1 

2017-10-03 18:50:20,#P#, 1, 800000, 5, 1 

2017-10-03 18:50:20,#P#, 1, 800000, 6, 1 

2017-10-03 18:50:20,#P#, 1, 800000, 7, 1 

2017-10-03 18:50:20,#P#, 1, 800000, 8, 1 

2017-10-03 18:50:20,#P#, 1, 800000, 9, 1 

2017-10-03 18:50:20,#P#, 1, 800000, 10, 1 

2017-10-03 18:50:20,#P#, 1, 800000, 11, 1 

2017-10-03 18:50:20,#P#, 1, 800000, 12, 1 

2017-10-03 18:50:20,#P#, 1, 800000, 13, 1 

2017-10-03 18:50:20,#P#, 1, 800000, 14, 1 

2017-10-03 18:50:20,#P#, 1, 800000, 15, 1 

2017-10-03 18:50:20,#P#, 1, 800000, 16, 1 

2017-10-03 18:50:20,#P#, 1, 800000, 17, 1 

2017-10-03 18:50:20,#P#, 1, 800000, 18, 1 

2017-10-03 18:50:20,#P#, 1, 800000, 19, 1 

2017-10-03 18:50:20,#P#, 1, 800000, 20, 1 

2017-10-03 18:50:20,#P#, 1, 800000, 21, 1 

2017-10-03 18:50:20,#P#, 1, 800000, 22, 1 

2017-10-03 18:50:20,#P#, 1, 800000, 23, 1 

2017-10-03 18:50:20,#P#, 1, 800000, 24, 1 

2017-10-03 18:50:20,#P#, 1, 800000, 25, 1 

2017-10-03 18:50:20,#P#, 1, 800000, 26, 1 

2017-10-03 18:50:20,#P#, 1, 800000, 27, 1 

2017-10-03 18:50:20,#P#, 1, 800000, 28, 1 

2017-10-03 18:50:20,#P#, 1, 800000, 29, 1 

2017-10-03 18:50:20,#P#, 1, 800000, 30, 1 

2017-10-03 18:50:20,#P#, 1, 800000, 31, 1 

2017-10-03 18:50:20,#P#, 1, 800000, 32, 1 

2017-10-03 18:50:20,#P#, 1, 800000, 33, 1 

2017-10-03 18:50:20,#P#, 1, 800000, 34, 1 

2017-10-03 18:50:20,#P#, 1, 800000, 35, 1 

2017-10-03 18:50:20,#P#, 1, 800000, 36, 1 

2017-10-03 18:50:20,#P#, 1, 800000, 37, 1 

2017-10-03 18:50:20,#P#, 1, 800000, 38, 1 

2017-10-03 18:50:20,#P#, 1, 800000, 39, 1 

2017-10-03 18:50:20,#P#, 1, 800000, 40, 1 

2017-10-03 18:50:20,#P#, 1, 800000, 41, 1 

2017-10-03 18:50:20,#P#, 1, 800000, 42, 1 

2017-10-03 18:50:20,#P#, 1, 800000, 43, 1 

2017-10-03 18:50:20,#P#, 1, 800000, 44, 1 

2017-10-03 18:50:20,#P#, 1, 800000, 45, 1 

2017-10-03 18:50:20,#P#, 1, 800000, 46, 1 

2017-10-03 18:50:20,#P#, 1, 800000, 47, 1 

2017-10-03 18:50:20,#P#, 1, 800000, 48, 1 

2017-10-03 18:50:20,#P#, 1, 800000, 49, 1 

2017-10-03 18:50:20,#P#, 1, 800000, 50, 1 

2017-10-03 18:50:20,#P#, 1, 800000, 51, 1 

2017-10-03 18:50:20,#P#, 1, 800000, 52, 1 

2017-10-03 18:50:20,#P#, 1, 800000, 53, 1 

2017-10-03 18:50:20,#P#, 1, 800000, 54, 1 

2017-10-03 18:50:20,#P#, 1, 800000, 55, 1 

2017-10-03 18:50:20,#P#, 1, 800000, 56, 1 

2017-10-03 18:50:20,#P#, 1, 800000, 57, 1 

2017-10-03 18:50:20,#P#, 1, 800000, 58, 1 

2017-10-03 18:50:20,#P#, 1, 800000, 59, 1 

2017-10-03 18:50:20,#P#, 1, 800000, 60, 1 

2017-10-03 18:50:20,#P#, 1, 800000, 61, 1 

2017-10-03 18:50:20,#P#, 1, 800000, 62, 1 

2017-10-03 18:50:20,#P#, 1, 800000, 63, 1 

2017-10-03 18:50:20,#P#, 1, 800000, 64, 1 

2017-10-03 18:50:20,#P#, 1, 800000, 65, 1 

2017-10-03 18:50:20,#P#, 1, 800000, 66, 1 

2017-10-03 18:50:20,#P#, 1, 800000, 67, 1 

2017-10-03 18:50:20,#P#, 1, 800000, 68, 1 

2017-10-03 18:50:20,#P#, 1, 800000, 69, 1 

2017-10-03 18:50:20,#P#, 1, 800000, 70, 1 

2017-10-03 18:50:20,#P#, 1, 800000, 71, 1 

2017-10-03 18:50:20,#P#, 1, 800000, 72, 1 

2017-10-03 18:50:20,#P#, 1, 800000, 73, 1 

2017-10-03 18:50:21,#P#, 1, 800000, 74, 1 

2017-10-03 18:50:21,#P#, 1, 800000, 75, 1 

2017-10-03 18:50:21,#P#, 1, 800000, 76, 1 

2017-10-03 18:50:21,#P#, 1, 800000, 77, 1 

2017-10-03 18:50:21,#P#, 1, 800000, 78, 1 

2017-10-03 18:50:21,#P#, 1, 800000, 79, 1 

2017-10-03 18:50:21,#P#, 1, 800000, 80, 1 

2017-10-03 18:50:21,#P#, 1, 800000, 81, 1 

2017-10-03 18:50:21,#P#, 1, 800000, 82, 1 

2017-10-03 18:50:21,#P#, 1, 800000, 83, 1 

2017-10-03 18:50:21,#P#, 1, 800000, 84, 1 

2017-10-03 18:50:21,#P#, 1, 800000, 85, 1 

2017-10-03 18:50:21,#P#, 1, 800000, 86, 1 

2017-10-03 18:50:21,#P#, 1, 800000, 87, 1 

2017-10-03 18:50:21,#P#, 1, 800000, 88, 1 

2017-10-03 18:50:21,#P#, 1, 800000, 89, 1 

2017-10-03 18:50:21,#P#, 1, 800000, 90, 1 

2017-10-03 18:50:21,#P#, 1, 800000, 91, 1 

2017-10-03 18:50:21,#P#, 1, 800000, 92, 1 

2017-10-03 18:50:21,#P#, 1, 800000, 93, 1 

2017-10-03 18:50:21,#P#, 1, 800000, 94, 1 

2017-10-03 18:50:21,#P#, 1, 800000, 95, 1 

2017-10-03 18:50:21,#P#, 1, 800000, 96, 1 

2017-10-03 18:50:21,#P#, 1, 800000, 97, 1 

2017-10-03 18:50:21,#P#, 1, 800000, 98, 1 

2017-10-03 18:50:21,#P#, 1, 800000, 99, 1 

2017-10-03 18:50:21,#P#, 1, 800000, 100, 1 

2017-10-03 18:50:21,#P#, 1, 800000, 101, 1 

2017-10-03 18:50:21,#P#, 1, 800000, 102, 1 

2017-10-03 18:50:21,#P#, 1, 800000, 103, 1 

2017-10-03 18:50:21,#P#, 1, 800000, 104, 1 

2017-10-03 18:50:21,#P#, 1, 800000, 105, 1 

2017-10-03 18:50:21,#P#, 1, 800000, 106, 1 

2017-10-03 18:50:21,#P#, 1, 800000, 107, 1 

2017-10-03 18:50:21,#P#, 1, 800000, 108, 1 

2017-10-03 18:50:21,#P#, 1, 800000, 109, 1 

2017-10-03 18:50:21,#P#, 1, 800000, 110, 1 

2017-10-03 18:50:21,#P#, 1, 800000, 111, 1 

2017-10-03 18:50:21,#P#, 1, 800000, 112, 1 

2017-10-03 18:50:21,#P#, 1, 800000, 113, 1 

2017-10-03 18:50:21,#P#, 1, 800000, 114, 1 

2017-10-03 18:50:21,#P#, 1, 800000, 115, 1 

2017-10-03 18:50:21,#P#, 1, 800000, 116, 1 

2017-10-03 18:50:21,#P#, 1, 800000, 117, 1 

2017-10-03 18:50:21,#P#, 1, 800000, 118, 1 

2017-10-03 18:50:21,#P#, 1, 800000, 119, 1 

2017-10-03 18:50:21,#P#, 1, 800000, 120, 1 

2017-10-03 18:50:21,#P#, 1, 800000, 121, 1 

2017-10-03 18:50:21,#P#, 1, 800000, 122, 1 

2017-10-03 18:50:21,#P#, 1, 800000, 123, 1 

2017-10-03 18:50:21,#P#, 1, 800000, 124, 1 

2017-10-03 18:50:21,#P#, 1, 800000, 125, 1 

2017-10-03 18:50:21,#P#, 1, 800000, 126, 1 

2017-10-03 18:50:21,#P#, 1, 800000, 127, 1 

2017-10-03 18:50:21,#P#, 1, 800000, 128, 1 

2017-10-03 18:50:21,#P#, 1, 800000, 129, 1 

2017-10-03 18:50:21,#P#, 1, 800000, 130, 1 

2017-10-03 18:50:21,#P#, 1, 800000, 131, 1 

2017-10-03 18:50:21,#P#, 1, 800000, 132, 1 

2017-10-03 18:50:21,#P#, 1, 800000, 133, 1 

2017-10-03 18:50:21,#P#, 1, 800000, 134, 1 

2017-10-03 18:50:21,#P#, 1, 800000, 135, 1 

2017-10-03 18:50:21,#P#, 1, 800000, 136, 1 

2017-10-03 18:50:21,#P#, 1, 800000, 137, 1 

2017-10-03 18:50:21,#P#, 1, 800000, 138, 1 

2017-10-03 18:50:21,#P#, 1, 800000, 139, 1 

2017-10-03 18:50:21,#P#, 1, 800000, 140, 1 

2017-10-03 18:50:21,#P#, 1, 800000, 141, 1 

2017-10-03 18:50:21,#P#, 1, 800000, 142, 1 

2017-10-03 18:50:21,#P#, 1, 800000, 143, 1 

2017-10-03 18:50:21,#P#, 1, 800000, 144, 1 

2017-10-03 18:50:21,#P#, 1, 800000, 145, 1 

2017-10-03 18:50:21,#P#, 1, 800000, 146, 1 

2017-10-03 18:50:21,#P#, 1, 800000, 147, 1 

2017-10-03 18:50:21,#P#, 1, 800000, 148, 1 

2017-10-03 18:50:21,#P#, 1, 800000, 149, 1 

2017-10-03 18:50:21,#P#, 1, 800000, 150, 1 

2017-10-03 18:50:21,#P#, 1, 800000, 151, 1 

2017-10-03 18:50:21,#P#, 1, 800000, 152, 1 

2017-10-03 18:50:21,#P#, 1, 800000, 153, 1 

2017-10-03 18:50:21,#P#, 1, 800000, 154, 1 

2017-10-03 18:50:21,#P#, 1, 800000, 155, 1 

2017-10-03 18:50:21,#P#, 1, 800000, 156, 1 

2017-10-03 18:50:21,#P#, 1, 800000, 157, 1 

2017-10-03 18:50:21,#P#, 1, 800000, 158, 1 

2017-10-03 18:50:21,#P#, 1, 800000, 159, 1 

2017-10-03 18:50:21,#P#, 1, 800000, 160, 1 

2017-10-03 18:50:21,#P#, 1, 800000, 161, 1 

2017-10-03 18:50:21,#P#, 1, 800000, 162, 1 

2017-10-03 18:50:21,#P#, 1, 800000, 163, 1 

2017-10-03 18:50:21,#P#, 1, 800000, 164, 1 

2017-10-03 18:50:21,#P#, 1, 800000, 165, 1 

2017-10-03 18:50:21,#P#, 1, 800000, 166, 1 

2017-10-03 18:50:21,#P#, 1, 800000, 167, 1 

2017-10-03 18:50:21,#P#, 1, 800000, 168, 1 

2017-10-03 18:50:21,#P#, 1, 800000, 169, 1 

2017-10-03 18:50:21,#P#, 1, 800000, 170, 1 

2017-10-03 18:50:21,#P#, 1, 800000, 171, 1 

2017-10-03 18:50:21,#P#, 1, 800000, 172, 1 

2017-10-03 18:50:21,#P#, 1, 800000, 173, 1 

2017-10-03 18:50:21,#P#, 1, 800000, 174, 1 

2017-10-03 18:50:21,#P#, 1, 800000, 175, 1 

2017-10-03 18:50:21,#P#, 1, 800000, 176, 1 

2017-10-03 18:50:21,#P#, 1, 800000, 177, 1 

2017-10-03 18:50:21,#P#, 1, 800000, 178, 1 

2017-10-03 18:50:21,#P#, 1, 800000, 179, 1 

2017-10-03 18:50:21,#P#, 1, 800000, 180, 1 

2017-10-03 18:50:21,#P#, 1, 800000, 181, 1 

2017-10-03 18:50:21,#P#, 1, 800000, 182, 1 

2017-10-03 18:50:21,#P#, 1, 800000, 183, 1 

2017-10-03 18:50:21,#P#, 1, 800000, 184, 1 

2017-10-03 18:50:21,#P#, 1, 800000, 185, 1 

2017-10-03 18:50:21,#P#, 1, 800000, 186, 1 

2017-10-03 18:50:21,#P#, 1, 800000, 187, 1 

2017-10-03 18:50:21,#P#, 1, 800000, 188, 1 

2017-10-03 18:50:21,#P#, 1, 800000, 189, 1 

2017-10-03 18:50:21,#P#, 1, 800000, 190, 1 

2017-10-03 18:50:21,#P#, 1, 800000, 191, 1 

2017-10-03 18:50:21,#P#, 1, 800000, 192, 1 

2017-10-03 18:50:21,#P#, 1, 800000, 193, 1 

2017-10-03 18:50:21,#P#, 1, 800000, 194, 1 

2017-10-03 18:50:21,#P#, 1, 800000, 195, 1 

2017-10-03 18:50:21,#P#, 1, 800000, 196, 1 

2017-10-03 18:50:21,#P#, 1, 800000, 197, 1 

2017-10-03 18:50:21,#P#, 1, 800000, 198, 1 

2017-10-03 18:50:21,#P#, 1, 800000, 199, 1 

2017-10-03 18:50:21,*******DONE*******#

Exiting PsocAmPreRad
