#P0E000000C800AM_RdFreq

2017-10-03 16:16:03, 50,:e,:0,:0,:c8,:0,:a0 @

2017-10-03 16:16:03,*******Measure Period per Event & Freq in MHz*******

2017-10-03 16:16:03,****Period_cnt , Freq, SeqNo, Status,..........

2017-10-03 16:16:04,#P#, 42, 33600000, 0, 1 

2017-10-03 16:16:04,#P#, 52, 41600000, 1, 1 

2017-10-03 16:16:04,#P#, 42, 33600000, 2, 1 

2017-10-03 16:16:04,#P#, 46, 36800000, 3, 1 

2017-10-03 16:16:04,#P#, 45, 36000000, 4, 1 

2017-10-03 16:16:04,#P#, 45, 36000000, 5, 1 

2017-10-03 16:16:04,#P#, 37, 29600000, 6, 0 

2017-10-03 16:16:04,#P#, 42, 33600000, 7, 1 

2017-10-03 16:16:04,#P#, 47, 37600000, 8, 1 

2017-10-03 16:16:04,#P#, 38, 30400000, 9, 0 

2017-10-03 16:16:04,#P#, 44, 35200000, 10, 1 

2017-10-03 16:16:04,#P#, 43, 34400000, 11, 1 

2017-10-03 16:16:04,#P#, 37, 29600000, 12, 0 

2017-10-03 16:16:04,#P#, 39, 31200000, 13, 0 

2017-10-03 16:16:04,#P#, 45, 36000000, 14, 1 

2017-10-03 16:16:04,#P#, 44, 35200000, 15, 1 

2017-10-03 16:16:04,#P#, 37, 29600000, 16, 0 

2017-10-03 16:16:04,#P#, 45, 36000000, 17, 1 

2017-10-03 16:16:04,#P#, 38, 30400000, 18, 0 

2017-10-03 16:16:04,#P#, 42, 33600000, 19, 1 

2017-10-03 16:16:04,#P#, 39, 31200000, 20, 0 

2017-10-03 16:16:04,#P#, 41, 32800000, 21, 1 

2017-10-03 16:16:04,#P#, 48, 38400000, 22, 1 

2017-10-03 16:16:04,#P#, 40, 32000000, 23, 1 

2017-10-03 16:16:04,#P#, 44, 35200000, 24, 1 

2017-10-03 16:16:04,#P#, 46, 36800000, 25, 1 

2017-10-03 16:16:04,#P#, 41, 32800000, 26, 1 

2017-10-03 16:16:04,#P#, 37, 29600000, 27, 0 

2017-10-03 16:16:04,#P#, 49, 39200000, 28, 1 

2017-10-03 16:16:04,#P#, 46, 36800000, 29, 1 

2017-10-03 16:16:04,#P#, 47, 37600000, 30, 1 

2017-10-03 16:16:04,#P#, 38, 30400000, 31, 0 

2017-10-03 16:16:04,#P#, 40, 32000000, 32, 1 

2017-10-03 16:16:04,#P#, 47, 37600000, 33, 1 

2017-10-03 16:16:04,#P#, 51, 40800000, 34, 1 

2017-10-03 16:16:04,#P#, 38, 30400000, 35, 0 

2017-10-03 16:16:04,#P#, 44, 35200000, 36, 1 

2017-10-03 16:16:04,#P#, 39, 31200000, 37, 0 

2017-10-03 16:16:04,#P#, 42, 33600000, 38, 1 

2017-10-03 16:16:04,#P#, 45, 36000000, 39, 1 

2017-10-03 16:16:04,#P#, 37, 29600000, 40, 0 

2017-10-03 16:16:04,#P#, 39, 31200000, 41, 0 

2017-10-03 16:16:04,#P#, 42, 33600000, 42, 1 

2017-10-03 16:16:04,#P#, 43, 34400000, 43, 1 

2017-10-03 16:16:04,#P#, 37, 29600000, 44, 0 

2017-10-03 16:16:04,#P#, 45, 36000000, 45, 1 

2017-10-03 16:16:04,#P#, 45, 36000000, 46, 1 

2017-10-03 16:16:04,#P#, 45, 36000000, 47, 1 

2017-10-03 16:16:04,#P#, 42, 33600000, 48, 1 

2017-10-03 16:16:04,#P#, 42, 33600000, 49, 1 

2017-10-03 16:16:04,#P#, 37, 29600000, 50, 0 

2017-10-03 16:16:04,#P#, 39, 31200000, 51, 0 

2017-10-03 16:16:04,#P#, 43, 34400000, 52, 1 

2017-10-03 16:16:04,#P#, 42, 33600000, 53, 1 

2017-10-03 16:16:04,#P#, 38, 30400000, 54, 0 

2017-10-03 16:16:04,#P#, 47, 37600000, 55, 1 

2017-10-03 16:16:04,#P#, 39, 31200000, 56, 0 

2017-10-03 16:16:04,#P#, 43, 34400000, 57, 1 

2017-10-03 16:16:04,#P#, 38, 30400000, 58, 0 

2017-10-03 16:16:04,#P#, 48, 38400000, 59, 1 

2017-10-03 16:16:04,#P#, 40, 32000000, 60, 1 

2017-10-03 16:16:04,#P#, 45, 36000000, 61, 1 

2017-10-03 16:16:04,#P#, 46, 36800000, 62, 1 

2017-10-03 16:16:04,#P#, 50, 40000000, 63, 1 

2017-10-03 16:16:04,#P#, 45, 36000000, 64, 1 

2017-10-03 16:16:04,#P#, 49, 39200000, 65, 1 

2017-10-03 16:16:04,#P#, 45, 36000000, 66, 1 

2017-10-03 16:16:04,#P#, 38, 30400000, 67, 0 

2017-10-03 16:16:04,#P#, 45, 36000000, 68, 1 

2017-10-03 16:16:04,#P#, 42, 33600000, 69, 1 

2017-10-03 16:16:04,#P#, 40, 32000000, 70, 1 

2017-10-03 16:16:04,#P#, 43, 34400000, 71, 1 

2017-10-03 16:16:04,#P#, 44, 35200000, 72, 1 

2017-10-03 16:16:04,#P#, 45, 36000000, 73, 1 

2017-10-03 16:16:04,#P#, 47, 37600000, 74, 1 

2017-10-03 16:16:04,#P#, 48, 38400000, 75, 1 

2017-10-03 16:16:04,#P#, 47, 37600000, 76, 1 

2017-10-03 16:16:04,#P#, 37, 29600000, 77, 0 

2017-10-03 16:16:04,#P#, 46, 36800000, 78, 1 

2017-10-03 16:16:04,#P#, 43, 34400000, 79, 1 

2017-10-03 16:16:04,#P#, 45, 36000000, 80, 1 

2017-10-03 16:16:04,#P#, 38, 30400000, 81, 0 

2017-10-03 16:16:04,#P#, 39, 31200000, 82, 0 

2017-10-03 16:16:04,#P#, 47, 37600000, 83, 1 

2017-10-03 16:16:04,#P#, 47, 37600000, 84, 1 

2017-10-03 16:16:04,#P#, 38, 30400000, 85, 0 

2017-10-03 16:16:04,#P#, 45, 36000000, 86, 1 

2017-10-03 16:16:04,#P#, 45, 36000000, 87, 1 

2017-10-03 16:16:04,#P#, 42, 33600000, 88, 1 

2017-10-03 16:16:04,#P#, 41, 32800000, 89, 1 

2017-10-03 16:16:04,#P#, 42, 33600000, 90, 1 

2017-10-03 16:16:04,#P#, 40, 32000000, 91, 1 

2017-10-03 16:16:04,#P#, 45, 36000000, 92, 1 

2017-10-03 16:16:04,#P#, 48, 38400000, 93, 1 

2017-10-03 16:16:04,#P#, 52, 41600000, 94, 1 

2017-10-03 16:16:04,#P#, 42, 33600000, 95, 1 

2017-10-03 16:16:04,#P#, 44, 35200000, 96, 1 

2017-10-03 16:16:04,#P#, 44, 35200000, 97, 1 

2017-10-03 16:16:04,#P#, 46, 36800000, 98, 1 

2017-10-03 16:16:04,#P#, 45, 36000000, 99, 1 

2017-10-03 16:16:04,#P#, 37, 29600000, 100, 0 

2017-10-03 16:16:04,#P#, 38, 30400000, 101, 0 

2017-10-03 16:16:04,#P#, 46, 36800000, 102, 1 

2017-10-03 16:16:04,#P#, 36, 28800000, 103, 0 

2017-10-03 16:16:04,#P#, 42, 33600000, 104, 1 

2017-10-03 16:16:04,#P#, 48, 38400000, 105, 1 

2017-10-03 16:16:04,#P#, 37, 29600000, 106, 0 

2017-10-03 16:16:04,#P#, 47, 37600000, 107, 1 

2017-10-03 16:16:04,#P#, 44, 35200000, 108, 1 

2017-10-03 16:16:04,#P#, 46, 36800000, 109, 1 

2017-10-03 16:16:04,#P#, 42, 33600000, 110, 1 

2017-10-03 16:16:04,#P#, 46, 36800000, 111, 1 

2017-10-03 16:16:04,#P#, 41, 32800000, 112, 1 

2017-10-03 16:16:04,#P#, 43, 34400000, 113, 1 

2017-10-03 16:16:04,#P#, 39, 31200000, 114, 0 

2017-10-03 16:16:04,#P#, 43, 34400000, 115, 1 

2017-10-03 16:16:04,#P#, 38, 30400000, 116, 0 

2017-10-03 16:16:04,#P#, 39, 31200000, 117, 0 

2017-10-03 16:16:04,#P#, 44, 35200000, 118, 1 

2017-10-03 16:16:04,#P#, 38, 30400000, 119, 0 

2017-10-03 16:16:04,#P#, 49, 39200000, 120, 1 

2017-10-03 16:16:04,#P#, 50, 40000000, 121, 1 

2017-10-03 16:16:04,#P#, 37, 29600000, 122, 0 

2017-10-03 16:16:04,#P#, 41, 32800000, 123, 1 

2017-10-03 16:16:04,#P#, 48, 38400000, 124, 1 

2017-10-03 16:16:04,#P#, 46, 36800000, 125, 1 

2017-10-03 16:16:04,#P#, 39, 31200000, 126, 0 

2017-10-03 16:16:04,#P#, 46, 36800000, 127, 1 

2017-10-03 16:16:04,#P#, 43, 34400000, 128, 1 

2017-10-03 16:16:04,#P#, 41, 32800000, 129, 1 

2017-10-03 16:16:04,#P#, 38, 30400000, 130, 0 

2017-10-03 16:16:04,#P#, 43, 34400000, 131, 1 

2017-10-03 16:16:05,#P#, 37, 29600000, 132, 0 

2017-10-03 16:16:05,#P#, 47, 37600000, 133, 1 

2017-10-03 16:16:05,#P#, 45, 36000000, 134, 1 

2017-10-03 16:16:05,#P#, 38, 30400000, 135, 0 

2017-10-03 16:16:05,#P#, 43, 34400000, 136, 1 

2017-10-03 16:16:05,#P#, 42, 33600000, 137, 1 

2017-10-03 16:16:05,#P#, 47, 37600000, 138, 1 

2017-10-03 16:16:05,#P#, 52, 41600000, 139, 1 

2017-10-03 16:16:05,#P#, 45, 36000000, 140, 1 

2017-10-03 16:16:05,#P#, 45, 36000000, 141, 1 

2017-10-03 16:16:05,#P#, 37, 29600000, 142, 0 

2017-10-03 16:16:05,#P#, 45, 36000000, 143, 1 

2017-10-03 16:16:05,#P#, 47, 37600000, 144, 1 

2017-10-03 16:16:05,#P#, 37, 29600000, 145, 0 

2017-10-03 16:16:05,#P#, 39, 31200000, 146, 0 

2017-10-03 16:16:05,#P#, 43, 34400000, 147, 1 

2017-10-03 16:16:05,#P#, 41, 32800000, 148, 1 

2017-10-03 16:16:05,#P#, 47, 37600000, 149, 1 

2017-10-03 16:16:05,#P#, 44, 35200000, 150, 1 

2017-10-03 16:16:05,#P#, 41, 32800000, 151, 1 

2017-10-03 16:16:05,#P#, 44, 35200000, 152, 1 

2017-10-03 16:16:05,#P#, 37, 29600000, 153, 0 

2017-10-03 16:16:05,#P#, 45, 36000000, 154, 1 

2017-10-03 16:16:05,#P#, 37, 29600000, 155, 0 

2017-10-03 16:16:05,#P#, 46, 36800000, 156, 1 

2017-10-03 16:16:05,#P#, 43, 34400000, 157, 1 

2017-10-03 16:16:05,#P#, 36, 28800000, 158, 0 

2017-10-03 16:16:05,#P#, 42, 33600000, 159, 1 

2017-10-03 16:16:05,#P#, 42, 33600000, 160, 1 

2017-10-03 16:16:05,#P#, 42, 33600000, 161, 1 

2017-10-03 16:16:05,#P#, 45, 36000000, 162, 1 

2017-10-03 16:16:05,#P#, 46, 36800000, 163, 1 

2017-10-03 16:16:05,#P#, 44, 35200000, 164, 1 

2017-10-03 16:16:05,#P#, 38, 30400000, 165, 0 

2017-10-03 16:16:05,#P#, 49, 39200000, 166, 1 

2017-10-03 16:16:05,#P#, 51, 40800000, 167, 1 

2017-10-03 16:16:05,#P#, 37, 29600000, 168, 0 

2017-10-03 16:16:05,#P#, 39, 31200000, 169, 0 

2017-10-03 16:16:05,#P#, 41, 32800000, 170, 1 

2017-10-03 16:16:05,#P#, 39, 31200000, 171, 0 

2017-10-03 16:16:05,#P#, 45, 36000000, 172, 1 

2017-10-03 16:16:05,#P#, 46, 36800000, 173, 1 

2017-10-03 16:16:05,#P#, 42, 33600000, 174, 1 

2017-10-03 16:16:05,#P#, 42, 33600000, 175, 1 

2017-10-03 16:16:05,#P#, 40, 32000000, 176, 1 

2017-10-03 16:16:05,#P#, 45, 36000000, 177, 1 

2017-10-03 16:16:05,#P#, 38, 30400000, 178, 0 

2017-10-03 16:16:05,#P#, 44, 35200000, 179, 1 

2017-10-03 16:16:05,#P#, 48, 38400000, 180, 1 

2017-10-03 16:16:05,#P#, 38, 30400000, 181, 0 

2017-10-03 16:16:05,#P#, 46, 36800000, 182, 1 

2017-10-03 16:16:05,#P#, 42, 33600000, 183, 1 

2017-10-03 16:16:05,#P#, 43, 34400000, 184, 1 

2017-10-03 16:16:05,#P#, 37, 29600000, 185, 0 

2017-10-03 16:16:05,#P#, 44, 35200000, 186, 1 

2017-10-03 16:16:05,#P#, 43, 34400000, 187, 1 

2017-10-03 16:16:05,#P#, 39, 31200000, 188, 0 

2017-10-03 16:16:05,#P#, 39, 31200000, 189, 0 

2017-10-03 16:16:05,#P#, 41, 32800000, 190, 1 

2017-10-03 16:16:05,#P#, 37, 29600000, 191, 0 

2017-10-03 16:16:05,#P#, 39, 31200000, 192, 0 

2017-10-03 16:16:05,#P#, 40, 32000000, 193, 1 

2017-10-03 16:16:05,#P#, 38, 30400000, 194, 0 

2017-10-03 16:16:05,#P#, 47, 37600000, 195, 1 

2017-10-03 16:16:05,#P#, 52, 41600000, 196, 1 

2017-10-03 16:16:05,#P#, 39, 31200000, 197, 0 

2017-10-03 16:16:05,#P#, 43, 34400000, 198, 1 

2017-10-03 16:16:05,#P#, 42, 33600000, 199, 1 

2017-10-03 16:16:05,*******DONE*******#

Exiting PsocAmPreRad
#D0E0166660A001AAM Ramp

2017-10-03 16:16:07, 44,:e,:1,:6666,:a,:0,:1a @

2017-10-03 16:16:07,*SeqNo,Samples,DAC_Cnt,BGapReg,GainReg,AM_VCal,BGO,Isense0,Isense1

2017-10-03 16:16:07,Vsense,AM_LCh0,AM_RCh0,AM_Rch1,AM_RCh2,AM_LCh3,AM_RCh3

2017-10-03 16:16:08,
2017-10-03 16:16:09,
2017-10-03 16:16:10,
2017-10-03 16:16:11,
2017-10-03 16:16:12,
2017-10-03 16:16:13,
2017-10-03 16:16:14,
2017-10-03 16:16:14,#D#,0,0,812,314,354,355,3,2476,1138,1364,26,2500,287,544,604,519,66,66,214,223,8,29,21,25,29,28,21

2017-10-03 16:16:14,#D#,0,1,812,314,354,355,3,2476,1138,1364,26,2500,287,544,604,519,66,66,214,223,8,28,21,25,29,28,21

2017-10-03 16:16:14,#D#,0,2,812,314,354,355,3,2476,1138,1364,26,2500,287,544,604,519,66,66,210,223,8,28,21,25,29,28,21

2017-10-03 16:16:14,#D#,0,3,812,314,354,355,3,2476,1138,1364,26,2500,287,545,604,519,66,66,214,223,8,29,21,25,29,28,21

2017-10-03 16:16:14,#D#,0,4,812,314,354,355,3,2476,1138,1364,26,2500,287,545,604,519,66,66,214,223,8,28,21,25,29,28,21

2017-10-03 16:16:14,#D#,0,5,812,314,354,355,3,2476,1138,1364,26,2500,287,544,604,518,66,66,210,223,8,28,21,25,29,28,21

2017-10-03 16:16:14,#D#,0,6,812,314,354,355,3,2476,1138,1364,26,2500,287,545,604,519,66,66,214,223,8,28,21,25,29,28,21

2017-10-03 16:16:14,#D#,0,7,812,314,354,355,3,2476,1138,1364,26,2500,287,544,604,519,66,66,210,223,8,28,21,25,29,28,21

2017-10-03 16:16:14,#D#,0,8,812,314,354,355,3,2476,1138,1364,26,2500,287,544,604,519,66,66,214,223,8,28,21,25,29,28,21

2017-10-03 16:16:14,#D#,0,9,812,314,354,355,3,2476,1138,1364,26,2500,287,544,604,519,66,66,214,223,8,28,21,25,29,28,21

2017-10-03 16:16:15,
2017-10-03 16:16:15,#D#,1,0,812,314,354,355,3,2476,1138,1364,26,2500,287,545,604,519,66,66,214,223,8,29,21,25,29,28,21

2017-10-03 16:16:15,#D#,1,1,812,314,354,355,3,2476,1138,1364,26,2500,287,544,604,519,66,66,214,223,8,28,21,25,29,28,21

2017-10-03 16:16:15,#D#,1,2,812,314,354,355,3,2476,1138,1364,26,2500,287,544,604,519,66,66,214,223,8,28,21,25,29,28,21

2017-10-03 16:16:15,#D#,1,3,812,314,354,355,3,2476,1138,1364,26,2500,287,545,604,518,66,66,214,223,8,29,21,25,29,28,21

2017-10-03 16:16:15,#D#,1,4,812,314,354,355,3,2476,1138,1364,26,2500,287,545,604,518,66,66,214,223,8,29,21,25,29,28,21

2017-10-03 16:16:15,#D#,1,5,812,314,354,355,3,2476,1138,1364,26,2500,287,544,604,519,66,66,214,223,8,28,21,25,29,28,21

2017-10-03 16:16:15,#D#,1,6,812,314,354,355,3,2476,1138,1364,26,2500,287,544,604,519,66,66,214,223,8,28,21,25,29,28,21

2017-10-03 16:16:15,#D#,1,7,812,314,354,355,3,2476,1138,1364,26,2500,287,545,604,519,66,66,214,223,8,28,21,25,29,28,21

2017-10-03 16:16:15,#D#,1,8,812,314,354,355,3,2476,1138,1364,26,2500,287,545,604,519,66,66,214,223,8,28,21,25,29,28,21

2017-10-03 16:16:15,#D#,1,9,812,314,354,355,3,2476,1138,1364,26,2500,287,544,604,519,66,66,214,223,8,28,21,25,29,28,21

2017-10-03 16:16:16,
2017-10-03 16:16:17,#D#,2,0,812,314,354,355,3,2476,1138,1364,26,2500,287,544,604,519,66,66,214,223,8,28,21,25,29,28,21

2017-10-03 16:16:17,#D#,2,1,812,314,354,355,3,2476,1138,1364,26,2500,287,544,604,519,66,66,214,223,8,28,21,25,29,28,21

2017-10-03 16:16:17,#D#,2,2,812,314,354,355,3,2476,1138,1364,26,2500,287,545,604,518,66,66,214,223,8,28,21,25,29,28,21

2017-10-03 16:16:17,#D#,2,3,812,314,354,355,3,2476,1138,1364,26,2500,287,544,604,519,66,66,214,223,8,28,21,25,29,28,21

2017-10-03 16:16:17,#D#,2,4,812,314,354,355,3,2476,1138,1364,26,2500,287,545,604,518,66,66,214,223,8,28,21,25,29,28,21

2017-10-03 16:16:17,#D#,2,5,812,314,354,355,3,2476,1138,1364,26,2500,287,544,604,519,66,66,214,223,8,28,21,25,29,28,21

2017-10-03 16:16:17,#D#,2,6,812,314,354,355,3,2476,1138,1364,26,2500,287,544,604,519,66,66,214,223,8,29,21,25,29,28,21

2017-10-03 16:16:17,#D#,2,7,812,314,354,355,3,2476,1138,1364,26,2500,287,545,604,519,66,66,214,223,8,28,21,25,29,28,21

2017-10-03 16:16:17,#D#,2,8,812,314,354,355,3,2476,1138,1364,26,2500,287,544,604,519,66,66,214,223,8,28,21,25,29,28,21

2017-10-03 16:16:17,#D#,2,9,812,314,354,355,3,2476,1138,1364,26,2500,287,545,604,519,66,66,214,223,8,28,21,25,29,28,21

2017-10-03 16:16:18,
2017-10-03 16:16:18,#D#,3,0,812,314,354,355,3,2476,1138,1364,26,2500,287,544,604,519,66,66,210,223,8,28,21,25,29,28,21

2017-10-03 16:16:18,#D#,3,1,812,314,354,355,3,2476,1138,1364,26,2500,287,545,604,519,66,66,214,223,8,29,21,25,29,28,21

2017-10-03 16:16:18,#D#,3,2,812,314,354,355,3,2476,1138,1364,26,2500,287,544,604,519,66,66,214,223,8,28,21,25,29,28,21

2017-10-03 16:16:18,#D#,3,3,812,314,354,355,3,2476,1138,1364,26,2500,287,545,604,519,66,66,214,223,8,28,21,25,29,28,21

2017-10-03 16:16:18,#D#,3,4,812,314,354,355,3,2476,1138,1364,26,2500,287,545,604,519,66,66,210,223,8,28,21,25,29,28,21

2017-10-03 16:16:18,#D#,3,5,812,314,354,355,3,2476,1138,1364,26,2500,287,545,604,519,66,66,214,227,8,29,21,25,29,28,21

2017-10-03 16:16:18,#D#,3,6,812,314,354,355,3,2476,1138,1364,26,2500,287,545,604,519,66,66,214,223,8,28,21,25,29,28,21

2017-10-03 16:16:18,#D#,3,7,812,314,354,355,3,2476,1138,1364,26,2500,287,545,604,519,66,66,214,227,8,29,21,25,29,28,21

2017-10-03 16:16:18,#D#,3,8,812,314,354,355,3,2476,1138,1364,26,2500,287,544,604,518,66,66,214,223,8,28,21,25,29,28,21

2017-10-03 16:16:18,#D#,3,9,812,314,354,355,3,2476,1138,1364,26,2500,287,544,604,519,66,66,214,223,8,28,21,25,29,28,21

2017-10-03 16:16:19,
2017-10-03 16:16:19,#D#,4,0,812,314,354,355,3,2476,1138,1364,26,2500,287,544,604,519,66,66,214,223,8,28,21,25,29,28,21

2017-10-03 16:16:20,#D#,4,1,812,314,354,355,3,2476,1138,1364,26,2500,287,544,604,519,66,66,214,223,8,28,21,25,29,28,21

2017-10-03 16:16:20,#D#,4,2,812,314,354,355,3,2476,1138,1364,26,2500,287,544,604,519,66,66,210,223,8,28,21,25,29,28,21

2017-10-03 16:16:20,#D#,4,3,812,314,354,355,3,2476,1138,1364,26,2500,287,544,604,519,66,66,214,223,8,28,21,25,29,28,21

2017-10-03 16:16:20,#D#,4,4,812,314,354,355,3,2476,1138,1364,26,2500,287,544,604,519,66,66,214,223,8,28,21,25,29,28,21

2017-10-03 16:16:20,#D#,4,5,812,314,354,355,3,2476,1138,1364,26,2500,287,545,604,519,66,66,214,223,8,28,21,25,29,28,21

2017-10-03 16:16:20,#D#,4,6,812,314,354,355,3,2476,1138,1364,26,2500,287,544,604,519,66,66,214,223,8,28,21,25,29,28,21

2017-10-03 16:16:20,#D#,4,7,812,314,354,355,3,2476,1138,1364,26,2500,287,545,604,519,66,66,210,223,8,28,21,25,29,28,21

2017-10-03 16:16:20,#D#,4,8,812,314,354,355,3,2476,1138,1364,26,2500,287,544,604,519,66,66,214,223,8,28,21,25,29,28,21

2017-10-03 16:16:20,#D#,4,9,812,314,354,355,3,2476,1138,1364,26,2500,287,544,604,519,66,66,214,223,8,29,21,25,29,28,21

2017-10-03 16:16:21,
2017-10-03 16:16:21,#D#,5,0,812,314,354,355,3,2476,1138,1364,26,2500,287,545,604,519,66,66,214,223,8,28,21,25,29,28,21

2017-10-03 16:16:21,#D#,5,1,812,314,354,355,3,2476,1138,1364,26,2500,287,545,604,519,66,66,214,223,8,28,21,25,29,28,21

2017-10-03 16:16:21,#D#,5,2,812,314,354,355,3,2476,1138,1364,26,2500,287,544,604,519,66,66,214,223,8,28,21,25,29,28,21

2017-10-03 16:16:21,#D#,5,3,812,314,354,355,3,2476,1138,1364,26,2500,287,544,604,519,66,66,214,223,8,28,21,25,29,28,21

2017-10-03 16:16:21,#D#,5,4,812,314,354,355,3,2476,1138,1364,26,2500,287,544,604,519,66,66,214,223,8,29,21,25,29,28,21

2017-10-03 16:16:21,#D#,5,5,812,314,354,355,3,2476,1138,1364,26,2500,287,545,604,519,66,66,214,223,8,28,21,25,29,28,21

2017-10-03 16:16:21,#D#,5,6,812,314,354,355,3,2476,1138,1364,26,2500,287,544,604,518,66,66,210,223,8,28,21,25,29,28,21

2017-10-03 16:16:21,#D#,5,7,812,314,354,355,3,2476,1138,1364,26,2500,287,544,604,519,66,66,214,223,8,28,21,25,29,28,21

2017-10-03 16:16:21,#D#,5,8,812,314,354,355,3,2476,1138,1364,26,2500,287,544,604,519,66,66,214,223,8,28,21,25,29,28,21

2017-10-03 16:16:21,#D#,5,9,812,314,354,355,3,2476,1138,1364,26,2500,287,545,604,519,66,66,214,223,8,28,21,25,29,28,21

2017-10-03 16:16:22,
2017-10-03 16:16:22,#D#,6,0,812,314,354,355,3,2476,1138,1364,26,2500,287,545,604,518,66,66,210,223,8,29,21,25,29,28,21

2017-10-03 16:16:22,#D#,6,1,812,314,354,355,3,2476,1138,1364,26,2500,287,544,604,519,66,66,214,219,8,28,21,25,29,28,21

2017-10-03 16:16:22,#D#,6,2,812,314,354,355,3,2476,1138,1364,26,2500,287,545,604,519,66,66,214,223,8,28,21,25,29,28,21

2017-10-03 16:16:22,#D#,6,3,812,314,354,355,3,2476,1138,1364,26,2500,287,544,604,519,66,66,214,223,8,28,21,25,29,28,21

2017-10-03 16:16:22,#D#,6,4,812,314,354,355,3,2476,1138,1364,26,2500,287,545,604,519,66,66,210,223,8,29,21,25,29,28,21

2017-10-03 16:16:22,#D#,6,5,812,314,354,355,3,2476,1138,1364,26,2500,287,545,604,519,66,66,214,223,8,29,21,25,29,28,21

2017-10-03 16:16:22,#D#,6,6,812,314,354,355,3,2476,1138,1364,26,2500,287,544,604,518,66,66,214,223,8,28,21,25,29,28,21

2017-10-03 16:16:22,#D#,6,7,812,314,354,355,3,2476,1138,1364,26,2500,287,544,604,519,66,66,214,223,8,28,21,25,29,28,21

2017-10-03 16:16:23,#D#,6,8,812,314,354,355,3,2476,1138,1364,26,2500,287,545,604,519,66,66,210,223,8,28,21,25,29,28,21

2017-10-03 16:16:23,#D#,6,9,812,314,354,355,3,2476,1138,1364,26,2500,287,545,604,519,66,66,214,223,8,28,21,25,29,28,21

2017-10-03 16:16:24,
2017-10-03 16:16:24,#D#,7,0,812,314,354,355,3,2476,1138,1364,26,2500,287,545,604,519,66,66,214,223,8,28,21,25,29,28,21

2017-10-03 16:16:24,#D#,7,1,812,314,354,355,3,2476,1138,1364,26,2500,287,544,604,519,66,66,210,223,8,28,21,25,29,28,21

2017-10-03 16:16:24,#D#,7,2,812,314,354,355,3,2476,1138,1364,26,2500,287,544,604,519,66,66,214,223,8,28,21,25,29,28,21

2017-10-03 16:16:24,#D#,7,3,812,314,354,355,3,2476,1138,1364,26,2500,287,545,604,519,66,66,210,219,8,28,21,25,29,28,21

2017-10-03 16:16:24,#D#,7,4,812,314,354,355,3,2476,1138,1364,26,2500,287,545,604,519,66,66,214,223,8,28,21,25,29,28,21

2017-10-03 16:16:24,#D#,7,5,812,314,354,355,3,2476,1138,1364,26,2500,287,544,604,519,66,66,214,223,8,29,21,25,29,28,21

2017-10-03 16:16:24,#D#,7,6,812,314,354,355,3,2476,1138,1364,26,2500,287,544,604,518,66,66,214,223,8,28,21,25,29,28,21

2017-10-03 16:16:24,#D#,7,7,812,314,354,355,3,2476,1138,1364,26,2500,287,544,604,518,66,66,210,223,8,28,21,25,29,28,21

2017-10-03 16:16:24,#D#,7,8,812,314,354,355,3,2476,1138,1364,26,2500,287,545,604,519,66,66,214,223,8,28,21,25,28,28,21

2017-10-03 16:16:24,#D#,7,9,812,314,354,355,3,2476,1138,1364,26,2500,287,544,604,519,66,66,214,219,8,28,21,25,29,28,21

2017-10-03 16:16:25,
2017-10-03 16:16:25,#D#,8,0,812,314,354,355,3,2476,1138,1364,26,2500,287,545,604,519,66,66,214,223,8,28,21,25,29,28,21

2017-10-03 16:16:25,#D#,8,1,812,314,354,355,3,2476,1138,1364,26,2500,287,545,604,518,66,66,210,223,8,28,21,25,29,28,21

2017-10-03 16:16:25,#D#,8,2,812,314,354,355,3,2476,1138,1364,26,2500,287,544,604,519,66,66,214,219,8,28,21,25,29,28,21

2017-10-03 16:16:25,#D#,8,3,812,314,354,355,3,2476,1138,1364,26,2500,287,544,604,519,66,66,210,223,8,28,21,25,29,28,21

2017-10-03 16:16:25,#D#,8,4,812,314,354,355,3,2476,1138,1364,26,2500,287,545,604,520,66,66,214,223,8,28,21,25,29,28,21

2017-10-03 16:16:25,#D#,8,5,812,314,354,355,3,2476,1138,1364,26,2500,287,544,604,518,66,66,210,223,8,28,21,25,29,28,21

2017-10-03 16:16:25,#D#,8,6,812,314,354,355,3,2476,1138,1364,26,2500,287,544,604,518,66,66,214,219,8,28,21,25,29,28,21

2017-10-03 16:16:25,#D#,8,7,812,314,354,355,3,2476,1138,1364,26,2500,287,545,604,519,66,66,214,223,8,28,21,25,29,28,21

2017-10-03 16:16:25,#D#,8,8,812,314,354,355,3,2476,1138,1364,26,2500,287,544,604,519,66,66,214,223,8,28,21,25,29,28,21

2017-10-03 16:16:25,#D#,8,9,812,314,354,355,3,2476,1138,1364,26,2500,287,544,604,518,66,66,214,223,8,28,21,25,29,28,21

2017-10-03 16:16:26,
2017-10-03 16:16:27,#D#,9,0,812,314,354,355,3,2476,1138,1364,26,2500,287,544,604,519,66,66,214,223,8,28,21,25,29,28,21

2017-10-03 16:16:27,#D#,9,1,812,314,354,355,3,2476,1138,1364,26,2500,287,545,604,519,66,66,210,223,8,28,21,25,29,28,21

2017-10-03 16:16:27,#D#,9,2,812,314,354,355,3,2476,1138,1364,26,2500,287,545,604,519,66,66,214,223,8,28,21,25,29,28,21

2017-10-03 16:16:27,#D#,9,3,812,314,354,355,3,2476,1138,1364,26,2500,287,544,604,519,66,66,214,223,8,28,21,25,29,28,21

2017-10-03 16:16:27,#D#,9,4,812,314,354,355,3,2476,1138,1364,26,2500,287,545,604,519,66,66,214,223,8,28,21,25,29,28,21

2017-10-03 16:16:27,#D#,9,5,812,314,354,355,3,2476,1138,1364,26,2500,287,544,604,519,66,66,210,223,8,29,21,25,29,28,21

2017-10-03 16:16:27,#D#,9,6,812,314,354,355,3,2476,1138,1364,26,2500,287,545,604,518,66,66,214,219,8,28,21,25,29,28,21

2017-10-03 16:16:27,#D#,9,7,812,314,354,355,3,2476,1138,1364,26,2500,287,545,604,518,66,66,214,223,8,28,21,25,29,28,21

2017-10-03 16:16:27,#D#,9,8,812,314,354,355,3,2476,1138,1364,26,2500,287,545,604,519,66,66,214,223,8,29,21,25,29,28,21

2017-10-03 16:16:27,#D#,9,9,812,314,354,355,3,2476,1138,1364,26,2500,287,544,604,519,66,66,214,223,8,28,21,25,29,28,21

2017-10-03 16:16:28,
2017-10-03 16:16:29,#D#,10,0,812,314,354,355,3,2476,1138,1364,26,2500,287,545,604,519,66,66,214,223,8,28,21,25,29,28,21

2017-10-03 16:16:29,#D#,10,1,812,314,354,355,3,2476,1138,1364,26,2500,287,544,604,519,66,66,214,223,8,28,21,25,29,28,21

2017-10-03 16:16:29,#D#,10,2,812,314,354,355,3,2476,1138,1364,26,2500,287,544,604,519,66,66,210,223,8,28,21,25,29,28,21

2017-10-03 16:16:29,#D#,10,3,812,314,354,355,3,2476,1138,1364,26,2500,287,544,604,519,66,66,210,223,8,28,21,25,29,28,21

2017-10-03 16:16:29,#D#,10,4,812,314,354,355,3,2476,1138,1364,26,2500,287,544,604,519,66,66,214,223,8,28,21,25,29,28,21

2017-10-03 16:16:29,#D#,10,5,812,314,354,355,3,2476,1138,1364,26,2500,287,544,604,519,66,66,214,223,8,28,21,25,29,28,21

2017-10-03 16:16:29,#D#,10,6,812,314,354,355,3,2476,1138,1364,26,2500,287,544,604,519,66,66,214,223,8,28,21,25,29,28,21

2017-10-03 16:16:29,#D#,10,7,812,314,354,355,3,2476,1138,1364,26,2500,287,544,604,519,66,66,214,223,8,28,21,25,29,28,21

2017-10-03 16:16:29,#D#,10,8,812,314,354,355,3,2476,1138,1364,26,2500,287,545,604,519,66,66,210,223,8,28,21,25,29,28,21

2017-10-03 16:16:29,#D#,10,9,812,314,354,355,3,2476,1138,1364,26,2500,287,544,604,519,66,66,214,223,8,28,21,25,29,28,21

2017-10-03 16:16:30,
2017-10-03 16:16:30,#D#,11,0,812,314,354,355,3,2476,1138,1364,26,2500,287,545,604,519,66,66,214,223,8,28,21,25,29,28,21

2017-10-03 16:16:30,#D#,11,1,812,314,354,355,3,2476,1138,1364,26,2500,287,545,604,519,66,66,214,223,8,29,21,25,29,28,21

2017-10-03 16:16:30,#D#,11,2,812,314,354,355,3,2476,1138,1364,26,2500,287,544,604,519,66,66,214,223,8,28,21,25,29,28,21

2017-10-03 16:16:30,#D#,11,3,812,314,354,355,3,2476,1138,1364,26,2500,287,545,604,519,66,66,214,223,8,29,21,25,29,28,21

2017-10-03 16:16:30,#D#,11,4,812,314,354,355,3,2476,1138,1364,26,2500,287,545,604,519,66,66,214,223,8,29,21,25,29,28,21

2017-10-03 16:16:30,#D#,11,5,812,314,354,355,3,2476,1138,1364,26,2500,287,544,604,519,66,66,214,223,8,29,21,25,29,28,21

2017-10-03 16:16:30,#D#,11,6,812,314,354,355,3,2476,1138,1364,26,2500,287,544,604,519,66,66,214,223,8,29,21,25,29,28,21

2017-10-03 16:16:30,#D#,11,7,812,314,354,355,3,2476,1138,1364,26,2500,287,544,604,519,66,66,214,223,8,29,21,25,29,28,21

2017-10-03 16:16:30,#D#,11,8,812,314,354,355,3,2476,1138,1364,26,2500,287,544,604,519,66,66,214,223,8,29,21,25,29,28,21

2017-10-03 16:16:30,#D#,11,9,812,314,354,355,3,2476,1138,1364,26,2500,287,544,604,519,66,66,214,223,8,29,21,25,29,28,21

2017-10-03 16:16:31,
2017-10-03 16:16:31,#D#,12,0,812,314,354,355,3,2476,1138,1364,26,2500,287,544,604,519,66,66,214,223,8,29,22,25,30,28,21

2017-10-03 16:16:32,#D#,12,1,812,314,354,355,3,2476,1138,1364,26,2500,287,545,604,519,66,66,214,223,8,29,22,25,30,28,21

2017-10-03 16:16:32,#D#,12,2,812,314,354,355,3,2476,1138,1364,26,2500,287,545,604,519,66,66,214,223,8,29,22,25,30,28,21

2017-10-03 16:16:32,#D#,12,3,812,314,354,355,3,2476,1138,1364,26,2500,287,544,604,519,66,66,214,223,8,29,21,25,30,28,21

2017-10-03 16:16:32,#D#,12,4,812,314,354,355,3,2476,1138,1364,26,2500,287,544,604,519,66,66,214,223,8,29,22,25,30,28,21

2017-10-03 16:16:32,#D#,12,5,812,314,354,355,3,2476,1138,1364,26,2500,287,544,604,519,66,66,210,223,8,29,22,25,30,28,21

2017-10-03 16:16:32,#D#,12,6,812,314,354,355,3,2476,1138,1364,26,2500,287,545,604,519,66,66,214,223,8,29,22,25,29,28,21

2017-10-03 16:16:32,#D#,12,7,812,314,354,355,3,2476,1138,1364,26,2500,287,544,604,519,66,66,214,223,8,29,22,25,30,28,21

2017-10-03 16:16:32,#D#,12,8,812,314,354,355,3,2476,1138,1364,26,2500,287,545,604,519,66,66,214,223,8,29,22,25,30,28,21

2017-10-03 16:16:32,#D#,12,9,812,314,354,355,3,2476,1138,1364,26,2500,287,545,604,519,66,66,214,223,8,29,22,25,29,28,21

2017-10-03 16:16:33,
2017-10-03 16:16:33,#D#,13,0,812,314,354,355,3,2476,1138,1364,26,2500,287,545,604,519,66,66,214,223,8,29,22,26,30,28,25

2017-10-03 16:16:33,#D#,13,1,812,314,354,355,3,2476,1138,1364,26,2500,287,545,604,519,66,66,218,223,8,29,22,26,30,28,21

2017-10-03 16:16:33,#D#,13,2,812,314,354,355,3,2476,1138,1364,26,2500,287,544,604,518,66,66,214,223,8,29,22,26,30,28,21

2017-10-03 16:16:33,#D#,13,3,812,314,354,355,3,2476,1138,1364,26,2500,287,544,604,519,66,66,214,223,8,29,22,26,30,28,25

2017-10-03 16:16:33,#D#,13,4,812,314,354,355,3,2476,1138,1364,26,2500,287,545,604,518,66,66,210,223,8,29,22,26,30,28,21

2017-10-03 16:16:33,#D#,13,5,812,314,354,355,3,2476,1138,1364,26,2500,287,544,604,519,66,66,210,223,8,29,22,26,30,28,25

2017-10-03 16:16:33,#D#,13,6,812,314,354,355,3,2476,1138,1364,26,2500,287,545,604,519,66,66,214,223,8,29,22,26,30,28,21

2017-10-03 16:16:33,#D#,13,7,812,314,354,355,3,2476,1138,1364,26,2500,287,545,604,519,66,66,214,223,8,29,22,26,30,28,21

2017-10-03 16:16:33,#D#,13,8,812,314,354,355,3,2476,1138,1364,26,2500,287,544,604,519,66,66,214,223,8,29,22,26,30,28,25

2017-10-03 16:16:33,#D#,13,9,812,314,354,355,3,2476,1138,1364,26,2500,287,544,604,519,66,66,214,223,8,29,22,26,30,28,21

2017-10-03 16:16:34,
2017-10-03 16:16:34,#D#,14,0,812,314,354,355,3,2476,1138,1364,26,2500,287,544,604,519,66,66,214,223,8,30,22,26,30,28,25

2017-10-03 16:16:34,#D#,14,1,812,314,354,355,3,2476,1138,1364,26,2500,287,545,604,519,66,66,218,223,8,30,22,26,30,28,25

2017-10-03 16:16:34,#D#,14,2,812,314,354,355,3,2476,1138,1364,26,2500,287,545,604,519,66,66,214,223,8,30,22,26,30,28,25

2017-10-03 16:16:34,#D#,14,3,812,314,354,355,3,2476,1138,1364,26,2500,287,544,604,519,66,66,214,223,8,30,22,26,30,28,25

2017-10-03 16:16:34,#D#,14,4,812,314,354,355,3,2476,1138,1364,26,2500,287,545,604,519,66,66,214,223,8,30,22,26,30,28,25

2017-10-03 16:16:34,#D#,14,5,812,314,354,355,3,2476,1138,1364,26,2500,287,545,604,519,66,66,214,223,8,30,22,26,30,28,25

2017-10-03 16:16:34,#D#,14,6,812,314,354,355,3,2476,1138,1364,26,2500,287,545,604,519,66,66,214,227,8,30,22,26,30,28,25

2017-10-03 16:16:35,#D#,14,7,812,314,354,355,3,2476,1138,1364,26,2500,287,545,604,519,66,66,214,223,8,30,22,26,30,28,25

2017-10-03 16:16:35,#D#,14,8,812,314,354,355,3,2476,1138,1364,26,2500,287,545,604,519,66,66,214,223,8,30,22,26,30,28,25

2017-10-03 16:16:35,#D#,14,9,812,314,354,355,3,2476,1138,1364,26,2500,287,545,604,519,66,66,214,223,8,30,22,26,30,28,25

2017-10-03 16:16:36,
2017-10-03 16:16:36,#D#,15,0,812,314,354,355,3,2476,1138,1364,26,2500,287,544,604,519,66,66,214,223,8,30,23,27,31,28,25

2017-10-03 16:16:36,#D#,15,1,812,314,354,355,3,2476,1138,1364,26,2500,287,544,604,519,66,66,214,223,8,30,23,27,31,28,25

2017-10-03 16:16:36,#D#,15,2,812,314,354,355,3,2476,1138,1364,26,2500,287,544,604,519,66,66,214,223,8,30,23,27,31,28,25

2017-10-03 16:16:36,#D#,15,3,812,314,354,355,3,2476,1138,1364,26,2500,287,545,604,519,66,66,214,223,8,30,23,26,31,28,25

2017-10-03 16:16:36,#D#,15,4,812,314,354,355,3,2476,1138,1364,26,2500,287,544,604,519,66,66,214,223,8,30,23,27,31,28,25

2017-10-03 16:16:36,#D#,15,5,812,314,354,355,3,2476,1138,1364,26,2500,287,545,604,519,66,66,214,223,8,30,23,27,31,28,25

2017-10-03 16:16:36,#D#,15,6,812,314,354,355,3,2476,1138,1364,26,2500,287,545,604,519,66,66,214,223,8,30,23,27,31,28,25

2017-10-03 16:16:36,#D#,15,7,812,314,354,355,3,2476,1138,1364,26,2500,287,545,604,519,66,66,214,223,8,30,23,27,31,28,25

2017-10-03 16:16:36,#D#,15,8,812,314,354,355,3,2476,1138,1364,26,2500,287,544,604,519,66,66,214,223,8,30,23,27,31,28,25

2017-10-03 16:16:36,#D#,15,9,812,314,354,355,3,2476,1138,1364,26,2500,287,544,604,519,66,66,214,223,8,30,23,27,31,28,25

2017-10-03 16:16:37,
2017-10-03 16:16:37,#D#,16,0,812,314,354,355,3,2476,1138,1364,26,2500,287,544,604,519,66,66,214,223,8,30,23,27,31,28,25

2017-10-03 16:16:37,#D#,16,1,812,314,354,355,3,2476,1138,1364,26,2500,287,545,604,519,66,66,214,223,8,31,23,27,31,28,25

2017-10-03 16:16:37,#D#,16,2,812,314,354,355,3,2476,1138,1364,26,2500,287,544,604,519,66,66,214,223,8,31,23,27,31,28,25

2017-10-03 16:16:37,#D#,16,3,812,314,354,355,3,2476,1138,1364,26,2500,287,544,604,519,66,66,210,223,8,31,23,27,31,28,25

2017-10-03 16:16:37,#D#,16,4,812,314,354,355,3,2476,1138,1364,26,2500,287,545,604,519,66,66,214,223,8,31,23,27,31,28,25

2017-10-03 16:16:37,#D#,16,5,812,314,354,355,3,2476,1138,1364,26,2500,287,545,604,519,66,66,214,223,8,30,23,27,31,28,25

2017-10-03 16:16:37,#D#,16,6,812,314,354,355,3,2476,1138,1364,26,2500,287,544,604,519,66,66,210,223,8,31,23,27,31,28,25

2017-10-03 16:16:37,#D#,16,7,812,314,354,355,3,2476,1138,1364,26,2500,287,544,604,519,66,66,214,223,8,31,23,27,31,28,25

2017-10-03 16:16:37,#D#,16,8,812,314,354,355,3,2476,1138,1364,26,2500,287,544,604,519,66,66,214,223,8,31,23,27,31,28,25

2017-10-03 16:16:37,#D#,16,9,812,314,354,355,3,2476,1138,1364,26,2500,287,545,604,519,66,66,214,223,8,31,23,27,31,28,25

2017-10-03 16:16:38,
2017-10-03 16:16:39,#D#,17,0,812,314,354,355,3,2476,1138,1364,26,2500,287,544,604,519,66,66,214,223,8,31,24,27,32,28,26

2017-10-03 16:16:39,#D#,17,1,812,314,354,355,3,2476,1138,1364,26,2500,287,545,604,519,66,66,210,223,8,31,24,27,32,28,26

2017-10-03 16:16:39,#D#,17,2,812,314,354,355,3,2476,1138,1364,26,2500,287,545,604,519,66,66,214,223,8,31,24,27,32,28,26

2017-10-03 16:16:39,#D#,17,3,812,314,354,355,3,2476,1138,1364,26,2500,287,545,604,519,66,66,214,219,8,31,24,27,32,28,26

2017-10-03 16:16:39,#D#,17,4,812,314,354,355,3,2476,1138,1364,26,2500,287,545,604,519,66,66,210,223,8,31,24,27,32,28,26

2017-10-03 16:16:39,#D#,17,5,812,314,354,355,3,2476,1138,1364,26,2500,287,545,604,519,66,66,214,223,8,31,24,27,32,28,26

2017-10-03 16:16:39,#D#,17,6,812,314,354,355,3,2476,1138,1364,26,2500,287,544,604,519,66,66,214,223,8,31,24,27,31,28,26

2017-10-03 16:16:39,#D#,17,7,812,314,354,355,3,2476,1138,1364,26,2500,287,545,604,519,66,66,214,223,8,31,24,28,32,28,26

2017-10-03 16:16:39,#D#,17,8,812,314,354,355,3,2476,1138,1364,26,2500,287,545,604,519,66,66,210,223,8,31,24,27,32,28,26

2017-10-03 16:16:39,#D#,17,9,812,314,354,355,3,2476,1138,1364,26,2500,287,544,604,519,66,66,214,223,8,31,24,28,32,28,26

2017-10-03 16:16:40,
2017-10-03 16:16:40,#D#,18,0,812,314,354,355,3,2476,1138,1364,26,2500,287,545,604,519,66,66,210,223,8,31,24,27,32,28,26

2017-10-03 16:16:40,#D#,18,1,812,314,354,355,3,2476,1138,1364,26,2500,287,545,604,519,66,66,214,223,8,31,24,28,32,28,26

2017-10-03 16:16:40,#D#,18,2,812,314,354,355,3,2476,1138,1364,26,2500,287,544,604,519,66,66,214,223,8,31,24,28,32,28,26

2017-10-03 16:16:40,#D#,18,3,812,314,354,355,3,2476,1138,1364,26,2500,287,545,604,520,66,66,214,223,8,31,24,28,32,28,26

2017-10-03 16:16:40,#D#,18,4,812,314,354,355,3,2476,1138,1364,26,2500,287,544,604,519,66,66,214,223,8,31,24,28,32,28,26

2017-10-03 16:16:40,#D#,18,5,812,314,354,355,3,2476,1138,1364,26,2500,287,544,604,518,66,66,214,223,8,31,24,28,32,28,26

2017-10-03 16:16:40,#D#,18,6,812,314,354,355,3,2476,1138,1364,26,2500,287,544,604,519,66,66,214,223,8,31,24,28,32,28,26

2017-10-03 16:16:40,#D#,18,7,812,314,354,355,3,2476,1138,1364,26,2500,287,545,604,519,66,66,214,219,8,31,24,28,32,28,26

2017-10-03 16:16:40,#D#,18,8,812,314,354,355,3,2476,1138,1364,26,2500,287,545,604,519,66,66,214,219,8,31,24,28,32,28,26

2017-10-03 16:16:40,#D#,18,9,812,314,354,355,3,2476,1138,1364,26,2500,287,545,604,519,66,66,210,219,8,31,24,28,32,28,26

2017-10-03 16:16:41,
2017-10-03 16:16:41,#D#,19,0,812,314,354,355,3,2476,1138,1364,26,2500,287,545,604,519,66,66,210,223,8,32,24,28,32,32,26

2017-10-03 16:16:42,#D#,19,1,812,314,354,355,3,2476,1138,1364,26,2500,287,544,604,519,66,66,214,223,8,32,25,28,33,32,26

2017-10-03 16:16:42,#D#,19,2,812,314,354,355,3,2476,1138,1364,26,2500,287,545,604,519,66,66,214,223,8,32,25,28,32,32,26

2017-10-03 16:16:42,#D#,19,3,812,314,354,355,3,2476,1138,1364,26,2500,287,545,604,519,66,66,210,223,8,32,24,28,33,32,26

2017-10-03 16:16:42,#D#,19,4,812,314,354,355,3,2476,1138,1364,26,2500,287,545,604,519,66,66,214,223,8,32,24,28,32,32,26

2017-10-03 16:16:42,#D#,19,5,812,314,354,355,3,2476,1138,1364,26,2500,287,545,604,519,66,66,214,219,8,32,24,28,32,32,26

2017-10-03 16:16:42,#D#,19,6,812,314,354,355,3,2476,1138,1364,26,2500,287,545,604,518,66,66,214,223,8,32,24,28,32,32,26

2017-10-03 16:16:42,#D#,19,7,812,314,354,355,3,2476,1138,1364,26,2500,287,545,604,519,66,66,214,223,8,32,24,28,33,32,26

2017-10-03 16:16:42,#D#,19,8,812,314,354,355,3,2476,1138,1364,26,2500,287,544,604,518,66,66,210,223,8,32,24,28,32,32,26

2017-10-03 16:16:42,#D#,19,9,812,314,354,355,3,2476,1138,1364,26,2500,287,545,604,518,66,66,214,223,8,32,24,28,32,32,26

2017-10-03 16:16:43,
2017-10-03 16:16:44,#D#,20,0,812,314,354,355,3,2476,1138,1364,26,2500,287,544,604,519,66,66,214,223,13,32,25,29,33,32,26

2017-10-03 16:16:44,#D#,20,1,812,314,354,355,3,2476,1138,1364,26,2500,287,545,604,518,66,66,214,223,13,32,25,29,33,32,26

2017-10-03 16:16:44,#D#,20,2,812,314,354,355,3,2476,1138,1364,26,2500,287,544,604,519,66,66,210,223,13,32,25,29,33,32,26

2017-10-03 16:16:44,#D#,20,3,812,314,354,355,3,2476,1138,1364,26,2500,287,544,604,519,66,66,218,223,13,32,25,29,32,32,26

2017-10-03 16:16:44,#D#,20,4,812,314,354,355,3,2476,1138,1364,26,2500,287,544,604,519,66,66,214,223,13,32,25,29,33,32,26

2017-10-03 16:16:44,#D#,20,5,812,314,354,355,3,2476,1138,1364,26,2500,287,544,604,519,66,66,214,223,13,32,25,29,33,32,26

2017-10-03 16:16:44,#D#,20,6,812,314,354,355,3,2476,1138,1364,26,2500,287,544,604,519,66,66,214,223,13,32,25,29,33,32,26

2017-10-03 16:16:44,#D#,20,7,812,314,354,355,3,2476,1138,1364,26,2500,287,545,604,519,66,66,214,223,13,32,25,29,33,32,26

2017-10-03 16:16:44,#D#,20,8,812,314,354,355,3,2476,1138,1364,26,2500,287,544,604,519,66,66,214,223,13,32,25,29,33,32,26

2017-10-03 16:16:44,#D#,20,9,812,314,354,355,3,2476,1138,1364,26,2500,287,545,604,519,66,66,214,223,13,32,25,29,33,32,26

2017-10-03 16:16:45,
2017-10-03 16:16:45,#D#,21,0,812,314,354,355,3,2476,1138,1364,26,2500,287,544,604,519,66,66,210,223,13,32,25,29,33,32,26

2017-10-03 16:16:45,#D#,21,1,812,314,354,355,3,2476,1138,1364,26,2500,287,545,604,519,66,66,214,223,13,32,25,29,33,32,26

2017-10-03 16:16:45,#D#,21,2,812,314,354,355,3,2476,1138,1364,26,2500,287,545,604,519,66,66,214,223,13,33,25,29,33,32,26

2017-10-03 16:16:45,#D#,21,3,812,314,354,355,3,2476,1138,1364,26,2500,287,545,604,519,66,66,214,223,13,32,25,29,33,32,26

2017-10-03 16:16:45,#D#,21,4,812,314,354,355,3,2476,1138,1364,26,2500,287,544,604,519,66,66,210,223,13,32,25,29,33,32,26

2017-10-03 16:16:45,#D#,21,5,812,314,354,355,3,2476,1138,1364,26,2500,287,545,604,518,66,66,214,223,13,33,25,29,33,32,26

2017-10-03 16:16:45,#D#,21,6,812,314,354,355,3,2476,1138,1364,26,2500,287,544,604,519,66,66,214,223,13,32,25,29,33,32,26

2017-10-03 16:16:45,#D#,21,7,812,314,354,355,3,2476,1138,1364,26,2500,287,545,604,519,66,66,214,223,13,32,25,29,33,32,26

2017-10-03 16:16:45,#D#,21,8,812,314,354,355,3,2476,1138,1364,26,2500,287,544,604,519,66,66,214,223,13,33,25,29,33,32,26

2017-10-03 16:16:45,#D#,21,9,812,314,354,355,3,2476,1138,1364,26,2500,287,544,604,519,66,66,214,223,13,33,25,29,33,32,26

2017-10-03 16:16:46,
2017-10-03 16:16:46,#D#,22,0,812,314,354,355,3,2476,1138,1364,26,2500,287,544,604,519,66,66,214,223,13,33,26,30,34,32,30

2017-10-03 16:16:46,#D#,22,1,812,314,354,355,3,2476,1138,1364,26,2500,287,544,604,519,66,66,214,223,13,33,26,29,34,32,30

2017-10-03 16:16:46,#D#,22,2,812,314,354,355,3,2476,1138,1364,26,2500,287,544,604,519,66,66,214,223,13,33,26,29,34,32,26

2017-10-03 16:16:46,#D#,22,3,812,314,354,355,3,2476,1138,1364,26,2500,287,545,604,519,66,66,214,223,13,33,26,29,34,32,26

2017-10-03 16:16:46,#D#,22,4,812,314,354,355,3,2476,1138,1364,26,2500,287,545,604,519,66,66,210,223,13,33,26,29,34,32,26

2017-10-03 16:16:46,#D#,22,5,812,314,354,355,3,2476,1138,1364,26,2500,287,545,604,519,66,66,214,223,13,33,26,30,34,32,26

2017-10-03 16:16:47,#D#,22,6,812,314,354,355,3,2476,1138,1364,26,2500,287,544,604,518,66,66,210,223,13,33,26,30,34,32,26

2017-10-03 16:16:47,#D#,22,7,812,314,354,355,3,2476,1138,1364,26,2500,287,545,604,519,66,66,218,223,13,33,26,30,34,32,26

2017-10-03 16:16:47,#D#,22,8,812,314,354,355,3,2476,1138,1364,26,2500,287,545,604,519,66,66,214,223,13,33,26,30,34,32,26

2017-10-03 16:16:47,#D#,22,9,812,314,354,355,3,2476,1138,1364,26,2500,287,544,604,519,66,66,214,223,13,33,26,30,34,32,26

2017-10-03 16:16:48,
2017-10-03 16:16:48,#D#,23,0,812,314,354,355,3,2476,1138,1364,26,2500,287,545,604,519,66,66,210,223,13,34,26,30,34,32,30

2017-10-03 16:16:48,#D#,23,1,812,314,354,355,3,2476,1138,1364,26,2500,287,545,604,519,66,66,218,223,13,34,26,30,34,32,30

2017-10-03 16:16:48,#D#,23,2,812,314,354,355,3,2476,1138,1364,26,2500,287,545,604,519,66,66,214,223,13,33,26,30,34,32,30

2017-10-03 16:16:48,#D#,23,3,812,314,354,355,3,2476,1138,1364,26,2500,287,544,604,519,66,66,214,223,13,33,26,30,34,32,30

2017-10-03 16:16:48,#D#,23,4,812,314,354,355,3,2476,1138,1364,26,2500,287,545,604,519,66,66,214,223,13,33,26,30,34,32,30

2017-10-03 16:16:48,#D#,23,5,812,314,354,355,3,2476,1138,1364,26,2500,287,545,604,519,66,66,214,223,13,33,26,30,34,32,30

2017-10-03 16:16:48,#D#,23,6,812,314,354,355,3,2476,1138,1364,26,2500,287,545,604,518,66,66,214,223,13,33,26,30,34,32,30

2017-10-03 16:16:48,#D#,23,7,812,314,354,355,3,2476,1138,1364,26,2500,287,544,604,519,66,66,214,223,13,34,26,30,34,32,30

2017-10-03 16:16:48,#D#,23,8,812,314,354,355,3,2476,1138,1364,26,2500,287,545,604,519,66,66,214,223,13,33,26,30,34,32,30

2017-10-03 16:16:48,#D#,23,9,812,314,354,355,3,2476,1138,1364,26,2500,287,544,604,519,66,66,214,223,13,33,26,30,34,32,30

2017-10-03 16:16:49,
2017-10-03 16:16:49,#D#,24,0,812,314,354,355,3,2476,1138,1364,26,2500,287,545,604,519,66,66,214,223,13,34,27,30,34,32,30

2017-10-03 16:16:49,#D#,24,1,812,314,354,355,3,2476,1138,1364,26,2500,287,545,604,519,66,66,214,223,13,34,26,30,34,32,30

2017-10-03 16:16:49,#D#,24,2,812,314,354,355,3,2476,1138,1364,26,2500,287,545,604,519,66,66,214,223,13,34,27,30,34,32,30

2017-10-03 16:16:49,#D#,24,3,812,314,354,355,3,2476,1138,1364,26,2500,287,544,604,519,66,66,214,223,13,34,27,30,34,32,30

2017-10-03 16:16:49,#D#,24,4,812,314,354,355,3,2476,1138,1364,26,2500,287,545,604,519,66,66,214,223,13,34,27,30,34,32,30

2017-10-03 16:16:49,#D#,24,5,812,314,354,355,3,2476,1138,1364,26,2500,287,545,604,519,66,66,214,223,13,34,27,30,35,32,30

2017-10-03 16:16:49,#D#,24,6,812,314,354,355,3,2476,1138,1364,26,2500,287,545,604,519,66,66,214,223,13,34,26,30,34,32,30

2017-10-03 16:16:49,#D#,24,7,812,314,354,355,3,2476,1138,1364,26,2500,287,545,604,519,66,66,214,223,13,34,27,30,35,32,30

2017-10-03 16:16:49,#D#,24,8,812,314,354,355,3,2476,1138,1364,26,2500,287,544,604,519,66,66,214,223,13,34,27,30,34,32,30

2017-10-03 16:16:49,#D#,24,9,812,314,354,355,3,2476,1138,1364,26,2500,287,544,604,519,66,66,214,223,13,34,27,30,34,32,30

2017-10-03 16:16:50,
2017-10-03 16:16:51,#D#,25,0,812,314,354,355,3,2476,1138,1364,26,2500,287,545,604,520,66,66,214,223,13,34,27,31,35,32,30

2017-10-03 16:16:51,#D#,25,1,812,314,354,355,3,2476,1138,1364,26,2500,287,544,604,519,66,66,210,223,13,34,27,31,35,32,30

2017-10-03 16:16:51,#D#,25,2,812,314,354,355,3,2476,1138,1364,26,2500,287,545,604,519,66,66,210,219,13,34,27,31,35,32,30

2017-10-03 16:16:51,#D#,25,3,812,314,354,355,3,2476,1138,1364,26,2500,287,545,604,519,66,66,206,223,13,34,27,31,35,32,30

2017-10-03 16:16:51,#D#,25,4,812,314,354,355,3,2476,1138,1364,26,2500,287,545,604,519,66,66,214,223,13,34,27,31,35,32,30

2017-10-03 16:16:51,#D#,25,5,812,314,354,355,3,2476,1138,1364,26,2500,287,545,604,519,66,66,214,223,13,34,27,31,35,32,30

2017-10-03 16:16:51,#D#,25,6,812,314,354,355,3,2476,1138,1364,26,2500,287,545,604,519,66,66,214,219,13,34,27,31,35,32,30

2017-10-03 16:16:51,#D#,25,7,812,314,354,355,3,2476,1138,1364,26,2500,287,545,604,519,66,66,214,223,13,34,27,31,35,32,30

2017-10-03 16:16:51,#D#,25,8,812,314,354,355,3,2476,1138,1364,26,2500,287,545,604,519,66,66,214,223,13,34,27,31,35,32,30

2017-10-03 16:16:51,#D#,25,9,812,314,354,355,3,2476,1138,1364,26,2500,287,545,604,520,66,66,210,219,13,34,27,31,35,32,30

2017-10-03 16:16:52,
2017-10-03 16:16:52,#D#,26,0,812,314,354,355,3,2476,1138,1364,26,2500,287,545,604,519,66,66,214,223,13,35,27,31,35,32,30

2017-10-03 16:16:52,#D#,26,1,812,314,354,355,3,2476,1138,1364,26,2500,287,544,604,519,66,66,214,223,13,35,27,31,35,32,30

2017-10-03 16:16:52,#D#,26,2,812,314,354,355,3,2476,1138,1364,26,2500,287,544,604,519,66,66,214,223,13,35,27,31,35,32,30

2017-10-03 16:16:52,#D#,26,3,812,314,354,355,3,2476,1138,1364,26,2500,287,545,604,519,66,66,210,223,13,35,27,31,35,32,30

2017-10-03 16:16:52,#D#,26,4,812,314,354,355,3,2476,1138,1364,26,2500,287,545,604,519,66,66,214,223,13,34,27,31,35,32,30

2017-10-03 16:16:52,#D#,26,5,812,314,354,355,3,2476,1138,1364,26,2500,287,545,604,519,66,66,214,223,13,35,27,31,35,32,30

2017-10-03 16:16:52,#D#,26,6,812,314,354,355,3,2476,1138,1364,26,2500,287,544,604,519,66,66,214,219,13,34,27,31,35,32,30

2017-10-03 16:16:52,#D#,26,7,812,314,354,355,3,2476,1138,1364,26,2500,287,544,604,519,66,66,210,223,13,35,27,31,35,32,30

2017-10-03 16:16:52,#D#,26,8,812,314,354,355,3,2476,1138,1364,26,2500,287,544,604,519,66,66,214,223,13,35,27,31,35,32,30

2017-10-03 16:16:52,#D#,26,9,812,314,354,355,3,2476,1138,1364,26,2500,287,545,604,518,66,66,214,223,13,35,27,31,35,32,30

2017-10-03 16:16:53,
2017-10-03 16:16:54,#D#,27,0,812,314,354,355,3,2476,1138,1364,26,2500,287,545,604,519,66,66,210,223,13,35,28,32,36,32,30

2017-10-03 16:16:54,#D#,27,1,812,314,354,355,3,2476,1138,1364,26,2500,287,544,604,519,66,66,214,223,13,35,28,32,36,32,30

2017-10-03 16:16:54,#D#,27,2,812,314,354,355,3,2476,1138,1364,26,2500,287,544,604,520,66,66,214,223,13,35,28,32,36,32,30

2017-10-03 16:16:54,#D#,27,3,812,314,354,355,3,2476,1138,1364,26,2500,287,545,604,519,66,66,214,223,13,35,28,32,36,32,30

2017-10-03 16:16:54,#D#,27,4,812,314,354,355,3,2476,1138,1364,26,2500,287,545,604,519,66,66,214,223,13,35,28,32,36,32,30

2017-10-03 16:16:54,#D#,27,5,812,314,354,355,3,2476,1138,1364,26,2500,287,545,604,519,66,66,210,223,13,35,28,32,36,32,30

2017-10-03 16:16:54,#D#,27,6,812,314,354,355,3,2476,1138,1364,26,2500,287,544,604,519,66,66,214,223,13,35,28,32,36,32,30

2017-10-03 16:16:54,#D#,27,7,812,314,354,355,3,2476,1138,1364,26,2500,287,545,604,519,66,66,214,223,13,35,28,32,36,32,30

2017-10-03 16:16:54,#D#,27,8,812,314,354,355,3,2476,1138,1364,26,2500,287,545,604,519,66,66,214,219,13,35,28,32,36,32,30

2017-10-03 16:16:54,#D#,27,9,812,314,354,355,3,2476,1138,1364,26,2500,287,544,604,519,66,66,210,223,13,35,28,32,36,32,30

2017-10-03 16:16:55,
2017-10-03 16:16:55,#D#,28,0,812,314,354,355,3,2476,1138,1364,26,2500,287,545,604,519,66,66,210,223,13,36,28,32,36,36,30

2017-10-03 16:16:55,#D#,28,1,812,314,354,355,3,2476,1138,1364,26,2500,287,545,604,519,66,66,214,223,13,36,28,32,36,36,30

2017-10-03 16:16:55,#D#,28,2,812,314,354,355,3,2476,1138,1364,26,2500,287,544,604,519,66,66,214,223,13,36,28,32,36,36,30

2017-10-03 16:16:55,#D#,28,3,812,314,354,355,3,2476,1138,1364,26,2500,287,545,604,519,66,66,214,223,13,36,28,32,36,36,30

2017-10-03 16:16:55,#D#,28,4,812,314,354,355,3,2476,1138,1364,26,2500,287,545,604,519,66,66,214,219,13,36,28,32,36,36,30

2017-10-03 16:16:55,#D#,28,5,812,314,354,355,3,2476,1138,1364,26,2500,287,544,604,519,66,66,210,223,13,36,28,32,36,36,30

2017-10-03 16:16:55,#D#,28,6,812,314,354,355,3,2476,1138,1364,26,2500,287,545,604,519,66,66,214,223,13,36,28,32,36,36,30

2017-10-03 16:16:55,#D#,28,7,812,314,354,355,3,2476,1138,1364,26,2500,287,544,604,519,66,66,214,223,13,36,28,32,36,36,30

2017-10-03 16:16:55,#D#,28,8,812,314,354,355,3,2476,1138,1364,26,2500,287,545,604,519,66,66,214,223,13,35,28,32,36,36,30

2017-10-03 16:16:55,#D#,28,9,812,314,354,355,3,2476,1138,1364,26,2500,287,545,604,519,66,66,214,223,13,36,28,32,36,36,30

2017-10-03 16:16:56,
2017-10-03 16:16:56,#D#,29,0,812,314,354,355,3,2476,1138,1364,26,2500,287,544,604,519,66,66,210,223,13,36,29,32,36,36,30

2017-10-03 16:16:56,#D#,29,1,812,314,354,355,3,2476,1138,1364,26,2500,287,544,604,519,66,66,210,219,13,36,29,32,37,36,30

2017-10-03 16:16:56,#D#,29,2,812,314,354,355,3,2476,1138,1364,26,2500,287,545,604,519,66,66,210,223,13,36,29,32,36,36,30

2017-10-03 16:16:56,#D#,29,3,812,314,354,355,3,2476,1138,1364,26,2500,287,545,604,519,66,66,210,223,13,36,29,32,37,36,30

2017-10-03 16:16:56,#D#,29,4,812,314,354,355,3,2476,1138,1364,26,2500,287,545,604,519,66,66,214,223,13,36,29,32,37,36,30

2017-10-03 16:16:56,#D#,29,5,812,314,354,355,3,2476,1138,1364,26,2500,287,545,604,519,66,66,214,223,13,36,28,32,37,36,30

2017-10-03 16:16:56,#D#,29,6,812,314,354,355,3,2476,1138,1364,26,2500,287,544,604,519,66,66,214,223,13,36,29,32,37,36,30

2017-10-03 16:16:57,#D#,29,7,812,314,354,355,3,2476,1138,1364,26,2500,287,545,604,519,66,66,210,223,13,36,29,32,36,36,30

2017-10-03 16:16:57,#D#,29,8,812,314,354,355,3,2476,1138,1364,26,2500,287,544,604,519,66,66,210,223,13,36,29,32,37,36,30

2017-10-03 16:16:57,#D#,29,9,812,314,354,355,3,2476,1138,1364,26,2500,287,544,604,519,66,66,214,223,13,36,29,32,37,36,30

2017-10-03 16:16:58,
2017-10-03 16:16:58,#D#,30,0,812,314,354,355,3,2476,1138,1364,26,2500,287,545,604,519,66,66,214,223,17,36,29,33,37,36,30

2017-10-03 16:16:58,#D#,30,1,812,314,354,355,3,2476,1138,1364,26,2500,287,545,604,519,66,66,214,227,17,36,29,32,37,36,30

2017-10-03 16:16:58,#D#,30,2,812,314,354,355,3,2476,1138,1364,26,2500,287,544,604,519,66,66,210,223,17,36,29,33,37,36,30

2017-10-03 16:16:58,#D#,30,3,812,314,354,355,3,2476,1138,1364,26,2500,287,545,604,519,66,66,214,223,17,36,29,33,37,36,30

2017-10-03 16:16:58,#D#,30,4,812,314,354,355,3,2476,1138,1364,26,2500,287,544,604,520,66,66,214,223,17,36,29,33,37,36,30

2017-10-03 16:16:59,#D#,30,5,812,314,354,355,3,2476,1138,1364,26,2500,287,545,604,519,66,66,214,223,17,36,29,33,37,36,30

2017-10-03 16:16:59,#D#,30,6,812,314,354,355,3,2476,1138,1364,26,2500,287,545,604,519,66,66,214,223,17,36,29,33,37,36,30

2017-10-03 16:16:59,#D#,30,7,812,314,354,355,3,2476,1138,1364,26,2500,287,544,604,519,66,66,214,223,17,36,29,33,37,36,30

2017-10-03 16:16:59,#D#,30,8,812,314,354,355,3,2476,1138,1364,26,2500,287,545,604,519,66,66,214,223,17,36,29,33,37,36,30

2017-10-03 16:16:59,#D#,30,9,812,314,354,355,3,2476,1138,1364,26,2500,287,545,604,519,66,66,214,223,17,36,29,33,37,36,30

2017-10-03 16:17:00,
2017-10-03 16:17:00,#D#,31,0,812,314,354,355,3,2476,1138,1364,26,2500,287,545,604,519,66,66,214,223,17,37,30,34,37,36,30

2017-10-03 16:17:00,#D#,31,1,812,314,354,355,3,2476,1138,1364,26,2500,287,544,604,519,66,66,214,223,17,37,30,33,38,36,30

2017-10-03 16:17:00,#D#,31,2,812,314,354,355,3,2476,1138,1364,26,2500,287,545,604,519,66,66,210,223,17,37,30,34,38,36,30

2017-10-03 16:17:00,#D#,31,3,812,314,354,355,3,2476,1138,1364,26,2500,287,544,604,519,66,66,214,223,17,37,30,34,38,36,30

2017-10-03 16:17:00,#D#,31,4,812,314,354,355,3,2476,1138,1364,26,2500,287,544,604,519,66,66,214,223,17,37,30,34,38,36,30

2017-10-03 16:17:00,#D#,31,5,812,314,354,355,3,2476,1138,1364,26,2500,287,544,604,519,66,66,214,223,17,37,30,34,38,36,30

2017-10-03 16:17:00,#D#,31,6,812,314,354,355,3,2476,1138,1364,26,2500,287,545,604,519,66,66,214,223,17,37,30,33,38,36,30

2017-10-03 16:17:00,#D#,31,7,812,314,354,355,3,2476,1138,1364,26,2500,287,545,604,519,66,66,214,223,17,37,30,33,38,36,30

2017-10-03 16:17:00,#D#,31,8,812,314,354,355,3,2476,1138,1364,26,2500,287,544,604,519,66,66,214,223,17,37,30,33,38,36,30

2017-10-03 16:17:00,#D#,31,9,812,314,354,355,3,2476,1138,1364,26,2500,287,545,604,519,66,66,214,223,17,37,30,33,38,36,30

2017-10-03 16:17:01,
2017-10-03 16:17:01,#D#,32,0,812,314,354,355,3,2476,1138,1364,26,2500,287,544,604,519,66,66,214,223,17,37,30,34,38,36,34

2017-10-03 16:17:01,#D#,32,1,812,314,354,355,3,2476,1138,1364,26,2500,287,544,604,519,66,66,214,223,17,37,30,34,38,36,34

2017-10-03 16:17:01,#D#,32,2,812,314,354,355,3,2476,1138,1364,26,2500,287,544,604,519,66,66,214,223,17,37,30,34,38,36,34

2017-10-03 16:17:01,#D#,32,3,812,314,354,355,3,2476,1138,1364,26,2500,287,544,604,519,66,66,214,223,17,37,30,34,38,36,34

2017-10-03 16:17:01,#D#,32,4,812,314,354,355,3,2476,1138,1364,26,2500,287,545,604,519,66,66,214,223,17,37,30,34,38,36,34

2017-10-03 16:17:01,#D#,32,5,812,314,354,355,3,2476,1138,1364,26,2500,287,545,604,519,66,66,214,223,17,37,30,34,38,36,34

2017-10-03 16:17:01,#D#,32,6,812,314,354,355,3,2476,1138,1364,26,2500,287,544,604,519,66,66,214,223,17,37,30,34,38,36,34

2017-10-03 16:17:01,#D#,32,7,812,314,354,355,3,2476,1138,1364,26,2500,287,545,604,519,66,66,214,223,17,37,30,34,38,36,30

2017-10-03 16:17:01,#D#,32,8,812,314,354,355,3,2476,1138,1364,26,2500,287,545,604,519,66,66,214,223,17,37,30,34,38,36,34

2017-10-03 16:17:01,#D#,32,9,812,314,354,355,3,2476,1138,1364,26,2500,287,545,604,519,66,66,214,223,17,37,30,34,38,36,34

2017-10-03 16:17:02,
2017-10-03 16:17:03,#D#,33,0,812,314,354,355,3,2476,1138,1364,26,2500,287,545,604,519,66,66,214,223,17,38,30,34,38,36,34

2017-10-03 16:17:03,#D#,33,1,812,314,354,355,3,2476,1138,1364,26,2500,287,545,604,519,66,66,214,223,17,38,30,34,38,36,34

2017-10-03 16:17:03,#D#,33,2,812,314,354,355,3,2476,1138,1364,26,2500,287,545,604,519,66,66,214,223,17,38,30,34,38,36,34

2017-10-03 16:17:03,#D#,33,3,812,314,354,355,3,2476,1138,1364,26,2500,287,545,604,519,66,66,214,223,17,38,30,34,38,36,34

2017-10-03 16:17:03,#D#,33,4,812,314,354,355,3,2476,1138,1364,26,2500,287,545,604,519,66,66,214,223,17,38,31,34,38,36,34

2017-10-03 16:17:03,#D#,33,5,812,314,354,355,3,2476,1138,1364,26,2500,287,545,604,519,66,66,214,223,17,38,30,34,38,36,34

2017-10-03 16:17:03,#D#,33,6,812,314,354,355,3,2476,1138,1364,26,2500,287,545,604,519,66,66,210,223,17,38,31,34,38,36,34

2017-10-03 16:17:03,#D#,33,7,812,314,354,355,3,2476,1138,1364,26,2500,287,545,604,519,66,66,214,223,17,38,30,34,38,36,34

2017-10-03 16:17:03,#D#,33,8,812,314,354,355,3,2476,1138,1364,26,2500,287,545,604,519,66,66,214,223,17,38,30,34,38,36,34

2017-10-03 16:17:03,#D#,33,9,812,314,354,355,3,2476,1138,1364,26,2500,287,545,604,519,66,66,214,223,17,38,30,34,38,36,34

