2017-09-08 23:05:13,Serial Error, Ch,
2017-09-08 23:05:13,BOe1,Meue1
2017-09-08 23:05:42,0,,01,,0,0 Oe1 Rf02 000020,0,0 B t2 r
2017-09-08 23:06:01,4000,,
2017-09-08 23:06:11,B t,Mgf000,,,
2017-09-08 23:06:21,Serial Error,   t,_Be0
2017-09-08 23:06:21,Serial Error, 
2017-09-08 23:06:30,,0,0BOe1 _gf00,, ,0,,,GS:7 Mgfr
2017-09-09 00:05:22,Serial Error, DCnB,_hAR0Mc,_hAL3MC,3 , 03,22 ,1  ,3 , 13,22 ,1 ,7,,3,
2017-09-09 00:05:22,Serial Error, 
2017-09-09 00:05:22,Serial Error, 
2017-09-09 00:05:22,Serial Error,   09 7,2 1 ,1 0,3,,   13,22 ,1 3 93  ,, 
2017-09-09 00:05:22,33  93    
2017-09-09 00:05:22,Serial Error, ,
2017-09-09 00:05:22,Serial Error, , ,32131
2017-09-09 00:05:23,Serial Error, 6,27,,
2017-09-09 00:05:23,Serial Error, 2
2017-09-09 00:05:23,Serial Error, 
2017-09-09 00:05:23,Serial Error, 
2017-09-09 00:05:23,Serial Error, 
2017-09-09 00:05:23,Serial Error, 2, 73,
2017-09-09 00:05:23,Serial Error, 1321
2017-09-09 00:05:23,Serial Error, 2,3 
2017-09-09 00:05:23,Serial Error, 
2017-09-09 00:05:23,,009 32 ,32
2017-09-09 00:05:23,Serial Error, 
2017-09-09 00:05:23,Serial Error,  
2017-09-09 00:05:23,Serial Error, 
2017-09-09 00:05:23,Serial Error, ,
2017-09-09 00:05:23,Serial Error, 
2017-09-09 00:05:23,3, 1 ,2
2017-09-09 00:05:23, 13,22 32
2017-09-09 00:05:23,Serial Error, 5
2017-09-09 00:05:23,Serial Error, ,0
2017-09-09 00:05:23,Serial Error, 
2017-09-09 00:05:23,Serial Error, 7,2 1 
2017-09-09 00:05:23,Serial Error, ,
2017-09-09 00:05:23,Serial Error, 3 03 ,,,, 
2017-09-09 00:05:23,Serial Error, 3 5,73 ,031332 ,  037,2,2,,2  4 6,73 , 0 31
2017-09-09 00:05:23,Serial Error, 1, 2
2017-09-09 00:05:23,
2017-09-09 00:05:23,Serial Error, 4 6, 33 ,  9,372 2 463
2017-09-09 00:05:23,Serial Error, 6
2017-09-09 00:05:23,Serial Error, 
2017-09-09 00:05:23,Serial Error, 
2017-09-09 00:05:23,Serial Error, 3
2017-09-09 00:05:23,Serial Error, 
2017-09-09 00:05:23,Serial Error, 
2017-09-09 00:05:23,Serial Error, 
2017-09-09 00:05:23,Serial Error, 
2017-09-09 00:05:23,Serial Error, 
2017-09-09 00:05:23,Serial Error, 
2017-09-09 00:05:23,Serial Error, 
2017-09-09 00:05:23,Serial Error, 
2017-09-09 00:05:23,Serial Error, 0
2017-09-09 00:05:23,Serial Error, 
2017-09-09 00:05:23,Serial Error, 
2017-09-09 00:05:23,Serial Error, 
2017-09-09 00:05:23,Serial Error, ,2
2017-09-09 00:05:23,Serial Error, 
2017-09-09 00:05:23,Serial Error, 
2017-09-09 00:05:23,Serial Error, 
2017-09-09 00:05:23,Serial Error, 
2017-09-09 00:05:23,Serial Error, 
2017-09-09 00:05:23,Serial Error, 
2017-09-09 00:05:23,Serial Error,  
2017-09-09 00:05:23,Serial Error, 
2017-09-09 00:05:23,Serial Error, 
2017-09-09 00:05:23,Serial Error, , 
2017-09-09 00:05:23,Serial Error, 
2017-09-09 00:05:23, 3 ,,,, 53 93    
2017-09-09 00:05:23,Serial Error, , 7, 3, 
2017-09-09 00:05:23,Serial Error, 391
2017-09-09 00:05:23,Serial Error, 
2017-09-09 00:05:23,22, 21, 23,21 
2017-09-09 00:05:23, 5, 78, 733, 0, 0 391, 373, 22, 21, 23, 21 
2017-09-09 00:05:23,Serial Error, 
2017-09-09 00:05:23,, 78, 733, 0, 0 391, 373, 22, 21, 23, 21 
2017-09-09 00:05:23, 5, 78, 733, 0, 0 391, 373, 22, 21, 23, 21 
2017-09-09 00:05:23, 5, 78, 733, 0, 0 391, 373, 22, 21, 23, 21 
2017-09-09 00:05:23, 5, 78, 733, 0, 0 391, 373, 22, 21, 23, 21 
2017-09-09 00:05:23, 5, 78, 733, 0, 0 391, 373, 22, 21, 23, 21 
2017-09-09 00:05:23, 5, 78, 733, 0, 0 390, 373, 22, 21, 23, 21 
2017-09-09 00:05:23, 6, 91, 733, 0, 0 390, 373, 22, 21, 23, 21 
2017-09-09 00:05:23, 6, 91, 733, 0, 0 391, 373, 22, 21, 23, 21 
2017-09-09 00:05:24, 6, 91, 733, 0, 0 391, 373, 22, 21, 23, 21 
2017-09-09 00:05:24, 6, 91, 733, 0, 0 391, 373, 22, 21, 23, 21 
2017-09-09 00:05:24, 6, 91, 733, 0, 0 390, 373, 22, 21, 23, 21 
2017-09-09 00:05:24, 6, 91, 733, 0, 0 391, 373, 22, 21, 23, 21 
2017-09-09 00:05:24, 6, 91, 733, 0, 0 391, 373, 22, 21, 23, 21 
2017-09-09 00:05:24, 6, 91, 733, 0, 0 391, 373, 22, 21, 23, 21 
2017-09-09 00:05:24, 6, 91, 733, 0, 0 391, 373, 22, 21, 23, 21 
2017-09-09 00:05:24, 6, 91, 733, 0, 0 391, 372, 22, 21, 23, 21 
2017-09-09 00:05:24, 7, 104, 733, 0, 0 391, 373, 22, 21, 23, 21 
2017-09-09 00:05:24, 7, 104, 733, 0, 0 391, 373, 22, 21, 23, 21 
2017-09-09 00:05:24, 7, 104, 733, 0, 0 391, 373, 22, 21, 23, 21 
2017-09-09 00:05:24, 7, 104, 733, 0, 0 390, 372, 22, 21, 23, 21 
2017-09-09 00:05:24, 7, 104, 733, 0, 0 391, 373, 22, 21, 23, 21 
2017-09-09 00:05:24, 7, 104, 733, 0, 0 391, 373, 22, 21, 23, 21 
2017-09-09 00:05:24, 7, 104, 733, 0, 0 390, 373, 22, 21, 23, 21 
2017-09-09 00:05:24, 7, 104, 733, 0, 0 391, 373, 22, 21, 23, 21 
2017-09-09 00:05:24, 7, 104, 733, 0, 0 391, 373, 22, 21, 23, 21 
2017-09-09 00:05:24, 7, 104, 733, 0, 0 391, 372, 22, 21, 23, 21 
2017-09-09 00:05:24, 8, 117, 733, 0, 0 391, 373, 22, 21, 23, 21 
2017-09-09 00:05:24, 8, 117, 733, 0, 0 391, 373, 22, 21, 23, 21 
2017-09-09 00:05:24, 8, 117, 733, 0, 0 391, 373, 22, 21, 23, 21 
2017-09-09 00:05:24, 8, 117, 733, 0, 0 391, 373, 22, 21, 23, 21 
2017-09-09 00:05:24, 8, 117, 733, 0, 0 391, 373, 22, 21, 23, 21 
2017-09-09 00:05:46, 3, 52, 733, 0, 0 391, 373, 22, 21, 23, 21 
2017-09-09 00:05:46, 4, 65, 733, 0, 0 391, 373, 22, 21, 23, 21 
2017-09-09 00:05:46, 4, 65, 733, 0, 0 391, 373, 22, 21, 23, 21 
2017-09-09 00:05:46, 4, 65, 733, 0, 0 391, 373, 22, 21, 23, 21 
2017-09-09 00:05:46, 4, 65, 733, 0, 0 391, 373, 22, 21, 23, 21 
2017-09-09 00:05:46, 4, 65, 733, 0, 0 391, 373, 22, 21, 23, 21 
2017-09-09 00:05:46, 4, 65, 733, 0, 0 391, 373, 22, 21, 23, 21 
2017-09-09 00:05:46, 4, 65, 733, 0, 0 391, 373, 22, 21, 23, 21 
2017-09-09 00:05:46, 4, 65, 733, 0, 0 390, 373, 22, 21, 23, 21 
2017-09-09 00:05:46, 4, 65, 733, 0, 0 391, 373, 22, 21, 23, 21 
2017-09-09 00:05:46, 4, 65, 733, 0, 0 390, 373, 22, 21, 23, 21 
2017-09-09 00:05:46, 5, 78, 733, 0, 0 391, 373, 22, 21, 23, 21 
2017-09-09 00:05:46, 5, 78, 733, 0, 0 391, 373, 22, 21, 23, 21 
2017-09-09 00:05:46, 5, 78, 733, 0, 0 391, 373, 22, 21, 23, 21 
2017-09-09 00:05:46, 5, 78, 733, 0, 0 391, 373, 22, 21, 23, 21 
2017-09-09 00:05:46, 5, 78, 733, 0, 0 391, 373, 22, 21, 23, 21 
2017-09-09 00:05:46, 5, 78, 733, 0, 0 390, 373, 22, 21, 23, 21 
2017-09-09 00:05:46, 5, 78, 733, 0, 0 391, 373, 22, 21, 23, 21 
2017-09-09 00:05:46, 5, 78, 733, 0, 0 390, 373, 22, 21, 23, 21 
2017-09-09 00:05:46, 5, 78, 733, 0, 0 391, 373, 22, 21, 23, 21 
2017-09-09 00:05:46, 5, 78, 733, 0, 0 391, 373, 22, 21, 23, 21 
2017-09-09 00:05:46, 6, 91, 733, 0, 0 391, 373, 22, 21, 23, 21 
2017-09-09 00:05:46, 6, 91, 733, 0, 0 391, 372, 22, 21, 23, 21 
2017-09-09 00:05:46, 6, 91, 733, 0, 0 390, 373, 22, 21, 23, 21 
2017-09-09 00:05:46, 6, 91, 733, 0, 0 391, 372, 22, 21, 23, 21 
2017-09-09 00:05:46, 6, 91, 733, 0, 0 390, 373, 22, 21, 23, 21 
2017-09-09 00:05:46, 6, 91, 733, 0, 0 391, 373, 22, 21, 23, 21 
2017-09-09 00:05:46, 6, 91, 733, 0, 0 391, 373, 22, 21, 23, 21 
2017-09-09 00:05:46, 6, 91, 733, 0, 0 391, 373, 22, 21, 23, 21 
2017-09-09 00:05:46, 6, 91, 733, 0, 0 391, 373, 22, 21, 23, 21 
2017-09-09 00:05:46, 6, 91, 733, 0, 0 391, 373, 22, 21, 23, 21 
2017-09-09 00:05:46, 7, 104, 733, 0, 0 390, 373, 22, 21, 23, 21 
2017-09-09 00:05:46, 7, 104, 733, 0, 0 391, 373, 22, 21, 23, 21 
2017-09-09 00:05:46, 7, 104, 733, 0, 0 391, 373, 22, 21, 23, 21 
2017-09-09 00:05:46, 7, 104, 733, 0, 0 391, 373, 22, 21, 23, 21 
2017-09-09 00:05:46, 7, 104, 733, 0, 0 391, 373, 22, 21, 23, 21 
2017-09-09 00:05:47,Serial Error,  
2017-09-09 00:05:47,Serial Error, 
2017-09-09 00:05:47,Serial Error, 
2017-09-09 00:05:47,Serial Error, 
2017-09-09 00:05:47,Serial Error, 
2017-09-09 00:05:47,Serial Error, 
2017-09-09 00:05:47,Serial Error, 
2017-09-09 00:05:47,Serial Error, 
2017-09-09 00:06:00,32 2 1 3 1
2017-09-09 00:06:00,2 3,0  9,33 2 1 3 1
2017-09-09 00:06:00, 2 3,0  9,33 2 1 3 1
2017-09-09 00:06:00,5,73 ,031 7,2,2,2,2  3, 5,73 ,031 7,2,2,2,2  3, 2 3 5 3,0  9,33 2 1 3 1
2017-09-09 00:06:00,65 3,0  9,33 2 1 3 1
2017-09-09 00:06:00,6,73 ,0 3,3,22 2
2017-09-09 00:06:00,3009 32 ,32
2017-09-09 00:06:00,7,, 13,22 ,1 ,6,7,, 03,22 ,1 ,6,3,009 32 ,32
2017-09-09 00:06:00,7,,031 7 ,12  5 8 3009 22 ,  5 8 3009 32 12  5 8 3,, 133 2 ,32
2017-09-09 00:06:00,3009 32 12  5 8 3,, 17,2,131 ,7,30 30 32 ,32
2017-09-09 00:06:00,3009 32 ,32
2017-09-09 00:06:00,7,, 9 3 ,2 ,1 ,7,7,,09 22 ,32
2017-09-09 00:06:00,7,, 9 7 ,12  6 1 303,7 ,12  6 1 ,009 32 ,32
2017-09-09 00:06:00,3009 32 ,32
2017-09-09 00:06:00,7,, 13,22 ,1 ,9,3  3,7 2 ,2
2017-09-09 00:06:00, BGO Set:0, GAIN Set:0
2017-09-09 00:06:00,Serial Error, 
2017-09-09 00:06:00,Serial Error, 
2017-09-09 00:06:00,Serial Error, mPreRadeRad
2017-09-09 00:06:01,Serial Error, m
2017-09-09 00:06:01,Serial Error, 
2017-09-09 00:06:01,Serial Error, 
2017-09-09 00:06:01,Serial Error, 
2017-09-09 00:06:01,Serial Error, 
2017-09-09 00:06:01,Serial Error, 
2017-09-09 00:06:03, amp .
2017-09-09 00:06:03,Serial Error, 0001A2
2017-09-09 00:06:03,d .
2017-09-09 00:06:03,Serial Error, xtn
2017-09-09 00:06:05,cRp.
2017-09-09 00:06:05,Serial Error, 0
2017-09-09 00:06:05,Serial Error, 
2017-09-09 00:07:45,
2017-09-09 00:09:25,
2017-09-09 00:11:05,
2017-09-09 00:12:46,
2017-09-09 00:14:26,
2017-09-09 00:16:06,
2017-09-09 00:17:46,
2017-09-09 00:19:26,
2017-09-09 00:21:06,
2017-09-09 00:22:46,
2017-09-09 00:24:26,
2017-09-09 00:26:06,
2017-09-09 00:27:47,
2017-09-09 00:29:27,
2017-09-09 00:31:07,
2017-09-09 00:32:47,
2017-09-09 00:34:27,
2017-09-09 00:36:07,
2017-09-09 00:37:47,
2017-09-09 00:39:27,
2017-09-09 00:41:07,
2017-09-09 00:42:48,
2017-09-09 00:44:28,
2017-09-09 00:46:08,
2017-09-09 00:47:48,
2017-09-09 00:49:28,
2017-09-09 00:51:08,
2017-09-09 00:52:48,
2017-09-09 00:54:28,
2017-09-09 00:56:09,
2017-09-09 00:57:49,
2017-09-09 00:59:29,
2017-09-09 01:01:09,
2017-09-09 01:02:49,
2017-09-09 01:04:29,
2017-09-09 01:05:11,C0EA43,:e, @
2017-09-09 03:06:15,Serial Error, 
2017-09-09 03:07:55,
2017-09-09 03:09:35,
2017-09-09 03:11:15,
2017-09-09 03:12:55,
2017-09-09 03:14:36,
2017-09-09 03:16:16,
2017-09-09 03:17:56,
2017-09-09 03:19:36,
2017-09-09 03:21:16,
2017-09-09 03:22:56,
2017-09-09 03:24:36,
2017-09-09 03:26:16,
2017-09-09 03:27:57,
2017-09-09 03:29:37,
2017-09-09 03:31:17,
2017-09-09 03:32:57,
2017-09-09 03:34:37,
2017-09-09 03:36:17,
2017-09-09 03:37:57,
2017-09-09 03:39:37,
2017-09-09 03:41:17,
2017-09-09 03:42:58,
2017-09-09 03:44:38,
2017-09-09 03:46:18,
2017-09-09 03:47:58,
2017-09-09 03:49:38,
2017-09-09 03:51:18,
2017-09-09 03:52:58,
2017-09-09 03:54:38,
2017-09-09 03:56:18,
2017-09-09 03:57:59,
2017-09-09 03:59:39,
2017-09-09 04:01:19,
2017-09-09 04:02:59,
2017-09-09 04:04:39,
2017-09-09 04:05:06, Set:0
2017-09-09 04:05:12,M_DC_SN.
2017-09-09 04:06:11,VD0,,0,0,0  G e:1 _eue0 
2017-09-09 04:06:11,Serial Error, ARf0
2017-09-09 04:06:21, ,00,,,0,0
2017-09-09 04:06:21,Serial Error, ,,,
2017-09-09 04:06:21,
2017-09-09 04:06:40,e _Be00, 70000,BOSt7A_gfr,,,, ,,,,,
2017-09-09 04:06:40,Serial Error, f:
2017-09-09 04:06:50,Serial Error, ,0,,,
2017-09-09 04:08:30,
2017-09-09 04:10:10,
2017-09-09 04:11:50,
2017-09-09 04:13:30,
2017-09-09 04:15:11,
2017-09-09 04:16:51,
2017-09-09 04:18:31,
2017-09-09 04:20:11,
2017-09-09 04:21:51,
2017-09-09 04:23:31,
2017-09-09 04:23:31,BGO Set:0, GAIN Set:0
2017-09-09 04:25:11,
2017-09-09 04:26:51,
2017-09-09 04:28:31,
2017-09-09 04:28:42,Serial Error, St0 ,:2d,:66 _3
2017-09-09 04:28:42,Serial Error, 
2017-09-09 04:28:42,Serial Error, 130007 ,, ,,3 01722 1 
2017-09-09 04:28:42,3 93    
2017-09-09 04:28:42,    
2017-09-09 04:28:42,Serial Error, 0,  ,,, 
2017-09-09 04:28:42,,7  93    
2017-09-09 04:28:42,01 , 93    
2017-09-09 04:28:42,Serial Error, 1,
2017-09-09 04:28:42,Serial Error, ,
2017-09-09 04:28:42,Serial Error, ,3 ,,,, ,63 0172222 ,
2017-09-09 04:28:42,Serial Error, 
2017-09-09 04:28:42,Serial Error, 
2017-09-09 04:28:42,Serial Error, 630
2017-09-09 04:28:42,Serial Error, 9
2017-09-09 04:28:42,Serial Error, 
2017-09-09 04:28:42,Serial Error, 2
2017-09-09 04:28:42,Serial Error, 
2017-09-09 04:28:42,Serial Error, 
2017-09-09 04:28:42,Serial Error,  
2017-09-09 04:28:42,Serial Error, 032 6 73   912 2,
2017-09-09 04:28:42,Serial Error, 1  6,132131
2017-09-09 04:28:42,Serial Error, 39
2017-09-09 04:28:42,Serial Error, 
2017-09-09 04:28:42,Serial Error, 
2017-09-09 04:28:42,Serial Error, 
2017-09-09 04:28:42,Serial Error, 
2017-09-09 04:28:42,Serial Error, 
2017-09-09 04:28:42,Serial Error, 
2017-09-09 04:28:42,Serial Error, ,0 171  
2017-09-09 04:28:42,Serial Error, 
2017-09-09 04:28:42,Serial Error, 
2017-09-09 04:28:42,Serial Error, 3
2017-09-09 04:28:42,Serial Error, 
2017-09-09 04:28:42,Serial Error, 
2017-09-09 04:28:42,Serial Error, 
2017-09-09 04:28:42,Serial Error, 
2017-09-09 04:28:42,Serial Error, 
2017-09-09 04:28:42,Serial Error, 
2017-09-09 04:28:42,Serial Error,  
