2017-09-08 12:53:32,*SeqNo.,Time,VChan3,DVDD,BGO,NTCPWR,NC,VDD_HV,HV_Is1,HV_Is0
2017-09-08 12:53:32, BGO Set:10, AM_RegBuffer:10
2017-09-08 12:53:42,0, 285,711,16287,1253,43111,1,20983,20983 
2017-09-08 12:53:42,0, 10,27,621,47,1644,0,800,800 
2017-09-08 12:53:42, BGO Set:10, AM_RegBuffer:621
2017-09-08 12:53:42, BGO Set:11, AM_RegBuffer:11
2017-09-08 12:53:51,1, 285,685,15937,1227,43577,65535,20983,20983 
2017-09-08 12:53:51,1, 10,26,607,46,1662,2500,800,800 
2017-09-08 12:53:51, BGO Set:11, AM_RegBuffer:607
2017-09-08 12:53:52, BGO Set:12, AM_RegBuffer:12
2017-09-08 12:54:01,2, 285,659,15583,1201,43667,1,20983,20983 
2017-09-08 12:54:01,2, 10,25,594,45,1665,0,800,800 
2017-09-08 12:54:01, BGO Set:12, AM_RegBuffer:594
2017-09-08 12:54:01, BGO Set:13, AM_RegBuffer:13
2017-09-08 12:54:11,3, 285,633,15229,1173,43593,65535,20985,20983 
2017-09-08 12:54:11,3, 10,24,580,44,1662,2500,800,800 
2017-09-08 12:54:11, BGO Set:13, AM_RegBuffer:580
2017-09-08 12:54:11, BGO Set:14, AM_RegBuffer:14
2017-09-08 12:54:21,4, 285,607,14875,1147,43683,1,20985,20985 
2017-09-08 12:54:21,4, 10,23,567,43,1666,0,800,800 
2017-09-08 12:54:21, BGO Set:14, AM_RegBuffer:567
2017-09-08 12:54:21, BGO Set:15, AM_RegBuffer:15
2017-09-08 12:54:30,5, 285,581,14503,1119,43625,65535,20987,20987 
2017-09-08 12:54:30,5, 10,22,553,42,1664,2500,800,800 
2017-09-08 12:54:30, BGO Set:15, AM_RegBuffer:553
2017-09-08 12:54:31, BGO Set:16, AM_RegBuffer:16
2017-09-08 12:54:40,6, 285,557,14143,1091,43677,65535,20989,20989 
2017-09-08 12:54:40,6, 10,21,539,41,1666,2500,800,800 
2017-09-08 12:54:40, BGO Set:16, AM_RegBuffer:539
2017-09-08 12:54:40, BGO Set:17, AM_RegBuffer:17
2017-09-08 12:54:50,7, 285,557,14145,1091,43669,1,20989,20989 
2017-09-08 12:54:50,7, 10,21,539,41,1665,0,800,800 
2017-09-08 12:54:50, BGO Set:17, AM_RegBuffer:539
2017-09-08 12:54:50, BGO Set:18, AM_RegBuffer:18
2017-09-08 12:55:00,8, 285,557,14143,1091,43629,1,20991,20991 
2017-09-08 12:55:00,8, 10,21,539,41,1664,0,800,800 
2017-09-08 12:55:00, BGO Set:18, AM_RegBuffer:539
2017-09-08 12:55:00, BGO Set:19, AM_RegBuffer:19
2017-09-08 12:55:09,9, 285,557,14143,1091,43625,65535,20991,20991 
2017-09-08 12:55:09,9, 10,21,539,41,1664,2500,800,800 
2017-09-08 12:55:09, BGO Set:19, AM_RegBuffer:539
2017-09-08 12:55:09, BGO Set:20, AM_RegBuffer:20
