2017-09-09 00:05:27, 8, 117, 733, 0, 0 391, 373, 22, 21, 23, 21 
2017-09-09 00:05:27, 8, 117, 733, 0, 0 391, 373, 22, 21, 23, 21 
2017-09-09 00:05:27, 8, 117, 733, 0, 0 390, 373, 22, 21, 23, 21 
2017-09-09 00:05:27, 8, 117, 733, 0, 0 391, 373, 22, 21, 23, 21 
2017-09-09 00:05:27, 8, 117, 733, 0, 0 391, 373, 22, 21, 23, 21 
2017-09-09 00:05:28,Serial Error,  
2017-09-09 00:05:28,Serial Error, nA_lax
2017-09-09 00:05:30,smeadClAOa
2017-09-09 00:05:42,Serial Error, 02Pa.inPcs tn scmrRd1d6SD_,,L,R,R,R,L,L, ,,3 32222 17,97,,31
2017-09-09 00:05:42,Serial Error, 
2017-09-09 00:05:42,Serial Error,  917,
2017-09-09 00:05:42,Serial Error, 2
2017-09-09 00:05:42,Serial Error, 
2017-09-09 00:05:42,Serial Error, 0,,131017 0172222 
2017-09-09 00:05:42,Serial Error, 7, 0172222 ,,
2017-09-09 00:05:42,00072222 1,, 93    
2017-09-09 00:05:42,Serial Error, 
2017-09-09 00:05:42,Serial Error, 
2017-09-09 00:05:42,Serial Error,  0
2017-09-09 00:05:42,Serial Error, 9 373
2017-09-09 00:05:42,Serial Error, 
2017-09-09 00:05:42,Serial Error, 
2017-09-09 00:05:42,Serial Error, 
2017-09-09 00:05:42,Serial Error, 2
2017-09-09 00:05:42,Serial Error, 
2017-09-09 00:05:42,Serial Error, 
2017-09-09 00:05:42,Serial Error, ,
2017-09-09 00:05:42,Serial Error, , 390,
2017-09-09 00:05:42,Serial Error, 7  ,, 
2017-09-09 00:05:42,Serial Error, 
2017-09-09 00:05:42,Serial Error, 
2017-09-09 00:05:42,Serial Error, 
2017-09-09 00:05:42,Serial Error, 
2017-09-09 00:05:42,Serial Error, 222
2017-09-09 00:05:42,Serial Error, 
2017-09-09 00:05:42,Serial Error, 30172222 
2017-09-09 00:05:42,Serial Error, ,27
2017-09-09 00:05:42,Serial Error, ,
2017-09-09 00:05:42,Serial Error, ,
2017-09-09 00:05:42,Serial Error, ,212 
2017-09-09 00:05:42,Serial Error, 
2017-09-09 00:05:42,Serial Error, 
2017-09-09 00:05:42,Serial Error, 
2017-09-09 00:05:42,Serial Error, 
2017-09-09 00:05:42,Serial Error, 
2017-09-09 00:05:42,Serial Error, ,
2017-09-09 00:05:42,Serial Error, 9,
2017-09-09 00:05:42,Serial Error, 1
2017-09-09 00:05:42,Serial Error, 
2017-09-09 00:05:42,Serial Error, 
2017-09-09 00:05:42,Serial Error, 3, 93,,,, 
2017-09-09 00:05:42,Serial Error, 
2017-09-09 00:05:42,Serial Error, 
2017-09-09 00:05:42,Serial Error, 
2017-09-09 00:05:42,Serial Error, 
2017-09-09 00:05:42,Serial Error, 
2017-09-09 00:05:43,Serial Error, 3, 03,7 ,12  
2017-09-09 00:05:43,Serial Error, 
2017-09-09 00:05:43,Serial Error, 
2017-09-09 00:05:43,Serial Error, 3,
2017-09-09 00:05:43,Serial Error, 
2017-09-09 00:05:43,Serial Error, 
2017-09-09 00:05:43,Serial Error, 
2017-09-09 00:05:43,Serial Error, 
2017-09-09 00:05:43,Serial Error, 2
2017-09-09 00:05:43,Serial Error, 
2017-09-09 00:05:43,Serial Error, 
2017-09-09 00:05:43,Serial Error, 23
2017-09-09 00:05:43,Serial Error, 
2017-09-09 00:05:43,Serial Error, 
2017-09-09 00:05:43,Serial Error, ,
2017-09-09 00:05:43,Serial Error, 
2017-09-09 00:05:43,Serial Error, 2
2017-09-09 00:05:43,Serial Error, 1, 
2017-09-09 00:05:43,Serial Error,  21  3, 
2017-09-09 00:05:43,Serial Error, 
2017-09-09 00:05:43,Serial Error, 5, 3
2017-09-09 00:05:43,Serial Error, 0 0 391, 3
2017-09-09 00:05:43,Serial Error,  2
2017-09-09 00:05:43,Serial Error, 2
2017-09-09 00:05:43,Serial Error, 
2017-09-09 00:05:43,Serial Error, 
2017-09-09 00:05:43,Serial Error, 
2017-09-09 00:05:43,Serial Error, 
2017-09-09 00:05:43,Serial Error, 
2017-09-09 00:05:43,Serial Error, 
2017-09-09 00:05:43,Serial Error, 
2017-09-09 00:05:43,Serial Error, 
2017-09-09 00:05:43,Serial Error, 
2017-09-09 00:05:43,Serial Error, 
2017-09-09 00:05:43,Serial Error, 
2017-09-09 00:05:43,Serial Error, 
2017-09-09 00:05:43,Serial Error, 
2017-09-09 00:05:43,Serial Error, 
2017-09-09 00:05:43,
2017-09-09 00:05:43,Serial Error, 
2017-09-09 00:05:43,Serial Error, 
2017-09-09 00:05:43,Serial Error, 
2017-09-09 00:05:43,Serial Error, 
2017-09-09 00:05:43,Serial Error, 
2017-09-09 00:06:00,9,32 2 1 3 1
2017-09-09 00:06:00,9 3,0  9,33 2 1 3 1
2017-09-09 00:06:00,3,73 ,031 7,2,2,2,2  2,9 3,0  9,33 2 1 3 1
2017-09-09 00:06:00,3,73 ,031 7,2 1 3 1
2017-09-09 00:06:00,3,73 ,031 7,2,2,2,2  3, 2 3,0  9,33 2 1 3 1
2017-09-09 00:06:00,5,73 ,031 7,2,2,2,2  3, 2 3,0  9,33 2 1 3 1
2017-09-09 00:06:00,5,73 ,030, 7,2,2,2,2  3, 5,73 ,031 7,2,2,2,2  3,5,73 ,031 7,2,2,2,2  3, 2 3,0  9,33 2 1 3 1
2017-09-09 00:06:00,2 3,0  9,33 2 1 3 1
2017-09-09 00:06:00,5,73,0  9,33 2 1 3 1
2017-09-09 00:06:00,5,73 ,031 7,2,2,2,2  4, 5 3,0  9,33 2 1 3 1
2017-09-09 00:06:00,6,73 ,031 7,2,2,2,2  4, 5 3,0  9,32 2 1 3 1
2017-09-09 00:06:00,6,73 ,031 7,2,2,2,2  4, ,73 ,030 7,2,2,2,2  4, 5 3,0 91 32 ,3  4 5 3  3,7 ,12  4 5 3009 32 ,32
2017-09-09 00:06:00,3009 32 ,32
2017-09-09 00:06:00,7, 13,22 ,1 ,7,3   9,3,22 ,1 ,7,3  3,7 ,12,1 ,7,3  3,7 ,2 ,1 ,7,73009 22 ,1 ,7,7,, 03,2,,1 ,7,73009
2017-09-09 00:06:00,2 ,2
2017-09-09 00:06:00,7,,09,7,22 ,1 ,7,7,, 13,22 ,1 ,7,3  313,2 ,32
2017-09-09 00:06:00,3 3,7 ,12  6 1 300303,22 ,1 ,9,7,,09 32 ,32
2017-09-09 00:06:00,73,3,7 ,12  6 1 3  3,7 ,12  6 1 3009 32 ,32
2017-09-09 00:06:00,Serial Error, 7,, 13,2 ,3  
2017-09-09 00:06:00,Serial Error, 
2017-09-09 00:06:00,Serial Error, 
2017-09-09 00:06:00,Serial Error, 
2017-09-09 00:06:00,Serial Error, 
2017-09-09 00:06:00,Serial Error, 
2017-09-09 00:06:00,Serial Error, 
2017-09-09 00:06:00,Serial Error, 
2017-09-09 00:06:00,Serial Error, 
2017-09-09 00:06:00,Serial Error, 
2017-09-09 00:06:01,Serial Error, ExitANIO_Cale
2017-09-09 00:06:01,Serial Error, 
2017-09-09 00:06:01,Serial Error, 
2017-09-09 00:06:03,Serial Error, 4M
2017-09-09 00:06:03,Serial Error, 0A
2017-09-09 00:06:03,Serial Error, DAmPreRap
2017-09-09 00:06:03,Serial Error, Eiig Pso
2017-09-09 00:06:05,Serial Error, m
2017-09-09 00:06:05,Serial Error, 
2017-09-09 00:06:05,Serial Error, 
2017-09-09 00:07:45,
2017-09-09 00:09:25,
2017-09-09 00:11:05,
2017-09-09 00:12:46,
2017-09-09 00:14:26,
2017-09-09 00:16:06,
2017-09-09 00:17:46,
2017-09-09 00:19:26,
2017-09-09 00:21:06,
2017-09-09 00:22:46,
2017-09-09 00:24:26,
2017-09-09 00:26:06,
2017-09-09 00:27:47,
2017-09-09 00:29:27,
2017-09-09 00:31:07,
2017-09-09 00:32:47,
2017-09-09 00:34:27,
2017-09-09 00:36:07,
2017-09-09 00:37:47,
2017-09-09 00:39:27,
2017-09-09 00:41:07,
2017-09-09 00:42:48,
2017-09-09 00:44:28,
2017-09-09 00:46:08,
2017-09-09 00:47:48,
2017-09-09 00:49:28,
2017-09-09 00:51:08,
2017-09-09 00:52:48,
2017-09-09 00:54:28,
2017-09-09 00:56:09,
2017-09-09 00:57:49,
2017-09-09 00:59:29,
2017-09-09 01:01:09,
2017-09-09 01:02:49,
2017-09-09 01:04:29,
2017-09-09 01:05:12,Serial Error, 0000A28,:0:,,2e_
2017-09-09 01:05:12,Serial Error, 
2017-09-09 01:05:22,,30181345632121,126,,62008 
2017-09-09 01:05:41,Serial Error, Meue:11 38
2017-09-09 01:05:51,Oe_B253131337,0,0 3 ,,146,8,1
2017-09-09 01:05:51, ge8
2017-09-09 01:06:01,,5,,1771,37,551120 4 ,,7416,08,0
2017-09-09 01:06:20,ARBfr65 85,431,6,2121,025414,10B t5ARBf:3 871,5,11,11 
2017-09-09 01:06:20,1594,6208181 
2017-09-09 01:06:40,Serial Error, St1,A_eBfe:3,551,52102540132632121,0134145,10BOe1 Meue:9
2017-09-09 01:06:49,7450,6,2121,125,,6000
2017-09-09 01:06:49,Serial Error, _gfr5*
2017-09-09 03:35:58,BOSt0 ANSt0
2017-09-09 03:37:38,
2017-09-09 03:39:18,
2017-09-09 03:40:58,
2017-09-09 03:42:38,
2017-09-09 03:44:18,
2017-09-09 03:45:58,
2017-09-09 03:47:38,
2017-09-09 03:49:19,
2017-09-09 03:50:59,
2017-09-09 03:52:39,
2017-09-09 03:54:19,
2017-09-09 03:55:59,
2017-09-09 03:57:39,
2017-09-09 03:59:19,
2017-09-09 04:00:59,
2017-09-09 04:02:39,
2017-09-09 04:04:20,
2017-09-09 04:05:13,:e,:aSCDGONCW,CVDH,V_s,VI0
2017-09-09 04:05:13,Serial Error, BO
2017-09-09 04:05:32,Serial Error, M_gf1
2017-09-09 04:05:42,,,,0,,000000,BOe2MRBf:
2017-09-09 04:05:52,,,,0,0 3 ,,,,,0  G t3ARBf:
2017-09-09 04:06:21,Serial Error, ,0000,,,,,0BOSt1,MeBfr00
2017-09-09 04:06:21,Serial Error,  ,0,0 6Aef:
2017-09-09 04:06:31,Serial Error,  ,0
2017-09-09 04:06:31,00,,,,0,0
2017-09-09 04:06:31, RBf:
2017-09-09 04:07:48,8,0 0000 Oe1 _gf0****O**
2017-09-09 04:09:28,
2017-09-09 04:11:08,
2017-09-09 04:12:48,
2017-09-09 04:14:29,
2017-09-09 04:16:09,
2017-09-09 04:17:49,
2017-09-09 04:19:29,
2017-09-09 04:21:09,
2017-09-09 04:22:49,
2017-09-09 04:24:29,
2017-09-09 04:26:09,
2017-09-09 04:27:49,
2017-09-09 04:28:36, BGO t0
2017-09-09 04:28:49,6a.DE00ADARP
2017-09-09 04:29:58,Serial Error, Adtn scmrOt,AS:
2017-09-09 04:30:00,Serial Error, 
2017-09-09 04:30:00,Serial Error, 
2017-09-09 04:30:00,Serial Error,  
2017-09-09 04:30:07,Serial Error, 60d4
2017-09-09 04:30:07,Serial Error, ,
2017-09-09 04:30:09,Serial Error,  ,13,017
2017-09-09 04:30:10,, 1,08461,0,3,1
2017-09-09 04:30:11,, ,4 01,2 4 01,2
2017-09-09 04:30:12,3 42,85 01,6 2
2017-09-09 04:30:12,Serial Error,  0 244 0
2017-09-09 04:30:12,Serial Error, 0 0
2017-09-09 04:30:13,Serial Error, ,,5,01,1 
2017-09-09 04:30:13,Serial Error, ,1
2017-09-09 04:30:14,Serial Error, 
2017-09-09 04:30:14,Serial Error,  
2017-09-09 04:30:14, 
2017-09-09 04:30:15,Serial Error, 0  5,
2017-09-09 04:30:15,Serial Error,  
2017-09-09 04:30:16,Serial Error, ,16
2017-09-09 04:30:16,Serial Error, 53
2017-09-09 04:30:16,
2017-09-09 04:30:19, ,143 ,18  50 6, 37233
2017-09-09 04:30:21,Serial Error, , ,
2017-09-09 04:30:21,Serial Error, 
2017-09-09 04:30:21,Serial Error, 
2017-09-09 04:30:23,Serial Error,  ,5 
2017-09-09 04:30:24,Serial Error,  852 ,49 9
2017-09-09 04:30:24,Serial Error, 
2017-09-09 04:30:25,Serial Error, 0,
2017-09-09 04:30:26,Serial Error,  7, 016
2017-09-09 04:30:27,Serial Error, 81 1,5  
2017-09-09 04:30:27,Serial Error, 4
2017-09-09 04:30:28,Serial Error, 0,7 ,0 42,5 31 
2017-09-09 04:30:29,Serial Error, 0
2017-09-09 04:30:29,Serial Error, 751
2017-09-09 04:30:30,5
2017-09-09 04:30:31,Serial Error, 
2017-09-09 04:30:32,Serial Error,  ,,51 
2017-09-09 04:30:32,Serial Error, 
2017-09-09 04:30:32,Serial Error,  
2017-09-09 04:30:35,Serial Error, 5,  4
2017-09-09 04:30:35,Serial Error, 
2017-09-09 04:30:35,Serial Error, 
2017-09-09 04:30:35,Serial Error, 
2017-09-09 04:30:35,Serial Error,  ,0
2017-09-09 04:30:36,Serial Error,  0_
2017-09-09 04:30:36,Serial Error, 
2017-09-09 04:30:36,Serial Error, p10 1, 4,3 8 
2017-09-09 04:30:38,Serial Error,  50111,2 
2017-09-09 04:30:38,Serial Error, 0151213
2017-09-09 04:30:39,Serial Error, ,5
2017-09-09 04:30:41,Serial Error, 
2017-09-09 04:30:44,Serial Error, 81,7 8 00,  ,,,,,, 
2017-09-09 04:30:44,Serial Error, 0
2017-09-09 04:30:45,1,,321  ,,,081 ,081
2017-09-09 04:30:50,Serial Error, 1 62,502 ,41 8747
2017-09-09 04:30:51,Serial Error,  4
2017-09-09 04:30:52,7 011 ,701
2017-09-09 04:30:53,Serial Error, 
2017-09-09 04:30:53,Serial Error, 5,
2017-09-09 04:30:53,Serial Error,  
2017-09-09 04:30:53,Serial Error, 
2017-09-09 04:30:55,Serial Error, ,2 0,
2017-09-09 04:30:55,Serial Error, 
2017-09-09 04:30:56,Serial Error, 9 5,3
2017-09-09 04:30:57,Serial Error, 101    , 2 0 4, 
2017-09-09 04:30:59,Serial Error, ,
2017-09-09 04:31:00,a,_n,_p0
2017-09-09 04:31:00,8 9 
2017-09-09 04:31:03,Serial Error, 201 ,70 ,70,0,4 571  
2017-09-09 04:31:06,Serial Error, 773  8,  1
2017-09-09 04:31:06,Serial Error, 7
2017-09-09 04:31:08,5,6  ,31
2017-09-09 04:31:09,, ,11 3,12 8,12
2017-09-09 04:31:13,Serial Error,  O
2017-09-09 04:32:49,GIe 
2017-09-09 04:34:29,
2017-09-09 04:36:09,
2017-09-09 04:37:49,
2017-09-09 04:39:30,
2017-09-09 04:41:10,
2017-09-09 04:42:50,
2017-09-09 04:44:29,
2017-09-09 04:46:09,
2017-09-09 04:47:50,
2017-09-09 04:49:30,
2017-09-09 04:51:10,
2017-09-09 04:52:50,
2017-09-09 04:54:30,
2017-09-09 04:56:10,
2017-09-09 04:57:50,
2017-09-09 04:59:30,
2017-09-09 05:01:11,
2017-09-09 05:02:51,
2017-09-09 05:04:31,
2017-09-09 05:05:22,Serial Error, :e,::,:8TW,CVDH,VI1H_s t0ARBf:,0000,0,0 GOA_e
2017-09-09 05:06:01,Serial Error,  000012 A_R00
2017-09-09 05:06:11,,,,,,, 
2017-09-09 05:06:26,Serial Error, O
2017-09-09 05:06:26,Serial Error, AISe0
2017-09-09 05:06:26,Serial Error, g
2017-09-09 05:06:26,Serial Error, maeaE
2017-09-09 05:06:26,Serial Error, cNaR
2017-09-09 05:06:26,Serial Error, g
2017-09-09 05:06:28,4AN_a.
