2017-09-08 17:06:42, BGO Set:0, GAIN Set:0
2017-09-08 17:06:43,
2017-09-08 17:06:44,
2017-09-08 17:06:45,
2017-09-08 17:06:46,
2017-09-08 17:06:47,
2017-09-08 17:06:48,
2017-09-08 17:06:49,
2017-09-08 17:06:50,
2017-09-08 17:06:51,
2017-09-08 17:06:52,
2017-09-08 17:06:53,
2017-09-08 17:06:54,
2017-09-08 17:06:55,
2017-09-08 17:06:56,
2017-09-08 17:06:57,
2017-09-08 17:06:58,
2017-09-08 17:06:59,
2017-09-08 17:07:00,
2017-09-08 17:07:01,
2017-09-08 17:07:02,
2017-09-08 17:07:03,
2017-09-08 17:07:04,
2017-09-08 17:07:05,
2017-09-08 17:07:06,
2017-09-08 17:07:07,
2017-09-08 17:07:08,
2017-09-08 17:07:09,
2017-09-08 17:07:10,
2017-09-08 17:07:11,
2017-09-08 17:07:12,
2017-09-08 17:07:13,
2017-09-08 17:07:14,
2017-09-08 17:07:15,
2017-09-08 17:07:16,
2017-09-08 17:07:17,
2017-09-08 17:07:18,
2017-09-08 17:07:19,
2017-09-08 17:07:20,
2017-09-08 17:07:21,
2017-09-08 17:07:22,
2017-09-08 17:07:23,
2017-09-08 17:07:24,
2017-09-08 17:07:25,
2017-09-08 17:07:26,
2017-09-08 17:07:27,
2017-09-08 17:07:28,
2017-09-08 17:07:29,
2017-09-08 17:07:30,
2017-09-08 17:07:31,
2017-09-08 17:07:32,
2017-09-08 17:07:33,
2017-09-08 17:07:34,
2017-09-08 17:07:35,
2017-09-08 17:07:36,
2017-09-08 17:07:37,
2017-09-08 17:07:38,
2017-09-08 17:07:39,
2017-09-08 17:07:40,
2017-09-08 17:07:41,
2017-09-08 17:07:42,
2017-09-08 17:07:43,
2017-09-08 17:07:44,
2017-09-08 17:07:45,
2017-09-08 17:07:46,
2017-09-08 17:07:47,
2017-09-08 17:07:48,
2017-09-08 17:07:49,
2017-09-08 17:07:50,
2017-09-08 17:07:51,
2017-09-08 17:07:52,
2017-09-08 17:07:53,
2017-09-08 17:07:54,
2017-09-08 17:07:55,
2017-09-08 17:07:56,
2017-09-08 17:07:57,
2017-09-08 17:07:58,
2017-09-08 17:07:59,
2017-09-08 17:08:00,
2017-09-08 17:08:01,
2017-09-08 17:08:02,
2017-09-08 17:08:03,
2017-09-08 17:08:04,
2017-09-08 17:08:05,
2017-09-08 17:08:06,
2017-09-08 17:08:07,
2017-09-08 17:08:08,
2017-09-08 17:08:09,
2017-09-08 17:08:10,
2017-09-08 17:08:11,
2017-09-08 17:08:12,
2017-09-08 17:08:13,
2017-09-08 17:08:14,
2017-09-08 17:08:15,
2017-09-08 17:08:16,
2017-09-08 17:08:17,
2017-09-08 17:08:18,
2017-09-08 17:08:19,
2017-09-08 17:08:20,
2017-09-08 17:08:21,
2017-09-08 17:08:29,
2017-09-08 17:08:30,
2017-09-08 17:08:31,
2017-09-08 17:08:32,
2017-09-08 17:08:33,
2017-09-08 17:08:34,
2017-09-08 17:08:35,
2017-09-08 17:08:35,0, 0, 44, 50, 50, 541, 5719, 3623, 4806, 10707 
2017-09-08 17:08:36, 
2017-09-08 17:08:36,0, 0, 44, 100, 8164, 67, 468, 30, 7838, 9987 
2017-09-08 17:08:37, 
2017-09-08 17:08:37,0, 0, 44, 150, 10048, 4616, 102, 9409, 2344, 110 
2017-09-08 17:08:38, 
2017-09-08 17:08:38,0, 0, 44, 200, 140, 124, 2147, 130, 139, 128 
2017-09-08 17:08:39, 
2017-09-08 17:08:39,0, 0, 44, 250, 168, 153, 160, 158, 167, 1522 
2017-09-08 17:08:39,  31208,  25444,  40900,  560,  7060,  0 
2017-09-08 17:08:40,
2017-09-08 17:08:41,0, 0, 55, 50, 110, 171, 1049, 698, 908, 1877 
2017-09-08 17:08:42, 
2017-09-08 17:08:42,0, 0, 55, 100, 1536, 141, 234, 160, 1481, 1817 
2017-09-08 17:08:43, 
2017-09-08 17:08:43,0, 0, 55, 150, 1916, 971, 216, 1783, 629, 231 
2017-09-08 17:08:44, 
2017-09-08 17:08:44,0, 0, 55, 200, 331, 283, 634, 275, 330, 295 
2017-09-08 17:08:45, 
2017-09-08 17:08:45,0, 0, 55, 250, 401, 348, 362, 364, 371, 585 
2017-09-08 17:08:45,  28520,  16600,  8360,  1780,  2980,  0 
2017-09-08 17:08:46,
2017-09-08 17:08:47,0, 0, 66, 50, 64, 77, 232, 173, 213, 371 
2017-09-08 17:08:48, 
2017-09-08 17:08:48,0, 0, 66, 100, 357, 84, 132, 119, 344, 395 
2017-09-08 17:08:49, 
2017-09-08 17:08:49,0, 0, 66, 150, 458, 282, 129, 426, 242, 166 
2017-09-08 17:08:50, 
2017-09-08 17:08:50,0, 0, 66, 200, 232, 204, 271, 164, 229, 215 
2017-09-08 17:08:51, 
2017-09-08 17:08:51,0, 0, 66, 250, 281, 251, 261, 261, 214, 297 
2017-09-08 17:08:51,  5860,  3960,  2840,  1940,  6120,  0 
2017-09-08 17:08:52,
2017-09-08 17:08:52,0, 0, 77, 50, 61, 59, 93, 83, 92, 116 
2017-09-08 17:08:54, 
2017-09-08 17:08:54,0, 0, 77, 100, 156, 81, 111, 108, 150, 154 
2017-09-08 17:08:55, 
2017-09-08 17:08:55,0, 0, 77, 150, 209, 162, 124, 194, 169, 150 
2017-09-08 17:08:56, 
2017-09-08 17:08:56,0, 0, 77, 200, 207, 184, 203, 157, 203, 192 
2017-09-08 17:08:57, 
2017-09-08 17:08:57,0, 0, 77, 250, 251, 226, 235, 237, 201, 240 
2017-09-08 17:08:57,  1900,  1620,  1580,  1600,  6380,  0 
2017-09-08 17:08:58,
2017-09-08 17:08:59,1, 0, 44, 50, 50, 48, 62, 59, 66, 65 
2017-09-08 17:09:00, 
2017-09-08 17:09:00,1, 0, 44, 100, 106, 68, 93, 92, 104, 97 
2017-09-08 17:09:01, 
2017-09-08 17:09:01,1, 0, 44, 150, 144, 124, 104, 135, 139, 127 
2017-09-08 17:09:02, 
2017-09-08 17:09:02,1, 0, 44, 200, 174, 156, 166, 132, 172, 164 
2017-09-08 17:09:03, 
2017-09-08 17:09:03,1, 0, 44, 250, 211, 192, 200, 200, 171, 202 
2017-09-08 17:09:03,  1120, AM_BGap:1, AM_Gain:68, AM_Slope:1120 
2017-09-08 17:09:03, 1120,  1240,  1360,  6980,  0 
2017-09-08 17:09:04,
2017-09-08 17:09:04,1, 0, 55, 50, 111, 89, 107, 108, 122, 106 
2017-09-08 17:09:05, 
2017-09-08 17:09:05,1, 0, 55, 100, 195, 142, 173, 171, 192, 173 
2017-09-08 17:09:06, 
2017-09-08 17:09:07,1, 0, 55, 150, 268, 224, 219, 240, 266, 238 
2017-09-08 17:09:08, 
2017-09-08 17:09:08,1, 0, 55, 200, 339, 291, 307, 278, 339, 304 
2017-09-08 17:09:09, 
2017-09-08 17:09:09,1, 0, 55, 250, 412, 358, 373, 371, 375, 370 
2017-09-08 17:09:09,  1680,  1640,  1760,  1860,  2900,  0 
2017-09-08 17:09:10,
2017-09-08 17:09:10,1, 0, 66, 50, 64, 63, 76, 76, 82, 76 
2017-09-08 17:09:11, 
2017-09-08 17:09:11,1, 0, 66, 100, 135, 85, 123, 122, 134, 121 
2017-09-08 17:09:12, 
2017-09-08 17:09:12,1, 0, 66, 150, 185, 159, 131, 170, 182, 167 
2017-09-08 17:09:13, 
2017-09-08 17:09:13,1, 0, 66, 200, 235, 207, 218, 166, 234, 216 
2017-09-08 17:09:14, 
2017-09-08 17:09:15,1, 0, 66, 250, 285, 254, 265, 264, 214, 261 
2017-09-08 17:09:15,  1420,  1480,  1740,  1960,  6120,  0 
2017-09-08 17:09:16,
2017-09-08 17:09:16,1, 0, 77, 50, 61, 57, 68, 67, 74, 67 
2017-09-08 17:09:17, 
2017-09-08 17:09:17,1, 0, 77, 100, 120, 82, 111, 110, 119, 109 
2017-09-08 17:09:18, 
2017-09-08 17:09:18,1, 0, 77, 150, 164, 143, 125, 152, 163, 154 
2017-09-08 17:09:19, 
2017-09-08 17:09:19,1, 0, 77, 200, 210, 186, 196, 156, 208, 194 
2017-09-08 17:09:20, 
2017-09-08 17:09:20,1, 0, 77, 250, 254, 229, 238, 238, 205, 235 
2017-09-08 17:09:21,  1180,  1220,  1420,  1640,  6300,  0 
2017-09-08 17:09:22,
2017-09-08 17:09:22,2, 0, 44, 50, 51, 49, 58, 58, 63, 57 
2017-09-08 17:09:23, 
2017-09-08 17:09:23,2, 0, 44, 100, 101, 69, 94, 93, 102, 90 
2017-09-08 17:09:24, 
2017-09-08 17:09:41, 10, 143, 733, 0, 0 391, 373, 22, 21, 23, 21 
2017-09-08 17:09:41, 10, 143, 733, 0, 0 391, 373, 22, 21, 23, 21 
2017-09-08 17:09:41, 10, 143, 733, 0, 0 390, 373, 22, 21, 23, 21 
2017-09-08 17:09:41, 10, 143, 733, 0, 0 391, 373, 22, 21, 23, 21 
2017-09-08 17:09:41, 10, 143, 733, 0, 0 391, 373, 22, 21, 23, 21 
2017-09-08 17:09:41, 10, 143, 733, 0, 0 391, 373, 21, 21, 23, 21 
2017-09-08 17:09:41, 10, 143, 733, 0, 0 391, 372, 22, 21, 23, 21 
2017-09-08 17:09:41, 10, 143, 733, 0, 0 391, 373, 22, 21, 23, 21 
2017-09-08 17:09:41, 10, 143, 733, 0, 0 391, 373, 22, 21, 23, 21 
2017-09-08 17:09:41, 10, 143, 733, 0, 0 390, 372, 22, 21, 23, 21 
2017-09-08 17:09:41, 11, 156, 733, 0, 0 390, 372, 22, 21, 23, 21 
2017-09-08 17:09:41, 11, 156, 733, 0, 0 391, 373, 21, 21, 23, 21 
2017-09-08 17:09:41, 11, 156, 733, 0, 0 391, 373, 22, 21, 23, 21 
2017-09-08 17:09:41, 11, 156, 733, 0, 0 391, 373, 22, 21, 23, 21 
2017-09-08 17:09:41, 11, 156, 733, 0, 0 391, 373, 22, 21, 23, 21 
2017-09-08 17:09:41, 11, 156, 733, 0, 0 391, 372, 22, 21, 23, 21 
2017-09-08 17:09:41, 11, 156, 733, 0, 0 391, 373, 22, 21, 23, 21 
2017-09-08 17:09:41, 11, 156, 733, 0, 0 390, 373, 22, 21, 23, 21 
2017-09-08 17:09:41, 11, 156, 733, 0, 0 391, 373, 22, 21, 23, 21 
2017-09-08 17:09:41, 11, 156, 733, 0, 0 391, 373, 22, 21, 23, 21 
2017-09-08 17:09:41, 12, 169, 733, 0, 0 391, 372, 22, 21, 27, 21 
2017-09-08 17:09:41, 12, 169, 733, 0, 0 391, 373, 22, 21, 27, 21 
2017-09-08 17:09:41, 12, 169, 733, 0, 0 391, 373, 22, 21, 27, 21 
2017-09-08 17:09:41, 12, 169, 733, 0, 0 391, 373, 22, 21, 23, 21 
2017-09-08 17:09:41, 12, 169, 733, 0, 0 391, 373, 22, 21, 27, 21 
2017-09-08 17:09:41, 12, 169, 733, 0, 0 391, 373, 22, 21, 23, 21 
2017-09-08 17:09:41, 12, 169, 733, 0, 0 391, 373, 22, 21, 27, 21 
2017-09-08 17:09:41, 12, 169, 733, 0, 0 391, 372, 22, 21, 27, 21 
2017-09-08 17:09:41, 12, 169, 733, 0, 0 390, 373, 22, 21, 27, 21 
2017-09-08 17:09:41, 12, 169, 733, 0, 0 391, 373, 22, 21, 27, 21 
2017-09-08 17:09:41, 13, 182, 733, 0, 0 391, 372, 22, 21, 27, 21 
2017-09-08 17:09:41, 13, 182, 733, 0, 0 391, 373, 22, 21, 27, 21 
2017-09-08 17:09:41, 13, 182, 733, 0, 0 391, 373, 22, 21, 27, 21 
2017-09-08 17:09:41, 13, 182, 733, 0, 0 390, 373, 22, 21, 27, 21 
2017-09-08 17:09:41, 13, 182, 733, 0, 0 391, 373, 22, 21, 27, 21 
2017-09-08 17:09:41, 13, 182, 733, 0, 0 391, 373, 22, 21, 27, 21 
2017-09-08 17:09:41, 13, 182, 733, 0, 0 391, 373, 22, 22, 27, 21 
2017-09-08 17:09:41, 13, 182, 733, 0, 0 391, 373, 22, 21, 27, 21 
2017-09-08 17:09:41, 13, 182, 733, 0, 0 391, 373, 22, 21, 27, 21 
2017-09-08 17:09:41, 13, 182, 733, 0, 0 391, 373, 22, 21, 27, 21 
2017-09-08 17:09:41, 14, 195, 733, 0, 0 391, 373, 22, 22, 27, 21 
2017-09-08 17:09:41, 14, 195, 733, 0, 0 391, 372, 22, 21, 27, 21 
2017-09-08 17:09:41, 14, 195, 733, 0, 0 391, 373, 22, 22, 27, 21 
2017-09-08 17:09:41, 14, 195, 733, 0, 0 391, 373, 22, 22, 27, 21 
2017-09-08 17:09:41, 14, 195, 733, 0, 0 391, 373, 22, 22, 27, 21 
2017-09-08 17:09:41, 14, 195, 733, 0, 0 391, 372, 22, 22, 27, 21 
2017-09-08 17:09:41, 14, 195, 733, 0, 0 391, 373, 22, 22, 27, 21 
2017-09-08 17:09:41, 14, 195, 733, 0, 0 391, 372, 22, 22, 27, 21 
2017-09-08 17:09:41, 14, 195, 733, 0, 0 391, 373, 22, 22, 27, 21 
2017-09-08 17:09:41, 14, 195, 733, 0, 0 390, 373, 22, 22, 27, 21 
2017-09-08 17:09:41,  BGO Set:0, GAIN Set:0
2017-09-08 17:09:42,
2017-09-08 17:09:43,
2017-09-08 17:09:44,
2017-09-08 17:09:45,
2017-09-08 17:09:46,
2017-09-08 17:09:47,
2017-09-08 17:09:48,
2017-09-08 17:09:49,
2017-09-08 17:09:50,
2017-09-08 17:09:51,
2017-09-08 17:09:52,
2017-09-08 17:09:53,
2017-09-08 17:09:54,
2017-09-08 17:09:55,
2017-09-08 17:09:56,
2017-09-08 17:09:57,
2017-09-08 17:09:58,
2017-09-08 17:09:59,
2017-09-08 17:10:00,
2017-09-08 17:10:01,
2017-09-08 17:10:02,
2017-09-08 17:10:03,
2017-09-08 17:10:04,
2017-09-08 17:10:05,
2017-09-08 17:10:06,
2017-09-08 17:10:07,
2017-09-08 17:10:08,
2017-09-08 17:10:09,
2017-09-08 17:10:10,
2017-09-08 17:10:11,
2017-09-08 17:10:12,
2017-09-08 17:10:13,
2017-09-08 17:10:14,
2017-09-08 17:10:15,
2017-09-08 17:10:16,
2017-09-08 17:10:17,
2017-09-08 17:10:18,
2017-09-08 17:10:19,
2017-09-08 17:10:20,
2017-09-08 17:10:21,
2017-09-08 17:10:22,
2017-09-08 17:10:23,
2017-09-08 17:10:24,
2017-09-08 17:10:25,
2017-09-08 17:10:26,
2017-09-08 17:10:27,
2017-09-08 17:10:28,
2017-09-08 17:10:29,
2017-09-08 17:10:30,
