2017-09-08 18:05:12,Serial Error,  q,
2017-09-08 18:05:12,Serial Error, BG,C
2017-09-08 18:05:12,Serial Error, H
2017-09-08 18:05:12,HV_s
2017-09-08 18:05:12,Serial Error, BOt1,
2017-09-08 18:05:12,:0
2017-09-08 18:05:22,,,,,0000
2017-09-08 18:05:22,Serial Error, 000000,, 
2017-09-08 18:05:22,Serial Error, e10,_ReBffr:
2017-09-08 18:05:31,Serial Error, ,0
2017-09-08 18:05:31,Serial Error, ,,0
2017-09-08 18:05:31,Serial Error, ,00,,,0
2017-09-08 18:05:31,Serial Error,  O
2017-09-08 18:05:31,Serial Error, ,A_
2017-09-08 18:05:31,Serial Error, 
2017-09-08 18:05:41,Serial Error,  ,,00,0
2017-09-08 18:05:41,Serial Error, , ,00
2017-09-08 18:05:41,00
2017-09-08 18:05:41,Serial Error, 
2017-09-08 18:05:41,Serial Error, AM_Bf
2017-09-08 18:05:41,Serial Error, 
2017-09-08 18:05:51,Serial Error, ,0
2017-09-08 18:05:51,Serial Error, 0,
2017-09-08 18:05:51,Serial Error, ,,,00
2017-09-08 18:05:51,Serial Error,  BO 
2017-09-08 18:05:51,Serial Error, A_egufe
2017-09-08 18:06:01,,,00,,,, 
2017-09-08 18:06:01,0,,0, 
2017-09-08 18:06:01,Serial Error,  G e:4 M_eBffr0
2017-09-08 18:06:10,,,,0000 
2017-09-08 18:06:10,Serial Error, 00000000 Oe1, _e
2017-09-08 18:06:20,,000,,,,0 
2017-09-08 18:06:20,,000,00,0
2017-09-08 18:06:20,Serial Error, B e1 MeBf
2017-09-08 18:06:30,,00000,,0,
2017-09-08 18:06:30,Serial Error, ,00,0  G
2017-09-08 18:06:30,Serial Error, R
2017-09-08 18:06:40,Serial Error, , 00,,0,00,
2017-09-08 18:06:40,Serial Error, ,00,0, 
2017-09-08 18:06:40,e:8 MRgufr0
2017-09-08 18:06:49,Serial Error, ,
2017-09-08 18:06:49,Serial Error, 0,000
2017-09-08 18:06:49,,,0,00
2017-09-08 18:06:49,Serial Error,  e:,
2017-09-08 18:06:49,Serial Error, gufr
2017-09-08 19:05:12,Serial Error, Sq,C
2017-09-08 19:05:12,Serial Error, TW
2017-09-08 19:05:12,Serial Error, HV
2017-09-08 19:05:12,0
2017-09-08 19:05:13,Serial Error, BOSet:10, 
2017-09-08 19:05:13,Serial Error, 
2017-09-08 19:05:13,Serial Error, er:1
2017-09-08 19:05:13,Serial Error, 
2017-09-08 19:05:16,Serial Error, 
2017-09-08 19:05:16,Serial Error, BOe0 I
2017-09-08 19:05:16,0
2017-09-08 19:06:56,
2017-09-08 19:08:36,
2017-09-08 19:10:17,
2017-09-08 19:11:57,
2017-09-08 19:13:37,
2017-09-08 19:15:17,
2017-09-08 19:16:57,
2017-09-08 19:18:37,
2017-09-08 19:20:17,
2017-09-08 19:21:57,
2017-09-08 19:23:38,
2017-09-08 19:25:18,
2017-09-08 19:26:58,
2017-09-08 19:28:38,
2017-09-08 19:30:18,
2017-09-08 19:31:58,
2017-09-08 19:33:38,
2017-09-08 19:35:18,
2017-09-08 19:36:58,
2017-09-08 19:38:39,
2017-09-08 19:40:19,
2017-09-08 19:41:59,
2017-09-08 19:43:39,
2017-09-08 19:45:19,
2017-09-08 19:46:59,
2017-09-08 19:48:39,
2017-09-08 19:50:19,
2017-09-08 19:52:00,
2017-09-08 19:53:40,
2017-09-08 19:55:20,
2017-09-08 19:57:00,
2017-09-08 19:58:40,
2017-09-08 20:00:20,
2017-09-08 20:02:00,
2017-09-08 20:03:40,
2017-09-08 20:05:06,  ISe:0
2017-09-08 20:05:11,0A8AM_
2017-09-08 20:05:12,Serial Error,  e::2a
2017-09-08 20:05:13,Oe1 _gue1
2017-09-08 20:05:22,0,,,,0,0,,0BOSt1,ARBf:
2017-09-08 20:05:32,,,,,0
2017-09-08 20:05:51,Serial Error, ,,BOSt1 _ge0 000 ,,,
2017-09-08 20:06:01,Serial Error, 3 ,0,,,00,M
2017-09-08 20:06:01,Serial Error, 
2017-09-08 20:06:30,Serial Error, ,070
2017-09-08 20:06:40,Serial Error,  GO:7,8, 00,0,0,
2017-09-08 20:06:40,Serial Error, 0,B
2017-09-08 20:06:40,Serial Error, 
2017-09-08 20:06:40,Serial Error, 
2017-09-08 20:06:50,00,0,,00000,0
2017-09-08 20:06:50,1,MBf:
2017-09-08 20:06:50,Serial Error, O
2017-09-08 20:06:50,
2017-09-08 20:08:07,ARPD
2017-09-08 20:08:18,Serial Error, igs
2017-09-08 20:08:20,dD.8AAMRPD
2017-09-08 20:09:59,0
2017-09-08 20:11:39,
2017-09-08 20:13:19,
2017-09-08 20:15:00,
2017-09-08 20:16:40,
2017-09-08 20:18:20,
2017-09-08 20:20:00,
2017-09-08 20:21:40,
2017-09-08 20:23:20,
2017-09-08 20:25:00,
2017-09-08 20:26:40,
2017-09-08 20:28:20,
2017-09-08 20:30:01,
2017-09-08 20:31:41,
2017-09-08 20:33:21,
2017-09-08 20:35:01,
2017-09-08 20:36:41,
2017-09-08 20:38:21,
2017-09-08 20:40:01,
2017-09-08 20:41:41,
2017-09-08 20:43:22,
2017-09-08 20:45:02,
2017-09-08 20:46:42,
2017-09-08 20:48:22,
2017-09-08 20:50:02,
2017-09-08 20:51:42,
2017-09-08 20:53:22,
2017-09-08 20:55:02,
2017-09-08 20:56:42,
2017-09-08 20:58:23,
2017-09-08 21:00:03,
2017-09-08 21:01:43,
2017-09-08 21:03:23,
2017-09-08 21:03:41, GO Set:0, GAl
2017-09-08 21:05:02,Serial Error, 
2017-09-08 21:05:02,Serial Error, 
2017-09-08 21:05:06,Serial Error, S
2017-09-08 22:36:41,BGSt0GNe0
2017-09-08 22:36:42,Serial Error,  GO Set:
2017-09-08 22:38:23,
2017-09-08 22:40:03,
2017-09-08 22:41:43,
2017-09-08 22:43:23,
2017-09-08 22:45:03,
2017-09-08 22:46:43,
2017-09-08 22:48:23,
2017-09-08 22:50:03,
2017-09-08 22:51:44,
2017-09-08 22:53:24,
2017-09-08 22:55:04,
2017-09-08 22:56:44,
2017-09-08 22:58:24,
2017-09-08 23:00:04,
2017-09-08 23:01:44,
2017-09-08 23:03:24,
2017-09-08 23:05:04,
2017-09-08 23:05:12,Serial Error,  ANStCE
2017-09-08 23:05:13,Serial Error,  ,
2017-09-08 23:05:22,Serial Error, GSt0ARBf:0 ,0
2017-09-08 23:05:42,,,0000 0,0,0
2017-09-08 23:06:11,Serial Error, _gf:0,0,0 ,,, B :,_gf0,000040,0,0  Oe1Aef:,,,0050,0,0 B:Aef:
2017-09-08 23:06:21,Serial Error, 0
2017-09-08 23:06:21,Serial Error, 
2017-09-08 23:06:40,Serial Error, 0Aee,,,
2017-09-08 23:06:50,Serial Error,   000,0 ,00,0
2017-09-08 23:06:50,
2017-09-08 23:06:50,Serial Error, N
2017-09-08 23:06:53,Serial Error, ngPoAPeaR.ExitAR
2017-09-08 23:08:32,8
2017-09-08 23:10:12,
2017-09-08 23:11:52,
2017-09-08 23:13:32,
2017-09-08 23:15:12,
2017-09-08 23:16:52,
2017-09-08 23:18:32,
2017-09-08 23:20:12,
2017-09-08 23:21:52,
2017-09-08 23:23:32,
2017-09-08 23:25:12,
2017-09-08 23:26:52,
2017-09-08 23:28:33,
2017-09-08 23:30:13,
2017-09-08 23:31:53,
2017-09-08 23:33:33,
2017-09-08 23:35:13,
2017-09-08 23:36:53,
2017-09-08 23:38:33,
2017-09-08 23:40:13,
2017-09-08 23:41:53,
2017-09-08 23:43:34,
2017-09-08 23:45:14,
2017-09-08 23:46:54,
2017-09-08 23:48:34,
2017-09-08 23:50:14,
2017-09-08 23:51:54,
2017-09-08 23:53:34,
2017-09-08 23:55:14,
2017-09-08 23:56:55,
2017-09-08 23:58:35,
2017-09-09 00:00:15,
2017-09-09 00:01:55,
2017-09-09 00:03:35,
2017-09-09 00:05:05,Serial Error, :
2017-09-09 00:05:11,C0A00A80AMD_N
2017-09-09 00:05:22,Serial Error, 4,e,,S37,003,7 ,12  01 3 3,7 ,12  
2017-09-09 00:05:22,Serial Error, 01 ,,
2017-09-09 00:05:22,Serial Error, 91
2017-09-09 00:05:22, ,2 
2017-09-09 00:05:22,Serial Error,  7,031,33 
2017-09-09 00:05:22,Serial Error, 32 ,373, 13009 32 ,32  30 ,32222 
2017-09-09 00:05:22,Serial Error, ,1,3,,3 ,,,, 3,
2017-09-09 00:05:23,Serial Error,  373 2
2017-09-09 00:05:23,Serial Error, 122  ,3  3,72 ,, 1 
2017-09-09 00:05:23,Serial Error,  30 3
2017-09-09 00:05:23,Serial Error, 
2017-09-09 00:05:23,Serial Error, 
2017-09-09 00:05:23,Serial Error, 
2017-09-09 00:05:23,Serial Error, 16
2017-09-09 00:05:23,3,,,32
2017-09-09 00:05:23,Serial Error, ,  ,22131, 0172222 ,6 
2017-09-09 00:05:23,Serial Error, 
2017-09-09 00:05:23,Serial Error,  22222  , 733, 
2017-09-09 00:05:23,Serial Error, 01,
2017-09-09 00:05:23,Serial Error, 1 6,
2017-09-09 00:05:23,Serial Error, 1 263,
2017-09-09 00:05:23,Serial Error, 3, 93,009 3212  
2017-09-09 00:05:23,Serial Error, 
2017-09-09 00:05:23,Serial Error,   , 13,22 ,1  03,7 ,12 ,1,,,3,32131, 93 ,,, 
2017-09-09 00:05:23,Serial Error, 3 9 ,,,, 
2017-09-09 00:05:23,222 ,1
2017-09-09 00:05:23, 3    
2017-09-09 00:05:23,Serial Error,  25
2017-09-09 00:05:23,Serial Error, 
2017-09-09 00:05:23,Serial Error, 
2017-09-09 00:05:23,Serial Error, 
2017-09-09 00:05:23,Serial Error, 
2017-09-09 00:05:23,Serial Error,  
