2017-09-14 15:42:05, 43,:e,:a0,:14,:7a,:1,:2 @

2017-09-14 15:42:05,*SeqNo,OTA,TAC,HVCLB,HVCL,VDD_H,VChan0,VChan1,VChan2,

2017-09-14 15:42:05, SeqNo,VChan3,DVDD,BGO,NTCPWR,NC,VDD_HV,HV_Is<1>,HV_Is<0>

2017-09-14 15:42:06,
2017-09-14 15:42:07,
2017-09-14 15:42:08,
2017-09-14 15:42:09,
2017-09-14 15:42:10,
2017-09-14 15:42:11,
2017-09-14 15:42:12,
2017-09-14 15:42:13,
2017-09-14 15:42:14,
2017-09-14 15:42:15,
2017-09-14 15:42:16,
2017-09-14 15:42:19,981,257,426,427,4,2482,198,199,198,32,733,53,1664,0,36,36 

2017-09-14 15:42:19,*******DONE*******#

Exiting PsocAmPreRad