2017-09-07 13:13:27,*SeqNo.,Time,VChan3,DVDD,BGO,NTCPWR,NC,VDD_HV,HV_Is1,HV_Is0
2017-09-07 13:13:27, BGO Set:10, AM_RegBuffer:10
2017-09-07 13:13:36,0, 283,709,16289,1253,43667,1,21015,21015 
2017-09-07 13:13:36,0, 10,27,621,47,1665,0,801,801 
2017-09-07 13:13:37, BGO Set:10, AM_RegBuffer:621
2017-09-07 13:13:37, BGO Set:11, AM_RegBuffer:11
2017-09-07 13:13:46,1, 283,683,15939,1227,43683,1,21015,21015 
2017-09-07 13:13:46,1, 10,26,608,46,1666,0,801,801 
2017-09-07 13:13:46, BGO Set:11, AM_RegBuffer:608
2017-09-07 13:13:46, BGO Set:12, AM_RegBuffer:12
2017-09-07 13:13:56,2, 283,657,15583,1201,43619,1,21017,21015 
2017-09-07 13:13:56,2, 10,25,594,45,1663,0,801,801 
2017-09-07 13:13:56, BGO Set:12, AM_RegBuffer:594
2017-09-07 13:13:56, BGO Set:13, AM_RegBuffer:13
2017-09-07 13:14:06,3, 283,633,15231,1173,43609,1,21019,21019 
2017-09-07 13:14:06,3, 10,24,581,44,1663,0,801,801 
2017-09-07 13:14:06, BGO Set:13, AM_RegBuffer:581
2017-09-07 13:14:06, BGO Set:14, AM_RegBuffer:14
2017-09-07 13:14:15,4, 285,607,14877,1147,43623,1,21019,21019 
2017-09-07 13:14:15,4, 10,23,567,43,1664,0,801,801 
2017-09-07 13:14:15, BGO Set:14, AM_RegBuffer:567
2017-09-07 13:14:16, BGO Set:15, AM_RegBuffer:15
2017-09-07 13:14:25,5, 285,581,14503,1119,43635,1,21019,21019 
2017-09-07 13:14:25,5, 10,22,553,42,1664,0,801,801 
2017-09-07 13:14:25, BGO Set:15, AM_RegBuffer:553
2017-09-07 13:14:25, BGO Set:16, AM_RegBuffer:16
2017-09-07 13:14:35,6, 285,557,14147,1091,43661,65535,21019,21019 
2017-09-07 13:14:35,6, 10,21,539,41,1665,2500,801,801 
2017-09-07 13:14:35, BGO Set:16, AM_RegBuffer:539
2017-09-07 13:14:35, BGO Set:17, AM_RegBuffer:17
2017-09-07 13:14:45,7, 285,557,14145,1091,43623,1,21019,21019 
2017-09-07 13:14:45,7, 10,21,539,41,1664,0,801,801 
2017-09-07 13:14:45, BGO Set:17, AM_RegBuffer:539
2017-09-07 13:14:45, BGO Set:18, AM_RegBuffer:18
2017-09-07 13:14:54,8, 285,557,14145,1091,43577,1,21019,21019 
2017-09-07 13:14:54,8, 10,21,539,41,1662,0,801,801 
2017-09-07 13:14:54, BGO Set:18, AM_RegBuffer:539
2017-09-07 13:14:55, BGO Set:19, AM_RegBuffer:19
2017-09-07 13:15:04,9, 285,557,14145,1091,43633,65535,21019,21019 
2017-09-07 13:15:04,9, 10,21,539,41,1664,2500,801,801 
2017-09-07 13:15:04, BGO Set:19, AM_RegBuffer:539
2017-09-07 13:15:04, BGO Set:20, AM_RegBuffer:20
2017-09-07 13:15:07,
2017-09-07 13:15:07,*******Meaure Clk Period:Time, Freq in MHz*******
2017-09-07 13:15:07,****SeqNo.,Time,DAC_Cnt.......... 39, 31200000, 0, 0 
2017-09-07 13:15:07, 38, 30400000, 1, 0 
2017-09-07 13:15:07, 38, 30400000, 2, 0 
2017-09-07 13:15:07, 37, 29600000, 3, 0 
2017-09-07 13:15:07, 38, 30400000, 4, 0 
2017-09-07 13:15:07, 38, 30400000, 5, 0 
2017-09-07 13:15:07, 37, 29600000, 6, 0 
2017-09-07 13:15:07, 37, 29600000, 7, 0 
2017-09-07 13:15:07, 38, 30400000, 8, 0 
2017-09-07 13:15:07, 38, 30400000, 9, 0 
2017-09-07 13:15:07, 37, 29600000, 10, 0 
2017-09-07 13:15:07, 38, 30400000, 11, 0 
2017-09-07 13:15:07, 38, 30400000, 12, 0 
2017-09-07 13:15:07, 38, 30400000, 13, 0 
2017-09-07 13:15:07, 37, 29600000, 14, 0 
2017-09-07 13:15:07, 38, 30400000, 15, 0 
2017-09-07 13:15:07, 38, 30400000, 16, 0 
2017-09-07 13:15:07, 37, 29600000, 17, 0 
2017-09-07 13:15:07, 38, 30400000, 18, 0 
2017-09-07 13:15:07, 37, 29600000, 19, 0 
2017-09-07 13:15:07, 38, 30400000, 20, 0 
2017-09-07 13:15:07, 38, 30400000, 21, 0 
2017-09-07 13:15:07, 39, 31200000, 22, 0 
2017-09-07 13:15:07, 37, 29600000, 23, 0 
2017-09-07 13:15:07, 37, 29600000, 24, 0 
2017-09-07 13:15:08, 38, 30400000, 25, 0 
2017-09-07 13:15:08, 38, 30400000, 26, 0 
2017-09-07 13:15:08, 38, 30400000, 27, 0 
2017-09-07 13:15:08, 38, 30400000, 28, 0 
2017-09-07 13:15:08, 38, 30400000, 29, 0 
2017-09-07 13:15:08, 37, 29600000, 30, 0 
2017-09-07 13:15:08, 37, 29600000, 31, 0 
2017-09-07 13:15:08, 38, 30400000, 32, 0 
2017-09-07 13:15:08, 38, 30400000, 33, 0 
2017-09-07 13:15:08, 38, 30400000, 34, 0 
2017-09-07 13:15:08, 38, 30400000, 35, 0 
2017-09-07 13:15:08, 37, 29600000, 36, 0 
2017-09-07 13:15:08, 38, 30400000, 37, 0 
2017-09-07 13:15:08, 38, 30400000, 38, 0 
2017-09-07 13:15:08, 38, 30400000, 39, 0 
2017-09-07 13:15:08, 38, 30400000, 40, 0 
2017-09-07 13:15:08, 38, 30400000, 41, 0 
2017-09-07 13:15:08, 38, 30400000, 42, 0 
2017-09-07 13:15:08, 38, 30400000, 43, 0 
2017-09-07 13:15:08, 38, 30400000, 44, 0 
2017-09-07 13:15:08, 38, 30400000, 45, 0 
2017-09-07 13:15:08, 37, 29600000, 46, 0 
2017-09-07 13:15:08, 38, 30400000, 47, 0 
2017-09-07 13:15:08, 38, 30400000, 48, 0 
2017-09-07 13:15:08, 37, 29600000, 49, 0 
2017-09-07 13:15:08, 38, 30400000, 50, 0 
2017-09-07 13:15:08, 38, 30400000, 51, 0 
2017-09-07 13:15:08, 37, 29600000, 52, 0 
2017-09-07 13:15:08, 38, 30400000, 53, 0 
2017-09-07 13:15:08, 37, 29600000, 54, 0 
2017-09-07 13:15:08, 37, 29600000, 55, 0 
2017-09-07 13:15:08, 38, 30400000, 56, 0 
2017-09-07 13:15:08, 39, 31200000, 57, 0 
2017-09-07 13:15:08, 38, 30400000, 58, 0 
2017-09-07 13:15:08, 39, 31200000, 59, 0 
2017-09-07 13:15:08, 38, 30400000, 60, 0 
2017-09-07 13:15:08, 39, 31200000, 61, 0 
2017-09-07 13:15:08, 38, 30400000, 62, 0 
2017-09-07 13:15:08, 37, 29600000, 63, 0 
2017-09-07 13:15:08, 38, 30400000, 64, 0 
2017-09-07 13:15:08, 37, 29600000, 65, 0 
2017-09-07 13:15:08, 38, 30400000, 66, 0 
2017-09-07 13:15:08, 38, 30400000, 67, 0 
2017-09-07 13:15:08, 38, 30400000, 68, 0 
2017-09-07 13:15:08, 38, 30400000, 69, 0 
2017-09-07 13:15:08, 39, 31200000, 70, 0 
2017-09-07 13:15:08, 38, 30400000, 71, 0 
2017-09-07 13:15:08, 37, 29600000, 72, 0 
2017-09-07 13:15:08, 38, 30400000, 73, 0 
2017-09-07 13:15:08, 38, 30400000, 74, 0 
2017-09-07 13:15:08, 38, 30400000, 75, 0 
2017-09-07 13:15:08, 37, 29600000, 76, 0 
2017-09-07 13:15:08, 37, 29600000, 77, 0 
2017-09-07 13:15:08, 38, 30400000, 78, 0 
2017-09-07 13:15:08, 38, 30400000, 79, 0 
2017-09-07 13:15:08, 38, 30400000, 80, 0 
2017-09-07 13:15:08, 38, 30400000, 81, 0 
2017-09-07 13:15:08, 38, 30400000, 82, 0 
2017-09-07 13:15:08, 37, 29600000, 83, 0 
2017-09-07 13:15:08, 38, 30400000, 84, 0 
2017-09-07 13:15:08, 37, 29600000, 85, 0 
2017-09-07 13:15:08, 38, 30400000, 86, 0 
2017-09-07 13:15:08, 39, 31200000, 87, 0 
2017-09-07 13:15:08, 38, 30400000, 88, 0 
2017-09-07 13:15:08, 38, 30400000, 89, 0 
2017-09-07 13:15:08, 38, 30400000, 90, 0 
2017-09-07 13:15:08, 38, 30400000, 91, 0 
2017-09-07 13:15:08, 38, 30400000, 92, 0 
2017-09-07 13:15:08, 38, 30400000, 93, 0 
2017-09-07 13:15:08, 37, 29600000, 94, 0 
2017-09-07 13:15:08, 37, 29600000, 95, 0 
2017-09-07 13:15:08, 38, 30400000, 96, 0 
2017-09-07 13:15:08, 38, 30400000, 97, 0 
2017-09-07 13:15:08, 38, 30400000, 98, 0 
2017-09-07 13:15:08, 37, 29600000, 99, 0 
2017-09-07 13:15:08, 38, 30400000, 100, 0 
2017-09-07 13:15:08, 37, 29600000, 101, 0 
2017-09-07 13:15:08, 38, 30400000, 102, 0 
2017-09-07 13:15:08, 38, 30400000, 103, 0 
2017-09-07 13:15:08, 38, 30400000, 104, 0 
2017-09-07 13:15:08, 38, 30400000, 105, 0 
2017-09-07 13:15:08, 38, 30400000, 106, 0 
2017-09-07 13:15:08, 37, 29600000, 107, 0 
2017-09-07 13:15:08, 38, 30400000, 108, 0 
2017-09-07 13:15:08, 38, 30400000, 109, 0 
2017-09-07 13:15:08, 38, 30400000, 110, 0 
2017-09-07 13:15:08, 38, 30400000, 111, 0 
2017-09-07 13:15:08, 37, 29600000, 112, 0 
2017-09-07 13:15:08, 38, 30400000, 113, 0 
2017-09-07 13:15:08, 38, 30400000, 114, 0 
2017-09-07 13:15:08, 39, 31200000, 115, 0 
2017-09-07 13:15:08, 38, 30400000, 116, 0 
2017-09-07 13:15:08, 39, 31200000, 117, 0 
2017-09-07 13:15:08, 38, 30400000, 118, 0 
2017-09-07 13:15:08, 38, 30400000, 119, 0 
2017-09-07 13:15:08, 38, 30400000, 120, 0 
2017-09-07 13:15:08, 38, 30400000, 121, 0 
2017-09-07 13:15:08, 38, 30400000, 122, 0 
2017-09-07 13:15:08, 38, 30400000, 123, 0 
2017-09-07 13:15:08, 38, 30400000, 124, 0 
2017-09-07 13:15:08, 38, 30400000, 125, 0 
2017-09-07 13:15:08, 38, 30400000, 126, 0 
2017-09-07 13:15:08, 37, 29600000, 127, 0 
2017-09-07 13:15:08, 38, 30400000, 128, 0 
2017-09-07 13:15:08, 38, 30400000, 129, 0 
2017-09-07 13:15:08, 38, 30400000, 130, 0 
2017-09-07 13:15:08, 38, 30400000, 131, 0 
2017-09-07 13:15:08, 38, 30400000, 132, 0 
2017-09-07 13:15:08, 38, 30400000, 133, 0 
2017-09-07 13:15:08, 38, 30400000, 134, 0 
2017-09-07 13:15:08, 39, 31200000, 135, 0 
2017-09-07 13:15:08, 38, 30400000, 136, 0 
2017-09-07 13:15:08, 38, 30400000, 137, 0 
2017-09-07 13:15:08, 38, 30400000, 138, 0 
2017-09-07 13:15:08, 38, 30400000, 139, 0 
2017-09-07 13:15:08, 38, 30400000, 140, 0 
2017-09-07 13:15:08, 39, 31200000, 141, 0 
2017-09-07 13:15:08, 39, 31200000, 142, 0 
2017-09-07 13:15:08, 38, 30400000, 143, 0 
2017-09-07 13:15:08, 39, 31200000, 144, 0 
2017-09-07 13:15:08, 38, 30400000, 145, 0 
2017-09-07 13:15:08, 38, 30400000, 146, 0 
2017-09-07 13:15:08, 38, 30400000, 147, 0 
2017-09-07 13:15:08, 38, 30400000, 148, 0 
2017-09-07 13:15:08, 38, 30400000, 149, 0 
2017-09-07 13:15:08, 38, 30400000, 150, 0 
2017-09-07 13:15:08, 37, 29600000, 151, 0 
2017-09-07 13:15:08, 38, 30400000, 152, 0 
2017-09-07 13:15:08, 38, 30400000, 153, 0 
2017-09-07 13:15:08, 38, 30400000, 154, 0 
2017-09-07 13:15:09, 38, 30400000, 155, 0 
2017-09-07 13:15:09, 38, 30400000, 156, 0 
2017-09-07 13:15:09, 38, 30400000, 157, 0 
2017-09-07 13:15:09, 37, 29600000, 158, 0 
2017-09-07 13:15:09, 38, 30400000, 159, 0 
2017-09-07 13:15:09, 38, 30400000, 160, 0 
2017-09-07 13:15:09, 37, 29600000, 161, 0 
2017-09-07 13:15:09, 38, 30400000, 162, 0 
2017-09-07 13:15:09, 37, 29600000, 163, 0 
2017-09-07 13:15:09, 37, 29600000, 164, 0 
2017-09-07 13:15:09, 39, 31200000, 165, 0 
2017-09-07 13:15:09, 39, 31200000, 166, 0 
2017-09-07 13:15:09, 38, 30400000, 167, 0 
2017-09-07 13:15:09, 38, 30400000, 168, 0 
2017-09-07 13:15:09, 38, 30400000, 169, 0 
2017-09-07 13:15:09, 38, 30400000, 170, 0 
2017-09-07 13:15:09, 38, 30400000, 171, 0 
2017-09-07 13:15:09, 37, 29600000, 172, 0 
2017-09-07 13:15:09, 38, 30400000, 173, 0 
2017-09-07 13:15:09, 38, 30400000, 174, 0 
2017-09-07 13:15:09, 39, 31200000, 175, 0 
2017-09-07 13:15:09, 38, 30400000, 176, 0 
2017-09-07 13:15:09, 38, 30400000, 177, 0 
2017-09-07 13:15:09, 38, 30400000, 178, 0 
2017-09-07 13:15:09, 38, 30400000, 179, 0 
2017-09-07 13:15:09, 38, 30400000, 180, 0 
2017-09-07 13:15:09, 37, 29600000, 181, 0 
2017-09-07 13:15:09, 39, 31200000, 182, 0 
2017-09-07 13:15:09, 38, 30400000, 183, 0 
2017-09-07 13:15:09, 38, 30400000, 184, 0 
2017-09-07 13:15:09, 38, 30400000, 185, 0 
2017-09-07 13:15:09, 38, 30400000, 186, 0 
2017-09-07 13:15:09, 38, 30400000, 187, 0 
2017-09-07 13:15:09, 38, 30400000, 188, 0 
2017-09-07 13:15:09, 37, 29600000, 189, 0 
2017-09-07 13:15:09, 37, 29600000, 190, 0 
2017-09-07 13:15:09, 37, 29600000, 191, 0 
2017-09-07 13:15:09, 38, 30400000, 192, 0 
2017-09-07 13:15:09, 38, 30400000, 193, 0 
2017-09-07 13:15:09, 38, 30400000, 194, 0 
2017-09-07 13:15:09, 37, 29600000, 195, 0 
2017-09-07 13:15:09, 38, 30400000, 196, 0 
2017-09-07 13:15:09, 38, 30400000, 197, 0 
2017-09-07 13:15:09, 38, 30400000, 198, 0 
2017-09-07 13:15:09, 38, 30400000, 199, 0 
2017-09-07 13:15:12,0, 801, 44, 100, 25, 15, 131, 130, 139, 128, 0 
2017-09-07 13:15:13, 0, 801, 44, 200, 25, 15, 131, 130, 139, 128, 0 
2017-09-07 13:15:14, 0, 801, 55, 100, 58, 32, 298, 296, 328, 294, 0 
2017-09-07 13:15:14, 0, 801, 55, 200, 58, 32, 298, 296, 328, 294, 0 
2017-09-07 13:15:15, 0, 801, 66, 100, 41, 23, 214, 214, 228, 215, 0 
2017-09-07 13:15:16, 0, 801, 66, 200, 41, 23, 214, 213, 228, 215, 1 
2017-09-07 13:15:17, 0, 801, 77, 100, 37, 21, 193, 192, 203, 192, 0 
2017-09-07 13:15:17, 0, 801, 77, 200, 37, 21, 193, 192, 203, 192, 0 
2017-09-07 13:15:18, 1, 733, 44, 100, 32, 18, 164, 163, 172, 163, 0 
2017-09-07 13:15:19, 1, 733, 44, 200, 32, 18, 164, 164, 172, 163, 1 
2017-09-07 13:15:20, 1, 733, 55, 100, 60, 33, 306, 304, 335, 304, 0 
2017-09-07 13:15:20, 1, 733, 55, 200, 60, 33, 306, 305, 335, 304, 1 
2017-09-07 13:15:21, 1, 733, 66, 100, 42, 24, 218, 217, 233, 216, 0 
2017-09-07 13:15:22, 1, 733, 66, 200, 42, 24, 218, 217, 233, 216, 0 
2017-09-07 13:15:22, 1, 733, 77, 100, 38, 22, 196, 195, 207, 193, 0 
2017-09-07 13:15:23, 1, 733, 77, 200, 38, 22, 196, 195, 207, 193, 0 
2017-09-07 13:15:24, 2, 717, 44, 100, 32, 18, 166, 165, 177, 164, 0 
2017-09-07 13:15:25, 2, 717, 44, 200, 32, 18, 166, 165, 177, 164, 0 
2017-09-07 13:15:26, 2, 717, 55, 100, 61, 33, 309, 308, 340, 308, 0 
2017-09-07 13:15:26, 2, 717, 55, 200, 61, 33, 309, 307, 340, 308, 1 
2017-09-07 13:15:27, 2, 717, 66, 100, 43, 24, 220, 219, 234, 221, 0 
2017-09-07 13:15:28, 2, 717, 66, 200, 43, 24, 220, 219, 234, 221, 0 
2017-09-07 13:15:28, 2, 717, 77, 100, 38, 22, 198, 197, 208, 198, 0 
2017-09-07 13:15:29, 2, 717, 77, 200, 38, 22, 198, 197, 208, 198, 0 
2017-09-07 13:15:30, 3, 708, 44, 100, 32, 18, 169, 167, 177, 165, 0 
2017-09-07 13:15:31, 3, 708, 44, 200, 32, 18, 169, 167, 177, 165, 0 
2017-09-07 13:15:32, 3, 708, 55, 100, 61, 32, 312, 310, 344, 308, 0 
2017-09-07 13:15:32, 3, 708, 55, 200, 61, 33, 312, 310, 344, 308, 1 
2017-09-07 13:15:33, 3, 708, 66, 100, 43, 24, 223, 222, 239, 221, 0 
2017-09-07 13:15:34, 3, 708, 66, 200, 43, 24, 223, 222, 239, 221, 0 
2017-09-07 13:15:34, 3, 708, 77, 100, 39, 22, 201, 200, 212, 198, 0 
2017-09-07 13:15:35, 3, 708, 77, 200, 39, 22, 201, 200, 212, 198, 0 
2017-09-07 13:15:36, 4, 699, 44, 100, 33, 19, 171, 170, 181, 169, 0 
2017-09-07 13:15:37, 4, 699, 44, 200, 33, 19, 171, 170, 182, 169, 1 
2017-09-07 13:15:38, 4, 699, 55, 100, 61, 33, 315, 313, 349, 313, 0 
2017-09-07 13:15:38, 4, 699, 55, 200, 61, 33, 315, 314, 348, 313, 2 
2017-09-07 13:15:39, 4, 699, 66, 100, 43, 24, 226, 224, 242, 226, 0 
2017-09-07 13:15:40, 4, 699, 66, 200, 43, 24, 226, 224, 244, 226, 0 
2017-09-07 13:15:40, 4, 699, 77, 100, 39, 22, 203, 202, 213, 203, 0 
2017-09-07 13:15:41, 4, 699, 77, 200, 39, 22, 203, 202, 214, 203, 1 
2017-09-07 13:15:42, 5, 690, 44, 100, 33, 19, 173, 172, 182, 169, 0 
2017-09-07 13:15:43, 5, 690, 44, 200, 33, 19, 173, 172, 182, 169, 0 
2017-09-07 13:15:43, 5, 690, 55, 100, 61, 33, 318, 316, 350, 318, 0 
2017-09-07 13:15:44, 5, 690, 55, 200, 61, 33, 318, 316, 349, 318, 1 
2017-09-07 13:15:45, 5, 690, 66, 100, 44, 24, 228, 227, 244, 227, 0 
2017-09-07 13:15:45, 5, 690, 66, 200, 44, 24, 228, 227, 244, 227, 0 
2017-09-07 13:15:46, 5, 690, 77, 100, 39, 22, 206, 205, 217, 203, 0 
2017-09-07 13:15:47, 5, 690, 77, 200, 39, 22, 206, 204, 217, 203, 1 
2017-09-07 13:15:48, 6, 681, 44, 100, 33, 18, 175, 174, 185, 173, 0 
2017-09-07 13:15:49, 6, 681, 44, 200, 33, 18, 175, 175, 186, 173, 2 
2017-09-07 13:15:49, 6, 681, 55, 100, 61, 33, 321, 319, 353, 318, 0 
2017-09-07 13:15:50, 6, 681, 55, 200, 61, 32, 321, 319, 354, 318, 2 
2017-09-07 13:15:51, 6, 681, 66, 100, 44, 24, 230, 230, 248, 232, 0 
2017-09-07 13:15:51, 6, 681, 66, 200, 44, 24, 230, 229, 249, 232, 2 
2017-09-07 13:15:52, 6, 681, 77, 100, 39, 22, 208, 207, 220, 208, 0 
2017-09-07 13:15:53, 6, 681, 77, 200, 39, 22, 208, 207, 221, 208, 1 
2017-09-07 13:15:54, 7, 671, 44, 100, 33, 18, 177, 177, 187, 174, 0 
2017-09-07 13:15:55, 7, 671, 44, 200, 33, 18, 177, 176, 187, 174, 1 
2017-09-07 13:15:55, 7, 671, 55, 100, 61, 32, 325, 323, 358, 323, 0 
2017-09-07 13:15:56, 7, 671, 55, 200, 61, 32, 324, 323, 358, 323, 1 
2017-09-07 13:15:57, 7, 671, 66, 100, 44, 24, 233, 232, 249, 232, 0 
2017-09-07 13:15:57, 7, 671, 66, 200, 44, 24, 233, 232, 249, 232, 0 
2017-09-07 13:15:58, 7, 671, 77, 100, 39, 22, 210, 209, 222, 208, 0 
2017-09-07 13:15:59, 7, 671, 77, 200, 39, 22, 210, 209, 222, 208, 0 
2017-09-07 13:16:00, 8, 659, 44, 100, 33, 18, 180, 179, 192, 179, 0 
2017-09-07 13:16:01, 8, 659, 44, 200, 33, 18, 180, 179, 192, 179, 0 
2017-09-07 13:16:01, 8, 659, 55, 100, 62, 32, 328, 326, 363, 327, 0 
2017-09-07 13:16:02, 8, 659, 55, 200, 62, 32, 329, 326, 363, 327, 1 
2017-09-07 13:16:03, 8, 659, 66, 100, 44, 23, 236, 235, 254, 237, 0 
2017-09-07 13:16:03, 8, 659, 66, 200, 44, 23, 236, 235, 254, 237, 0 
2017-09-07 13:16:04, 8, 659, 77, 100, 39, 21, 213, 212, 227, 213, 0 
2017-09-07 13:16:05, 8, 659, 77, 200, 39, 21, 213, 212, 227, 213, 0 
2017-09-07 13:16:06, 9, 646, 44, 100, 33, 18, 183, 182, 192, 180, 0 
2017-09-07 13:16:06, 9, 646, 44, 200, 33, 18, 183, 182, 192, 180, 0 
2017-09-07 13:16:07, 9, 646, 55, 100, 62, 32, 332, 330, 369, 332, 0 
2017-09-07 13:16:08, 9, 646, 55, 200, 62, 32, 332, 330, 370, 332, 1 
2017-09-07 13:16:09, 9, 646, 66, 100, 44, 23, 240, 238, 259, 242, 0 
2017-09-07 13:16:09, 9, 646, 66, 200, 44, 23, 240, 238, 259, 242, 0 
2017-09-07 13:16:10, 9, 646, 77, 100, 39, 21, 217, 215, 232, 219, 0 
2017-09-07 13:16:11, 9, 646, 77, 200, 39, 21, 217, 215, 232, 219, 0 
2017-09-07 13:16:12, 10, 633, 44, 100, 33, 18, 186, 185, 197, 185, 0 
2017-09-07 13:16:12, 10, 633, 44, 200, 33, 18, 186, 185, 197, 185, 0 
2017-09-07 13:16:13, 10, 633, 55, 100, 62, 31, 337, 335, 375, 337, 0 
2017-09-07 13:16:14, 10, 633, 55, 200, 62, 31, 337, 335, 375, 337, 0 
2017-09-07 13:16:15, 10, 633, 66, 100, 44, 23, 244, 242, 264, 243, 0 
2017-09-07 13:16:15, 10, 633, 66, 200, 44, 23, 244, 242, 264, 243, 0 
2017-09-07 13:16:16, 10, 633, 77, 100, 39, 20, 220, 219, 233, 219, 0 
2017-09-07 13:16:17, 10, 633, 77, 200, 39, 20, 220, 219, 234, 219, 1 
2017-09-07 13:16:18, 11, 620, 44, 100, 33, 18, 189, 188, 201, 189, 0 
2017-09-07 13:16:18, 11, 620, 44, 200, 33, 18, 189, 188, 202, 189, 1 
2017-09-07 13:16:19, 11, 620, 55, 100, 62, 30, 342, 341, 381, 342, 0 
2017-09-07 13:16:20, 11, 620, 55, 200, 62, 31, 342, 341, 382, 342, 2 
2017-09-07 13:16:20, 11, 620, 66, 100, 44, 23, 248, 246, 269, 248, 0 
2017-09-07 13:16:21, 11, 620, 66, 200, 44, 23, 237, 246, 269, 248, 0 
2017-09-07 13:16:22, 11, 620, 77, 100, 40, 20, 224, 223, 237, 224, 0 
2017-09-07 13:16:22, 11, 620, 77, 200, 39, 20, 222, 223, 237, 224, 1 
2017-09-07 13:16:24, 12, 606, 44, 100, 33, 17, 193, 192, 206, 191, 0 
2017-09-07 13:16:24, 12, 606, 44, 200, 33, 17, 193, 192, 206, 190, 1 
2017-09-07 13:16:25, 12, 606, 55, 100, 62, 30, 349, 347, 389, 346, 0 
2017-09-07 13:16:26, 12, 606, 55, 200, 62, 30, 348, 347, 389, 346, 1 
2017-09-07 13:16:26, 12, 606, 66, 100, 44, 22, 253, 251, 275, 249, 0 
2017-09-07 13:16:27, 12, 606, 66, 200, 44, 22, 252, 251, 274, 249, 2 
2017-09-07 13:16:28, 12, 606, 77, 100, 40, 20, 228, 227, 242, 228, 0 
2017-09-07 13:16:28, 12, 606, 77, 200, 40, 20, 228, 227, 242, 228, 0 
2017-09-07 13:16:30, 13, 593, 44, 100, 33, 17, 197, 196, 211, 195, 0 
2017-09-07 13:16:30, 13, 593, 44, 200, 33, 17, 197, 196, 211, 195, 0 
2017-09-07 13:16:31, 13, 593, 55, 100, 62, 29, 355, 353, 398, 352, 0 
2017-09-07 13:16:32, 13, 593, 55, 200, 62, 29, 355, 353, 398, 352, 0 
2017-09-07 13:16:32, 13, 593, 66, 100, 44, 21, 257, 255, 281, 254, 0 
2017-09-07 13:16:33, 13, 593, 66, 200, 44, 21, 257, 255, 281, 254, 0 
2017-09-07 13:16:34, 13, 593, 77, 100, 40, 20, 232, 231, 247, 233, 1 
2017-09-07 13:16:34, 13, 593, 77, 200, 40, 19, 232, 231, 247, 233, 1 
2017-09-07 13:16:35, 14, 580, 44, 100, 33, 17, 200, 199, 214, 200, 0 
2017-09-07 13:16:36, 14, 580, 44, 200, 33, 17, 200, 199, 213, 200, 1 
2017-09-07 13:16:37, 14, 580, 55, 100, 62, 29, 361, 359, 406, 357, 0 
2017-09-07 13:16:38, 14, 580, 55, 200, 62, 29, 361, 360, 406, 357, 1 
2017-09-07 13:16:38, 14, 580, 66, 100, 44, 21, 262, 260, 286, 259, 0 
2017-09-07 13:16:39, 14, 580, 66, 200, 44, 21, 262, 261, 286, 259, 1 
2017-09-07 13:16:40, 14, 580, 77, 100, 40, 19, 237, 236, 256, 235, 0 
2017-09-07 13:16:40, 14, 580, 77, 200, 40, 19, 237, 236, 256, 235, 0 
2017-09-07 13:16:41, 15, 566, 44, 100, 33, 17, 205, 204, 221, 205, 0 
2017-09-07 13:16:42, 15, 566, 44, 200, 33, 17, 205, 204, 221, 205, 0 
2017-09-07 13:16:43, 15, 566, 55, 100, 63, 28, 369, 367, 417, 366, 0 
2017-09-07 13:16:43, 15, 566, 55, 200, 62, 28, 369, 367, 417, 366, 1 
2017-09-07 13:16:44, 15, 566, 66, 100, 44, 21, 268, 266, 292, 265, 0 
2017-09-07 13:16:45, 15, 566, 66, 200, 44, 21, 268, 266, 292, 265, 0 
2017-09-07 13:16:46, 15, 566, 77, 100, 40, 19, 242, 241, 261, 240, 0 
2017-09-07 13:16:46, 15, 566, 77, 200, 40, 19, 242, 241, 261, 240, 0 
2017-09-07 13:16:47, 16, 552, 44, 100, 34, 16, 209, 209, 226, 210, 0 
2017-09-07 13:16:48, 16, 552, 44, 200, 33, 16, 209, 208, 226, 210, 2 
2017-09-07 13:16:49, 16, 552, 55, 100, 63, 28, 376, 375, 426, 376, 0 
2017-09-07 13:16:49, 16, 552, 55, 200, 63, 28, 376, 374, 427, 376, 2 
2017-09-07 13:16:50, 16, 552, 66, 100, 44, 20, 273, 272, 302, 271, 0 
2017-09-07 13:16:51, 16, 552, 66, 200, 44, 20, 273, 272, 302, 271, 0 
2017-09-07 13:16:52, 16, 552, 77, 100, 40, 19, 247, 246, 267, 245, 1 
2017-09-07 13:16:52, 16, 552, 77, 200, 40, 19, 247, 246, 267, 245, 0 
2017-09-07 13:16:53, 17, 538, 44, 100, 33, 16, 210, 209, 227, 210, 0 
2017-09-07 13:16:54, 17, 538, 44, 200, 34, 16, 210, 209, 227, 210, 1 
2017-09-07 13:16:55, 17, 538, 55, 100, 63, 27, 376, 374, 426, 376, 0 
2017-09-07 13:16:55, 17, 538, 55, 200, 62, 28, 377, 374, 428, 376, 3 
2017-09-07 13:16:56, 17, 538, 66, 100, 44, 20, 273, 272, 302, 271, 0 
2017-09-07 13:16:57, 17, 538, 66, 200, 44, 20, 273, 272, 302, 271, 0 
2017-09-07 13:16:57, 17, 538, 77, 100, 40, 19, 247, 246, 267, 245, 1 
2017-09-07 13:16:58, 17, 538, 77, 200, 40, 19, 247, 246, 267, 245, 0 
2017-09-07 13:16:59, 18, 538, 44, 100, 34, 16, 210, 209, 227, 210, 0 
2017-09-07 13:17:00, 18, 538, 44, 200, 33, 16, 210, 209, 227, 210, 1 
2017-09-07 13:17:01, 18, 538, 55, 100, 63, 28, 377, 374, 427, 376, 0 
2017-09-07 13:17:01, 18, 538, 55, 200, 63, 27, 376, 374, 427, 376, 2 
2017-09-07 13:17:02, 18, 538, 66, 100, 44, 20, 273, 272, 302, 271, 0 
2017-09-07 13:17:03, 18, 538, 66, 200, 44, 20, 273, 272, 302, 271, 0 
2017-09-07 13:17:03, 18, 538, 77, 100, 40, 19, 247, 246, 267, 245, 1 
2017-09-07 13:17:04, 18, 538, 77, 200, 40, 19, 247, 246, 267, 245, 0 
2017-09-07 13:17:05, 19, 538, 44, 100, 33, 16, 210, 209, 227, 210, 0 
2017-09-07 13:17:06, 19, 538, 44, 200, 33, 16, 210, 209, 227, 210, 0 
2017-09-07 13:17:07, 19, 538, 55, 100, 62, 27, 377, 374, 427, 376, 0 
2017-09-07 13:17:07, 19, 538, 55, 200, 62, 28, 377, 374, 427, 376, 1 
2017-09-07 13:17:08, 19, 538, 66, 100, 44, 20, 273, 272, 302, 271, 0 
2017-09-07 13:17:09, 19, 538, 66, 200, 44, 20, 273, 272, 302, 271, 0 
2017-09-07 13:17:09, 19, 538, 77, 100, 40, 19, 247, 246, 267, 245, 1 
2017-09-07 13:17:10, 19, 538, 77, 200, 40, 19, 247, 246, 267, 245, 0 
2017-09-07 13:17:11, 20, 538, 44, 100, 34, 16, 210, 209, 227, 210, 0 
2017-09-07 13:17:12, 20, 538, 44, 200, 34, 16, 210, 209, 226, 210, 1 
2017-09-07 13:17:12, 20, 538, 55, 100, 62, 27, 377, 374, 427, 376, 0 
2017-09-07 13:17:13, 20, 538, 55, 200, 63, 28, 376, 374, 426, 376, 4 
2017-09-07 13:17:14, 20, 538, 66, 100, 44, 20, 273, 272, 302, 271, 0 
2017-09-07 13:17:15, 20, 538, 66, 200, 44, 20, 273, 272, 302, 271, 0 
2017-09-07 13:17:15, 20, 538, 77, 100, 40, 19, 247, 246, 267, 245, 1 
2017-09-07 13:17:16, 20, 538, 77, 200, 40, 19, 247, 246, 267, 245, 0 
2017-09-07 13:17:17, 21, 538, 44, 100, 33, 16, 210, 209, 227, 210, 0 
2017-09-07 13:17:18, 21, 538, 44, 200, 33, 16, 210, 209, 227, 210, 0 
2017-09-07 13:17:18, 21, 538, 55, 100, 62, 27, 377, 374, 427, 376, 0 
2017-09-07 13:17:19, 21, 538, 55, 200, 63, 27, 376, 374, 425, 376, 2 
2017-09-07 13:17:20, 21, 538, 66, 100, 44, 20, 273, 272, 302, 271, 0 
2017-09-07 13:17:20, 21, 538, 66, 200, 44, 20, 273, 272, 301, 271, 1 
2017-09-07 13:17:21, 21, 538, 77, 100, 40, 19, 247, 246, 267, 245, 1 
2017-09-07 13:17:22, 21, 538, 77, 200, 40, 19, 247, 246, 267, 245, 0 
2017-09-07 13:17:23, 22, 538, 44, 100, 33, 16, 210, 209, 227, 210, 0 
2017-09-07 13:17:24, 22, 538, 44, 200, 33, 16, 210, 209, 227, 210, 0 
2017-09-07 13:17:24, 22, 538, 55, 100, 62, 28, 376, 374, 427, 376, 0 
2017-09-07 13:17:25, 22, 538, 55, 200, 63, 27, 376, 374, 427, 376, 2 
2017-09-07 13:17:26, 22, 538, 66, 100, 44, 20, 273, 272, 302, 271, 0 
2017-09-07 13:17:26, 22, 538, 66, 200, 44, 20, 273, 272, 302, 271, 0 
2017-09-07 13:17:27, 22, 538, 77, 100, 40, 19, 247, 246, 267, 245, 1 
2017-09-07 13:17:28, 22, 538, 77, 200, 40, 19, 247, 246, 267, 245, 0 
2017-09-07 13:17:29, 23, 538, 44, 100, 33, 16, 210, 209, 227, 210, 0 
2017-09-07 13:17:30, 23, 538, 44, 200, 33, 16, 210, 209, 227, 210, 0 
2017-09-07 13:17:30, 23, 538, 55, 100, 62, 27, 376, 374, 428, 376, 0 
2017-09-07 13:17:31, 23, 538, 55, 200, 62, 27, 376, 374, 427, 376, 1 
2017-09-07 13:17:32, 23, 538, 66, 100, 44, 20, 273, 272, 302, 271, 0 
2017-09-07 13:17:32, 23, 538, 66, 200, 44, 20, 273, 272, 302, 271, 0 
2017-09-07 13:17:33, 23, 538, 77, 100, 40, 19, 247, 246, 267, 245, 1 
2017-09-07 13:17:34, 23, 538, 77, 200, 40, 19, 247, 246, 267, 245, 0 
2017-09-07 13:17:35, 24, 538, 44, 100, 34, 16, 210, 209, 227, 210, 0 
2017-09-07 13:17:35, 24, 538, 44, 200, 34, 16, 210, 209, 227, 210, 0 
2017-09-07 13:17:36, 24, 538, 55, 100, 63, 28, 376, 374, 427, 376, 0 
2017-09-07 13:17:37, 24, 538, 55, 200, 63, 27, 376, 374, 426, 376, 2 
2017-09-07 13:17:38, 24, 538, 66, 100, 44, 20, 273, 272, 302, 271, 0 
2017-09-07 13:17:38, 24, 538, 66, 200, 44, 20, 273, 272, 302, 271, 0 
2017-09-07 13:17:39, 24, 538, 77, 100, 40, 19, 247, 246, 267, 245, 1 
2017-09-07 13:17:40, 24, 538, 77, 200, 40, 19, 247, 246, 267, 245, 0 
2017-09-07 13:17:41, 25, 538, 44, 100, 33, 16, 210, 210, 227, 210, 0 
2017-09-07 13:17:41, 25, 538, 44, 200, 34, 16, 210, 210, 227, 210, 1 
2017-09-07 13:17:42, 25, 538, 55, 100, 63, 28, 376, 374, 427, 376, 0 
2017-09-07 13:17:43, 25, 538, 55, 200, 62, 27, 376, 375, 428, 376, 4 
2017-09-07 13:17:44, 25, 538, 66, 100, 44, 20, 273, 272, 302, 271, 0 
2017-09-07 13:17:44, 25, 538, 66, 200, 44, 20, 273, 272, 302, 271, 0 
2017-09-07 13:17:45, 25, 538, 77, 100, 40, 19, 247, 246, 267, 245, 1 
2017-09-07 13:17:46, 25, 538, 77, 200, 40, 19, 247, 246, 267, 245, 0 
2017-09-07 13:17:47, 26, 538, 44, 100, 33, 16, 210, 209, 227, 210, 0 
2017-09-07 13:17:47, 26, 538, 44, 200, 33, 16, 210, 209, 227, 210, 0 
2017-09-07 13:17:48, 26, 538, 55, 100, 62, 27, 377, 374, 428, 376, 0 
2017-09-07 13:17:49, 26, 538, 55, 200, 62, 28, 376, 374, 428, 376, 2 
2017-09-07 13:17:49, 26, 538, 66, 100, 44, 20, 273, 272, 302, 271, 0 
2017-09-07 13:17:50, 26, 538, 66, 200, 44, 20, 273, 272, 302, 271, 0 
2017-09-07 13:17:51, 26, 538, 77, 100, 40, 19, 247, 246, 267, 245, 1 
2017-09-07 13:17:52, 26, 538, 77, 200, 40, 19, 247, 246, 267, 245, 0 
2017-09-07 13:17:53, 27, 538, 44, 100, 33, 16, 210, 209, 227, 210, 0 
2017-09-07 13:17:53, 27, 538, 44, 200, 34, 16, 210, 209, 227, 210, 1 
2017-09-07 13:17:54, 27, 538, 55, 100, 62, 28, 376, 374, 427, 376, 0 
2017-09-07 13:17:55, 27, 538, 55, 200, 62, 28, 376, 374, 427, 376, 0 
2017-09-07 13:17:55, 27, 538, 66, 100, 44, 20, 273, 272, 302, 271, 0 
2017-09-07 13:17:56, 27, 538, 66, 200, 44, 20, 273, 272, 302, 271, 0 
2017-09-07 13:17:57, 27, 538, 77, 100, 40, 19, 247, 246, 267, 245, 1 
2017-09-07 13:17:57, 27, 538, 77, 200, 40, 19, 247, 246, 267, 245, 0 
2017-09-07 13:17:59, 28, 538, 44, 100, 33, 16, 210, 209, 227, 210, 0 
2017-09-07 13:17:59, 28, 538, 44, 200, 33, 16, 210, 209, 226, 210, 1 
2017-09-07 13:18:00, 28, 538, 55, 100, 63, 28, 376, 374, 428, 376, 0 
2017-09-07 13:18:01, 28, 538, 55, 200, 63, 27, 376, 374, 427, 376, 2 
2017-09-07 13:18:01, 28, 538, 66, 100, 44, 20, 273, 272, 302, 271, 0 
2017-09-07 13:18:02, 28, 538, 66, 200, 44, 20, 273, 272, 302, 271, 0 
2017-09-07 13:18:03, 28, 538, 77, 100, 40, 19, 247, 246, 267, 245, 1 
2017-09-07 13:18:03, 28, 538, 77, 200, 40, 19, 247, 246, 267, 245, 0 
2017-09-07 13:18:05, 29, 538, 44, 100, 33, 16, 210, 209, 227, 210, 0 
2017-09-07 13:18:05, 29, 538, 44, 200, 34, 16, 210, 209, 227, 210, 1 
2017-09-07 13:18:06, 29, 538, 55, 100, 63, 27, 377, 374, 427, 376, 0 
2017-09-07 13:18:07, 29, 538, 55, 200, 63, 28, 377, 374, 426, 376, 2 
2017-09-07 13:18:07, 29, 538, 66, 100, 44, 20, 273, 272, 302, 271, 0 
2017-09-07 13:18:08, 29, 538, 66, 200, 44, 20, 273, 272, 302, 271, 0 
2017-09-07 13:18:09, 29, 538, 77, 100, 40, 19, 247, 246, 267, 245, 1 
2017-09-07 13:18:09, 29, 538, 77, 200, 40, 19, 247, 246, 267, 245, 0 
2017-09-07 13:18:10, 30, 538, 44, 100, 33, 16, 210, 209, 227, 210, 0 
2017-09-07 13:18:11, 30, 538, 44, 200, 34, 16, 210, 209, 227, 210, 1 
2017-09-07 13:18:12, 30, 538, 55, 100, 62, 28, 376, 374, 427, 376, 0 
2017-09-07 13:18:12, 30, 538, 55, 200, 63, 28, 376, 374, 427, 376, 1 
2017-09-07 13:18:13, 30, 538, 66, 100, 44, 20, 273, 272, 302, 271, 0 
2017-09-07 13:18:14, 30, 538, 66, 200, 44, 20, 273, 272, 302, 271, 0 
2017-09-07 13:18:15, 30, 538, 77, 100, 40, 19, 247, 246, 267, 245, 1 
2017-09-07 13:18:15, 30, 538, 77, 200, 40, 19, 247, 246, 267, 245, 0 
2017-09-07 13:18:16, 31, 538, 44, 100, 34, 16, 210, 209, 227, 210, 0 
2017-09-07 13:18:17, 31, 538, 44, 200, 33, 16, 210, 209, 227, 210, 1 
2017-09-07 13:18:18, 31, 538, 55, 100, 63, 28, 377, 374, 428, 376, 0 
2017-09-07 13:18:18, 31, 538, 55, 200, 62, 27, 376, 374, 427, 376, 4 
2017-09-07 13:18:19, 31, 538, 66, 100, 44, 20, 273, 272, 302, 271, 0 
2017-09-07 13:18:20, 31, 538, 66, 200, 44, 20, 273, 272, 302, 271, 0 
2017-09-07 13:18:21, 31, 538, 77, 100, 40, 19, 247, 246, 267, 245, 1 
2017-09-07 13:18:21, 31, 538, 77, 200, 40, 19, 247, 246, 267, 245, 0 
2017-09-07 13:18:22, 32, 538, 44, 100, 31, 18, 172, 171, 183, 168, 1 
2017-09-07 13:18:23, 32, 538, 44, 200, 31, 18, 172, 171, 183, 168, 0 
2017-09-07 13:18:24, 32, 538, 55, 100, 59, 33, 305, 304, 335, 301, 0 
2017-09-07 13:18:24, 32, 538, 55, 200, 60, 33, 305, 303, 336, 301, 3 
2017-09-07 13:18:25, 32, 538, 66, 100, 41, 23, 216, 215, 229, 216, 0 
2017-09-07 13:18:26, 32, 538, 66, 200, 42, 23, 215, 214, 230, 216, 4 
2017-09-07 13:18:26, 32, 538, 77, 100, 37, 21, 194, 192, 203, 193, 0 
2017-09-07 13:18:27, 32, 538, 77, 200, 38, 21, 193, 192, 203, 193, 2 
2017-09-07 13:18:28, 33, 725, 44, 100, 32, 18, 164, 163, 172, 163, 0 
2017-09-07 13:18:29, 33, 725, 44, 200, 32, 18, 164, 164, 172, 164, 2 
2017-09-07 13:18:30, 33, 725, 55, 100, 60, 33, 306, 304, 335, 304, 0 
2017-09-07 13:18:30, 33, 725, 55, 200, 60, 33, 306, 305, 335, 304, 1 
2017-09-07 13:18:31, 33, 725, 66, 100, 42, 24, 218, 216, 233, 216, 0 
2017-09-07 13:18:32, 33, 725, 66, 200, 42, 24, 218, 217, 233, 216, 1 
2017-09-07 13:18:32, 33, 725, 77, 100, 38, 22, 196, 195, 207, 193, 0 
2017-09-07 13:18:33, 33, 725, 77, 200, 38, 22, 196, 195, 207, 193, 0 
2017-09-07 13:18:34, 34, 717, 44, 100, 32, 18, 166, 166, 177, 164, 0 
2017-09-07 13:18:35, 34, 717, 44, 200, 32, 18, 166, 165, 177, 164, 1 
2017-09-07 13:18:36, 34, 717, 55, 100, 61, 33, 309, 307, 340, 308, 0 
2017-09-07 13:18:36, 34, 717, 55, 200, 61, 33, 309, 307, 340, 308, 0 
2017-09-07 13:18:37, 34, 717, 66, 100, 43, 24, 220, 220, 234, 221, 0 
2017-09-07 13:18:38, 34, 717, 66, 200, 43, 24, 220, 219, 234, 221, 1 
2017-09-07 13:18:38, 34, 717, 77, 100, 38, 22, 198, 197, 208, 198, 0 
2017-09-07 13:18:39, 34, 717, 77, 200, 38, 22, 198, 197, 208, 198, 0 
2017-09-07 13:18:40, 35, 708, 44, 100, 32, 18, 169, 167, 177, 165, 0 
2017-09-07 13:18:41, 35, 708, 44, 200, 32, 18, 169, 167, 177, 165, 0 
2017-09-07 13:18:42, 35, 708, 55, 100, 61, 33, 312, 310, 344, 308, 0 
2017-09-07 13:18:42, 35, 708, 55, 200, 61, 33, 312, 310, 344, 308, 0 
2017-09-07 13:18:43, 35, 708, 66, 100, 43, 24, 223, 222, 239, 221, 0 
2017-09-07 13:18:44, 35, 708, 66, 200, 43, 24, 223, 222, 239, 221, 0 
2017-09-07 13:18:44, 35, 708, 77, 100, 39, 22, 201, 200, 212, 198, 0 
2017-09-07 13:18:45, 35, 708, 77, 200, 39, 22, 201, 200, 212, 198, 0 
2017-09-07 13:18:46, 36, 699, 44, 100, 33, 19, 171, 170, 182, 169, 0 
2017-09-07 13:18:47, 36, 699, 44, 200, 33, 19, 171, 170, 182, 169, 0 
2017-09-07 13:18:47, 36, 699, 55, 100, 61, 33, 315, 313, 349, 313, 0 
2017-09-07 13:18:48, 36, 699, 55, 200, 61, 33, 315, 313, 349, 313, 0 
2017-09-07 13:18:49, 36, 699, 66, 100, 43, 24, 226, 224, 244, 226, 0 
2017-09-07 13:18:49, 36, 699, 66, 200, 43, 24, 226, 224, 244, 226, 0 
2017-09-07 13:18:50, 36, 699, 77, 100, 39, 22, 203, 202, 213, 203, 0 
2017-09-07 13:18:51, 36, 699, 77, 200, 39, 22, 203, 202, 213, 203, 0 
2017-09-07 13:18:52, 37, 690, 44, 100, 33, 19, 173, 172, 182, 169, 0 
2017-09-07 13:18:53, 37, 690, 44, 200, 33, 19, 173, 172, 182, 169, 0 
2017-09-07 13:18:53, 37, 690, 55, 100, 61, 33, 318, 316, 350, 318, 0 
2017-09-07 13:18:54, 37, 690, 55, 200, 61, 33, 318, 316, 350, 318, 0 
2017-09-07 13:18:55, 37, 690, 66, 100, 44, 24, 228, 227, 244, 227, 0 
2017-09-07 13:18:55, 37, 690, 66, 200, 44, 24, 228, 227, 244, 227, 0 
2017-09-07 13:18:56, 37, 690, 77, 100, 39, 22, 206, 204, 217, 203, 0 
2017-09-07 13:18:57, 37, 690, 77, 200, 39, 22, 206, 204, 217, 203, 0 
2017-09-07 13:18:58, 38, 681, 44, 100, 33, 18, 175, 174, 186, 173, 0 
2017-09-07 13:18:59, 38, 681, 44, 200, 33, 18, 175, 174, 186, 173, 0 
2017-09-07 13:18:59, 38, 681, 55, 100, 61, 33, 321, 320, 354, 318, 0 
2017-09-07 13:19:00, 38, 681, 55, 200, 61, 32, 321, 320, 354, 318, 1 
2017-09-07 13:19:01, 38, 681, 66, 100, 44, 24, 230, 229, 249, 232, 0 
2017-09-07 13:19:01, 38, 681, 66, 200, 44, 24, 231, 229, 249, 232, 1 
2017-09-07 13:19:02, 38, 681, 77, 100, 39, 22, 208, 207, 221, 208, 0 
2017-09-07 13:19:03, 38, 681, 77, 200, 39, 22, 208, 207, 219, 208, 0 
2017-09-07 13:19:04, 39, 671, 44, 100, 33, 18, 177, 177, 187, 174, 0 
2017-09-07 13:19:05, 39, 671, 44, 200, 33, 18, 177, 176, 187, 174, 1 
2017-09-07 13:19:05, 39, 671, 55, 100, 61, 32, 324, 323, 358, 323, 0 
2017-09-07 13:19:06, 39, 671, 55, 200, 61, 32, 324, 323, 358, 323, 0 
2017-09-07 13:19:07, 39, 671, 66, 100, 44, 24, 233, 232, 249, 232, 0 
2017-09-07 13:19:07, 39, 671, 66, 200, 44, 24, 233, 232, 249, 232, 0 
2017-09-07 13:19:08, 39, 671, 77, 100, 39, 22, 210, 209, 222, 208, 0 
2017-09-07 13:19:09, 39, 671, 77, 200, 39, 21, 210, 209, 222, 208, 1 
2017-09-07 13:19:10, 40, 659, 44, 100, 33, 18, 180, 179, 192, 179, 0 
2017-09-07 13:19:10, 40, 659, 44, 200, 33, 18, 180, 179, 192, 179, 0 
2017-09-07 13:19:11, 40, 659, 55, 100, 61, 32, 328, 326, 363, 327, 0 
2017-09-07 13:19:12, 40, 659, 55, 200, 61, 32, 328, 326, 363, 327, 0 
2017-09-07 13:19:13, 40, 659, 66, 100, 44, 23, 236, 235, 254, 237, 0 
2017-09-07 13:19:13, 40, 659, 66, 200, 44, 23, 236, 235, 254, 237, 0 
2017-09-07 13:19:14, 40, 659, 77, 100, 39, 21, 213, 212, 227, 213, 0 
2017-09-07 13:19:15, 40, 659, 77, 200, 39, 21, 213, 212, 227, 213, 0 
2017-09-07 13:19:16, 41, 646, 44, 100, 33, 18, 183, 182, 192, 180, 0 
2017-09-07 13:19:16, 41, 646, 44, 200, 33, 18, 183, 182, 192, 180, 0 
2017-09-07 13:19:17, 41, 646, 55, 100, 62, 32, 332, 330, 370, 332, 0 
2017-09-07 13:19:18, 41, 646, 55, 200, 62, 32, 332, 331, 369, 332, 2 
2017-09-07 13:19:19, 41, 646, 66, 100, 44, 23, 240, 238, 259, 241, 0 
2017-09-07 13:19:19, 41, 646, 66, 200, 44, 23, 239, 238, 259, 241, 1 
2017-09-07 13:19:20, 41, 646, 77, 100, 39, 21, 217, 215, 232, 219, 0 
2017-09-07 13:19:21, 41, 646, 77, 200, 40, 21, 216, 215, 232, 219, 2 
2017-09-07 13:19:22, 42, 633, 44, 100, 33, 18, 186, 185, 197, 185, 0 
2017-09-07 13:19:22, 42, 633, 44, 200, 33, 18, 186, 185, 197, 185, 0 
2017-09-07 13:19:23, 42, 633, 55, 100, 62, 31, 337, 335, 375, 337, 0 
2017-09-07 13:19:24, 42, 633, 55, 200, 62, 31, 338, 335, 375, 337, 1 
2017-09-07 13:19:24, 42, 633, 66, 100, 44, 23, 244, 242, 264, 243, 0 
2017-09-07 13:19:25, 42, 633, 66, 200, 44, 23, 244, 242, 264, 243, 0 
2017-09-07 13:19:26, 42, 633, 77, 100, 40, 20, 220, 219, 234, 219, 0 
2017-09-07 13:19:26, 42, 633, 77, 200, 40, 20, 220, 219, 233, 219, 1 
2017-09-07 13:19:28, 43, 620, 44, 100, 33, 18, 189, 188, 202, 189, 0 
2017-09-07 13:19:28, 43, 620, 44, 200, 33, 18, 189, 188, 201, 189, 1 
2017-09-07 13:19:29, 43, 620, 55, 100, 62, 31, 342, 341, 382, 342, 0 
2017-09-07 13:19:30, 43, 620, 55, 200, 62, 31, 342, 341, 381, 342, 1 
2017-09-07 13:19:30, 43, 620, 66, 100, 44, 23, 248, 246, 269, 248, 0 
2017-09-07 13:19:31, 43, 620, 66, 200, 44, 23, 248, 246, 269, 248, 0 
2017-09-07 13:19:32, 43, 620, 77, 100, 40, 20, 224, 223, 237, 224, 0 
2017-09-07 13:19:32, 43, 620, 77, 200, 40, 20, 224, 223, 237, 224, 0 
2017-09-07 13:19:34, 44, 606, 44, 100, 33, 17, 193, 192, 206, 191, 0 
2017-09-07 13:19:34, 44, 606, 44, 200, 33, 17, 193, 192, 206, 191, 0 
2017-09-07 13:19:35, 44, 606, 55, 100, 62, 30, 349, 347, 389, 347, 0 
2017-09-07 13:19:36, 44, 606, 55, 200, 62, 30, 348, 347, 389, 347, 1 
2017-09-07 13:19:36, 44, 606, 66, 100, 44, 22, 252, 251, 275, 249, 0 
2017-09-07 13:19:37, 44, 606, 66, 200, 44, 22, 252, 251, 274, 249, 1 
2017-09-07 13:19:38, 44, 606, 77, 100, 40, 20, 228, 227, 242, 228, 0 
2017-09-07 13:19:38, 44, 606, 77, 200, 40, 20, 229, 227, 242, 228, 1 
2017-09-07 13:19:39, 45, 593, 44, 100, 33, 17, 197, 195, 211, 195, 0 
2017-09-07 13:19:40, 45, 593, 44, 200, 33, 17, 197, 195, 211, 195, 0 
2017-09-07 13:19:41, 45, 593, 55, 100, 62, 29, 355, 353, 398, 352, 0 
2017-09-07 13:19:42, 45, 593, 55, 200, 62, 29, 355, 353, 398, 352, 0 
2017-09-07 13:19:42, 45, 593, 66, 100, 44, 21, 257, 255, 281, 254, 0 
2017-09-07 13:19:43, 45, 593, 66, 200, 44, 21, 257, 255, 281, 254, 0 
2017-09-07 13:19:44, 45, 593, 77, 100, 40, 20, 232, 231, 247, 233, 1 
2017-09-07 13:19:44, 45, 593, 77, 200, 40, 20, 232, 231, 247, 233, 0 
2017-09-07 13:19:45, 46, 580, 44, 100, 33, 17, 200, 199, 215, 200, 0 
2017-09-07 13:19:46, 46, 580, 44, 200, 33, 17, 200, 199, 214, 200, 1 
2017-09-07 13:19:47, 46, 580, 55, 100, 62, 29, 361, 360, 406, 357, 0 
2017-09-07 13:19:47, 46, 580, 55, 200, 62, 29, 361, 360, 406, 357, 0 
2017-09-07 13:19:48, 46, 580, 66, 100, 44, 21, 262, 261, 286, 259, 0 
2017-09-07 13:19:49, 46, 580, 66, 200, 44, 21, 262, 261, 286, 259, 0 
2017-09-07 13:19:50, 46, 580, 77, 100, 40, 19, 237, 236, 256, 235, 0 
2017-09-07 13:19:50, 46, 580, 77, 200, 40, 19, 237, 236, 256, 235, 0 
2017-09-07 13:19:51, 47, 566, 44, 100, 33, 17, 205, 204, 221, 205, 0 
2017-09-07 13:19:52, 47, 566, 44, 200, 33, 17, 205, 204, 221, 205, 0 
2017-09-07 13:19:53, 47, 566, 55, 100, 62, 28, 369, 367, 419, 366, 0 
2017-09-07 13:19:53, 47, 566, 55, 200, 62, 28, 369, 367, 418, 366, 1 
2017-09-07 13:19:54, 47, 566, 66, 100, 44, 21, 268, 266, 292, 265, 0 
2017-09-07 13:19:55, 47, 566, 66, 200, 44, 21, 268, 266, 292, 265, 0 
2017-09-07 13:19:56, 47, 566, 77, 100, 40, 19, 242, 241, 261, 240, 0 
2017-09-07 13:19:56, 47, 566, 77, 200, 40, 19, 242, 241, 261, 240, 0 
2017-09-07 13:19:57, 48, 552, 44, 100, 34, 16, 209, 209, 226, 210, 0 
2017-09-07 13:19:58, 48, 552, 44, 200, 33, 16, 209, 209, 226, 210, 1 
2017-09-07 13:19:59, 48, 552, 55, 100, 63, 28, 376, 374, 426, 376, 0 
2017-09-07 13:19:59, 48, 552, 55, 200, 62, 27, 376, 374, 427, 376, 3 
2017-09-07 13:20:00, 48, 552, 66, 100, 44, 20, 273, 272, 302, 271, 0 
2017-09-07 13:20:01, 48, 552, 66, 200, 44, 20, 273, 272, 302, 271, 0 
2017-09-07 13:20:01, 48, 552, 77, 100, 40, 19, 247, 246, 267, 245, 1 
2017-09-07 13:20:02, 48, 552, 77, 200, 40, 19, 247, 246, 267, 245, 0 
2017-09-07 13:20:03, 49, 538, 44, 100, 34, 16, 210, 209, 227, 210, 0 
2017-09-07 13:20:04, 49, 538, 44, 200, 34, 16, 210, 209, 227, 210, 0 
2017-09-07 13:20:05, 49, 538, 55, 100, 62, 27, 376, 374, 427, 376, 0 
2017-09-07 13:20:05, 49, 538, 55, 200, 63, 27, 377, 374, 428, 376, 3 
2017-09-07 13:20:06, 49, 538, 66, 100, 44, 20, 273, 272, 302, 271, 0 
2017-09-07 13:20:07, 49, 538, 66, 200, 44, 20, 273, 272, 302, 271, 0 
2017-09-07 13:20:07, 49, 538, 77, 100, 40, 19, 247, 246, 267, 245, 1 
2017-09-07 13:20:08, 49, 538, 77, 200, 40, 19, 247, 246, 267, 245, 0 
2017-09-07 13:20:11,*SeqNo.,Time,DAC_Cnt,BGO,AM_LCh0,AM_RCh0,AM_Rch1,AM_RCh2,AM_LCh3,AM_LCh3
2017-09-07 13:20:11, BGO Set:0, AM_RegBuffer:0
2017-09-07 13:20:14, BGO Set:0,725 
2017-09-07 13:20:14, Gain Set:0, AM_RegBuffer:0 
2017-09-07 13:20:19,*SeqNo.,Time,DAC_Cnt,BGO,AM_LCh0,AM_RCh0,AM_Rch1,AM_RCh2,AM_LCh3,AM_LCh3
2017-09-07 13:20:19, BGO Set:0, AM_RegBuffer:0
2017-09-07 13:20:22, BGO Set:0,733 
2017-09-07 13:20:22, Gain Set:0, AM_RegBuffer:0 
