2017-09-07 06:05:12,*SeqNo.,Time,VChan3,DVDD,BGO,NTCPWR,NC,VDD_HV,HV_Is1,HV_Is0
2017-09-07 06:05:12, BGO Set:10, AM_RegBuffer:10
2017-09-07 06:05:21,0, 283,709,16287,1253,43609,1,21015,21015 
2017-09-07 06:05:21,0, 10,27,621,47,1663,0,801,801 
2017-09-07 06:05:21, BGO Set:10, AM_RegBuffer:621
2017-09-07 06:05:22, BGO Set:11, AM_RegBuffer:11
2017-09-07 06:05:31,1, 283,683,15935,1227,43685,1,21017,21017 
2017-09-07 06:05:31,1, 10,26,607,46,1666,0,801,801 
2017-09-07 06:05:31, BGO Set:11, AM_RegBuffer:607
2017-09-07 06:05:31, BGO Set:12, AM_RegBuffer:12
2017-09-07 06:05:41,2, 283,657,15581,1201,43683,65535,21015,21015 
2017-09-07 06:05:41,2, 10,25,594,45,1666,2500,801,801 
2017-09-07 06:05:41, BGO Set:12, AM_RegBuffer:594
2017-09-07 06:05:41, BGO Set:13, AM_RegBuffer:13
2017-09-07 06:05:51,3, 283,633,15229,1173,43661,1,21015,21015 
2017-09-07 06:05:51,3, 10,24,580,44,1665,0,801,801 
2017-09-07 06:05:51, BGO Set:13, AM_RegBuffer:580
2017-09-07 06:05:51, BGO Set:14, AM_RegBuffer:14
2017-09-07 06:06:00,4, 285,607,14877,1147,43661,1,21017,21015 
2017-09-07 06:06:00,4, 10,23,567,43,1665,0,801,801 
2017-09-07 06:06:00, BGO Set:14, AM_RegBuffer:567
2017-09-07 06:06:01, BGO Set:15, AM_RegBuffer:15
2017-09-07 06:06:10,5, 285,581,14501,1119,43649,65535,21017,21015 
2017-09-07 06:06:10,5, 10,22,553,42,1665,2500,801,801 
2017-09-07 06:06:10, BGO Set:15, AM_RegBuffer:553
2017-09-07 06:06:10, BGO Set:16, AM_RegBuffer:16
2017-09-07 06:06:20,6, 285,557,14143,1091,43701,1,21015,21015 
2017-09-07 06:06:20,6, 10,21,539,41,1667,0,801,801 
2017-09-07 06:06:20, BGO Set:16, AM_RegBuffer:539
2017-09-07 06:06:20, BGO Set:17, AM_RegBuffer:17
2017-09-07 06:06:30,7, 285,557,14143,1091,43683,1,21015,21015 
2017-09-07 06:06:30,7, 10,21,539,41,1666,0,801,801 
2017-09-07 06:06:30, BGO Set:17, AM_RegBuffer:539
2017-09-07 06:06:30, BGO Set:18, AM_RegBuffer:18
2017-09-07 06:06:39,8, 285,557,14143,1091,43653,65535,21015,21015 
2017-09-07 06:06:39,8, 10,21,539,41,1665,2500,801,801 
2017-09-07 06:06:39, BGO Set:18, AM_RegBuffer:539
2017-09-07 06:06:39, BGO Set:19, AM_RegBuffer:19
2017-09-07 06:06:49,9, 285,557,14143,1091,43627,65535,21015,21013 
2017-09-07 06:06:49,9, 10,21,539,41,1664,2500,801,801 
2017-09-07 06:06:49, BGO Set:19, AM_RegBuffer:539
2017-09-07 06:06:49, BGO Set:20, AM_RegBuffer:20
2017-09-07 06:06:52,
2017-09-07 06:06:52,*******Meaure Clk Period:Time, Freq in MHz*******
2017-09-07 06:06:52,****SeqNo.,Time,DAC_Cnt.......... 38, 30400000, 0, 0 
2017-09-07 06:06:52, 38, 30400000, 1, 0 
2017-09-07 06:06:52, 38, 30400000, 2, 0 
2017-09-07 06:06:52, 37, 29600000, 3, 0 
2017-09-07 06:06:52, 38, 30400000, 4, 0 
2017-09-07 06:06:52, 38, 30400000, 5, 0 
2017-09-07 06:06:52, 38, 30400000, 6, 0 
2017-09-07 06:06:52, 38, 30400000, 7, 0 
2017-09-07 06:06:52, 38, 30400000, 8, 0 
2017-09-07 06:06:52, 38, 30400000, 9, 0 
2017-09-07 06:06:52, 38, 30400000, 10, 0 
2017-09-07 06:06:52, 38, 30400000, 11, 0 
2017-09-07 06:06:52, 37, 29600000, 12, 0 
2017-09-07 06:06:52, 38, 30400000, 13, 0 
2017-09-07 06:06:52, 38, 30400000, 14, 0 
2017-09-07 06:06:52, 38, 30400000, 15, 0 
2017-09-07 06:06:52, 38, 30400000, 16, 0 
2017-09-07 06:06:52, 38, 30400000, 17, 0 
2017-09-07 06:06:52, 37, 29600000, 18, 0 
2017-09-07 06:06:52, 38, 30400000, 19, 0 
2017-09-07 06:06:52, 38, 30400000, 20, 0 
2017-09-07 06:06:52, 38, 30400000, 21, 0 
2017-09-07 06:06:52, 38, 30400000, 22, 0 
2017-09-07 06:06:52, 38, 30400000, 23, 0 
2017-09-07 06:06:52, 38, 30400000, 24, 0 
2017-09-07 06:06:53, 38, 30400000, 25, 0 
2017-09-07 06:06:53, 38, 30400000, 26, 0 
2017-09-07 06:06:53, 38, 30400000, 27, 0 
2017-09-07 06:06:53, 38, 30400000, 28, 0 
2017-09-07 06:06:53, 38, 30400000, 29, 0 
2017-09-07 06:06:53, 37, 29600000, 30, 0 
2017-09-07 06:06:53, 37, 29600000, 31, 0 
2017-09-07 06:06:53, 38, 30400000, 32, 0 
2017-09-07 06:06:53, 37, 29600000, 33, 0 
2017-09-07 06:06:53, 38, 30400000, 34, 0 
2017-09-07 06:06:53, 38, 30400000, 35, 0 
2017-09-07 06:06:53, 38, 30400000, 36, 0 
2017-09-07 06:06:53, 38, 30400000, 37, 0 
2017-09-07 06:06:53, 37, 29600000, 38, 0 
2017-09-07 06:06:53, 38, 30400000, 39, 0 
2017-09-07 06:06:53, 38, 30400000, 40, 0 
2017-09-07 06:06:53, 38, 30400000, 41, 0 
2017-09-07 06:06:53, 38, 30400000, 42, 0 
2017-09-07 06:06:53, 38, 30400000, 43, 0 
2017-09-07 06:06:53, 38, 30400000, 44, 0 
2017-09-07 06:06:53, 37, 29600000, 45, 0 
2017-09-07 06:06:53, 38, 30400000, 46, 0 
2017-09-07 06:06:53, 37, 29600000, 47, 0 
2017-09-07 06:06:53, 38, 30400000, 48, 0 
2017-09-07 06:06:53, 38, 30400000, 49, 0 
2017-09-07 06:06:53, 38, 30400000, 50, 0 
2017-09-07 06:06:53, 37, 29600000, 51, 0 
2017-09-07 06:06:53, 38, 30400000, 52, 0 
2017-09-07 06:06:53, 38, 30400000, 53, 0 
2017-09-07 06:06:53, 37, 29600000, 54, 0 
2017-09-07 06:06:53, 37, 29600000, 55, 0 
2017-09-07 06:06:53, 38, 30400000, 56, 0 
2017-09-07 06:06:53, 38, 30400000, 57, 0 
2017-09-07 06:06:53, 38, 30400000, 58, 0 
2017-09-07 06:06:53, 39, 31200000, 59, 0 
2017-09-07 06:06:53, 38, 30400000, 60, 0 
2017-09-07 06:06:53, 39, 31200000, 61, 0 
2017-09-07 06:06:53, 38, 30400000, 62, 0 
2017-09-07 06:06:53, 38, 30400000, 63, 0 
2017-09-07 06:06:53, 37, 29600000, 64, 0 
2017-09-07 06:06:53, 37, 29600000, 65, 0 
2017-09-07 06:06:53, 38, 30400000, 66, 0 
2017-09-07 06:06:53, 38, 30400000, 67, 0 
2017-09-07 06:06:53, 38, 30400000, 68, 0 
2017-09-07 06:06:53, 38, 30400000, 69, 0 
2017-09-07 06:06:53, 38, 30400000, 70, 0 
2017-09-07 06:06:53, 37, 29600000, 71, 0 
2017-09-07 06:06:53, 38, 30400000, 72, 0 
2017-09-07 06:06:53, 37, 29600000, 73, 0 
2017-09-07 06:06:53, 38, 30400000, 74, 0 
2017-09-07 06:06:53, 38, 30400000, 75, 0 
2017-09-07 06:06:53, 38, 30400000, 76, 0 
2017-09-07 06:06:53, 38, 30400000, 77, 0 
2017-09-07 06:06:53, 38, 30400000, 78, 0 
2017-09-07 06:06:53, 37, 29600000, 79, 0 
2017-09-07 06:06:53, 37, 29600000, 80, 0 
2017-09-07 06:06:53, 39, 31200000, 81, 0 
2017-09-07 06:06:53, 38, 30400000, 82, 0 
2017-09-07 06:06:53, 38, 30400000, 83, 0 
2017-09-07 06:06:53, 38, 30400000, 84, 0 
2017-09-07 06:06:53, 39, 31200000, 85, 0 
2017-09-07 06:06:53, 38, 30400000, 86, 0 
2017-09-07 06:06:53, 37, 29600000, 87, 0 
2017-09-07 06:06:53, 38, 30400000, 88, 0 
2017-09-07 06:06:53, 38, 30400000, 89, 0 
2017-09-07 06:06:53, 38, 30400000, 90, 0 
2017-09-07 06:06:53, 38, 30400000, 91, 0 
2017-09-07 06:06:53, 38, 30400000, 92, 0 
2017-09-07 06:06:53, 38, 30400000, 93, 0 
2017-09-07 06:06:53, 38, 30400000, 94, 0 
2017-09-07 06:06:53, 38, 30400000, 95, 0 
2017-09-07 06:06:53, 37, 29600000, 96, 0 
2017-09-07 06:06:53, 38, 30400000, 97, 0 
2017-09-07 06:06:53, 38, 30400000, 98, 0 
2017-09-07 06:06:53, 38, 30400000, 99, 0 
2017-09-07 06:06:53, 38, 30400000, 100, 0 
2017-09-07 06:06:53, 38, 30400000, 101, 0 
2017-09-07 06:06:53, 38, 30400000, 102, 0 
2017-09-07 06:06:53, 38, 30400000, 103, 0 
2017-09-07 06:06:53, 38, 30400000, 104, 0 
2017-09-07 06:06:53, 38, 30400000, 105, 0 
2017-09-07 06:06:53, 38, 30400000, 106, 0 
2017-09-07 06:06:53, 38, 30400000, 107, 0 
2017-09-07 06:06:53, 38, 30400000, 108, 0 
2017-09-07 06:06:53, 38, 30400000, 109, 0 
2017-09-07 06:06:53, 38, 30400000, 110, 0 
2017-09-07 06:06:53, 37, 29600000, 111, 0 
2017-09-07 06:06:53, 37, 29600000, 112, 0 
2017-09-07 06:06:53, 38, 30400000, 113, 0 
2017-09-07 06:06:53, 38, 30400000, 114, 0 
2017-09-07 06:06:53, 38, 30400000, 115, 0 
2017-09-07 06:06:53, 38, 30400000, 116, 0 
2017-09-07 06:06:53, 37, 29600000, 117, 0 
2017-09-07 06:06:53, 37, 29600000, 118, 0 
2017-09-07 06:06:53, 38, 30400000, 119, 0 
2017-09-07 06:06:53, 38, 30400000, 120, 0 
2017-09-07 06:06:53, 37, 29600000, 121, 0 
2017-09-07 06:06:53, 38, 30400000, 122, 0 
2017-09-07 06:06:53, 37, 29600000, 123, 0 
2017-09-07 06:06:53, 37, 29600000, 124, 0 
2017-09-07 06:06:53, 38, 30400000, 125, 0 
2017-09-07 06:06:53, 38, 30400000, 126, 0 
2017-09-07 06:06:53, 37, 29600000, 127, 0 
2017-09-07 06:06:53, 38, 30400000, 128, 0 
2017-09-07 06:06:53, 39, 31200000, 129, 0 
2017-09-07 06:06:53, 38, 30400000, 130, 0 
2017-09-07 06:06:53, 39, 31200000, 131, 0 
2017-09-07 06:06:53, 37, 29600000, 132, 0 
2017-09-07 06:06:53, 38, 30400000, 133, 0 
2017-09-07 06:06:53, 38, 30400000, 134, 0 
2017-09-07 06:06:53, 38, 30400000, 135, 0 
2017-09-07 06:06:53, 38, 30400000, 136, 0 
2017-09-07 06:06:53, 38, 30400000, 137, 0 
2017-09-07 06:06:53, 38, 30400000, 138, 0 
2017-09-07 06:06:53, 37, 29600000, 139, 0 
2017-09-07 06:06:53, 38, 30400000, 140, 0 
2017-09-07 06:06:53, 38, 30400000, 141, 0 
2017-09-07 06:06:53, 37, 29600000, 142, 0 
2017-09-07 06:06:53, 38, 30400000, 143, 0 
2017-09-07 06:06:53, 37, 29600000, 144, 0 
2017-09-07 06:06:53, 37, 29600000, 145, 0 
2017-09-07 06:06:53, 38, 30400000, 146, 0 
2017-09-07 06:06:53, 37, 29600000, 147, 0 
2017-09-07 06:06:53, 38, 30400000, 148, 0 
2017-09-07 06:06:53, 38, 30400000, 149, 0 
2017-09-07 06:06:53, 38, 30400000, 150, 0 
2017-09-07 06:06:53, 38, 30400000, 151, 0 
2017-09-07 06:06:53, 38, 30400000, 152, 0 
2017-09-07 06:06:53, 38, 30400000, 153, 0 
2017-09-07 06:06:53, 38, 30400000, 154, 0 
2017-09-07 06:06:53, 38, 30400000, 155, 0 
2017-09-07 06:06:53, 38, 30400000, 156, 0 
2017-09-07 06:06:53, 39, 31200000, 157, 0 
2017-09-07 06:06:53, 38, 30400000, 158, 0 
2017-09-07 06:06:53, 38, 30400000, 159, 0 
2017-09-07 06:06:53, 38, 30400000, 160, 0 
2017-09-07 06:06:53, 38, 30400000, 161, 0 
2017-09-07 06:06:53, 38, 30400000, 162, 0 
2017-09-07 06:06:53, 38, 30400000, 163, 0 
2017-09-07 06:06:53, 37, 29600000, 164, 0 
2017-09-07 06:06:54, 38, 30400000, 165, 0 
2017-09-07 06:06:54, 37, 29600000, 166, 0 
2017-09-07 06:06:54, 37, 29600000, 167, 0 
2017-09-07 06:06:54, 38, 30400000, 168, 0 
2017-09-07 06:06:54, 38, 30400000, 169, 0 
2017-09-07 06:06:54, 38, 30400000, 170, 0 
2017-09-07 06:06:54, 38, 30400000, 171, 0 
2017-09-07 06:06:54, 39, 31200000, 172, 0 
2017-09-07 06:06:54, 38, 30400000, 173, 0 
2017-09-07 06:06:54, 38, 30400000, 174, 0 
2017-09-07 06:06:54, 38, 30400000, 175, 0 
2017-09-07 06:06:54, 37, 29600000, 176, 0 
2017-09-07 06:06:54, 38, 30400000, 177, 0 
2017-09-07 06:06:54, 38, 30400000, 178, 0 
2017-09-07 06:06:54, 38, 30400000, 179, 0 
2017-09-07 06:06:54, 38, 30400000, 180, 0 
2017-09-07 06:06:54, 39, 31200000, 181, 0 
2017-09-07 06:06:54, 38, 30400000, 182, 0 
2017-09-07 06:06:54, 37, 29600000, 183, 0 
2017-09-07 06:06:54, 38, 30400000, 184, 0 
2017-09-07 06:06:54, 38, 30400000, 185, 0 
2017-09-07 06:06:54, 37, 29600000, 186, 0 
2017-09-07 06:06:54, 38, 30400000, 187, 0 
2017-09-07 06:06:54, 37, 29600000, 188, 0 
2017-09-07 06:06:54, 38, 30400000, 189, 0 
2017-09-07 06:06:54, 38, 30400000, 190, 0 
2017-09-07 06:06:54, 38, 30400000, 191, 0 
2017-09-07 06:06:54, 38, 30400000, 192, 0 
2017-09-07 06:06:54, 39, 31200000, 193, 0 
2017-09-07 06:06:54, 37, 29600000, 194, 0 
2017-09-07 06:06:54, 38, 30400000, 195, 0 
2017-09-07 06:06:54, 37, 29600000, 196, 0 
2017-09-07 06:06:54, 38, 30400000, 197, 0 
2017-09-07 06:06:54, 38, 30400000, 198, 0 
2017-09-07 06:06:54, 38, 30400000, 199, 0 
2017-09-07 06:06:57,0, 801, 44, 100, 25, 15, 131, 130, 139, 128, 0 
2017-09-07 06:06:58, 0, 801, 44, 200, 25, 15, 131, 130, 139, 128, 0 
2017-09-07 06:06:59, 0, 801, 55, 100, 59, 32, 298, 296, 330, 295, 0 
2017-09-07 06:06:59, 0, 801, 55, 200, 58, 32, 298, 297, 329, 295, 3 
2017-09-07 06:07:00, 0, 801, 66, 100, 41, 23, 214, 213, 229, 215, 0 
2017-09-07 06:07:01, 0, 801, 66, 200, 41, 23, 214, 213, 228, 215, 1 
2017-09-07 06:07:02, 0, 801, 77, 100, 37, 21, 193, 192, 203, 192, 0 
2017-09-07 06:07:02, 0, 801, 77, 200, 37, 21, 193, 192, 203, 192, 0 
2017-09-07 06:07:03, 1, 733, 44, 100, 32, 18, 164, 163, 172, 164, 0 
2017-09-07 06:07:04, 1, 733, 44, 200, 32, 18, 164, 164, 172, 164, 1 
2017-09-07 06:07:05, 1, 733, 55, 100, 60, 33, 306, 305, 336, 304, 0 
2017-09-07 06:07:05, 1, 733, 55, 200, 60, 33, 306, 305, 335, 304, 1 
2017-09-07 06:07:06, 1, 733, 66, 100, 42, 24, 218, 217, 234, 216, 0 
2017-09-07 06:07:07, 1, 733, 66, 200, 42, 24, 218, 217, 233, 216, 1 
2017-09-07 06:07:07, 1, 733, 77, 100, 38, 22, 196, 195, 208, 193, 0 
2017-09-07 06:07:08, 1, 733, 77, 200, 38, 22, 196, 195, 207, 193, 1 
2017-09-07 06:07:09, 2, 717, 44, 100, 32, 18, 166, 166, 177, 164, 0 
2017-09-07 06:07:10, 2, 717, 44, 200, 32, 18, 166, 166, 177, 164, 0 
2017-09-07 06:07:11, 2, 717, 55, 100, 61, 33, 309, 308, 340, 308, 0 
2017-09-07 06:07:11, 2, 717, 55, 200, 61, 33, 309, 308, 340, 308, 0 
2017-09-07 06:07:12, 2, 717, 66, 100, 43, 24, 220, 220, 234, 221, 0 
2017-09-07 06:07:13, 2, 717, 66, 200, 43, 24, 220, 220, 234, 221, 0 
2017-09-07 06:07:13, 2, 717, 77, 100, 38, 22, 198, 197, 208, 198, 0 
2017-09-07 06:07:14, 2, 717, 77, 200, 38, 22, 198, 197, 208, 198, 0 
2017-09-07 06:07:15, 3, 708, 44, 100, 32, 18, 169, 167, 177, 165, 0 
2017-09-07 06:07:16, 3, 708, 44, 200, 32, 19, 169, 167, 177, 165, 1 
2017-09-07 06:07:17, 3, 708, 55, 100, 61, 33, 313, 310, 344, 308, 0 
2017-09-07 06:07:17, 3, 708, 55, 200, 61, 33, 312, 310, 344, 308, 1 
2017-09-07 06:07:18, 3, 708, 66, 100, 43, 24, 223, 222, 239, 221, 0 
2017-09-07 06:07:19, 3, 708, 66, 200, 43, 24, 223, 222, 239, 221, 0 
2017-09-07 06:07:19, 3, 708, 77, 100, 39, 22, 201, 200, 212, 198, 0 
2017-09-07 06:07:20, 3, 708, 77, 200, 39, 22, 201, 200, 212, 198, 0 
2017-09-07 06:07:21, 4, 699, 44, 100, 33, 19, 171, 170, 182, 169, 0 
2017-09-07 06:07:22, 4, 699, 44, 200, 33, 19, 171, 170, 182, 169, 0 
2017-09-07 06:07:23, 4, 699, 55, 100, 61, 33, 315, 314, 349, 313, 0 
2017-09-07 06:07:23, 4, 699, 55, 200, 61, 33, 315, 313, 349, 313, 1 
2017-09-07 06:07:24, 4, 699, 66, 100, 43, 24, 225, 225, 244, 226, 0 
2017-09-07 06:07:25, 4, 699, 66, 200, 43, 24, 225, 225, 244, 226, 0 
2017-09-07 06:07:25, 4, 699, 77, 100, 39, 22, 203, 202, 214, 203, 0 
2017-09-07 06:07:26, 4, 699, 77, 200, 39, 22, 203, 202, 215, 203, 1 
2017-09-07 06:07:27, 5, 690, 44, 100, 33, 19, 173, 172, 182, 169, 0 
2017-09-07 06:07:28, 5, 690, 44, 200, 33, 19, 173, 172, 182, 169, 0 
2017-09-07 06:07:28, 5, 690, 55, 100, 61, 33, 318, 317, 353, 318, 0 
2017-09-07 06:07:29, 5, 690, 55, 200, 61, 33, 318, 316, 351, 318, 1 
2017-09-07 06:07:30, 5, 690, 66, 100, 44, 24, 228, 227, 244, 227, 0 
2017-09-07 06:07:30, 5, 690, 66, 200, 44, 24, 228, 227, 244, 227, 0 
2017-09-07 06:07:31, 5, 690, 77, 100, 39, 22, 206, 204, 217, 203, 0 
2017-09-07 06:07:32, 5, 690, 77, 200, 39, 22, 206, 204, 217, 203, 0 
2017-09-07 06:07:33, 6, 681, 44, 100, 33, 19, 175, 174, 186, 173, 0 
2017-09-07 06:07:34, 6, 681, 44, 200, 33, 18, 175, 174, 187, 173, 2 
2017-09-07 06:07:34, 6, 681, 55, 100, 62, 33, 321, 320, 354, 318, 0 
2017-09-07 06:07:35, 6, 681, 55, 200, 62, 33, 321, 319, 355, 318, 2 
2017-09-07 06:07:36, 6, 681, 66, 100, 44, 24, 230, 229, 249, 232, 0 
2017-09-07 06:07:36, 6, 681, 66, 200, 44, 24, 230, 229, 249, 232, 0 
2017-09-07 06:07:37, 6, 681, 77, 100, 39, 22, 208, 207, 222, 208, 0 
2017-09-07 06:07:38, 6, 681, 77, 200, 39, 22, 208, 207, 222, 208, 0 
2017-09-07 06:07:39, 7, 671, 44, 100, 33, 18, 177, 177, 188, 174, 0 
2017-09-07 06:07:40, 7, 671, 44, 200, 33, 18, 177, 176, 188, 174, 1 
2017-09-07 06:07:40, 7, 671, 55, 100, 62, 32, 324, 323, 358, 323, 0 
2017-09-07 06:07:41, 7, 671, 55, 200, 62, 32, 325, 323, 358, 323, 1 
2017-09-07 06:07:42, 7, 671, 66, 100, 44, 24, 233, 232, 249, 232, 0 
2017-09-07 06:07:42, 7, 671, 66, 200, 44, 24, 233, 232, 249, 232, 0 
2017-09-07 06:07:43, 7, 671, 77, 100, 39, 22, 210, 209, 222, 208, 0 
2017-09-07 06:07:44, 7, 671, 77, 200, 39, 22, 210, 209, 222, 208, 0 
2017-09-07 06:07:45, 8, 659, 44, 100, 33, 18, 180, 179, 192, 179, 0 
2017-09-07 06:07:45, 8, 659, 44, 200, 33, 18, 180, 179, 192, 179, 0 
2017-09-07 06:07:46, 8, 659, 55, 100, 62, 32, 328, 327, 363, 327, 0 
2017-09-07 06:07:47, 8, 659, 55, 200, 62, 32, 329, 327, 363, 327, 1 
2017-09-07 06:07:48, 8, 659, 66, 100, 44, 24, 236, 235, 254, 237, 0 
2017-09-07 06:07:48, 8, 659, 66, 200, 44, 24, 236, 235, 254, 237, 0 
2017-09-07 06:07:49, 8, 659, 77, 100, 39, 22, 213, 212, 227, 213, 0 
2017-09-07 06:07:50, 8, 659, 77, 200, 39, 22, 213, 212, 227, 213, 0 
2017-09-07 06:07:51, 9, 646, 44, 100, 33, 18, 183, 182, 192, 180, 0 
2017-09-07 06:07:51, 9, 646, 44, 200, 33, 18, 183, 182, 192, 180, 0 
2017-09-07 06:07:52, 9, 646, 55, 100, 62, 31, 332, 331, 371, 332, 0 
2017-09-07 06:07:53, 9, 646, 55, 200, 62, 32, 333, 331, 371, 332, 2 
2017-09-07 06:07:54, 9, 646, 66, 100, 44, 23, 240, 239, 259, 242, 0 
2017-09-07 06:07:54, 9, 646, 66, 200, 44, 23, 240, 239, 259, 242, 0 
2017-09-07 06:07:55, 9, 646, 77, 100, 40, 21, 217, 215, 232, 219, 0 
2017-09-07 06:07:56, 9, 646, 77, 200, 40, 21, 217, 215, 232, 219, 0 
2017-09-07 06:07:57, 10, 633, 44, 100, 33, 18, 187, 185, 197, 185, 0 
2017-09-07 06:07:57, 10, 633, 44, 200, 33, 18, 186, 185, 197, 185, 1 
2017-09-07 06:07:58, 10, 633, 55, 100, 62, 32, 337, 335, 375, 337, 0 
2017-09-07 06:07:59, 10, 633, 55, 200, 62, 31, 337, 335, 375, 337, 1 
2017-09-07 06:07:59, 10, 633, 66, 100, 44, 23, 244, 242, 264, 243, 0 
2017-09-07 06:08:00, 10, 633, 66, 200, 44, 23, 244, 242, 264, 243, 0 
2017-09-07 06:08:01, 10, 633, 77, 100, 40, 20, 220, 219, 235, 219, 0 
2017-09-07 06:08:02, 10, 633, 77, 200, 40, 20, 220, 219, 237, 219, 0 
2017-09-07 06:08:03, 11, 620, 44, 100, 33, 18, 189, 189, 202, 189, 0 
2017-09-07 06:08:03, 11, 620, 44, 200, 33, 18, 190, 188, 202, 189, 2 
2017-09-07 06:08:04, 11, 620, 55, 100, 62, 31, 343, 341, 384, 342, 0 
2017-09-07 06:08:05, 11, 620, 55, 200, 62, 31, 343, 341, 384, 342, 0 
2017-09-07 06:08:05, 11, 620, 66, 100, 44, 23, 248, 246, 270, 248, 0 
2017-09-07 06:08:06, 11, 620, 66, 200, 44, 23, 248, 246, 270, 248, 0 
2017-09-07 06:08:07, 11, 620, 77, 100, 40, 20, 224, 223, 238, 224, 0 
2017-09-07 06:08:07, 11, 620, 77, 200, 40, 20, 224, 223, 238, 224, 0 
2017-09-07 06:08:09, 12, 606, 44, 100, 33, 17, 193, 192, 206, 192, 0 
2017-09-07 06:08:09, 12, 606, 44, 200, 33, 17, 193, 192, 206, 193, 1 
2017-09-07 06:08:10, 12, 606, 55, 100, 62, 30, 349, 347, 390, 349, 0 
2017-09-07 06:08:11, 12, 606, 55, 200, 62, 30, 349, 347, 390, 349, 0 
2017-09-07 06:08:11, 12, 606, 66, 100, 44, 22, 253, 251, 275, 250, 0 
2017-09-07 06:08:12, 12, 606, 66, 200, 44, 22, 253, 251, 275, 250, 0 
2017-09-07 06:08:13, 12, 606, 77, 100, 40, 20, 229, 227, 243, 228, 0 
2017-09-07 06:08:13, 12, 606, 77, 200, 40, 20, 229, 227, 243, 228, 0 
2017-09-07 06:08:15, 13, 593, 44, 100, 33, 17, 197, 196, 211, 195, 0 
2017-09-07 06:08:15, 13, 593, 44, 200, 33, 17, 197, 196, 211, 195, 0 
2017-09-07 06:08:16, 13, 593, 55, 100, 62, 29, 355, 353, 398, 352, 0 
2017-09-07 06:08:17, 13, 593, 55, 200, 62, 29, 355, 353, 398, 352, 0 
2017-09-07 06:08:17, 13, 593, 66, 100, 44, 21, 257, 256, 281, 254, 0 
2017-09-07 06:08:18, 13, 593, 66, 200, 44, 21, 257, 256, 281, 254, 0 
2017-09-07 06:08:19, 13, 593, 77, 100, 40, 20, 232, 231, 249, 233, 1 
2017-09-07 06:08:19, 13, 593, 77, 200, 40, 20, 233, 231, 251, 233, 1 
2017-09-07 06:08:20, 14, 579, 44, 100, 33, 17, 200, 200, 216, 200, 0 
2017-09-07 06:08:21, 14, 579, 44, 200, 33, 17, 201, 200, 216, 200, 1 
2017-09-07 06:08:22, 14, 579, 55, 100, 62, 29, 361, 360, 407, 357, 0 
2017-09-07 06:08:22, 14, 579, 55, 200, 62, 29, 362, 360, 407, 358, 2 
2017-09-07 06:08:23, 14, 579, 66, 100, 44, 21, 262, 261, 286, 259, 0 
2017-09-07 06:08:24, 14, 579, 66, 200, 44, 21, 262, 261, 286, 259, 0 
2017-09-07 06:08:25, 14, 579, 77, 100, 40, 19, 237, 236, 256, 235, 0 
2017-09-07 06:08:25, 14, 579, 77, 200, 40, 19, 237, 236, 256, 235, 0 
2017-09-07 06:08:26, 15, 566, 44, 100, 33, 17, 205, 204, 221, 205, 0 
2017-09-07 06:08:27, 15, 566, 44, 200, 33, 17, 205, 204, 221, 205, 0 
2017-09-07 06:08:28, 15, 566, 55, 100, 62, 28, 369, 367, 419, 366, 0 
2017-09-07 06:08:28, 15, 566, 55, 200, 62, 28, 369, 367, 419, 366, 0 
2017-09-07 06:08:29, 15, 566, 66, 100, 44, 21, 268, 267, 292, 265, 0 
2017-09-07 06:08:30, 15, 566, 66, 200, 44, 21, 268, 266, 292, 265, 1 
2017-09-07 06:08:31, 15, 566, 77, 100, 40, 19, 242, 241, 261, 240, 0 
2017-09-07 06:08:31, 15, 566, 77, 200, 40, 19, 242, 241, 261, 240, 0 
2017-09-07 06:08:32, 16, 552, 44, 100, 34, 16, 210, 209, 226, 210, 0 
2017-09-07 06:08:33, 16, 552, 44, 200, 34, 16, 210, 209, 226, 210, 0 
2017-09-07 06:08:34, 16, 552, 55, 100, 63, 28, 377, 375, 425, 376, 0 
2017-09-07 06:08:34, 16, 552, 55, 200, 63, 28, 377, 375, 425, 376, 0 
2017-09-07 06:08:35, 16, 552, 66, 100, 44, 20, 273, 272, 301, 271, 0 
2017-09-07 06:08:36, 16, 552, 66, 200, 44, 20, 273, 272, 301, 271, 0 
2017-09-07 06:08:36, 16, 552, 77, 100, 40, 19, 247, 246, 267, 245, 1 
2017-09-07 06:08:37, 16, 552, 77, 200, 40, 19, 247, 246, 267, 245, 0 
2017-09-07 06:08:38, 17, 538, 44, 100, 34, 16, 210, 209, 227, 210, 0 
2017-09-07 06:08:39, 17, 538, 44, 200, 34, 16, 210, 209, 226, 210, 1 
2017-09-07 06:08:40, 17, 538, 55, 100, 63, 28, 377, 374, 425, 376, 0 
2017-09-07 06:08:40, 17, 538, 55, 200, 63, 28, 377, 374, 425, 376, 0 
2017-09-07 06:08:41, 17, 538, 66, 100, 44, 20, 273, 272, 301, 271, 0 
2017-09-07 06:08:42, 17, 538, 66, 200, 44, 20, 273, 272, 301, 271, 0 
2017-09-07 06:08:42, 17, 538, 77, 100, 40, 19, 248, 246, 267, 245, 1 
2017-09-07 06:08:43, 17, 538, 77, 200, 40, 19, 247, 246, 267, 245, 1 
2017-09-07 06:08:44, 18, 538, 44, 100, 34, 16, 210, 210, 227, 210, 0 
2017-09-07 06:08:45, 18, 538, 44, 200, 34, 16, 211, 210, 227, 210, 1 
2017-09-07 06:08:46, 18, 538, 55, 100, 63, 28, 377, 375, 425, 376, 0 
2017-09-07 06:08:46, 18, 538, 55, 200, 63, 28, 377, 375, 426, 376, 1 
2017-09-07 06:08:47, 18, 538, 66, 100, 44, 20, 273, 272, 301, 271, 0 
2017-09-07 06:08:48, 18, 538, 66, 200, 44, 20, 273, 272, 302, 271, 1 
2017-09-07 06:08:48, 18, 538, 77, 100, 40, 19, 247, 246, 267, 245, 1 
2017-09-07 06:08:49, 18, 538, 77, 200, 40, 19, 247, 246, 267, 245, 0 
2017-09-07 06:08:50, 19, 538, 44, 100, 34, 16, 210, 210, 227, 210, 0 
2017-09-07 06:08:51, 19, 538, 44, 200, 34, 16, 210, 210, 227, 210, 0 
2017-09-07 06:08:52, 19, 538, 55, 100, 62, 28, 377, 375, 425, 376, 0 
2017-09-07 06:08:52, 19, 538, 55, 200, 63, 28, 377, 375, 426, 376, 2 
2017-09-07 06:08:53, 19, 538, 66, 100, 44, 20, 273, 272, 301, 271, 0 
2017-09-07 06:08:54, 19, 538, 66, 200, 44, 20, 273, 272, 302, 271, 1 
2017-09-07 06:08:54, 19, 538, 77, 100, 40, 19, 248, 246, 267, 245, 1 
2017-09-07 06:08:55, 19, 538, 77, 200, 40, 19, 247, 246, 267, 245, 1 
2017-09-07 06:08:56, 20, 538, 44, 100, 34, 16, 211, 210, 227, 210, 0 
2017-09-07 06:08:57, 20, 538, 44, 200, 33, 16, 210, 210, 227, 210, 2 
2017-09-07 06:08:57, 20, 538, 55, 100, 63, 28, 377, 375, 426, 376, 0 
2017-09-07 06:08:58, 20, 538, 55, 200, 63, 28, 377, 375, 425, 376, 1 
2017-09-07 06:08:59, 20, 538, 66, 100, 44, 20, 273, 272, 302, 271, 0 
2017-09-07 06:08:59, 20, 538, 66, 200, 45, 20, 273, 272, 301, 271, 2 
2017-09-07 06:09:00, 20, 538, 77, 100, 40, 19, 247, 246, 267, 245, 1 
2017-09-07 06:09:01, 20, 538, 77, 200, 40, 19, 247, 246, 267, 245, 0 
2017-09-07 06:09:02, 21, 538, 44, 100, 34, 16, 210, 210, 227, 210, 0 
2017-09-07 06:09:03, 21, 538, 44, 200, 33, 16, 210, 209, 227, 210, 2 
2017-09-07 06:09:03, 21, 538, 55, 100, 63, 28, 377, 375, 425, 376, 0 
2017-09-07 06:09:04, 21, 538, 55, 200, 63, 28, 377, 375, 425, 376, 0 
2017-09-07 06:09:05, 21, 538, 66, 100, 44, 20, 273, 272, 301, 271, 0 
2017-09-07 06:09:05, 21, 538, 66, 200, 45, 20, 273, 272, 301, 271, 1 
2017-09-07 06:09:06, 21, 538, 77, 100, 40, 19, 247, 246, 267, 245, 1 
2017-09-07 06:09:07, 21, 538, 77, 200, 40, 19, 247, 246, 267, 245, 0 
2017-09-07 06:09:08, 22, 538, 44, 100, 34, 16, 210, 210, 227, 210, 0 
2017-09-07 06:09:09, 22, 538, 44, 200, 34, 16, 211, 210, 227, 210, 1 
2017-09-07 06:09:09, 22, 538, 55, 100, 63, 28, 377, 375, 426, 376, 0 
2017-09-07 06:09:10, 22, 538, 55, 200, 63, 28, 377, 375, 426, 376, 0 
2017-09-07 06:09:11, 22, 538, 66, 100, 44, 20, 273, 272, 302, 271, 0 
2017-09-07 06:09:11, 22, 538, 66, 200, 44, 20, 273, 272, 302, 271, 0 
2017-09-07 06:09:12, 22, 538, 77, 100, 40, 19, 247, 246, 267, 245, 1 
2017-09-07 06:09:13, 22, 538, 77, 200, 40, 19, 247, 246, 267, 245, 0 
2017-09-07 06:09:14, 23, 538, 44, 100, 34, 16, 210, 209, 227, 210, 0 
2017-09-07 06:09:15, 23, 538, 44, 200, 33, 16, 210, 210, 227, 210, 2 
2017-09-07 06:09:15, 23, 538, 55, 100, 63, 28, 377, 375, 425, 376, 0 
2017-09-07 06:09:16, 23, 538, 55, 200, 63, 28, 377, 375, 425, 376, 0 
2017-09-07 06:09:17, 23, 538, 66, 100, 44, 20, 273, 272, 301, 271, 0 
2017-09-07 06:09:17, 23, 538, 66, 200, 44, 20, 273, 272, 301, 271, 0 
2017-09-07 06:09:18, 23, 538, 77, 100, 40, 19, 248, 246, 267, 245, 1 
2017-09-07 06:09:19, 23, 538, 77, 200, 40, 19, 247, 246, 267, 245, 1 
2017-09-07 06:09:20, 24, 538, 44, 100, 34, 16, 210, 210, 227, 210, 0 
2017-09-07 06:09:20, 24, 538, 44, 200, 34, 16, 211, 210, 227, 210, 1 
2017-09-07 06:09:21, 24, 538, 55, 100, 63, 28, 377, 375, 425, 376, 0 
2017-09-07 06:09:22, 24, 538, 55, 200, 63, 28, 377, 375, 425, 376, 0 
2017-09-07 06:09:23, 24, 538, 66, 100, 44, 20, 273, 272, 301, 271, 0 
2017-09-07 06:09:23, 24, 538, 66, 200, 45, 20, 273, 272, 301, 271, 1 
2017-09-07 06:09:24, 24, 538, 77, 100, 40, 19, 247, 246, 267, 245, 1 
2017-09-07 06:09:25, 24, 538, 77, 200, 40, 19, 247, 246, 267, 245, 0 
2017-09-07 06:09:26, 25, 538, 44, 100, 34, 16, 210, 210, 227, 210, 0 
2017-09-07 06:09:26, 25, 538, 44, 200, 34, 16, 210, 210, 227, 210, 0 
2017-09-07 06:09:27, 25, 538, 55, 100, 63, 28, 377, 375, 425, 376, 0 
2017-09-07 06:09:28, 25, 538, 55, 200, 63, 28, 377, 375, 425, 376, 0 
2017-09-07 06:09:29, 25, 538, 66, 100, 44, 20, 273, 272, 301, 271, 0 
2017-09-07 06:09:29, 25, 538, 66, 200, 44, 20, 273, 272, 301, 271, 0 
2017-09-07 06:09:30, 25, 538, 77, 100, 40, 19, 247, 246, 267, 245, 1 
2017-09-07 06:09:31, 25, 538, 77, 200, 40, 19, 247, 246, 267, 245, 0 
2017-09-07 06:09:32, 26, 538, 44, 100, 34, 16, 210, 210, 227, 210, 0 
2017-09-07 06:09:32, 26, 538, 44, 200, 34, 16, 210, 209, 227, 210, 1 
2017-09-07 06:09:33, 26, 538, 55, 100, 63, 28, 377, 375, 425, 376, 0 
2017-09-07 06:09:34, 26, 538, 55, 200, 63, 28, 376, 374, 425, 376, 2 
2017-09-07 06:09:34, 26, 538, 66, 100, 44, 20, 273, 272, 301, 271, 0 
2017-09-07 06:09:35, 26, 538, 66, 200, 45, 20, 273, 272, 301, 271, 1 
2017-09-07 06:09:36, 26, 538, 77, 100, 40, 19, 247, 246, 267, 245, 1 
2017-09-07 06:09:36, 26, 538, 77, 200, 40, 19, 248, 246, 267, 245, 1 
2017-09-07 06:09:38, 27, 538, 44, 100, 34, 16, 210, 210, 227, 210, 0 
2017-09-07 06:09:38, 27, 538, 44, 200, 34, 16, 211, 210, 227, 210, 1 
2017-09-07 06:09:39, 27, 538, 55, 100, 63, 27, 377, 375, 425, 376, 0 
2017-09-07 06:09:40, 27, 538, 55, 200, 63, 27, 377, 375, 425, 376, 0 
2017-09-07 06:09:40, 27, 538, 66, 100, 44, 20, 273, 272, 301, 271, 0 
2017-09-07 06:09:41, 27, 538, 66, 200, 45, 20, 273, 272, 301, 271, 1 
2017-09-07 06:09:42, 27, 538, 77, 100, 40, 19, 247, 246, 267, 245, 1 
2017-09-07 06:09:42, 27, 538, 77, 200, 40, 19, 247, 246, 267, 245, 0 
2017-09-07 06:09:44, 28, 538, 44, 100, 34, 16, 210, 209, 227, 210, 0 
2017-09-07 06:09:44, 28, 538, 44, 200, 33, 16, 210, 210, 227, 210, 2 
2017-09-07 06:09:45, 28, 538, 55, 100, 63, 28, 377, 374, 425, 376, 0 
2017-09-07 06:09:46, 28, 538, 55, 200, 63, 28, 377, 375, 425, 376, 1 
2017-09-07 06:09:46, 28, 538, 66, 100, 44, 20, 273, 272, 301, 271, 0 
2017-09-07 06:09:47, 28, 538, 66, 200, 44, 20, 273, 272, 301, 271, 0 
2017-09-07 06:09:48, 28, 538, 77, 100, 40, 19, 247, 246, 267, 245, 1 
2017-09-07 06:09:48, 28, 538, 77, 200, 40, 19, 247, 246, 267, 245, 0 
2017-09-07 06:09:49, 29, 538, 44, 100, 34, 16, 210, 209, 227, 210, 0 
2017-09-07 06:09:50, 29, 538, 44, 200, 34, 16, 210, 210, 227, 210, 1 
2017-09-07 06:09:51, 29, 538, 55, 100, 63, 28, 377, 375, 426, 376, 0 
2017-09-07 06:09:52, 29, 538, 55, 200, 63, 28, 377, 375, 425, 376, 1 
2017-09-07 06:09:52, 29, 538, 66, 100, 44, 20, 273, 272, 302, 271, 0 
2017-09-07 06:09:53, 29, 538, 66, 200, 44, 20, 273, 272, 301, 271, 1 
2017-09-07 06:09:54, 29, 538, 77, 100, 40, 19, 247, 246, 267, 245, 1 
2017-09-07 06:09:54, 29, 538, 77, 200, 40, 19, 247, 246, 267, 245, 0 
2017-09-07 06:09:55, 30, 538, 44, 100, 34, 16, 211, 209, 226, 210, 0 
2017-09-07 06:09:56, 30, 538, 44, 200, 34, 16, 210, 209, 227, 210, 2 
2017-09-07 06:09:57, 30, 538, 55, 100, 63, 28, 377, 375, 425, 376, 0 
2017-09-07 06:09:57, 30, 538, 55, 200, 63, 28, 377, 375, 425, 376, 0 
2017-09-07 06:09:58, 30, 538, 66, 100, 45, 20, 273, 272, 301, 271, 0 
2017-09-07 06:09:59, 30, 538, 66, 200, 45, 20, 273, 272, 301, 271, 0 
2017-09-07 06:10:00, 30, 538, 77, 100, 40, 19, 247, 246, 267, 245, 1 
2017-09-07 06:10:00, 30, 538, 77, 200, 40, 19, 247, 246, 267, 245, 0 
2017-09-07 06:10:01, 31, 538, 44, 100, 34, 16, 210, 210, 227, 210, 0 
2017-09-07 06:10:02, 31, 538, 44, 200, 34, 16, 210, 210, 227, 210, 0 
2017-09-07 06:10:03, 31, 538, 55, 100, 63, 28, 377, 375, 425, 376, 0 
2017-09-07 06:10:03, 31, 538, 55, 200, 63, 28, 377, 375, 425, 376, 0 
2017-09-07 06:10:04, 31, 538, 66, 100, 44, 20, 273, 272, 301, 271, 0 
2017-09-07 06:10:05, 31, 538, 66, 200, 45, 20, 273, 272, 301, 271, 1 
2017-09-07 06:10:05, 31, 538, 77, 100, 40, 19, 247, 246, 267, 245, 1 
2017-09-07 06:10:06, 31, 538, 77, 200, 40, 19, 247, 246, 267, 245, 0 
2017-09-07 06:10:07, 32, 538, 44, 100, 31, 18, 172, 171, 183, 168, 1 
2017-09-07 06:10:08, 32, 538, 44, 200, 31, 18, 172, 171, 183, 168, 0 
2017-09-07 06:10:09, 32, 538, 55, 100, 60, 32, 305, 303, 334, 301, 0 
2017-09-07 06:10:09, 32, 538, 55, 200, 60, 33, 305, 303, 336, 303, 1 
2017-09-07 06:10:10, 32, 538, 66, 100, 42, 23, 216, 215, 229, 216, 0 
2017-09-07 06:10:11, 32, 538, 66, 200, 42, 23, 215, 215, 230, 216, 2 
2017-09-07 06:10:11, 32, 538, 77, 100, 38, 21, 194, 193, 203, 193, 0 
2017-09-07 06:10:12, 32, 538, 77, 200, 38, 21, 193, 193, 203, 193, 1 
2017-09-07 06:10:13, 33, 725, 44, 100, 32, 18, 164, 164, 172, 163, 0 
2017-09-07 06:10:14, 33, 725, 44, 200, 32, 18, 164, 164, 172, 164, 1 
2017-09-07 06:10:15, 33, 725, 55, 100, 60, 33, 306, 305, 335, 304, 0 
2017-09-07 06:10:15, 33, 725, 55, 200, 60, 33, 306, 304, 335, 304, 1 
2017-09-07 06:10:16, 33, 725, 66, 100, 42, 24, 218, 217, 233, 216, 0 
2017-09-07 06:10:17, 33, 725, 66, 200, 42, 24, 218, 217, 233, 216, 0 
2017-09-07 06:10:17, 33, 725, 77, 100, 38, 22, 196, 195, 207, 193, 0 
2017-09-07 06:10:18, 33, 725, 77, 200, 38, 22, 196, 195, 207, 193, 0 
2017-09-07 06:10:19, 34, 717, 44, 100, 32, 18, 166, 166, 177, 164, 0 
2017-09-07 06:10:20, 34, 717, 44, 200, 32, 18, 166, 165, 177, 164, 1 
2017-09-07 06:10:21, 34, 717, 55, 100, 61, 33, 309, 308, 340, 308, 0 
2017-09-07 06:10:21, 34, 717, 55, 200, 61, 33, 309, 308, 340, 308, 0 
2017-09-07 06:10:22, 34, 717, 66, 100, 43, 24, 220, 219, 234, 221, 0 
2017-09-07 06:10:23, 34, 717, 66, 200, 43, 24, 220, 219, 235, 221, 1 
2017-09-07 06:10:23, 34, 717, 77, 100, 38, 22, 198, 197, 208, 198, 0 
2017-09-07 06:10:24, 34, 717, 77, 200, 38, 22, 198, 197, 208, 198, 0 
2017-09-07 06:10:25, 35, 708, 44, 100, 32, 19, 169, 167, 177, 165, 0 
2017-09-07 06:10:26, 35, 708, 44, 200, 32, 18, 169, 168, 177, 165, 2 
2017-09-07 06:10:26, 35, 708, 55, 100, 61, 33, 312, 311, 344, 309, 0 
2017-09-07 06:10:27, 35, 708, 55, 200, 61, 33, 312, 311, 344, 309, 0 
2017-09-07 06:10:28, 35, 708, 66, 100, 43, 24, 223, 222, 239, 221, 0 
2017-09-07 06:10:28, 35, 708, 66, 200, 43, 24, 223, 222, 239, 221, 0 
2017-09-07 06:10:29, 35, 708, 77, 100, 39, 22, 201, 200, 212, 198, 0 
2017-09-07 06:10:30, 35, 708, 77, 200, 39, 22, 201, 200, 212, 198, 0 
2017-09-07 06:10:31, 36, 699, 44, 100, 33, 19, 171, 170, 182, 169, 0 
2017-09-07 06:10:32, 36, 699, 44, 200, 33, 19, 171, 170, 182, 169, 0 
2017-09-07 06:10:32, 36, 699, 55, 100, 61, 33, 315, 314, 349, 313, 0 
2017-09-07 06:10:33, 36, 699, 55, 200, 61, 33, 315, 314, 349, 313, 0 
2017-09-07 06:10:34, 36, 699, 66, 100, 43, 24, 226, 225, 244, 226, 0 
2017-09-07 06:10:34, 36, 699, 66, 200, 43, 24, 226, 225, 244, 226, 0 
2017-09-07 06:10:35, 36, 699, 77, 100, 39, 22, 203, 202, 215, 203, 0 
2017-09-07 06:10:36, 36, 699, 77, 200, 39, 22, 203, 202, 214, 203, 1 
2017-09-07 06:10:37, 37, 690, 44, 100, 33, 19, 173, 172, 182, 169, 0 
2017-09-07 06:10:38, 37, 690, 44, 200, 33, 19, 173, 172, 182, 169, 0 
2017-09-07 06:10:38, 37, 690, 55, 100, 61, 33, 318, 317, 351, 318, 0 
2017-09-07 06:10:39, 37, 690, 55, 200, 61, 33, 318, 316, 351, 318, 1 
2017-09-07 06:10:40, 37, 690, 66, 100, 44, 24, 228, 227, 244, 227, 0 
2017-09-07 06:10:40, 37, 690, 66, 200, 44, 24, 228, 227, 244, 227, 0 
2017-09-07 06:10:41, 37, 690, 77, 100, 39, 22, 206, 204, 217, 203, 0 
2017-09-07 06:10:42, 37, 690, 77, 200, 39, 22, 206, 204, 217, 203, 0 
2017-09-07 06:10:43, 38, 681, 44, 100, 33, 19, 175, 174, 187, 173, 0 
2017-09-07 06:10:44, 38, 681, 44, 200, 33, 19, 175, 174, 187, 173, 0 
2017-09-07 06:10:44, 38, 681, 55, 100, 62, 33, 321, 320, 354, 318, 0 
2017-09-07 06:10:45, 38, 681, 55, 200, 61, 33, 321, 320, 354, 318, 1 
2017-09-07 06:10:46, 38, 681, 66, 100, 44, 24, 230, 229, 249, 232, 0 
2017-09-07 06:10:46, 38, 681, 66, 200, 44, 24, 230, 229, 249, 232, 0 
2017-09-07 06:10:47, 38, 681, 77, 100, 39, 22, 208, 207, 222, 208, 0 
2017-09-07 06:10:48, 38, 681, 77, 200, 39, 22, 208, 207, 221, 208, 1 
2017-09-07 06:10:49, 39, 671, 44, 100, 33, 18, 177, 177, 188, 174, 0 
2017-09-07 06:10:49, 39, 671, 44, 200, 33, 18, 177, 176, 187, 174, 2 
2017-09-07 06:10:50, 39, 671, 55, 100, 61, 32, 325, 323, 358, 323, 0 
2017-09-07 06:10:51, 39, 671, 55, 200, 62, 32, 325, 323, 358, 323, 1 
2017-09-07 06:10:52, 39, 671, 66, 100, 44, 24, 233, 232, 249, 232, 0 
2017-09-07 06:10:52, 39, 671, 66, 200, 44, 24, 233, 232, 249, 232, 0 
2017-09-07 06:10:53, 39, 671, 77, 100, 39, 22, 210, 209, 222, 208, 0 
2017-09-07 06:10:54, 39, 671, 77, 200, 39, 22, 210, 209, 222, 208, 0 
2017-09-07 06:10:55, 40, 659, 44, 100, 33, 18, 180, 179, 192, 179, 0 
2017-09-07 06:10:55, 40, 659, 44, 200, 33, 18, 181, 179, 192, 179, 1 
2017-09-07 06:10:56, 40, 659, 55, 100, 62, 32, 328, 326, 363, 327, 0 
2017-09-07 06:10:57, 40, 659, 55, 200, 62, 32, 329, 327, 363, 327, 2 
2017-09-07 06:10:58, 40, 659, 66, 100, 44, 24, 236, 235, 254, 237, 0 
2017-09-07 06:10:58, 40, 659, 66, 200, 44, 24, 236, 235, 254, 237, 0 
2017-09-07 06:10:59, 40, 659, 77, 100, 39, 22, 213, 212, 227, 213, 0 
2017-09-07 06:11:00, 40, 659, 77, 200, 39, 22, 213, 212, 227, 213, 0 
2017-09-07 06:11:01, 41, 646, 44, 100, 33, 18, 183, 182, 192, 180, 0 
2017-09-07 06:11:01, 41, 646, 44, 200, 33, 18, 183, 182, 192, 180, 0 
2017-09-07 06:11:02, 41, 646, 55, 100, 62, 32, 333, 331, 370, 332, 0 
2017-09-07 06:11:03, 41, 646, 55, 200, 62, 32, 332, 331, 371, 332, 2 
2017-09-07 06:11:03, 41, 646, 66, 100, 44, 23, 240, 239, 259, 242, 0 
2017-09-07 06:11:04, 41, 646, 66, 200, 44, 23, 240, 239, 259, 242, 0 
2017-09-07 06:11:05, 41, 646, 77, 100, 39, 21, 217, 215, 232, 219, 0 
2017-09-07 06:11:05, 41, 646, 77, 200, 39, 21, 217, 215, 232, 219, 0 
2017-09-07 06:11:07, 42, 633, 44, 100, 33, 18, 187, 185, 197, 185, 0 
2017-09-07 06:11:07, 42, 633, 44, 200, 33, 18, 187, 185, 197, 185, 0 
2017-09-07 06:11:08, 42, 633, 55, 100, 62, 31, 337, 335, 375, 337, 0 
2017-09-07 06:11:09, 42, 633, 55, 200, 62, 31, 338, 336, 375, 337, 2 
2017-09-07 06:11:09, 42, 633, 66, 100, 44, 23, 244, 242, 264, 243, 0 
2017-09-07 06:11:10, 42, 633, 66, 200, 44, 23, 244, 243, 264, 243, 1 
2017-09-07 06:11:11, 42, 633, 77, 100, 40, 20, 220, 219, 235, 219, 0 
2017-09-07 06:11:11, 42, 633, 77, 200, 40, 20, 220, 219, 235, 219, 0 
2017-09-07 06:11:13, 43, 620, 44, 100, 33, 18, 190, 189, 202, 189, 0 
2017-09-07 06:11:13, 43, 620, 44, 200, 33, 18, 189, 189, 202, 189, 1 
2017-09-07 06:11:14, 43, 620, 55, 100, 62, 31, 343, 341, 384, 342, 0 
2017-09-07 06:11:15, 43, 620, 55, 200, 62, 31, 342, 341, 384, 342, 1 
2017-09-07 06:11:15, 43, 620, 66, 100, 44, 23, 248, 246, 270, 248, 0 
2017-09-07 06:11:16, 43, 620, 66, 200, 44, 23, 248, 246, 270, 248, 0 
2017-09-07 06:11:17, 43, 620, 77, 100, 40, 20, 224, 223, 238, 224, 0 
2017-09-07 06:11:17, 43, 620, 77, 200, 40, 20, 224, 223, 238, 224, 0 
2017-09-07 06:11:19, 44, 606, 44, 100, 33, 17, 193, 192, 206, 192, 0 
2017-09-07 06:11:19, 44, 606, 44, 200, 33, 17, 193, 192, 206, 193, 1 
2017-09-07 06:11:20, 44, 606, 55, 100, 62, 30, 349, 347, 389, 349, 0 
2017-09-07 06:11:21, 44, 606, 55, 200, 62, 30, 349, 347, 389, 348, 1 
2017-09-07 06:11:21, 44, 606, 66, 100, 44, 22, 253, 251, 275, 250, 0 
2017-09-07 06:11:22, 44, 606, 66, 200, 44, 22, 253, 251, 275, 250, 0 
2017-09-07 06:11:23, 44, 606, 77, 100, 40, 20, 229, 227, 242, 228, 0 
2017-09-07 06:11:23, 44, 606, 77, 200, 40, 20, 229, 227, 242, 228, 0 
2017-09-07 06:11:24, 45, 593, 44, 100, 33, 17, 197, 196, 211, 195, 0 
2017-09-07 06:11:25, 45, 593, 44, 200, 33, 17, 197, 196, 211, 195, 0 
2017-09-07 06:11:26, 45, 593, 55, 100, 62, 29, 355, 353, 398, 352, 0 
2017-09-07 06:11:26, 45, 593, 55, 200, 62, 29, 355, 353, 398, 352, 0 
2017-09-07 06:11:27, 45, 593, 66, 100, 44, 21, 257, 255, 281, 254, 0 
2017-09-07 06:11:28, 45, 593, 66, 200, 44, 21, 257, 256, 281, 254, 1 
2017-09-07 06:11:29, 45, 593, 77, 100, 40, 20, 233, 231, 249, 233, 1 
2017-09-07 06:11:29, 45, 593, 77, 200, 40, 20, 232, 231, 250, 233, 2 
2017-09-07 06:11:30, 46, 579, 44, 100, 33, 17, 201, 200, 216, 200, 0 
2017-09-07 06:11:31, 46, 579, 44, 200, 33, 17, 200, 200, 216, 200, 1 
2017-09-07 06:11:32, 46, 579, 55, 100, 63, 29, 362, 360, 407, 358, 0 
2017-09-07 06:11:32, 46, 579, 55, 200, 62, 29, 362, 360, 407, 358, 1 
2017-09-07 06:11:33, 46, 579, 66, 100, 44, 21, 262, 261, 286, 259, 0 
2017-09-07 06:11:34, 46, 579, 66, 200, 44, 21, 262, 261, 286, 259, 0 
2017-09-07 06:11:35, 46, 579, 77, 100, 40, 19, 237, 236, 256, 235, 0 
2017-09-07 06:11:35, 46, 579, 77, 200, 40, 19, 237, 236, 256, 235, 0 
2017-09-07 06:11:36, 47, 566, 44, 100, 34, 17, 205, 204, 221, 205, 0 
2017-09-07 06:11:37, 47, 566, 44, 200, 34, 17, 205, 204, 221, 205, 0 
2017-09-07 06:11:38, 47, 566, 55, 100, 63, 28, 369, 367, 419, 366, 0 
2017-09-07 06:11:38, 47, 566, 55, 200, 63, 28, 369, 367, 419, 366, 0 
2017-09-07 06:11:39, 47, 566, 66, 100, 44, 21, 268, 266, 292, 265, 0 
2017-09-07 06:11:40, 47, 566, 66, 200, 44, 21, 268, 266, 292, 265, 0 
2017-09-07 06:11:40, 47, 566, 77, 100, 40, 19, 242, 241, 261, 240, 0 
2017-09-07 06:11:41, 47, 566, 77, 200, 40, 19, 242, 241, 261, 240, 0 
2017-09-07 06:11:42, 48, 552, 44, 100, 34, 16, 210, 209, 226, 210, 0 
2017-09-07 06:11:43, 48, 552, 44, 200, 34, 16, 210, 209, 226, 210, 0 
2017-09-07 06:11:44, 48, 552, 55, 100, 63, 28, 376, 374, 425, 376, 0 
2017-09-07 06:11:44, 48, 552, 55, 200, 63, 28, 377, 374, 425, 376, 1 
2017-09-07 06:11:45, 48, 552, 66, 100, 44, 20, 273, 272, 301, 271, 0 
2017-09-07 06:11:46, 48, 552, 66, 200, 45, 20, 273, 272, 301, 271, 1 
2017-09-07 06:11:46, 48, 552, 77, 100, 40, 19, 247, 246, 267, 245, 1 
2017-09-07 06:11:47, 48, 552, 77, 200, 40, 19, 247, 246, 267, 245, 0 
2017-09-07 06:11:48, 49, 538, 44, 100, 34, 16, 210, 210, 227, 210, 0 
2017-09-07 06:11:49, 49, 538, 44, 200, 34, 16, 211, 210, 227, 210, 1 
2017-09-07 06:11:50, 49, 538, 55, 100, 63, 28, 377, 375, 426, 376, 0 
2017-09-07 06:11:50, 49, 538, 55, 200, 63, 28, 377, 375, 425, 376, 1 
2017-09-07 06:11:51, 49, 538, 66, 100, 44, 20, 273, 272, 302, 271, 0 
2017-09-07 06:11:52, 49, 538, 66, 200, 45, 20, 273, 272, 301, 271, 2 
2017-09-07 06:11:52, 49, 538, 77, 100, 40, 19, 248, 246, 267, 245, 1 
2017-09-07 06:11:53, 49, 538, 77, 200, 40, 19, 247, 246, 267, 245, 1 
2017-09-07 06:11:56,*SeqNo.,Time,DAC_Cnt,BGO,AM_LCh0,AM_RCh0,AM_Rch1,AM_RCh2,AM_LCh3,AM_LCh3
2017-09-07 06:11:56, BGO Set:0, AM_RegBuffer:0
2017-09-07 06:11:59, BGO Set:0,725 
2017-09-07 06:11:59, Gain Set:0, AM_RegBuffer:0 
2017-09-07 06:12:04,*SeqNo.,Time,DAC_Cnt,BGO,AM_LCh0,AM_RCh0,AM_Rch1,AM_RCh2,AM_LCh3,AM_LCh3
2017-09-07 06:12:04, BGO Set:0, AM_RegBuffer:0
2017-09-07 06:12:07, BGO Set:0,733 
2017-09-07 06:12:07, Gain Set:0, AM_RegBuffer:0 
