2017-09-07 15:58:17,
2017-09-07 15:58:17,*******Meaure Clk Period:Time, Freq in MHz*******
2017-09-07 15:58:17,****SeqNo.,Time,DAC_Cnt.......... 38, 30400000, 0, 0 
2017-09-07 15:58:17, 38, 30400000, 1, 0 
2017-09-07 15:58:17, 38, 30400000, 2, 0 
2017-09-07 15:58:17, 38, 30400000, 3, 0 
2017-09-07 15:58:17, 38, 30400000, 4, 0 
2017-09-07 15:58:17, 37, 29600000, 5, 0 
2017-09-07 15:58:17, 38, 30400000, 6, 0 
2017-09-07 15:58:17, 38, 30400000, 7, 0 
2017-09-07 15:58:17, 38, 30400000, 8, 0 
2017-09-07 15:58:17, 38, 30400000, 9, 0 
2017-09-07 15:58:17, 38, 30400000, 10, 0 
2017-09-07 15:58:17, 38, 30400000, 11, 0 
2017-09-07 15:58:17, 38, 30400000, 12, 0 
2017-09-07 15:58:17, 38, 30400000, 13, 0 
2017-09-07 15:58:17, 39, 31200000, 14, 0 
2017-09-07 15:58:17, 38, 30400000, 15, 0 
2017-09-07 15:58:17, 38, 30400000, 16, 0 
2017-09-07 15:58:17, 38, 30400000, 17, 0 
2017-09-07 15:58:17, 38, 30400000, 18, 0 
2017-09-07 15:58:17, 38, 30400000, 19, 0 
2017-09-07 15:58:17, 38, 30400000, 20, 0 
2017-09-07 15:58:17, 38, 30400000, 21, 0 
2017-09-07 15:58:17, 38, 30400000, 22, 0 
2017-09-07 15:58:17, 38, 30400000, 23, 0 
2017-09-07 15:58:17, 38, 30400000, 24, 0 
2017-09-07 15:58:17, 38, 30400000, 25, 0 
2017-09-07 15:58:17, 39, 31200000, 26, 0 
2017-09-07 15:58:17, 37, 29600000, 27, 0 
2017-09-07 15:58:17, 38, 30400000, 28, 0 
2017-09-07 15:58:17, 38, 30400000, 29, 0 
2017-09-07 15:58:17, 38, 30400000, 30, 0 
2017-09-07 15:58:17, 39, 31200000, 31, 0 
2017-09-07 15:58:17, 37, 29600000, 32, 0 
2017-09-07 15:58:17, 37, 29600000, 33, 0 
2017-09-07 15:58:17, 37, 29600000, 34, 0 
2017-09-07 15:58:17, 37, 29600000, 35, 0 
2017-09-07 15:58:17, 38, 30400000, 36, 0 
2017-09-07 15:58:17, 38, 30400000, 37, 0 
2017-09-07 15:58:17, 38, 30400000, 38, 0 
2017-09-07 15:58:17, 37, 29600000, 39, 0 
2017-09-07 15:58:17, 38, 30400000, 40, 0 
2017-09-07 15:58:17, 38, 30400000, 41, 0 
2017-09-07 15:58:17, 38, 30400000, 42, 0 
2017-09-07 15:58:17, 37, 29600000, 43, 0 
2017-09-07 15:58:17, 38, 30400000, 44, 0 
2017-09-07 15:58:17, 38, 30400000, 45, 0 
2017-09-07 15:58:17, 39, 31200000, 46, 0 
2017-09-07 15:58:17, 38, 30400000, 47, 0 
2017-09-07 15:58:17, 37, 29600000, 48, 0 
2017-09-07 15:58:17, 39, 31200000, 49, 0 
2017-09-07 15:58:17, 38, 30400000, 50, 0 
2017-09-07 15:58:18, 38, 30400000, 51, 0 
2017-09-07 15:58:18, 38, 30400000, 52, 0 
2017-09-07 15:58:18, 37, 29600000, 53, 0 
2017-09-07 15:58:18, 38, 30400000, 54, 0 
2017-09-07 15:58:18, 38, 30400000, 55, 0 
2017-09-07 15:58:18, 37, 29600000, 56, 0 
2017-09-07 15:58:18, 38, 30400000, 57, 0 
2017-09-07 15:58:18, 38, 30400000, 58, 0 
2017-09-07 15:58:18, 38, 30400000, 59, 0 
2017-09-07 15:58:18, 38, 30400000, 60, 0 
2017-09-07 15:58:18, 37, 29600000, 61, 0 
2017-09-07 15:58:18, 38, 30400000, 62, 0 
2017-09-07 15:58:18, 38, 30400000, 63, 0 
2017-09-07 15:58:18, 37, 29600000, 64, 0 
2017-09-07 15:58:18, 37, 29600000, 65, 0 
2017-09-07 15:58:18, 38, 30400000, 66, 0 
2017-09-07 15:58:18, 37, 29600000, 67, 0 
2017-09-07 15:58:18, 38, 30400000, 68, 0 
2017-09-07 15:58:18, 37, 29600000, 69, 0 
2017-09-07 15:58:18, 38, 30400000, 70, 0 
2017-09-07 15:58:18, 39, 31200000, 71, 0 
2017-09-07 15:58:18, 38, 30400000, 72, 0 
2017-09-07 15:58:18, 38, 30400000, 73, 0 
2017-09-07 15:58:18, 38, 30400000, 74, 0 
2017-09-07 15:58:18, 38, 30400000, 75, 0 
2017-09-07 15:58:18, 37, 29600000, 76, 0 
2017-09-07 15:58:18, 38, 30400000, 77, 0 
2017-09-07 15:58:18, 37, 29600000, 78, 0 
2017-09-07 15:58:18, 38, 30400000, 79, 0 
2017-09-07 15:58:18, 38, 30400000, 80, 0 
2017-09-07 15:58:18, 37, 29600000, 81, 0 
2017-09-07 15:58:18, 37, 29600000, 82, 0 
2017-09-07 15:58:18, 37, 29600000, 83, 0 
2017-09-07 15:58:18, 38, 30400000, 84, 0 
2017-09-07 15:58:18, 38, 30400000, 85, 0 
2017-09-07 15:58:18, 38, 30400000, 86, 0 
2017-09-07 15:58:18, 37, 29600000, 87, 0 
2017-09-07 15:58:18, 38, 30400000, 88, 0 
2017-09-07 15:58:18, 37, 29600000, 89, 0 
2017-09-07 15:58:18, 38, 30400000, 90, 0 
2017-09-07 15:58:18, 38, 30400000, 91, 0 
2017-09-07 15:58:18, 37, 29600000, 92, 0 
2017-09-07 15:58:18, 38, 30400000, 93, 0 
2017-09-07 15:58:18, 39, 31200000, 94, 0 
2017-09-07 15:58:18, 37, 29600000, 95, 0 
2017-09-07 15:58:18, 38, 30400000, 96, 0 
2017-09-07 15:58:18, 37, 29600000, 97, 0 
2017-09-07 15:58:18, 38, 30400000, 98, 0 
2017-09-07 15:58:18, 38, 30400000, 99, 0 
2017-09-07 15:58:18, 38, 30400000, 100, 0 
2017-09-07 15:58:18, 38, 30400000, 101, 0 
2017-09-07 15:58:18, 37, 29600000, 102, 0 
2017-09-07 15:58:18, 38, 30400000, 103, 0 
2017-09-07 15:58:18, 39, 31200000, 104, 0 
2017-09-07 15:58:18, 38, 30400000, 105, 0 
2017-09-07 15:58:18, 37, 29600000, 106, 0 
2017-09-07 15:58:18, 37, 29600000, 107, 0 
2017-09-07 15:58:18, 38, 30400000, 108, 0 
2017-09-07 15:58:18, 38, 30400000, 109, 0 
2017-09-07 15:58:18, 38, 30400000, 110, 0 
2017-09-07 15:58:18, 37, 29600000, 111, 0 
2017-09-07 15:58:18, 37, 29600000, 112, 0 
2017-09-07 15:58:18, 37, 29600000, 113, 0 
2017-09-07 15:58:18, 38, 30400000, 114, 0 
2017-09-07 15:58:18, 38, 30400000, 115, 0 
2017-09-07 15:58:18, 38, 30400000, 116, 0 
2017-09-07 15:58:18, 37, 29600000, 117, 0 
2017-09-07 15:58:18, 39, 31200000, 118, 0 
2017-09-07 15:58:18, 38, 30400000, 119, 0 
2017-09-07 15:58:18, 37, 29600000, 120, 0 
2017-09-07 15:58:18, 37, 29600000, 121, 0 
2017-09-07 15:58:18, 37, 29600000, 122, 0 
2017-09-07 15:58:18, 37, 29600000, 123, 0 
2017-09-07 15:58:18, 37, 29600000, 124, 0 
2017-09-07 15:58:18, 37, 29600000, 125, 0 
2017-09-07 15:58:18, 38, 30400000, 126, 0 
2017-09-07 15:58:18, 38, 30400000, 127, 0 
2017-09-07 15:58:18, 37, 29600000, 128, 0 
2017-09-07 15:58:18, 38, 30400000, 129, 0 
2017-09-07 15:58:18, 38, 30400000, 130, 0 
2017-09-07 15:58:18, 37, 29600000, 131, 0 
2017-09-07 15:58:18, 38, 30400000, 132, 0 
2017-09-07 15:58:18, 38, 30400000, 133, 0 
2017-09-07 15:58:18, 38, 30400000, 134, 0 
2017-09-07 15:58:18, 38, 30400000, 135, 0 
2017-09-07 15:58:18, 38, 30400000, 136, 0 
2017-09-07 15:58:18, 38, 30400000, 137, 0 
2017-09-07 15:58:18, 38, 30400000, 138, 0 
2017-09-07 15:58:18, 38, 30400000, 139, 0 
2017-09-07 15:58:18, 38, 30400000, 140, 0 
2017-09-07 15:58:18, 38, 30400000, 141, 0 
2017-09-07 15:58:18, 39, 31200000, 142, 0 
2017-09-07 15:58:18, 37, 29600000, 143, 0 
2017-09-07 15:58:18, 38, 30400000, 144, 0 
2017-09-07 15:58:18, 37, 29600000, 145, 0 
2017-09-07 15:58:18, 38, 30400000, 146, 0 
2017-09-07 15:58:18, 37, 29600000, 147, 0 
2017-09-07 15:58:18, 39, 31200000, 148, 0 
2017-09-07 15:58:18, 37, 29600000, 149, 0 
2017-09-07 15:58:18, 38, 30400000, 150, 0 
2017-09-07 15:58:18, 37, 29600000, 151, 0 
2017-09-07 15:58:18, 37, 29600000, 152, 0 
2017-09-07 15:58:18, 38, 30400000, 153, 0 
2017-09-07 15:58:18, 38, 30400000, 154, 0 
2017-09-07 15:58:18, 38, 30400000, 155, 0 
2017-09-07 15:58:18, 38, 30400000, 156, 0 
2017-09-07 15:58:18, 39, 31200000, 157, 0 
2017-09-07 15:58:18, 38, 30400000, 158, 0 
2017-09-07 15:58:18, 38, 30400000, 159, 0 
2017-09-07 15:58:18, 38, 30400000, 160, 0 
2017-09-07 15:58:18, 38, 30400000, 161, 0 
2017-09-07 15:58:18, 38, 30400000, 162, 0 
2017-09-07 15:58:18, 38, 30400000, 163, 0 
2017-09-07 15:58:18, 38, 30400000, 164, 0 
2017-09-07 15:58:18, 38, 30400000, 165, 0 
2017-09-07 15:58:18, 38, 30400000, 166, 0 
2017-09-07 15:58:18, 38, 30400000, 167, 0 
2017-09-07 15:58:18, 38, 30400000, 168, 0 
2017-09-07 15:58:18, 38, 30400000, 169, 0 
2017-09-07 15:58:18, 38, 30400000, 170, 0 
2017-09-07 15:58:18, 38, 30400000, 171, 0 
2017-09-07 15:58:18, 37, 29600000, 172, 0 
2017-09-07 15:58:18, 38, 30400000, 173, 0 
2017-09-07 15:58:18, 38, 30400000, 174, 0 
2017-09-07 15:58:18, 38, 30400000, 175, 0 
2017-09-07 15:58:18, 37, 29600000, 176, 0 
2017-09-07 15:58:18, 38, 30400000, 177, 0 
2017-09-07 15:58:18, 38, 30400000, 178, 0 
2017-09-07 15:58:18, 38, 30400000, 179, 0 
2017-09-07 15:58:18, 39, 31200000, 180, 0 
2017-09-07 15:58:19, 38, 30400000, 181, 0 
2017-09-07 15:58:19, 39, 31200000, 182, 0 
2017-09-07 15:58:19, 39, 31200000, 183, 0 
2017-09-07 15:58:19, 38, 30400000, 184, 0 
2017-09-07 15:58:19, 38, 30400000, 185, 0 
2017-09-07 15:58:19, 37, 29600000, 186, 0 
2017-09-07 15:58:19, 37, 29600000, 187, 0 
2017-09-07 15:58:19, 38, 30400000, 188, 0 
2017-09-07 15:58:19, 38, 30400000, 189, 0 
2017-09-07 15:58:19, 37, 29600000, 190, 0 
2017-09-07 15:58:19, 38, 30400000, 191, 0 
2017-09-07 15:58:19, 38, 30400000, 192, 0 
2017-09-07 15:58:19, 37, 29600000, 193, 0 
2017-09-07 15:58:19, 38, 30400000, 194, 0 
2017-09-07 15:58:19, 38, 30400000, 195, 0 
2017-09-07 15:58:19, 37, 29600000, 196, 0 
2017-09-07 15:58:19, 38, 30400000, 197, 0 
2017-09-07 15:58:19, 38, 30400000, 198, 0 
2017-09-07 15:58:19, 37, 29600000, 199, 0 
2017-09-07 15:58:22,0, 733, 44, 100, 25, 15, 131, 130, 139, 128, 0 
2017-09-07 15:58:23, 0, 733, 44, 200, 25, 15, 131, 130, 139, 128, 0 
2017-09-07 15:58:24, 0, 733, 55, 100, 59, 32, 298, 297, 329, 295, 0 
2017-09-07 15:58:24, 0, 733, 55, 200, 59, 32, 298, 297, 330, 295, 1 
2017-09-07 15:58:25, 0, 733, 66, 100, 41, 23, 214, 213, 228, 215, 0 
2017-09-07 15:58:26, 0, 733, 66, 200, 41, 23, 214, 214, 229, 215, 2 
2017-09-07 15:58:26, 0, 733, 77, 100, 37, 21, 193, 192, 203, 192, 0 
2017-09-07 15:58:27, 0, 733, 77, 200, 37, 21, 193, 192, 203, 192, 0 
2017-09-07 15:58:28, 1, 733, 44, 100, 32, 18, 164, 163, 172, 164, 0 
2017-09-07 15:58:29, 1, 733, 44, 200, 32, 18, 164, 164, 172, 164, 1 
2017-09-07 15:58:30, 1, 733, 55, 100, 60, 33, 306, 305, 335, 304, 0 
2017-09-07 15:58:30, 1, 733, 55, 200, 60, 33, 306, 305, 336, 304, 1 
2017-09-07 15:58:31, 1, 733, 66, 100, 42, 24, 218, 217, 233, 216, 0 
2017-09-07 15:58:32, 1, 733, 66, 200, 42, 24, 218, 217, 234, 216, 1 
2017-09-07 15:58:32, 1, 733, 77, 100, 38, 22, 196, 195, 207, 193, 0 
2017-09-07 15:58:33, 1, 733, 77, 200, 38, 22, 196, 195, 208, 193, 1 
2017-09-07 15:58:34, 2, 717, 44, 100, 32, 18, 166, 165, 177, 164, 0 
2017-09-07 15:58:35, 2, 717, 44, 200, 32, 18, 166, 166, 177, 164, 1 
2017-09-07 15:58:35, 2, 717, 55, 100, 61, 33, 310, 308, 340, 308, 0 
2017-09-07 15:58:36, 2, 717, 55, 200, 61, 33, 309, 308, 340, 308, 1 
2017-09-07 15:58:37, 2, 717, 66, 100, 43, 24, 220, 220, 234, 221, 0 
2017-09-07 15:58:38, 2, 717, 66, 200, 43, 24, 220, 219, 235, 221, 2 
2017-09-07 15:58:38, 2, 717, 77, 100, 38, 22, 198, 197, 208, 198, 0 
2017-09-07 15:58:39, 2, 717, 77, 200, 38, 22, 198, 197, 208, 198, 0 
2017-09-07 15:58:40, 3, 708, 44, 100, 32, 19, 169, 167, 177, 165, 0 
2017-09-07 15:58:41, 3, 708, 44, 200, 32, 19, 169, 168, 177, 165, 1 
2017-09-07 15:58:41, 3, 708, 55, 100, 61, 33, 313, 310, 344, 309, 0 
2017-09-07 15:58:42, 3, 708, 55, 200, 61, 33, 313, 311, 344, 309, 1 
2017-09-07 15:58:43, 3, 708, 66, 100, 43, 24, 223, 222, 239, 221, 0 
2017-09-07 15:58:43, 3, 708, 66, 200, 43, 24, 223, 222, 239, 221, 0 
2017-09-07 15:58:44, 3, 708, 77, 100, 39, 22, 201, 200, 212, 198, 0 
2017-09-07 15:58:45, 3, 708, 77, 200, 39, 22, 201, 200, 212, 198, 0 
2017-09-07 15:58:46, 4, 699, 44, 100, 33, 19, 171, 170, 182, 169, 0 
2017-09-07 15:58:47, 4, 699, 44, 200, 33, 19, 171, 170, 182, 169, 0 
2017-09-07 15:58:47, 4, 699, 55, 100, 61, 33, 315, 313, 349, 313, 0 
2017-09-07 15:58:48, 4, 699, 55, 200, 61, 33, 315, 314, 349, 313, 1 
2017-09-07 15:58:49, 4, 699, 66, 100, 44, 24, 226, 225, 244, 226, 0 
2017-09-07 15:58:49, 4, 699, 66, 200, 43, 24, 226, 225, 244, 226, 1 
2017-09-07 15:58:50, 4, 699, 77, 100, 39, 22, 203, 202, 215, 203, 0 
2017-09-07 15:58:51, 4, 699, 77, 200, 39, 22, 203, 202, 215, 203, 0 
2017-09-07 15:58:52, 5, 690, 44, 100, 33, 19, 173, 172, 182, 169, 0 
2017-09-07 15:58:53, 5, 690, 44, 200, 33, 19, 173, 172, 182, 169, 0 
2017-09-07 15:58:53, 5, 690, 55, 100, 61, 33, 318, 317, 353, 318, 0 
2017-09-07 15:58:54, 5, 690, 55, 200, 62, 33, 318, 317, 353, 318, 1 
2017-09-07 15:58:55, 5, 690, 66, 100, 44, 24, 228, 227, 244, 227, 0 
2017-09-07 15:58:55, 5, 690, 66, 200, 44, 24, 228, 227, 244, 227, 0 
2017-09-07 15:58:56, 5, 690, 77, 100, 39, 22, 206, 204, 217, 204, 0 
2017-09-07 15:58:57, 5, 690, 77, 200, 39, 22, 206, 204, 217, 204, 0 
2017-09-07 15:58:58, 6, 681, 44, 100, 33, 19, 175, 175, 187, 174, 0 
2017-09-07 15:58:58, 6, 681, 44, 200, 33, 19, 176, 175, 187, 174, 1 
2017-09-07 15:58:59, 6, 681, 55, 100, 62, 33, 321, 320, 356, 319, 0 
2017-09-07 15:59:00, 6, 681, 55, 200, 62, 33, 322, 320, 356, 321, 1 
2017-09-07 15:59:01, 6, 681, 66, 100, 44, 24, 231, 229, 249, 232, 0 
2017-09-07 15:59:01, 6, 681, 66, 200, 44, 24, 231, 229, 249, 232, 0 
2017-09-07 15:59:02, 6, 681, 77, 100, 39, 22, 208, 207, 222, 208, 0 
2017-09-07 15:59:03, 6, 681, 77, 200, 39, 22, 208, 207, 222, 208, 0 
2017-09-07 15:59:04, 7, 671, 44, 100, 33, 18, 178, 177, 188, 174, 0 
2017-09-07 15:59:04, 7, 671, 44, 200, 33, 18, 178, 177, 188, 174, 0 
2017-09-07 15:59:05, 7, 671, 55, 100, 62, 32, 325, 323, 358, 323, 0 
2017-09-07 15:59:06, 7, 671, 55, 200, 62, 32, 325, 323, 358, 323, 0 
2017-09-07 15:59:07, 7, 671, 66, 100, 44, 24, 233, 232, 249, 232, 0 
2017-09-07 15:59:07, 7, 671, 66, 200, 44, 24, 233, 232, 249, 232, 0 
2017-09-07 15:59:08, 7, 671, 77, 100, 39, 22, 210, 209, 222, 208, 0 
2017-09-07 15:59:09, 7, 671, 77, 200, 39, 22, 210, 209, 222, 208, 0 
2017-09-07 15:59:10, 8, 659, 44, 100, 33, 18, 180, 179, 192, 179, 0 
2017-09-07 15:59:10, 8, 659, 44, 200, 33, 18, 180, 179, 192, 179, 0 
2017-09-07 15:59:11, 8, 659, 55, 100, 62, 32, 328, 326, 363, 327, 0 
2017-09-07 15:59:12, 8, 659, 55, 200, 62, 32, 328, 327, 365, 327, 1 
2017-09-07 15:59:12, 8, 659, 66, 100, 44, 24, 236, 235, 254, 237, 0 
2017-09-07 15:59:13, 8, 659, 66, 200, 44, 23, 236, 235, 254, 237, 1 
2017-09-07 15:59:14, 8, 659, 77, 100, 39, 22, 213, 212, 227, 213, 1 
2017-09-07 15:59:14, 8, 659, 77, 200, 39, 21, 213, 212, 227, 213, 1 
2017-09-07 15:59:16, 9, 646, 44, 100, 33, 18, 183, 182, 192, 181, 0 
2017-09-07 15:59:16, 9, 646, 44, 200, 33, 18, 183, 182, 192, 180, 1 
2017-09-07 15:59:17, 9, 646, 55, 100, 62, 32, 333, 331, 371, 332, 0 
2017-09-07 15:59:18, 9, 646, 55, 200, 62, 32, 333, 330, 370, 332, 2 
2017-09-07 15:59:18, 9, 646, 66, 100, 44, 23, 240, 239, 259, 242, 0 
2017-09-07 15:59:19, 9, 646, 66, 200, 44, 23, 240, 239, 259, 242, 0 
2017-09-07 15:59:20, 9, 646, 77, 100, 40, 21, 217, 215, 232, 219, 0 
2017-09-07 15:59:20, 9, 646, 77, 200, 39, 21, 217, 215, 232, 219, 1 
2017-09-07 15:59:22, 10, 633, 44, 100, 33, 18, 187, 185, 197, 185, 0 
2017-09-07 15:59:22, 10, 633, 44, 200, 33, 18, 187, 185, 197, 185, 0 
2017-09-07 15:59:23, 10, 633, 55, 100, 62, 32, 338, 335, 375, 337, 0 
2017-09-07 15:59:24, 10, 633, 55, 200, 62, 31, 338, 336, 375, 337, 2 
2017-09-07 15:59:24, 10, 633, 66, 100, 44, 23, 244, 242, 264, 243, 0 
2017-09-07 15:59:25, 10, 633, 66, 200, 44, 23, 244, 243, 264, 243, 1 
2017-09-07 15:59:26, 10, 633, 77, 100, 40, 21, 220, 219, 236, 220, 0 
2017-09-07 15:59:26, 10, 633, 77, 200, 40, 20, 220, 219, 237, 220, 2 
2017-09-07 15:59:28, 11, 620, 44, 100, 33, 18, 189, 189, 202, 189, 0 
2017-09-07 15:59:28, 11, 620, 44, 200, 33, 18, 189, 189, 202, 189, 0 
2017-09-07 15:59:29, 11, 620, 55, 100, 62, 31, 343, 341, 384, 342, 0 
2017-09-07 15:59:30, 11, 620, 55, 200, 62, 31, 343, 341, 384, 342, 0 
2017-09-07 15:59:30, 11, 620, 66, 100, 44, 23, 248, 246, 270, 248, 0 
2017-09-07 15:59:31, 11, 620, 66, 200, 44, 23, 248, 246, 270, 248, 0 
2017-09-07 15:59:32, 11, 620, 77, 100, 40, 20, 224, 223, 238, 224, 0 
2017-09-07 15:59:32, 11, 620, 77, 200, 40, 20, 224, 223, 238, 224, 0 
2017-09-07 15:59:33, 12, 606, 44, 100, 33, 17, 193, 192, 206, 193, 0 
2017-09-07 15:59:34, 12, 606, 44, 200, 33, 17, 193, 192, 206, 194, 1 
2017-09-07 15:59:35, 12, 606, 55, 100, 62, 30, 349, 347, 389, 351, 0 
2017-09-07 15:59:35, 12, 606, 55, 200, 62, 30, 349, 347, 389, 350, 1 
2017-09-07 15:59:36, 12, 606, 66, 100, 44, 22, 253, 251, 275, 250, 0 
2017-09-07 15:59:37, 12, 606, 66, 200, 44, 22, 253, 251, 275, 250, 0 
2017-09-07 15:59:38, 12, 606, 77, 100, 40, 20, 229, 227, 244, 228, 0 
2017-09-07 15:59:38, 12, 606, 77, 200, 40, 20, 229, 227, 242, 228, 0 
2017-09-07 15:59:39, 13, 593, 44, 100, 33, 17, 197, 196, 211, 195, 0 
2017-09-07 15:59:40, 13, 593, 44, 200, 33, 17, 197, 196, 211, 195, 0 
2017-09-07 15:59:41, 13, 593, 55, 100, 62, 29, 355, 354, 398, 352, 0 
2017-09-07 15:59:41, 13, 593, 55, 200, 62, 29, 355, 353, 398, 352, 1 
2017-09-07 15:59:42, 13, 593, 66, 100, 44, 21, 257, 256, 281, 254, 0 
2017-09-07 15:59:43, 13, 593, 66, 200, 44, 21, 257, 256, 281, 254, 0 
2017-09-07 15:59:44, 13, 593, 77, 100, 40, 20, 233, 231, 251, 233, 1 
2017-09-07 15:59:44, 13, 593, 77, 200, 40, 20, 233, 231, 251, 233, 0 
2017-09-07 15:59:45, 14, 580, 44, 100, 33, 17, 201, 200, 216, 200, 0 
2017-09-07 15:59:46, 14, 580, 44, 200, 33, 17, 201, 200, 216, 200, 0 
2017-09-07 15:59:47, 14, 580, 55, 100, 62, 29, 362, 360, 407, 358, 0 
2017-09-07 15:59:47, 14, 580, 55, 200, 62, 29, 362, 360, 407, 360, 0 
2017-09-07 15:59:48, 14, 580, 66, 100, 44, 21, 263, 261, 286, 259, 0 
2017-09-07 15:59:49, 14, 580, 66, 200, 44, 21, 262, 261, 286, 260, 2 
2017-09-07 15:59:49, 14, 580, 77, 100, 40, 19, 237, 236, 256, 235, 0 
2017-09-07 15:59:50, 14, 580, 77, 200, 40, 19, 237, 236, 256, 235, 0 
2017-09-07 15:59:51, 15, 566, 44, 100, 34, 17, 205, 204, 221, 205, 0 
2017-09-07 15:59:52, 15, 566, 44, 200, 34, 17, 205, 204, 221, 205, 0 
2017-09-07 15:59:53, 15, 566, 55, 100, 63, 28, 369, 368, 419, 366, 0 
2017-09-07 15:59:53, 15, 566, 55, 200, 63, 28, 370, 368, 419, 366, 1 
2017-09-07 15:59:54, 15, 566, 66, 100, 44, 21, 268, 267, 292, 265, 0 
2017-09-07 15:59:55, 15, 566, 66, 200, 44, 21, 268, 267, 292, 265, 0 
2017-09-07 15:59:55, 15, 566, 77, 100, 40, 19, 242, 241, 261, 240, 0 
2017-09-07 15:59:56, 15, 566, 77, 200, 40, 19, 242, 241, 261, 240, 0 
2017-09-07 15:59:57, 16, 552, 44, 100, 34, 16, 210, 209, 226, 210, 0 
2017-09-07 15:59:58, 16, 552, 44, 200, 34, 16, 210, 209, 226, 210, 0 
2017-09-07 15:59:59, 16, 552, 55, 100, 63, 28, 376, 375, 425, 376, 0 
2017-09-07 15:59:59, 16, 552, 55, 200, 63, 28, 377, 375, 425, 376, 1 
2017-09-07 16:00:00, 16, 552, 66, 100, 44, 20, 273, 272, 301, 271, 0 
2017-09-07 16:00:01, 16, 552, 66, 200, 45, 20, 273, 272, 301, 271, 1 
2017-09-07 16:00:01, 16, 552, 77, 100, 40, 19, 248, 246, 267, 245, 1 
2017-09-07 16:00:02, 16, 552, 77, 200, 40, 19, 248, 246, 267, 245, 0 
2017-09-07 16:00:03, 17, 538, 44, 100, 34, 16, 211, 210, 227, 210, 0 
2017-09-07 16:00:04, 17, 538, 44, 200, 34, 16, 211, 210, 227, 210, 0 
2017-09-07 16:00:04, 17, 538, 55, 100, 63, 28, 377, 375, 425, 376, 0 
2017-09-07 16:00:05, 17, 538, 55, 200, 63, 28, 377, 375, 425, 376, 0 
2017-09-07 16:00:06, 17, 538, 66, 100, 45, 20, 273, 272, 301, 271, 0 
2017-09-07 16:00:07, 17, 538, 66, 200, 45, 20, 273, 272, 301, 271, 0 
2017-09-07 16:00:07, 17, 538, 77, 100, 40, 19, 248, 246, 267, 245, 1 
2017-09-07 16:00:08, 17, 538, 77, 200, 40, 19, 248, 246, 267, 245, 0 
2017-09-07 16:00:09, 18, 538, 44, 100, 34, 16, 211, 210, 227, 210, 0 
2017-09-07 16:00:10, 18, 538, 44, 200, 34, 16, 211, 210, 227, 210, 0 
2017-09-07 16:00:10, 18, 538, 55, 100, 63, 28, 377, 376, 425, 376, 0 
2017-09-07 16:00:11, 18, 538, 55, 200, 63, 28, 377, 375, 425, 376, 1 
2017-09-07 16:00:12, 18, 538, 66, 100, 44, 20, 273, 272, 301, 271, 0 
2017-09-07 16:00:12, 18, 538, 66, 200, 45, 20, 273, 272, 301, 271, 1 
2017-09-07 16:00:13, 18, 538, 77, 100, 40, 19, 247, 246, 267, 245, 1 
2017-09-07 16:00:14, 18, 538, 77, 200, 40, 19, 247, 246, 267, 245, 0 
2017-09-07 16:00:15, 19, 538, 44, 100, 34, 16, 211, 210, 227, 210, 0 
2017-09-07 16:00:16, 19, 538, 44, 200, 34, 16, 211, 210, 227, 210, 0 
2017-09-07 16:00:16, 19, 538, 55, 100, 63, 28, 377, 375, 425, 376, 0 
2017-09-07 16:00:17, 19, 538, 55, 200, 63, 28, 377, 376, 425, 376, 1 
2017-09-07 16:00:18, 19, 538, 66, 100, 45, 20, 273, 272, 301, 271, 0 
2017-09-07 16:00:18, 19, 538, 66, 200, 45, 20, 273, 272, 301, 271, 0 
2017-09-07 16:00:19, 19, 538, 77, 100, 40, 19, 248, 246, 267, 245, 1 
2017-09-07 16:00:20, 19, 538, 77, 200, 40, 19, 248, 246, 267, 245, 0 
2017-09-07 16:00:21, 20, 538, 44, 100, 34, 16, 211, 210, 227, 210, 0 
2017-09-07 16:00:22, 20, 538, 44, 200, 34, 16, 211, 210, 227, 210, 0 
2017-09-07 16:00:22, 20, 538, 55, 100, 63, 28, 377, 376, 425, 376, 0 
2017-09-07 16:00:23, 20, 538, 55, 200, 63, 28, 377, 375, 425, 376, 1 
2017-09-07 16:00:24, 20, 538, 66, 100, 44, 20, 273, 272, 301, 271, 0 
2017-09-07 16:00:24, 20, 538, 66, 200, 44, 20, 273, 272, 301, 271, 0 
2017-09-07 16:00:25, 20, 538, 77, 100, 40, 19, 248, 247, 267, 245, 1 
2017-09-07 16:00:26, 20, 538, 77, 200, 40, 19, 248, 246, 267, 245, 1 
2017-09-07 16:00:27, 21, 538, 44, 100, 34, 16, 211, 210, 227, 210, 0 
2017-09-07 16:00:27, 21, 538, 44, 200, 34, 16, 211, 210, 227, 210, 0 
2017-09-07 16:00:28, 21, 538, 55, 100, 63, 28, 377, 375, 425, 376, 0 
2017-09-07 16:00:29, 21, 538, 55, 200, 63, 28, 377, 375, 425, 376, 0 
2017-09-07 16:00:30, 21, 538, 66, 100, 45, 20, 273, 272, 301, 271, 0 
2017-09-07 16:00:30, 21, 538, 66, 200, 45, 20, 273, 272, 301, 271, 0 
2017-09-07 16:00:31, 21, 538, 77, 100, 40, 19, 247, 246, 267, 245, 1 
2017-09-07 16:00:32, 21, 538, 77, 200, 40, 19, 248, 247, 267, 245, 2 
2017-09-07 16:00:33, 22, 538, 44, 100, 34, 16, 211, 210, 227, 210, 0 
2017-09-07 16:00:33, 22, 538, 44, 200, 34, 16, 211, 210, 227, 210, 0 
2017-09-07 16:00:34, 22, 538, 55, 100, 63, 28, 377, 375, 425, 376, 0 
2017-09-07 16:00:35, 22, 538, 55, 200, 63, 28, 377, 375, 425, 376, 0 
2017-09-07 16:00:36, 22, 538, 66, 100, 45, 20, 273, 272, 301, 271, 0 
2017-09-07 16:00:36, 22, 538, 66, 200, 44, 20, 273, 272, 301, 271, 1 
2017-09-07 16:00:37, 22, 538, 77, 100, 40, 19, 248, 247, 267, 245, 1 
2017-09-07 16:00:38, 22, 538, 77, 200, 40, 19, 248, 246, 267, 245, 1 
2017-09-07 16:00:39, 23, 538, 44, 100, 34, 16, 211, 210, 227, 210, 0 
2017-09-07 16:00:39, 23, 538, 44, 200, 34, 16, 211, 209, 227, 210, 1 
2017-09-07 16:00:40, 23, 538, 55, 100, 63, 28, 377, 375, 425, 376, 0 
2017-09-07 16:00:41, 23, 538, 55, 200, 63, 28, 377, 375, 425, 376, 0 
2017-09-07 16:00:41, 23, 538, 66, 100, 45, 20, 273, 272, 301, 271, 0 
2017-09-07 16:00:42, 23, 538, 66, 200, 44, 20, 273, 272, 301, 271, 1 
2017-09-07 16:00:43, 23, 538, 77, 100, 40, 19, 248, 246, 267, 245, 1 
2017-09-07 16:00:44, 23, 538, 77, 200, 40, 19, 248, 246, 267, 245, 0 
2017-09-07 16:00:45, 24, 538, 44, 100, 34, 16, 210, 210, 227, 210, 0 
2017-09-07 16:00:45, 24, 538, 44, 200, 34, 16, 211, 210, 227, 210, 1 
2017-09-07 16:00:46, 24, 538, 55, 100, 63, 28, 377, 375, 426, 376, 0 
2017-09-07 16:00:47, 24, 538, 55, 200, 63, 28, 377, 375, 425, 376, 1 
2017-09-07 16:00:47, 24, 538, 66, 100, 45, 20, 273, 272, 302, 271, 0 
2017-09-07 16:00:48, 24, 538, 66, 200, 44, 20, 273, 272, 301, 271, 2 
2017-09-07 16:00:49, 24, 538, 77, 100, 40, 19, 248, 246, 267, 245, 1 
2017-09-07 16:00:49, 24, 538, 77, 200, 40, 19, 248, 246, 267, 245, 0 
2017-09-07 16:00:51, 25, 538, 44, 100, 34, 16, 211, 210, 227, 210, 0 
2017-09-07 16:00:51, 25, 538, 44, 200, 34, 16, 211, 210, 227, 210, 0 
2017-09-07 16:00:52, 25, 538, 55, 100, 63, 28, 377, 376, 425, 376, 0 
2017-09-07 16:00:53, 25, 538, 55, 200, 63, 28, 377, 375, 425, 376, 1 
2017-09-07 16:00:53, 25, 538, 66, 100, 44, 20, 273, 272, 301, 271, 0 
2017-09-07 16:00:54, 25, 538, 66, 200, 44, 20, 273, 272, 301, 271, 0 
2017-09-07 16:00:55, 25, 538, 77, 100, 40, 19, 248, 246, 267, 245, 1 
2017-09-07 16:00:55, 25, 538, 77, 200, 40, 19, 248, 246, 267, 245, 0 
2017-09-07 16:00:57, 26, 538, 44, 100, 34, 16, 211, 210, 227, 210, 0 
2017-09-07 16:00:57, 26, 538, 44, 200, 34, 16, 211, 210, 227, 210, 0 
2017-09-07 16:00:58, 26, 538, 55, 100, 63, 28, 377, 375, 425, 376, 0 
2017-09-07 16:00:59, 26, 538, 55, 200, 63, 28, 377, 375, 425, 376, 0 
2017-09-07 16:00:59, 26, 538, 66, 100, 44, 20, 273, 272, 301, 271, 0 
2017-09-07 16:01:00, 26, 538, 66, 200, 45, 20, 273, 272, 301, 271, 1 
2017-09-07 16:01:01, 26, 538, 77, 100, 40, 19, 248, 247, 267, 245, 1 
2017-09-07 16:01:01, 26, 538, 77, 200, 40, 19, 248, 246, 267, 245, 1 
2017-09-07 16:01:02, 27, 538, 44, 100, 34, 16, 211, 210, 227, 210, 0 
2017-09-07 16:01:03, 27, 538, 44, 200, 34, 16, 210, 210, 227, 210, 1 
2017-09-07 16:01:04, 27, 538, 55, 100, 63, 28, 377, 375, 425, 376, 0 
2017-09-07 16:01:04, 27, 538, 55, 200, 63, 28, 377, 375, 425, 376, 0 
2017-09-07 16:01:05, 27, 538, 66, 100, 44, 20, 273, 272, 301, 271, 0 
2017-09-07 16:01:06, 27, 538, 66, 200, 45, 20, 273, 272, 301, 271, 1 
2017-09-07 16:01:07, 27, 538, 77, 100, 40, 19, 248, 246, 267, 245, 1 
2017-09-07 16:01:07, 27, 538, 77, 200, 40, 19, 247, 246, 267, 245, 1 
2017-09-07 16:01:08, 28, 538, 44, 100, 34, 16, 211, 210, 227, 210, 0 
2017-09-07 16:01:09, 28, 538, 44, 200, 34, 16, 210, 210, 227, 210, 1 
2017-09-07 16:01:10, 28, 538, 55, 100, 63, 28, 377, 375, 425, 376, 0 
2017-09-07 16:01:10, 28, 538, 55, 200, 63, 28, 377, 375, 425, 376, 0 
2017-09-07 16:01:11, 28, 538, 66, 100, 45, 20, 273, 272, 301, 271, 0 
2017-09-07 16:01:12, 28, 538, 66, 200, 45, 20, 273, 272, 301, 271, 0 
2017-09-07 16:01:13, 28, 538, 77, 100, 40, 19, 247, 246, 267, 245, 1 
2017-09-07 16:01:13, 28, 538, 77, 200, 40, 19, 248, 246, 267, 245, 1 
2017-09-07 16:01:14, 29, 538, 44, 100, 34, 16, 210, 210, 227, 210, 0 
2017-09-07 16:01:15, 29, 538, 44, 200, 34, 16, 211, 210, 227, 210, 1 
2017-09-07 16:01:16, 29, 538, 55, 100, 63, 28, 377, 375, 425, 376, 0 
2017-09-07 16:01:16, 29, 538, 55, 200, 63, 28, 377, 375, 425, 376, 0 
2017-09-07 16:01:17, 29, 538, 66, 100, 45, 20, 273, 272, 301, 271, 0 
2017-09-07 16:01:18, 29, 538, 66, 200, 45, 20, 273, 272, 301, 271, 0 
2017-09-07 16:01:18, 29, 538, 77, 100, 40, 19, 247, 246, 267, 245, 1 
2017-09-07 16:01:19, 29, 538, 77, 200, 40, 19, 248, 246, 267, 245, 1 
2017-09-07 16:01:20, 30, 538, 44, 100, 34, 16, 210, 209, 227, 210, 0 
2017-09-07 16:01:21, 30, 538, 44, 200, 34, 16, 211, 210, 227, 210, 2 
2017-09-07 16:01:22, 30, 538, 55, 100, 63, 28, 377, 375, 425, 376, 0 
2017-09-07 16:01:22, 30, 538, 55, 200, 63, 28, 377, 375, 425, 376, 0 
2017-09-07 16:01:23, 30, 538, 66, 100, 45, 20, 273, 272, 301, 271, 0 
2017-09-07 16:01:24, 30, 538, 66, 200, 45, 20, 273, 272, 301, 271, 0 
2017-09-07 16:01:24, 30, 538, 77, 100, 40, 19, 247, 246, 267, 245, 1 
2017-09-07 16:01:25, 30, 538, 77, 200, 40, 19, 248, 246, 267, 245, 1 
2017-09-07 16:01:26, 31, 538, 44, 100, 34, 16, 210, 210, 227, 210, 0 
2017-09-07 16:01:27, 31, 538, 44, 200, 34, 16, 211, 210, 227, 210, 1 
2017-09-07 16:01:28, 31, 538, 55, 100, 63, 28, 377, 375, 425, 376, 0 
2017-09-07 16:01:28, 31, 538, 55, 200, 63, 28, 377, 375, 425, 376, 0 
2017-09-07 16:01:29, 31, 538, 66, 100, 45, 20, 273, 272, 301, 271, 0 
2017-09-07 16:01:30, 31, 538, 66, 200, 45, 20, 273, 272, 301, 271, 0 
2017-09-07 16:01:30, 31, 538, 77, 100, 40, 19, 247, 246, 267, 245, 1 
2017-09-07 16:01:31, 31, 538, 77, 200, 40, 19, 247, 246, 267, 245, 0 
2017-09-07 16:01:32, 32, 538, 44, 100, 31, 18, 172, 171, 183, 168, 1 
2017-09-07 16:01:33, 32, 538, 44, 200, 31, 18, 172, 171, 183, 168, 0 
2017-09-07 16:01:34, 32, 538, 55, 100, 60, 33, 305, 303, 337, 301, 0 
2017-09-07 16:01:34, 32, 538, 55, 200, 60, 33, 305, 304, 337, 301, 1 
2017-09-07 16:01:35, 32, 538, 66, 100, 42, 24, 215, 215, 230, 216, 0 
2017-09-07 16:01:36, 32, 538, 66, 200, 42, 23, 215, 215, 230, 216, 1 
2017-09-07 16:01:36, 32, 538, 77, 100, 38, 22, 193, 192, 203, 193, 1 
2017-09-07 16:01:37, 32, 538, 77, 200, 38, 21, 193, 192, 203, 193, 1 
2017-09-07 16:01:38, 33, 725, 44, 100, 32, 18, 164, 164, 172, 164, 0 
2017-09-07 16:01:39, 33, 725, 44, 200, 32, 18, 164, 164, 172, 164, 0 
2017-09-07 16:01:39, 33, 725, 55, 100, 60, 33, 306, 305, 335, 304, 0 
2017-09-07 16:01:40, 33, 725, 55, 200, 60, 33, 306, 304, 337, 304, 1 
2017-09-07 16:01:41, 33, 725, 66, 100, 42, 24, 218, 217, 233, 216, 0 
2017-09-07 16:01:41, 33, 725, 66, 200, 42, 24, 218, 217, 234, 216, 1 
2017-09-07 16:01:42, 33, 725, 77, 100, 38, 22, 196, 195, 207, 193, 0 
2017-09-07 16:01:43, 33, 725, 77, 200, 38, 22, 196, 195, 208, 193, 1 
2017-09-07 16:01:44, 34, 717, 44, 100, 32, 18, 166, 165, 177, 164, 0 
2017-09-07 16:01:45, 34, 717, 44, 200, 32, 18, 166, 166, 177, 164, 1 
2017-09-07 16:01:45, 34, 717, 55, 100, 61, 33, 309, 308, 340, 308, 0 
2017-09-07 16:01:46, 34, 717, 55, 200, 61, 33, 309, 308, 340, 308, 0 
2017-09-07 16:01:47, 34, 717, 66, 100, 43, 24, 220, 220, 234, 221, 0 
2017-09-07 16:01:47, 34, 717, 66, 200, 43, 24, 220, 219, 236, 221, 1 
2017-09-07 16:01:48, 34, 717, 77, 100, 38, 22, 198, 197, 208, 198, 0 
2017-09-07 16:01:49, 34, 717, 77, 200, 38, 22, 198, 197, 208, 198, 0 
2017-09-07 16:01:50, 35, 708, 44, 100, 32, 18, 169, 167, 177, 165, 0 
2017-09-07 16:01:51, 35, 708, 44, 200, 32, 19, 169, 167, 177, 165, 1 
2017-09-07 16:01:51, 35, 708, 55, 100, 61, 33, 313, 310, 344, 308, 0 
2017-09-07 16:01:52, 35, 708, 55, 200, 61, 33, 312, 311, 344, 309, 3 
2017-09-07 16:01:53, 35, 708, 66, 100, 43, 24, 223, 221, 239, 221, 0 
2017-09-07 16:01:53, 35, 708, 66, 200, 43, 24, 223, 222, 239, 221, 1 
2017-09-07 16:01:54, 35, 708, 77, 100, 39, 22, 201, 199, 212, 198, 0 
2017-09-07 16:01:55, 35, 708, 77, 200, 39, 22, 201, 200, 212, 198, 1 
2017-09-07 16:01:56, 36, 699, 44, 100, 33, 19, 171, 170, 182, 169, 0 
2017-09-07 16:01:57, 36, 699, 44, 200, 33, 19, 171, 170, 182, 169, 0 
2017-09-07 16:01:57, 36, 699, 55, 100, 61, 33, 316, 314, 349, 313, 0 
2017-09-07 16:01:58, 36, 699, 55, 200, 61, 33, 315, 314, 349, 313, 1 
2017-09-07 16:01:59, 36, 699, 66, 100, 44, 24, 226, 225, 244, 226, 0 
2017-09-07 16:01:59, 36, 699, 66, 200, 43, 24, 226, 225, 244, 226, 1 
2017-09-07 16:02:00, 36, 699, 77, 100, 39, 22, 203, 202, 216, 203, 0 
2017-09-07 16:02:01, 36, 699, 77, 200, 39, 22, 203, 202, 215, 203, 1 
2017-09-07 16:02:02, 37, 690, 44, 100, 33, 19, 173, 172, 183, 169, 0 
2017-09-07 16:02:02, 37, 690, 44, 200, 33, 19, 173, 172, 182, 169, 1 
2017-09-07 16:02:03, 37, 690, 55, 100, 62, 33, 318, 317, 352, 318, 0 
2017-09-07 16:02:04, 37, 690, 55, 200, 62, 33, 318, 317, 352, 318, 0 
2017-09-07 16:02:05, 37, 690, 66, 100, 44, 24, 228, 227, 244, 227, 0 
2017-09-07 16:02:05, 37, 690, 66, 200, 44, 24, 228, 227, 244, 227, 0 
2017-09-07 16:02:06, 37, 690, 77, 100, 39, 22, 206, 205, 217, 203, 0 
2017-09-07 16:02:07, 37, 690, 77, 200, 39, 22, 206, 205, 217, 203, 0 
2017-09-07 16:02:08, 38, 681, 44, 100, 33, 19, 175, 175, 187, 173, 0 
2017-09-07 16:02:08, 38, 681, 44, 200, 33, 19, 175, 175, 187, 173, 0 
2017-09-07 16:02:09, 38, 681, 55, 100, 61, 33, 322, 320, 355, 320, 0 
2017-09-07 16:02:10, 38, 681, 55, 200, 62, 33, 321, 320, 354, 321, 4 
2017-09-07 16:02:10, 38, 681, 66, 100, 44, 24, 230, 229, 249, 232, 0 
2017-09-07 16:02:11, 38, 681, 66, 200, 44, 24, 231, 230, 249, 232, 2 
2017-09-07 16:02:12, 38, 681, 77, 100, 39, 22, 208, 207, 222, 208, 0 
2017-09-07 16:02:13, 38, 681, 77, 200, 39, 22, 208, 207, 222, 208, 0 
2017-09-07 16:02:14, 39, 671, 44, 100, 33, 18, 177, 177, 188, 174, 0 
2017-09-07 16:02:14, 39, 671, 44, 200, 33, 18, 178, 176, 188, 174, 2 
2017-09-07 16:02:15, 39, 671, 55, 100, 62, 32, 325, 324, 359, 323, 0 
2017-09-07 16:02:16, 39, 671, 55, 200, 62, 32, 325, 323, 359, 323, 1 
2017-09-07 16:02:16, 39, 671, 66, 100, 44, 24, 233, 232, 249, 232, 0 
2017-09-07 16:02:17, 39, 671, 66, 200, 44, 24, 233, 232, 249, 232, 0 
2017-09-07 16:02:18, 39, 671, 77, 100, 39, 22, 210, 209, 222, 208, 0 
2017-09-07 16:02:18, 39, 671, 77, 200, 39, 22, 210, 209, 222, 208, 0 
2017-09-07 16:02:20, 40, 659, 44, 100, 33, 18, 180, 179, 192, 179, 0 
2017-09-07 16:02:20, 40, 659, 44, 200, 33, 18, 180, 179, 192, 179, 0 
2017-09-07 16:02:21, 40, 659, 55, 100, 62, 32, 328, 327, 363, 327, 0 
2017-09-07 16:02:22, 40, 659, 55, 200, 62, 32, 329, 327, 363, 327, 1 
2017-09-07 16:02:22, 40, 659, 66, 100, 44, 24, 236, 235, 254, 237, 0 
2017-09-07 16:02:23, 40, 659, 66, 200, 44, 24, 236, 235, 254, 237, 0 
2017-09-07 16:02:24, 40, 659, 77, 100, 39, 22, 213, 212, 227, 213, 0 
2017-09-07 16:02:24, 40, 659, 77, 200, 40, 22, 213, 212, 227, 213, 1 
2017-09-07 16:02:26, 41, 646, 44, 100, 33, 18, 183, 182, 192, 180, 0 
2017-09-07 16:02:26, 41, 646, 44, 200, 33, 18, 183, 182, 192, 180, 0 
2017-09-07 16:02:27, 41, 646, 55, 100, 62, 32, 333, 331, 371, 332, 0 
2017-09-07 16:02:28, 41, 646, 55, 200, 62, 32, 333, 331, 371, 332, 0 
2017-09-07 16:02:28, 41, 646, 66, 100, 44, 23, 240, 239, 259, 242, 0 
2017-09-07 16:02:29, 41, 646, 66, 200, 44, 23, 240, 239, 259, 242, 0 
2017-09-07 16:02:30, 41, 646, 77, 100, 40, 21, 217, 215, 232, 219, 0 
2017-09-07 16:02:30, 41, 646, 77, 200, 39, 21, 217, 216, 232, 219, 2 
2017-09-07 16:02:31, 42, 633, 44, 100, 33, 18, 187, 185, 197, 185, 0 
2017-09-07 16:02:32, 42, 633, 44, 200, 33, 18, 187, 186, 197, 185, 1 
2017-09-07 16:02:33, 42, 633, 55, 100, 62, 31, 338, 335, 375, 337, 0 
2017-09-07 16:02:33, 42, 633, 55, 200, 62, 31, 338, 336, 375, 337, 1 
2017-09-07 16:02:34, 42, 633, 66, 100, 44, 23, 244, 242, 264, 243, 0 
2017-09-07 16:02:35, 42, 633, 66, 200, 44, 23, 244, 243, 264, 243, 1 
2017-09-07 16:02:36, 42, 633, 77, 100, 40, 20, 220, 219, 237, 220, 0 
2017-09-07 16:02:36, 42, 633, 77, 200, 40, 21, 220, 219, 235, 219, 2 
2017-09-07 16:02:37, 43, 620, 44, 100, 33, 18, 189, 189, 202, 189, 0 
2017-09-07 16:02:38, 43, 620, 44, 200, 33, 18, 190, 189, 202, 189, 1 
2017-09-07 16:02:39, 43, 620, 55, 100, 62, 31, 343, 341, 384, 342, 0 
2017-09-07 16:02:39, 43, 620, 55, 200, 62, 31, 343, 341, 384, 342, 0 
2017-09-07 16:02:40, 43, 620, 66, 100, 44, 23, 248, 246, 270, 248, 0 
2017-09-07 16:02:41, 43, 620, 66, 200, 44, 23, 248, 246, 270, 248, 0 
2017-09-07 16:02:42, 43, 620, 77, 100, 40, 20, 224, 223, 238, 224, 0 
2017-09-07 16:02:42, 43, 620, 77, 200, 40, 20, 224, 223, 238, 224, 0 
2017-09-07 16:02:43, 44, 606, 44, 100, 33, 17, 193, 192, 206, 193, 0 
2017-09-07 16:02:44, 44, 606, 44, 200, 33, 17, 193, 192, 206, 193, 0 
2017-09-07 16:02:45, 44, 606, 55, 100, 62, 30, 349, 347, 390, 351, 0 
2017-09-07 16:02:45, 44, 606, 55, 200, 62, 30, 349, 347, 389, 351, 1 
2017-09-07 16:02:46, 44, 606, 66, 100, 44, 22, 253, 251, 275, 250, 0 
2017-09-07 16:02:47, 44, 606, 66, 200, 44, 23, 253, 251, 275, 250, 1 
2017-09-07 16:02:47, 44, 606, 77, 100, 40, 20, 229, 227, 244, 228, 0 
2017-09-07 16:02:48, 44, 606, 77, 200, 40, 20, 229, 227, 243, 228, 1 
2017-09-07 16:02:49, 45, 593, 44, 100, 33, 17, 197, 196, 211, 195, 0 
2017-09-07 16:02:50, 45, 593, 44, 200, 33, 17, 197, 196, 211, 195, 0 
2017-09-07 16:02:51, 45, 593, 55, 100, 62, 29, 355, 353, 398, 352, 0 
2017-09-07 16:02:51, 45, 593, 55, 200, 62, 29, 355, 353, 398, 352, 0 
2017-09-07 16:02:52, 45, 593, 66, 100, 44, 21, 257, 256, 281, 254, 0 
2017-09-07 16:02:53, 45, 593, 66, 200, 44, 21, 257, 255, 281, 254, 1 
2017-09-07 16:02:53, 45, 593, 77, 100, 40, 20, 232, 231, 251, 233, 1 
2017-09-07 16:02:54, 45, 593, 77, 200, 40, 20, 232, 231, 250, 233, 1 
2017-09-07 16:02:55, 46, 580, 44, 100, 33, 17, 201, 200, 216, 200, 0 
2017-09-07 16:02:56, 46, 580, 44, 200, 33, 17, 201, 200, 216, 200, 0 
2017-09-07 16:02:57, 46, 580, 55, 100, 63, 29, 362, 360, 407, 357, 0 
2017-09-07 16:02:57, 46, 580, 55, 200, 62, 29, 361, 360, 407, 358, 3 
2017-09-07 16:02:58, 46, 580, 66, 100, 44, 21, 263, 261, 286, 259, 0 
2017-09-07 16:02:59, 46, 580, 66, 200, 44, 21, 262, 261, 286, 259, 1 
2017-09-07 16:02:59, 46, 580, 77, 100, 40, 19, 237, 236, 256, 235, 0 
2017-09-07 16:03:00, 46, 580, 77, 200, 40, 19, 237, 236, 256, 235, 0 
2017-09-07 16:03:01, 47, 566, 44, 100, 34, 17, 205, 204, 221, 205, 0 
2017-09-07 16:03:02, 47, 566, 44, 200, 34, 17, 205, 204, 221, 205, 0 
2017-09-07 16:03:03, 47, 566, 55, 100, 62, 28, 370, 368, 419, 366, 0 
2017-09-07 16:03:03, 47, 566, 55, 200, 63, 28, 369, 367, 419, 366, 3 
2017-09-07 16:03:04, 47, 566, 66, 100, 44, 21, 268, 267, 292, 265, 0 
2017-09-07 16:03:05, 47, 566, 66, 200, 44, 21, 268, 267, 292, 265, 0 
2017-09-07 16:03:05, 47, 566, 77, 100, 40, 19, 242, 241, 261, 240, 0 
2017-09-07 16:03:06, 47, 566, 77, 200, 40, 19, 242, 241, 261, 240, 0 
2017-09-07 16:03:07, 48, 552, 44, 100, 34, 16, 210, 209, 226, 210, 0 
2017-09-07 16:03:08, 48, 552, 44, 200, 34, 16, 209, 209, 226, 210, 1 
2017-09-07 16:03:08, 48, 552, 55, 100, 63, 28, 377, 375, 425, 376, 0 
2017-09-07 16:03:09, 48, 552, 55, 200, 63, 28, 376, 375, 425, 376, 1 
2017-09-07 16:03:10, 48, 552, 66, 100, 45, 20, 273, 272, 301, 271, 0 
2017-09-07 16:03:10, 48, 552, 66, 200, 45, 20, 273, 272, 301, 271, 0 
2017-09-07 16:03:11, 48, 552, 77, 100, 40, 19, 247, 246, 267, 245, 1 
2017-09-07 16:03:12, 48, 552, 77, 200, 40, 19, 247, 246, 267, 245, 0 
2017-09-07 16:03:13, 49, 538, 44, 100, 34, 16, 211, 210, 227, 210, 0 
2017-09-07 16:03:14, 49, 538, 44, 200, 34, 16, 211, 210, 227, 210, 0 
2017-09-07 16:03:14, 49, 538, 55, 100, 63, 28, 377, 375, 425, 376, 0 
2017-09-07 16:03:15, 49, 538, 55, 200, 63, 28, 377, 376, 425, 376, 1 
2017-09-07 16:03:16, 49, 538, 66, 100, 45, 20, 273, 272, 301, 271, 0 
2017-09-07 16:03:16, 49, 538, 66, 200, 44, 20, 273, 272, 301, 271, 1 
2017-09-07 16:03:17, 49, 538, 77, 100, 40, 19, 247, 246, 267, 245, 1 
2017-09-07 16:03:18, 49, 538, 77, 200, 40, 19, 247, 246, 267, 245, 0 
2017-09-07 16:03:21,*SeqNo.,Time,DAC_Cnt,BGO,AM_LCh0,AM_RCh0,AM_Rch1,AM_RCh2,AM_LCh3,AM_LCh3
2017-09-07 16:03:21, BGO Set:0, AM_RegBuffer:0
2017-09-07 16:03:24, BGO Set:0,725 
2017-09-07 16:03:24, Gain Set:0, AM_RegBuffer:0 
2017-09-07 16:03:29,*SeqNo.,Time,DAC_Cnt,BGO,AM_LCh0,AM_RCh0,AM_Rch1,AM_RCh2,AM_LCh3,AM_LCh3
2017-09-07 16:03:29, BGO Set:0, AM_RegBuffer:0
2017-09-07 16:03:32, BGO Set:0,733 
2017-09-07 16:03:32, Gain Set:0, AM_RegBuffer:0 
