2017-09-07 12:59:08,*SeqNo.,Time,VChan3,DVDD,BGO,NTCPWR,NC,VDD_HV,HV_Is1,HV_Is0
2017-09-07 12:59:08, BGO Set:10, AM_RegBuffer:10
2017-09-07 12:59:18,0, 283,709,16291,1253,43685,1,21017,21017 
2017-09-07 12:59:18,0, 10,27,621,47,1666,0,801,801 
2017-09-07 12:59:18, BGO Set:10, AM_RegBuffer:621
2017-09-07 12:59:18, BGO Set:11, AM_RegBuffer:11
2017-09-07 12:59:27,1, 283,683,15939,1227,43625,65535,21017,21017 
2017-09-07 12:59:27,1, 10,26,608,46,1664,2500,801,801 
2017-09-07 12:59:27, BGO Set:11, AM_RegBuffer:608
2017-09-07 12:59:27, BGO Set:12, AM_RegBuffer:12
2017-09-07 12:59:37,2, 283,657,15585,1201,43631,1,21017,21017 
2017-09-07 12:59:37,2, 10,25,594,45,1664,0,801,801 
2017-09-07 12:59:37, BGO Set:12, AM_RegBuffer:594
2017-09-07 12:59:37, BGO Set:13, AM_RegBuffer:13
2017-09-07 12:59:47,3, 283,633,15233,1173,43655,1,21017,21015 
2017-09-07 12:59:47,3, 10,24,581,44,1665,0,801,801 
2017-09-07 12:59:47, BGO Set:13, AM_RegBuffer:581
2017-09-07 12:59:47, BGO Set:14, AM_RegBuffer:14
2017-09-07 12:59:56,4, 285,607,14879,1147,43681,1,21015,21015 
2017-09-07 12:59:56,4, 10,23,567,43,1666,0,801,801 
2017-09-07 12:59:56, BGO Set:14, AM_RegBuffer:567
2017-09-07 12:59:57, BGO Set:15, AM_RegBuffer:15
2017-09-07 13:00:06,5, 285,581,14505,1119,43647,65535,21015,21015 
2017-09-07 13:00:06,5, 10,22,553,42,1665,2500,801,801 
2017-09-07 13:00:06, BGO Set:15, AM_RegBuffer:553
2017-09-07 13:00:06, BGO Set:16, AM_RegBuffer:16
2017-09-07 13:00:16,6, 285,557,14145,1091,43647,1,21017,21015 
2017-09-07 13:00:16,6, 10,21,539,41,1665,0,801,801 
2017-09-07 13:00:16, BGO Set:16, AM_RegBuffer:539
2017-09-07 13:00:16, BGO Set:17, AM_RegBuffer:17
2017-09-07 13:00:26,7, 285,557,14145,1091,43611,65535,21017,21017 
2017-09-07 13:00:26,7, 10,21,539,41,1663,2500,801,801 
2017-09-07 13:00:26, BGO Set:17, AM_RegBuffer:539
2017-09-07 13:00:26, BGO Set:18, AM_RegBuffer:18
2017-09-07 13:00:35,8, 285,557,14147,1091,43617,65535,21019,21019 
2017-09-07 13:00:35,8, 10,21,539,41,1663,2500,801,801 
2017-09-07 13:00:35, BGO Set:18, AM_RegBuffer:539
2017-09-07 13:00:36, BGO Set:19, AM_RegBuffer:19
2017-09-07 13:00:45,9, 285,557,14147,1091,43649,1,21019,21019 
2017-09-07 13:00:45,9, 10,21,539,41,1665,0,801,801 
2017-09-07 13:00:45, BGO Set:19, AM_RegBuffer:539
2017-09-07 13:00:45, BGO Set:20, AM_RegBuffer:20
2017-09-07 13:00:48,
2017-09-07 13:00:48,*******Meaure Clk Period:Time, Freq in MHz*******
2017-09-07 13:00:48,****SeqNo.,Time,DAC_Cnt.......... 38, 30400000, 0, 0 
2017-09-07 13:00:48, 38, 30400000, 1, 0 
2017-09-07 13:00:48, 38, 30400000, 2, 0 
2017-09-07 13:00:48, 37, 29600000, 3, 0 
2017-09-07 13:00:48, 38, 30400000, 4, 0 
2017-09-07 13:00:48, 38, 30400000, 5, 0 
2017-09-07 13:00:48, 38, 30400000, 6, 0 
2017-09-07 13:00:48, 37, 29600000, 7, 0 
2017-09-07 13:00:48, 38, 30400000, 8, 0 
2017-09-07 13:00:48, 37, 29600000, 9, 0 
2017-09-07 13:00:48, 39, 31200000, 10, 0 
2017-09-07 13:00:48, 38, 30400000, 11, 0 
2017-09-07 13:00:48, 38, 30400000, 12, 0 
2017-09-07 13:00:48, 38, 30400000, 13, 0 
2017-09-07 13:00:48, 37, 29600000, 14, 0 
2017-09-07 13:00:48, 38, 30400000, 15, 0 
2017-09-07 13:00:48, 38, 30400000, 16, 0 
2017-09-07 13:00:48, 37, 29600000, 17, 0 
2017-09-07 13:00:48, 38, 30400000, 18, 0 
2017-09-07 13:00:48, 38, 30400000, 19, 0 
2017-09-07 13:00:48, 38, 30400000, 20, 0 
2017-09-07 13:00:48, 38, 30400000, 21, 0 
2017-09-07 13:00:48, 37, 29600000, 22, 0 
2017-09-07 13:00:49, 38, 30400000, 23, 0 
2017-09-07 13:00:49, 38, 30400000, 24, 0 
2017-09-07 13:00:49, 38, 30400000, 25, 0 
2017-09-07 13:00:49, 37, 29600000, 26, 0 
2017-09-07 13:00:49, 38, 30400000, 27, 0 
2017-09-07 13:00:49, 38, 30400000, 28, 0 
2017-09-07 13:00:49, 39, 31200000, 29, 0 
2017-09-07 13:00:49, 38, 30400000, 30, 0 
2017-09-07 13:00:49, 37, 29600000, 31, 0 
2017-09-07 13:00:49, 37, 29600000, 32, 0 
2017-09-07 13:00:49, 38, 30400000, 33, 0 
2017-09-07 13:00:49, 38, 30400000, 34, 0 
2017-09-07 13:00:49, 38, 30400000, 35, 0 
2017-09-07 13:00:49, 38, 30400000, 36, 0 
2017-09-07 13:00:49, 38, 30400000, 37, 0 
2017-09-07 13:00:49, 38, 30400000, 38, 0 
2017-09-07 13:00:49, 38, 30400000, 39, 0 
2017-09-07 13:00:49, 37, 29600000, 40, 0 
2017-09-07 13:00:49, 38, 30400000, 41, 0 
2017-09-07 13:00:49, 37, 29600000, 42, 0 
2017-09-07 13:00:49, 38, 30400000, 43, 0 
2017-09-07 13:00:49, 39, 31200000, 44, 0 
2017-09-07 13:00:49, 38, 30400000, 45, 0 
2017-09-07 13:00:49, 37, 29600000, 46, 0 
2017-09-07 13:00:49, 38, 30400000, 47, 0 
2017-09-07 13:00:49, 37, 29600000, 48, 0 
2017-09-07 13:00:49, 38, 30400000, 49, 0 
2017-09-07 13:00:49, 38, 30400000, 50, 0 
2017-09-07 13:00:49, 38, 30400000, 51, 0 
2017-09-07 13:00:49, 37, 29600000, 52, 0 
2017-09-07 13:00:49, 38, 30400000, 53, 0 
2017-09-07 13:00:49, 37, 29600000, 54, 0 
2017-09-07 13:00:49, 38, 30400000, 55, 0 
2017-09-07 13:00:49, 37, 29600000, 56, 0 
2017-09-07 13:00:49, 39, 31200000, 57, 0 
2017-09-07 13:00:49, 38, 30400000, 58, 0 
2017-09-07 13:00:49, 38, 30400000, 59, 0 
2017-09-07 13:00:49, 39, 31200000, 60, 0 
2017-09-07 13:00:49, 37, 29600000, 61, 0 
2017-09-07 13:00:49, 39, 31200000, 62, 0 
2017-09-07 13:00:49, 38, 30400000, 63, 0 
2017-09-07 13:00:49, 38, 30400000, 64, 0 
2017-09-07 13:00:49, 38, 30400000, 65, 0 
2017-09-07 13:00:49, 38, 30400000, 66, 0 
2017-09-07 13:00:49, 38, 30400000, 67, 0 
2017-09-07 13:00:49, 39, 31200000, 68, 0 
2017-09-07 13:00:49, 38, 30400000, 69, 0 
2017-09-07 13:00:49, 37, 29600000, 70, 0 
2017-09-07 13:00:49, 37, 29600000, 71, 0 
2017-09-07 13:00:49, 38, 30400000, 72, 0 
2017-09-07 13:00:49, 38, 30400000, 73, 0 
2017-09-07 13:00:49, 38, 30400000, 74, 0 
2017-09-07 13:00:49, 37, 29600000, 75, 0 
2017-09-07 13:00:49, 38, 30400000, 76, 0 
2017-09-07 13:00:49, 37, 29600000, 77, 0 
2017-09-07 13:00:49, 38, 30400000, 78, 0 
2017-09-07 13:00:49, 38, 30400000, 79, 0 
2017-09-07 13:00:49, 38, 30400000, 80, 0 
2017-09-07 13:00:49, 38, 30400000, 81, 0 
2017-09-07 13:00:49, 38, 30400000, 82, 0 
2017-09-07 13:00:49, 38, 30400000, 83, 0 
2017-09-07 13:00:49, 38, 30400000, 84, 0 
2017-09-07 13:00:49, 39, 31200000, 85, 0 
2017-09-07 13:00:49, 37, 29600000, 86, 0 
2017-09-07 13:00:49, 37, 29600000, 87, 0 
2017-09-07 13:00:49, 38, 30400000, 88, 0 
2017-09-07 13:00:49, 38, 30400000, 89, 0 
2017-09-07 13:00:49, 38, 30400000, 90, 0 
2017-09-07 13:00:49, 38, 30400000, 91, 0 
2017-09-07 13:00:49, 38, 30400000, 92, 0 
2017-09-07 13:00:49, 37, 29600000, 93, 0 
2017-09-07 13:00:49, 37, 29600000, 94, 0 
2017-09-07 13:00:49, 38, 30400000, 95, 0 
2017-09-07 13:00:49, 38, 30400000, 96, 0 
2017-09-07 13:00:49, 37, 29600000, 97, 0 
2017-09-07 13:00:49, 38, 30400000, 98, 0 
2017-09-07 13:00:49, 39, 31200000, 99, 0 
2017-09-07 13:00:49, 38, 30400000, 100, 0 
2017-09-07 13:00:49, 37, 29600000, 101, 0 
2017-09-07 13:00:49, 38, 30400000, 102, 0 
2017-09-07 13:00:49, 39, 31200000, 103, 0 
2017-09-07 13:00:49, 38, 30400000, 104, 0 
2017-09-07 13:00:49, 38, 30400000, 105, 0 
2017-09-07 13:00:49, 39, 31200000, 106, 0 
2017-09-07 13:00:49, 38, 30400000, 107, 0 
2017-09-07 13:00:49, 38, 30400000, 108, 0 
2017-09-07 13:00:49, 38, 30400000, 109, 0 
2017-09-07 13:00:49, 38, 30400000, 110, 0 
2017-09-07 13:00:49, 38, 30400000, 111, 0 
2017-09-07 13:00:49, 38, 30400000, 112, 0 
2017-09-07 13:00:49, 38, 30400000, 113, 0 
2017-09-07 13:00:49, 38, 30400000, 114, 0 
2017-09-07 13:00:49, 38, 30400000, 115, 0 
2017-09-07 13:00:49, 38, 30400000, 116, 0 
2017-09-07 13:00:49, 38, 30400000, 117, 0 
2017-09-07 13:00:49, 38, 30400000, 118, 0 
2017-09-07 13:00:49, 38, 30400000, 119, 0 
2017-09-07 13:00:49, 38, 30400000, 120, 0 
2017-09-07 13:00:49, 38, 30400000, 121, 0 
2017-09-07 13:00:49, 38, 30400000, 122, 0 
2017-09-07 13:00:49, 37, 29600000, 123, 0 
2017-09-07 13:00:49, 38, 30400000, 124, 0 
2017-09-07 13:00:49, 37, 29600000, 125, 0 
2017-09-07 13:00:49, 38, 30400000, 126, 0 
2017-09-07 13:00:49, 38, 30400000, 127, 0 
2017-09-07 13:00:49, 38, 30400000, 128, 0 
2017-09-07 13:00:49, 38, 30400000, 129, 0 
2017-09-07 13:00:49, 38, 30400000, 130, 0 
2017-09-07 13:00:49, 37, 29600000, 131, 0 
2017-09-07 13:00:49, 37, 29600000, 132, 0 
2017-09-07 13:00:49, 37, 29600000, 133, 0 
2017-09-07 13:00:49, 38, 30400000, 134, 0 
2017-09-07 13:00:49, 38, 30400000, 135, 0 
2017-09-07 13:00:49, 38, 30400000, 136, 0 
2017-09-07 13:00:49, 38, 30400000, 137, 0 
2017-09-07 13:00:49, 38, 30400000, 138, 0 
2017-09-07 13:00:49, 38, 30400000, 139, 0 
2017-09-07 13:00:49, 38, 30400000, 140, 0 
2017-09-07 13:00:49, 37, 29600000, 141, 0 
2017-09-07 13:00:49, 38, 30400000, 142, 0 
2017-09-07 13:00:49, 38, 30400000, 143, 0 
2017-09-07 13:00:49, 38, 30400000, 144, 0 
2017-09-07 13:00:49, 38, 30400000, 145, 0 
2017-09-07 13:00:49, 38, 30400000, 146, 0 
2017-09-07 13:00:49, 38, 30400000, 147, 0 
2017-09-07 13:00:49, 38, 30400000, 148, 0 
2017-09-07 13:00:49, 38, 30400000, 149, 0 
2017-09-07 13:00:50, 38, 30400000, 150, 0 
2017-09-07 13:00:50, 39, 31200000, 151, 0 
2017-09-07 13:00:50, 39, 31200000, 152, 0 
2017-09-07 13:00:50, 38, 30400000, 153, 0 
2017-09-07 13:00:50, 37, 29600000, 154, 0 
2017-09-07 13:00:50, 38, 30400000, 155, 0 
2017-09-07 13:00:50, 38, 30400000, 156, 0 
2017-09-07 13:00:50, 38, 30400000, 157, 0 
2017-09-07 13:00:50, 38, 30400000, 158, 0 
2017-09-07 13:00:50, 38, 30400000, 159, 0 
2017-09-07 13:00:50, 37, 29600000, 160, 0 
2017-09-07 13:00:50, 37, 29600000, 161, 0 
2017-09-07 13:00:50, 38, 30400000, 162, 0 
2017-09-07 13:00:50, 37, 29600000, 163, 0 
2017-09-07 13:00:50, 38, 30400000, 164, 0 
2017-09-07 13:00:50, 37, 29600000, 165, 0 
2017-09-07 13:00:50, 37, 29600000, 166, 0 
2017-09-07 13:00:50, 38, 30400000, 167, 0 
2017-09-07 13:00:50, 37, 29600000, 168, 0 
2017-09-07 13:00:50, 38, 30400000, 169, 0 
2017-09-07 13:00:50, 38, 30400000, 170, 0 
2017-09-07 13:00:50, 38, 30400000, 171, 0 
2017-09-07 13:00:50, 38, 30400000, 172, 0 
2017-09-07 13:00:50, 38, 30400000, 173, 0 
2017-09-07 13:00:50, 38, 30400000, 174, 0 
2017-09-07 13:00:50, 38, 30400000, 175, 0 
2017-09-07 13:00:50, 39, 31200000, 176, 0 
2017-09-07 13:00:50, 38, 30400000, 177, 0 
2017-09-07 13:00:50, 37, 29600000, 178, 0 
2017-09-07 13:00:50, 38, 30400000, 179, 0 
2017-09-07 13:00:50, 38, 30400000, 180, 0 
2017-09-07 13:00:50, 38, 30400000, 181, 0 
2017-09-07 13:00:50, 38, 30400000, 182, 0 
2017-09-07 13:00:50, 38, 30400000, 183, 0 
2017-09-07 13:00:50, 38, 30400000, 184, 0 
2017-09-07 13:00:50, 38, 30400000, 185, 0 
2017-09-07 13:00:50, 37, 29600000, 186, 0 
2017-09-07 13:00:50, 38, 30400000, 187, 0 
2017-09-07 13:00:50, 38, 30400000, 188, 0 
2017-09-07 13:00:50, 38, 30400000, 189, 0 
2017-09-07 13:00:50, 38, 30400000, 190, 0 
2017-09-07 13:00:50, 38, 30400000, 191, 0 
2017-09-07 13:00:50, 37, 29600000, 192, 0 
2017-09-07 13:00:50, 38, 30400000, 193, 0 
2017-09-07 13:00:50, 37, 29600000, 194, 0 
2017-09-07 13:00:50, 38, 30400000, 195, 0 
2017-09-07 13:00:50, 38, 30400000, 196, 0 
2017-09-07 13:00:50, 38, 30400000, 197, 0 
2017-09-07 13:00:50, 37, 29600000, 198, 0 
2017-09-07 13:00:50, 38, 30400000, 199, 0 
2017-09-07 13:00:53,0, 801, 44, 100, 25, 15, 131, 130, 139, 128, 0 
2017-09-07 13:00:54, 0, 801, 44, 200, 25, 15, 131, 130, 139, 128, 0 
2017-09-07 13:00:55, 0, 801, 55, 100, 58, 32, 298, 296, 329, 294, 0 
2017-09-07 13:00:55, 0, 801, 55, 200, 58, 32, 298, 296, 328, 294, 1 
2017-09-07 13:00:56, 0, 801, 66, 100, 41, 23, 214, 213, 228, 215, 0 
2017-09-07 13:00:57, 0, 801, 66, 200, 41, 23, 214, 214, 228, 215, 1 
2017-09-07 13:00:58, 0, 801, 77, 100, 37, 21, 193, 192, 203, 192, 0 
2017-09-07 13:00:58, 0, 801, 77, 200, 37, 21, 193, 192, 203, 192, 0 
2017-09-07 13:00:59, 1, 733, 44, 100, 32, 18, 164, 164, 172, 163, 0 
2017-09-07 13:01:00, 1, 733, 44, 200, 32, 18, 164, 164, 172, 162, 1 
2017-09-07 13:01:01, 1, 733, 55, 100, 60, 33, 306, 305, 335, 304, 0 
2017-09-07 13:01:01, 1, 733, 55, 200, 60, 33, 306, 305, 335, 304, 0 
2017-09-07 13:01:02, 1, 733, 66, 100, 42, 24, 218, 217, 233, 216, 0 
2017-09-07 13:01:03, 1, 733, 66, 200, 42, 24, 218, 217, 233, 216, 0 
2017-09-07 13:01:04, 1, 733, 77, 100, 38, 22, 196, 195, 207, 193, 0 
2017-09-07 13:01:04, 1, 733, 77, 200, 38, 22, 196, 195, 207, 193, 0 
2017-09-07 13:01:05, 2, 717, 44, 100, 32, 18, 166, 165, 177, 164, 0 
2017-09-07 13:01:06, 2, 717, 44, 200, 32, 18, 166, 165, 177, 164, 0 
2017-09-07 13:01:07, 2, 717, 55, 100, 61, 33, 309, 307, 340, 308, 0 
2017-09-07 13:01:07, 2, 717, 55, 200, 61, 33, 309, 308, 340, 308, 1 
2017-09-07 13:01:08, 2, 717, 66, 100, 43, 24, 220, 219, 234, 221, 0 
2017-09-07 13:01:09, 2, 717, 66, 200, 43, 24, 220, 219, 234, 221, 0 
2017-09-07 13:01:09, 2, 717, 77, 100, 38, 22, 198, 197, 208, 198, 0 
2017-09-07 13:01:10, 2, 717, 77, 200, 38, 22, 198, 197, 208, 198, 0 
2017-09-07 13:01:11, 3, 708, 44, 100, 32, 18, 169, 167, 177, 165, 0 
2017-09-07 13:01:12, 3, 708, 44, 200, 32, 18, 169, 167, 177, 165, 0 
2017-09-07 13:01:13, 3, 708, 55, 100, 61, 33, 312, 310, 344, 308, 0 
2017-09-07 13:01:13, 3, 708, 55, 200, 61, 33, 312, 310, 344, 308, 0 
2017-09-07 13:01:14, 3, 708, 66, 100, 43, 24, 223, 222, 239, 221, 0 
2017-09-07 13:01:15, 3, 708, 66, 200, 43, 24, 223, 222, 239, 221, 0 
2017-09-07 13:01:15, 3, 708, 77, 100, 39, 22, 201, 200, 212, 198, 0 
2017-09-07 13:01:16, 3, 708, 77, 200, 39, 22, 201, 200, 212, 198, 0 
2017-09-07 13:01:17, 4, 699, 44, 100, 33, 19, 171, 170, 182, 169, 0 
2017-09-07 13:01:18, 4, 699, 44, 200, 33, 19, 171, 170, 182, 169, 0 
2017-09-07 13:01:19, 4, 699, 55, 100, 61, 33, 315, 313, 349, 313, 0 
2017-09-07 13:01:19, 4, 699, 55, 200, 61, 33, 315, 313, 349, 313, 0 
2017-09-07 13:01:20, 4, 699, 66, 100, 43, 24, 226, 224, 244, 226, 0 
2017-09-07 13:01:21, 4, 699, 66, 200, 43, 24, 226, 224, 244, 226, 0 
2017-09-07 13:01:21, 4, 699, 77, 100, 39, 22, 203, 202, 213, 203, 0 
2017-09-07 13:01:22, 4, 699, 77, 200, 39, 22, 203, 202, 213, 203, 0 
2017-09-07 13:01:23, 5, 690, 44, 100, 33, 18, 173, 172, 182, 169, 0 
2017-09-07 13:01:24, 5, 690, 44, 200, 33, 19, 173, 172, 182, 169, 1 
2017-09-07 13:01:24, 5, 690, 55, 100, 61, 33, 318, 316, 350, 318, 0 
2017-09-07 13:01:25, 5, 690, 55, 200, 61, 33, 318, 316, 351, 318, 1 
2017-09-07 13:01:26, 5, 690, 66, 100, 44, 24, 228, 227, 244, 227, 0 
2017-09-07 13:01:27, 5, 690, 66, 200, 44, 24, 228, 227, 244, 227, 0 
2017-09-07 13:01:27, 5, 690, 77, 100, 39, 22, 206, 204, 217, 203, 0 
2017-09-07 13:01:28, 5, 690, 77, 200, 39, 22, 206, 204, 217, 203, 0 
2017-09-07 13:01:29, 6, 681, 44, 100, 33, 18, 175, 174, 187, 173, 0 
2017-09-07 13:01:30, 6, 681, 44, 200, 33, 18, 175, 174, 186, 173, 1 
2017-09-07 13:01:30, 6, 681, 55, 100, 61, 32, 321, 319, 354, 318, 0 
2017-09-07 13:01:31, 6, 681, 55, 200, 61, 32, 321, 319, 354, 318, 0 
2017-09-07 13:01:32, 6, 681, 66, 100, 44, 24, 230, 229, 249, 232, 0 
2017-09-07 13:01:32, 6, 681, 66, 200, 44, 24, 231, 229, 249, 232, 1 
2017-09-07 13:01:33, 6, 681, 77, 100, 39, 22, 208, 207, 222, 208, 0 
2017-09-07 13:01:34, 6, 681, 77, 200, 39, 22, 208, 207, 222, 208, 0 
2017-09-07 13:01:35, 7, 671, 44, 100, 33, 18, 177, 176, 188, 174, 0 
2017-09-07 13:01:36, 7, 671, 44, 200, 33, 18, 177, 177, 188, 174, 1 
2017-09-07 13:01:36, 7, 671, 55, 100, 62, 32, 325, 323, 358, 323, 0 
2017-09-07 13:01:37, 7, 671, 55, 200, 61, 32, 325, 322, 358, 323, 2 
2017-09-07 13:01:38, 7, 671, 66, 100, 44, 23, 233, 232, 249, 232, 0 
2017-09-07 13:01:38, 7, 671, 66, 200, 44, 24, 233, 231, 249, 232, 2 
2017-09-07 13:01:39, 7, 671, 77, 100, 39, 21, 210, 209, 222, 208, 0 
2017-09-07 13:01:40, 7, 671, 77, 200, 39, 22, 210, 209, 222, 208, 1 
2017-09-07 13:01:41, 8, 659, 44, 100, 33, 18, 180, 179, 192, 179, 0 
2017-09-07 13:01:42, 8, 659, 44, 200, 33, 18, 180, 179, 192, 179, 0 
2017-09-07 13:01:42, 8, 659, 55, 100, 62, 32, 328, 326, 363, 327, 0 
2017-09-07 13:01:43, 8, 659, 55, 200, 61, 32, 329, 326, 363, 327, 2 
2017-09-07 13:01:44, 8, 659, 66, 100, 44, 23, 236, 235, 254, 237, 0 
2017-09-07 13:01:44, 8, 659, 66, 200, 44, 23, 236, 235, 254, 237, 0 
2017-09-07 13:01:45, 8, 659, 77, 100, 39, 21, 213, 212, 227, 213, 0 
2017-09-07 13:01:46, 8, 659, 77, 200, 39, 21, 213, 212, 227, 213, 0 
2017-09-07 13:01:47, 9, 646, 44, 100, 33, 18, 183, 182, 192, 180, 0 
2017-09-07 13:01:47, 9, 646, 44, 200, 33, 18, 183, 182, 192, 180, 0 
2017-09-07 13:01:48, 9, 646, 55, 100, 62, 32, 332, 331, 369, 332, 0 
2017-09-07 13:01:49, 9, 646, 55, 200, 62, 32, 332, 330, 369, 332, 1 
2017-09-07 13:01:50, 9, 646, 66, 100, 44, 23, 240, 238, 259, 241, 0 
2017-09-07 13:01:50, 9, 646, 66, 200, 44, 23, 240, 238, 259, 242, 1 
2017-09-07 13:01:51, 9, 646, 77, 100, 39, 21, 217, 215, 232, 219, 0 
2017-09-07 13:01:52, 9, 646, 77, 200, 39, 21, 217, 215, 232, 219, 0 
2017-09-07 13:01:53, 10, 633, 44, 100, 33, 18, 187, 185, 197, 185, 0 
2017-09-07 13:01:53, 10, 633, 44, 200, 33, 18, 186, 185, 197, 185, 1 
2017-09-07 13:01:54, 10, 633, 55, 100, 62, 31, 337, 335, 375, 337, 0 
2017-09-07 13:01:55, 10, 633, 55, 200, 62, 31, 337, 335, 375, 337, 0 
2017-09-07 13:01:56, 10, 633, 66, 100, 44, 23, 244, 242, 264, 243, 0 
2017-09-07 13:01:56, 10, 633, 66, 200, 44, 23, 243, 242, 264, 243, 1 
2017-09-07 13:01:57, 10, 633, 77, 100, 40, 20, 220, 219, 233, 219, 0 
2017-09-07 13:01:58, 10, 633, 77, 200, 39, 20, 220, 219, 233, 219, 1 
2017-09-07 13:01:59, 11, 620, 44, 100, 33, 18, 189, 188, 201, 189, 0 
2017-09-07 13:01:59, 11, 620, 44, 200, 33, 18, 189, 188, 201, 189, 0 
2017-09-07 13:02:00, 11, 620, 55, 100, 62, 31, 342, 340, 381, 342, 0 
2017-09-07 13:02:01, 11, 620, 55, 200, 62, 31, 342, 341, 382, 342, 2 
2017-09-07 13:02:01, 11, 620, 66, 100, 44, 23, 248, 246, 269, 248, 0 
2017-09-07 13:02:02, 11, 620, 66, 200, 44, 23, 258, 246, 269, 248, 0 
2017-09-07 13:02:03, 11, 620, 77, 100, 40, 20, 224, 223, 237, 224, 0 
2017-09-07 13:02:04, 11, 620, 77, 200, 40, 20, 226, 223, 237, 224, 0 
2017-09-07 13:02:05, 12, 607, 44, 100, 33, 17, 193, 192, 206, 191, 0 
2017-09-07 13:02:05, 12, 607, 44, 200, 33, 17, 193, 192, 206, 191, 0 
2017-09-07 13:02:06, 12, 607, 55, 100, 62, 30, 349, 347, 389, 348, 0 
2017-09-07 13:02:07, 12, 607, 55, 200, 62, 30, 348, 347, 389, 346, 1 
2017-09-07 13:02:07, 12, 607, 66, 100, 44, 22, 252, 251, 275, 250, 0 
2017-09-07 13:02:08, 12, 607, 66, 200, 44, 22, 252, 251, 274, 249, 2 
2017-09-07 13:02:09, 12, 607, 77, 100, 40, 20, 228, 227, 242, 228, 0 
2017-09-07 13:02:09, 12, 607, 77, 200, 40, 20, 229, 227, 242, 228, 1 
2017-09-07 13:02:11, 13, 593, 44, 100, 33, 17, 197, 195, 211, 195, 0 
2017-09-07 13:02:11, 13, 593, 44, 200, 33, 17, 197, 196, 211, 195, 1 
2017-09-07 13:02:12, 13, 593, 55, 100, 62, 29, 355, 353, 398, 352, 0 
2017-09-07 13:02:13, 13, 593, 55, 200, 62, 29, 355, 353, 398, 352, 0 
2017-09-07 13:02:13, 13, 593, 66, 100, 44, 21, 257, 255, 281, 254, 0 
2017-09-07 13:02:14, 13, 593, 66, 200, 44, 21, 257, 255, 281, 254, 0 
2017-09-07 13:02:15, 13, 593, 77, 100, 40, 20, 232, 231, 247, 233, 1 
2017-09-07 13:02:15, 13, 593, 77, 200, 40, 20, 232, 231, 247, 233, 0 
2017-09-07 13:02:17, 14, 580, 44, 100, 33, 17, 200, 200, 214, 200, 0 
2017-09-07 13:02:17, 14, 580, 44, 200, 33, 17, 200, 199, 214, 200, 1 
2017-09-07 13:02:18, 14, 580, 55, 100, 62, 29, 361, 360, 406, 357, 0 
2017-09-07 13:02:19, 14, 580, 55, 200, 62, 29, 361, 360, 406, 357, 0 
2017-09-07 13:02:19, 14, 580, 66, 100, 44, 21, 262, 261, 286, 259, 0 
2017-09-07 13:02:20, 14, 580, 66, 200, 44, 21, 262, 261, 286, 259, 0 
2017-09-07 13:02:21, 14, 580, 77, 100, 40, 19, 237, 236, 256, 235, 0 
2017-09-07 13:02:21, 14, 580, 77, 200, 40, 19, 237, 236, 256, 235, 0 
2017-09-07 13:02:22, 15, 566, 44, 100, 33, 17, 205, 204, 221, 205, 0 
2017-09-07 13:02:23, 15, 566, 44, 200, 33, 17, 205, 204, 221, 205, 0 
2017-09-07 13:02:24, 15, 566, 55, 100, 63, 28, 369, 367, 418, 366, 0 
2017-09-07 13:02:24, 15, 566, 55, 200, 63, 28, 369, 367, 419, 366, 1 
2017-09-07 13:02:25, 15, 566, 66, 100, 44, 21, 268, 266, 292, 265, 0 
2017-09-07 13:02:26, 15, 566, 66, 200, 44, 21, 268, 266, 292, 265, 0 
2017-09-07 13:02:27, 15, 566, 77, 100, 40, 19, 242, 241, 261, 240, 0 
2017-09-07 13:02:27, 15, 566, 77, 200, 40, 19, 242, 241, 261, 240, 0 
2017-09-07 13:02:28, 16, 552, 44, 100, 34, 16, 209, 208, 226, 210, 0 
2017-09-07 13:02:29, 16, 552, 44, 200, 34, 16, 209, 208, 226, 210, 0 
2017-09-07 13:02:30, 16, 552, 55, 100, 63, 27, 376, 374, 427, 376, 0 
2017-09-07 13:02:30, 16, 552, 55, 200, 63, 27, 376, 374, 427, 376, 0 
2017-09-07 13:02:31, 16, 552, 66, 100, 45, 20, 273, 272, 302, 271, 0 
2017-09-07 13:02:32, 16, 552, 66, 200, 44, 20, 273, 272, 302, 271, 1 
2017-09-07 13:02:33, 16, 552, 77, 100, 40, 19, 247, 246, 267, 245, 1 
2017-09-07 13:02:33, 16, 552, 77, 200, 40, 19, 247, 246, 267, 245, 0 
2017-09-07 13:02:34, 17, 538, 44, 100, 33, 16, 210, 209, 227, 210, 0 
2017-09-07 13:02:35, 17, 538, 44, 200, 34, 16, 210, 209, 227, 210, 1 
2017-09-07 13:02:36, 17, 538, 55, 100, 63, 27, 376, 374, 426, 376, 0 
2017-09-07 13:02:36, 17, 538, 55, 200, 63, 27, 377, 374, 426, 376, 1 
2017-09-07 13:02:37, 17, 538, 66, 100, 44, 20, 273, 272, 302, 271, 0 
2017-09-07 13:02:38, 17, 538, 66, 200, 44, 20, 273, 272, 302, 271, 0 
2017-09-07 13:02:38, 17, 538, 77, 100, 40, 19, 247, 246, 267, 245, 1 
2017-09-07 13:02:39, 17, 538, 77, 200, 40, 19, 247, 246, 267, 245, 0 
2017-09-07 13:02:40, 18, 538, 44, 100, 34, 16, 210, 209, 227, 210, 0 
2017-09-07 13:02:41, 18, 538, 44, 200, 34, 16, 210, 209, 227, 210, 0 
2017-09-07 13:02:42, 18, 538, 55, 100, 63, 27, 376, 374, 425, 376, 0 
2017-09-07 13:02:42, 18, 538, 55, 200, 63, 28, 376, 374, 426, 376, 2 
2017-09-07 13:02:43, 18, 538, 66, 100, 44, 20, 273, 272, 301, 271, 0 
2017-09-07 13:02:44, 18, 538, 66, 200, 44, 20, 273, 272, 302, 271, 1 
2017-09-07 13:02:44, 18, 538, 77, 100, 40, 19, 247, 246, 267, 245, 1 
2017-09-07 13:02:45, 18, 538, 77, 200, 40, 19, 247, 246, 267, 245, 0 
2017-09-07 13:02:46, 19, 538, 44, 100, 34, 16, 210, 209, 227, 210, 0 
2017-09-07 13:02:47, 19, 538, 44, 200, 34, 16, 210, 209, 227, 210, 0 
2017-09-07 13:02:48, 19, 538, 55, 100, 63, 28, 376, 374, 425, 376, 0 
2017-09-07 13:02:48, 19, 538, 55, 200, 63, 27, 376, 374, 426, 376, 2 
2017-09-07 13:02:49, 19, 538, 66, 100, 44, 20, 273, 272, 301, 271, 0 
2017-09-07 13:02:50, 19, 538, 66, 200, 44, 20, 273, 272, 302, 271, 1 
2017-09-07 13:02:50, 19, 538, 77, 100, 40, 19, 247, 246, 267, 245, 1 
2017-09-07 13:02:51, 19, 538, 77, 200, 40, 19, 247, 246, 267, 245, 0 
2017-09-07 13:02:52, 20, 538, 44, 100, 34, 16, 210, 210, 227, 210, 0 
2017-09-07 13:02:53, 20, 538, 44, 200, 33, 16, 210, 209, 227, 210, 2 
2017-09-07 13:02:54, 20, 538, 55, 100, 63, 27, 376, 375, 426, 376, 0 
2017-09-07 13:02:54, 20, 538, 55, 200, 63, 28, 376, 374, 427, 376, 3 
2017-09-07 13:02:55, 20, 538, 66, 100, 45, 20, 273, 272, 302, 271, 0 
2017-09-07 13:02:56, 20, 538, 66, 200, 44, 20, 273, 272, 302, 271, 1 
2017-09-07 13:02:56, 20, 538, 77, 100, 40, 19, 247, 246, 267, 245, 1 
2017-09-07 13:02:57, 20, 538, 77, 200, 40, 19, 247, 246, 267, 245, 0 
2017-09-07 13:02:58, 21, 538, 44, 100, 34, 16, 210, 209, 227, 210, 0 
2017-09-07 13:02:59, 21, 538, 44, 200, 34, 16, 210, 209, 227, 210, 0 
2017-09-07 13:02:59, 21, 538, 55, 100, 63, 28, 376, 374, 426, 376, 0 
2017-09-07 13:03:00, 21, 538, 55, 200, 63, 27, 376, 374, 425, 376, 2 
2017-09-07 13:03:01, 21, 538, 66, 100, 44, 20, 273, 272, 302, 271, 0 
2017-09-07 13:03:01, 21, 538, 66, 200, 44, 20, 273, 272, 301, 271, 1 
2017-09-07 13:03:02, 21, 538, 77, 100, 40, 19, 247, 246, 267, 245, 1 
2017-09-07 13:03:03, 21, 538, 77, 200, 40, 19, 247, 246, 267, 245, 0 
2017-09-07 13:03:04, 22, 538, 44, 100, 34, 16, 210, 209, 227, 210, 0 
2017-09-07 13:03:05, 22, 538, 44, 200, 34, 16, 210, 209, 227, 210, 0 
2017-09-07 13:03:05, 22, 538, 55, 100, 63, 28, 377, 375, 428, 376, 0 
2017-09-07 13:03:06, 22, 538, 55, 200, 63, 28, 377, 374, 426, 376, 1 
2017-09-07 13:03:07, 22, 538, 66, 100, 44, 20, 273, 272, 302, 271, 0 
2017-09-07 13:03:07, 22, 538, 66, 200, 44, 20, 273, 272, 302, 271, 0 
2017-09-07 13:03:08, 22, 538, 77, 100, 40, 19, 247, 246, 267, 245, 1 
2017-09-07 13:03:09, 22, 538, 77, 200, 40, 19, 247, 246, 267, 245, 0 
2017-09-07 13:03:10, 23, 538, 44, 100, 34, 16, 210, 209, 227, 210, 0 
2017-09-07 13:03:11, 23, 538, 44, 200, 34, 16, 210, 209, 227, 210, 0 
2017-09-07 13:03:11, 23, 538, 55, 100, 63, 27, 377, 374, 426, 376, 0 
2017-09-07 13:03:12, 23, 538, 55, 200, 63, 28, 377, 375, 427, 376, 3 
2017-09-07 13:03:13, 23, 538, 66, 100, 44, 20, 273, 272, 302, 271, 0 
2017-09-07 13:03:13, 23, 538, 66, 200, 44, 20, 273, 272, 302, 271, 0 
2017-09-07 13:03:14, 23, 538, 77, 100, 40, 19, 247, 246, 267, 245, 1 
2017-09-07 13:03:15, 23, 538, 77, 200, 40, 19, 247, 246, 267, 245, 0 
2017-09-07 13:03:16, 24, 538, 44, 100, 34, 16, 210, 209, 227, 210, 0 
2017-09-07 13:03:17, 24, 538, 44, 200, 34, 16, 210, 209, 227, 210, 0 
2017-09-07 13:03:17, 24, 538, 55, 100, 63, 27, 376, 374, 426, 376, 0 
2017-09-07 13:03:18, 24, 538, 55, 200, 63, 28, 377, 374, 426, 376, 2 
2017-09-07 13:03:19, 24, 538, 66, 100, 45, 20, 273, 272, 302, 271, 0 
2017-09-07 13:03:19, 24, 538, 66, 200, 44, 20, 273, 272, 302, 271, 1 
2017-09-07 13:03:20, 24, 538, 77, 100, 40, 19, 247, 246, 267, 245, 1 
2017-09-07 13:03:21, 24, 538, 77, 200, 40, 19, 247, 246, 267, 245, 0 
2017-09-07 13:03:22, 25, 538, 44, 100, 34, 16, 210, 210, 227, 210, 0 
2017-09-07 13:03:22, 25, 538, 44, 200, 34, 16, 210, 209, 227, 210, 1 
2017-09-07 13:03:23, 25, 538, 55, 100, 63, 28, 377, 375, 428, 376, 0 
2017-09-07 13:03:24, 25, 538, 55, 200, 63, 27, 376, 374, 426, 376, 3 
2017-09-07 13:03:25, 25, 538, 66, 100, 44, 20, 273, 272, 302, 271, 0 
2017-09-07 13:03:25, 25, 538, 66, 200, 44, 20, 273, 272, 302, 271, 0 
2017-09-07 13:03:26, 25, 538, 77, 100, 40, 19, 247, 246, 267, 245, 1 
2017-09-07 13:03:27, 25, 538, 77, 200, 40, 19, 247, 246, 267, 245, 0 
2017-09-07 13:03:28, 26, 538, 44, 100, 34, 16, 210, 209, 226, 210, 0 
2017-09-07 13:03:28, 26, 538, 44, 200, 34, 16, 210, 209, 227, 210, 1 
2017-09-07 13:03:29, 26, 538, 55, 100, 63, 28, 377, 374, 427, 376, 0 
2017-09-07 13:03:30, 26, 538, 55, 200, 63, 27, 377, 374, 426, 376, 2 
2017-09-07 13:03:31, 26, 538, 66, 100, 45, 20, 273, 272, 302, 271, 0 
2017-09-07 13:03:31, 26, 538, 66, 200, 44, 20, 273, 272, 302, 271, 1 
2017-09-07 13:03:32, 26, 538, 77, 100, 40, 19, 247, 246, 267, 245, 1 
2017-09-07 13:03:33, 26, 538, 77, 200, 40, 19, 247, 246, 267, 245, 0 
2017-09-07 13:03:34, 27, 538, 44, 100, 33, 16, 210, 210, 227, 210, 0 
2017-09-07 13:03:34, 27, 538, 44, 200, 33, 16, 210, 209, 227, 210, 1 
2017-09-07 13:03:35, 27, 538, 55, 100, 62, 28, 376, 375, 428, 376, 0 
2017-09-07 13:03:36, 27, 538, 55, 200, 62, 28, 377, 375, 428, 376, 1 
2017-09-07 13:03:36, 27, 538, 66, 100, 44, 20, 273, 272, 302, 271, 0 
2017-09-07 13:03:37, 27, 538, 66, 200, 44, 20, 273, 272, 302, 271, 0 
2017-09-07 13:03:38, 27, 538, 77, 100, 40, 19, 247, 246, 267, 245, 1 
2017-09-07 13:03:38, 27, 538, 77, 200, 40, 19, 247, 246, 267, 245, 0 
2017-09-07 13:03:40, 28, 538, 44, 100, 34, 16, 210, 209, 227, 210, 0 
2017-09-07 13:03:40, 28, 538, 44, 200, 34, 16, 211, 210, 227, 210, 2 
2017-09-07 13:03:41, 28, 538, 55, 100, 63, 27, 377, 374, 427, 376, 0 
2017-09-07 13:03:42, 28, 538, 55, 200, 63, 27, 377, 375, 428, 376, 2 
2017-09-07 13:03:42, 28, 538, 66, 100, 44, 20, 273, 272, 302, 271, 0 
2017-09-07 13:03:43, 28, 538, 66, 200, 44, 20, 273, 272, 302, 271, 0 
2017-09-07 13:03:44, 28, 538, 77, 100, 40, 19, 247, 246, 267, 245, 1 
2017-09-07 13:03:44, 28, 538, 77, 200, 40, 19, 247, 246, 267, 245, 0 
2017-09-07 13:03:46, 29, 538, 44, 100, 33, 16, 210, 209, 227, 210, 0 
2017-09-07 13:03:46, 29, 538, 44, 200, 33, 16, 210, 209, 227, 210, 0 
2017-09-07 13:03:47, 29, 538, 55, 100, 63, 28, 376, 374, 426, 376, 0 
2017-09-07 13:03:48, 29, 538, 55, 200, 62, 27, 376, 374, 427, 376, 3 
2017-09-07 13:03:48, 29, 538, 66, 100, 44, 20, 273, 272, 302, 271, 0 
2017-09-07 13:03:49, 29, 538, 66, 200, 44, 20, 273, 272, 302, 271, 0 
2017-09-07 13:03:50, 29, 538, 77, 100, 40, 19, 247, 246, 267, 245, 1 
2017-09-07 13:03:50, 29, 538, 77, 200, 40, 19, 247, 246, 267, 245, 0 
2017-09-07 13:03:51, 30, 538, 44, 100, 33, 16, 210, 209, 227, 210, 0 
2017-09-07 13:03:52, 30, 538, 44, 200, 33, 16, 210, 209, 227, 210, 0 
2017-09-07 13:03:53, 30, 538, 55, 100, 63, 27, 377, 374, 425, 376, 0 
2017-09-07 13:03:54, 30, 538, 55, 200, 63, 27, 377, 374, 427, 376, 0 
2017-09-07 13:03:54, 30, 538, 66, 100, 44, 20, 273, 272, 301, 271, 0 
2017-09-07 13:03:55, 30, 538, 66, 200, 44, 20, 273, 272, 302, 271, 1 
2017-09-07 13:03:56, 30, 538, 77, 100, 40, 19, 247, 246, 267, 245, 1 
2017-09-07 13:03:56, 30, 538, 77, 200, 40, 19, 247, 246, 267, 245, 0 
2017-09-07 13:03:57, 31, 538, 44, 100, 34, 16, 210, 209, 227, 210, 0 
2017-09-07 13:03:58, 31, 538, 44, 200, 33, 16, 210, 209, 227, 210, 1 
2017-09-07 13:03:59, 31, 538, 55, 100, 63, 28, 377, 374, 426, 376, 0 
2017-09-07 13:03:59, 31, 538, 55, 200, 62, 27, 377, 374, 427, 376, 3 
2017-09-07 13:04:00, 31, 538, 66, 100, 44, 20, 273, 272, 302, 271, 0 
2017-09-07 13:04:01, 31, 538, 66, 200, 44, 20, 273, 272, 302, 271, 0 
2017-09-07 13:04:02, 31, 538, 77, 100, 40, 19, 247, 246, 267, 245, 1 
2017-09-07 13:04:02, 31, 538, 77, 200, 40, 19, 247, 246, 267, 245, 0 
2017-09-07 13:04:03, 32, 538, 44, 100, 31, 18, 172, 171, 183, 168, 1 
2017-09-07 13:04:04, 32, 538, 44, 200, 31, 18, 172, 171, 183, 168, 0 
2017-09-07 13:04:05, 32, 538, 55, 100, 59, 33, 305, 303, 334, 301, 0 
2017-09-07 13:04:05, 32, 538, 55, 200, 59, 33, 304, 303, 335, 301, 2 
2017-09-07 13:04:06, 32, 538, 66, 100, 41, 23, 215, 215, 229, 216, 0 
2017-09-07 13:04:07, 32, 538, 66, 200, 41, 23, 215, 215, 229, 216, 0 
2017-09-07 13:04:08, 32, 538, 77, 100, 37, 21, 193, 192, 203, 193, 0 
2017-09-07 13:04:08, 32, 538, 77, 200, 37, 21, 193, 192, 203, 193, 0 
2017-09-07 13:04:09, 33, 725, 44, 100, 32, 18, 164, 163, 172, 164, 0 
2017-09-07 13:04:10, 33, 725, 44, 200, 32, 18, 164, 163, 172, 163, 1 
2017-09-07 13:04:11, 33, 725, 55, 100, 60, 33, 306, 304, 335, 304, 0 
2017-09-07 13:04:11, 33, 725, 55, 200, 60, 33, 306, 304, 335, 304, 0 
2017-09-07 13:04:12, 33, 725, 66, 100, 42, 24, 218, 217, 233, 216, 0 
2017-09-07 13:04:13, 33, 725, 66, 200, 42, 24, 218, 217, 233, 216, 0 
2017-09-07 13:04:13, 33, 725, 77, 100, 38, 22, 196, 195, 207, 193, 0 
2017-09-07 13:04:14, 33, 725, 77, 200, 38, 22, 196, 195, 207, 193, 0 
2017-09-07 13:04:15, 34, 717, 44, 100, 32, 18, 166, 165, 177, 164, 0 
2017-09-07 13:04:16, 34, 717, 44, 200, 32, 18, 166, 165, 177, 164, 0 
2017-09-07 13:04:17, 34, 717, 55, 100, 61, 33, 309, 308, 340, 308, 0 
2017-09-07 13:04:17, 34, 717, 55, 200, 60, 33, 309, 307, 340, 308, 2 
2017-09-07 13:04:18, 34, 717, 66, 100, 43, 24, 220, 220, 234, 221, 0 
2017-09-07 13:04:19, 34, 717, 66, 200, 43, 24, 220, 219, 234, 221, 1 
2017-09-07 13:04:19, 34, 717, 77, 100, 38, 22, 198, 197, 208, 198, 0 
2017-09-07 13:04:20, 34, 717, 77, 200, 38, 22, 198, 197, 208, 198, 0 
2017-09-07 13:04:21, 35, 708, 44, 100, 32, 18, 169, 168, 177, 165, 0 
2017-09-07 13:04:22, 35, 708, 44, 200, 32, 18, 169, 167, 177, 165, 1 
2017-09-07 13:04:23, 35, 708, 55, 100, 61, 33, 312, 311, 344, 310, 0 
2017-09-07 13:04:23, 35, 708, 55, 200, 61, 33, 312, 311, 344, 309, 1 
2017-09-07 13:04:24, 35, 708, 66, 100, 43, 24, 223, 222, 239, 221, 0 
2017-09-07 13:04:25, 35, 708, 66, 200, 43, 24, 223, 222, 239, 221, 0 
2017-09-07 13:04:25, 35, 708, 77, 100, 39, 22, 201, 200, 212, 198, 0 
2017-09-07 13:04:26, 35, 708, 77, 200, 39, 22, 201, 200, 212, 198, 0 
2017-09-07 13:04:27, 36, 699, 44, 100, 33, 19, 171, 170, 182, 169, 0 
2017-09-07 13:04:28, 36, 699, 44, 200, 33, 19, 171, 170, 182, 169, 0 
2017-09-07 13:04:28, 36, 699, 55, 100, 61, 33, 315, 313, 349, 313, 0 
2017-09-07 13:04:29, 36, 699, 55, 200, 61, 33, 315, 314, 349, 313, 1 
2017-09-07 13:04:30, 36, 699, 66, 100, 43, 24, 226, 224, 244, 226, 0 
2017-09-07 13:04:31, 36, 699, 66, 200, 43, 24, 225, 224, 244, 226, 1 
2017-09-07 13:04:31, 36, 699, 77, 100, 39, 22, 203, 202, 213, 203, 0 
2017-09-07 13:04:32, 36, 699, 77, 200, 39, 22, 203, 202, 213, 203, 0 
2017-09-07 13:04:33, 37, 690, 44, 100, 33, 19, 173, 172, 182, 169, 0 
2017-09-07 13:04:34, 37, 690, 44, 200, 33, 19, 173, 172, 182, 169, 0 
2017-09-07 13:04:34, 37, 690, 55, 100, 61, 33, 318, 317, 352, 318, 0 
2017-09-07 13:04:35, 37, 690, 55, 200, 61, 33, 318, 316, 352, 318, 1 
2017-09-07 13:04:36, 37, 690, 66, 100, 44, 24, 228, 227, 244, 227, 0 
2017-09-07 13:04:36, 37, 690, 66, 200, 44, 24, 228, 227, 244, 227, 0 
2017-09-07 13:04:37, 37, 690, 77, 100, 39, 22, 205, 204, 217, 203, 0 
2017-09-07 13:04:38, 37, 690, 77, 200, 39, 22, 206, 204, 217, 203, 1 
2017-09-07 13:04:39, 38, 681, 44, 100, 33, 18, 175, 174, 187, 173, 0 
2017-09-07 13:04:40, 38, 681, 44, 200, 33, 18, 175, 174, 187, 173, 0 
2017-09-07 13:04:40, 38, 681, 55, 100, 62, 33, 321, 319, 354, 318, 0 
2017-09-07 13:04:41, 38, 681, 55, 200, 62, 32, 321, 319, 354, 318, 1 
2017-09-07 13:04:42, 38, 681, 66, 100, 44, 24, 230, 230, 249, 232, 0 
2017-09-07 13:04:42, 38, 681, 66, 200, 44, 24, 231, 229, 249, 232, 2 
2017-09-07 13:04:43, 38, 681, 77, 100, 39, 22, 208, 207, 221, 208, 0 
2017-09-07 13:04:44, 38, 681, 77, 200, 39, 22, 208, 207, 222, 208, 1 
2017-09-07 13:04:45, 39, 671, 44, 100, 33, 18, 177, 177, 187, 174, 0 
2017-09-07 13:04:46, 39, 671, 44, 200, 33, 18, 177, 176, 188, 174, 2 
2017-09-07 13:04:46, 39, 671, 55, 100, 61, 32, 324, 323, 358, 323, 0 
2017-09-07 13:04:47, 39, 671, 55, 200, 62, 32, 324, 323, 358, 323, 1 
2017-09-07 13:04:48, 39, 671, 66, 100, 44, 24, 233, 232, 249, 232, 0 
2017-09-07 13:04:48, 39, 671, 66, 200, 44, 24, 233, 232, 249, 232, 0 
2017-09-07 13:04:49, 39, 671, 77, 100, 39, 22, 210, 209, 222, 208, 0 
2017-09-07 13:04:50, 39, 671, 77, 200, 39, 22, 210, 209, 222, 208, 0 
2017-09-07 13:04:51, 40, 659, 44, 100, 33, 18, 180, 179, 192, 179, 0 
2017-09-07 13:04:51, 40, 659, 44, 200, 33, 18, 180, 179, 192, 179, 0 
2017-09-07 13:04:52, 40, 659, 55, 100, 62, 32, 328, 326, 363, 327, 0 
2017-09-07 13:04:53, 40, 659, 55, 200, 62, 32, 328, 326, 363, 327, 0 
2017-09-07 13:04:54, 40, 659, 66, 100, 44, 23, 236, 235, 254, 237, 0 
2017-09-07 13:04:54, 40, 659, 66, 200, 44, 23, 236, 235, 254, 237, 0 
2017-09-07 13:04:55, 40, 659, 77, 100, 39, 21, 213, 212, 227, 213, 0 
2017-09-07 13:04:56, 40, 659, 77, 200, 39, 21, 213, 212, 227, 213, 0 
2017-09-07 13:04:57, 41, 646, 44, 100, 33, 18, 183, 182, 192, 180, 0 
2017-09-07 13:04:57, 41, 646, 44, 200, 33, 18, 183, 182, 192, 180, 0 
2017-09-07 13:04:58, 41, 646, 55, 100, 62, 32, 332, 331, 368, 332, 0 
2017-09-07 13:04:59, 41, 646, 55, 200, 62, 32, 332, 330, 369, 332, 2 
2017-09-07 13:05:00, 41, 646, 66, 100, 44, 23, 240, 238, 259, 242, 0 
2017-09-07 13:05:00, 41, 646, 66, 200, 44, 23, 240, 239, 259, 242, 1 
2017-09-07 13:05:01, 41, 646, 77, 100, 39, 21, 217, 215, 232, 219, 0 
2017-09-07 13:05:02, 41, 646, 77, 200, 39, 21, 217, 215, 232, 219, 0 
2017-09-07 13:05:03, 42, 633, 44, 100, 33, 18, 186, 185, 197, 185, 0 
2017-09-07 13:05:03, 42, 633, 44, 200, 33, 18, 186, 185, 197, 185, 0 
2017-09-07 13:05:04, 42, 633, 55, 100, 62, 31, 337, 335, 375, 337, 0 
2017-09-07 13:05:05, 42, 633, 55, 200, 62, 31, 337, 335, 375, 337, 0 
2017-09-07 13:05:05, 42, 633, 66, 100, 44, 23, 244, 242, 264, 243, 0 
2017-09-07 13:05:06, 42, 633, 66, 200, 44, 23, 244, 242, 264, 243, 0 
2017-09-07 13:05:07, 42, 633, 77, 100, 40, 20, 220, 219, 233, 219, 0 
2017-09-07 13:05:07, 42, 633, 77, 200, 40, 20, 220, 219, 235, 219, 0 
2017-09-07 13:05:09, 43, 620, 44, 100, 33, 18, 189, 188, 201, 189, 0 
2017-09-07 13:05:09, 43, 620, 44, 200, 33, 18, 189, 189, 202, 189, 2 
2017-09-07 13:05:10, 43, 620, 55, 100, 62, 31, 343, 341, 380, 342, 0 
2017-09-07 13:05:11, 43, 620, 55, 200, 62, 31, 343, 341, 382, 342, 0 
2017-09-07 13:05:11, 43, 620, 66, 100, 44, 23, 248, 246, 269, 248, 0 
2017-09-07 13:05:12, 43, 620, 66, 200, 44, 23, 248, 246, 269, 248, 0 
2017-09-07 13:05:13, 43, 620, 77, 100, 40, 20, 224, 223, 237, 224, 0 
2017-09-07 13:05:13, 43, 620, 77, 200, 39, 20, 224, 223, 237, 224, 1 
2017-09-07 13:05:15, 44, 606, 44, 100, 33, 17, 193, 192, 206, 193, 0 
2017-09-07 13:05:15, 44, 606, 44, 200, 33, 17, 193, 192, 206, 192, 1 
2017-09-07 13:05:16, 44, 606, 55, 100, 62, 30, 348, 347, 389, 347, 0 
2017-09-07 13:05:17, 44, 606, 55, 200, 62, 30, 348, 347, 389, 347, 0 
2017-09-07 13:05:17, 44, 606, 66, 100, 44, 22, 252, 251, 274, 249, 0 
2017-09-07 13:05:18, 44, 606, 66, 200, 44, 22, 252, 251, 274, 249, 0 
2017-09-07 13:05:19, 44, 606, 77, 100, 40, 20, 228, 227, 242, 228, 0 
2017-09-07 13:05:19, 44, 606, 77, 200, 40, 20, 228, 227, 242, 228, 0 
2017-09-07 13:05:21, 45, 593, 44, 100, 33, 17, 197, 195, 211, 195, 0 
2017-09-07 13:05:21, 45, 593, 44, 200, 33, 17, 197, 195, 211, 195, 0 
2017-09-07 13:05:22, 45, 593, 55, 100, 62, 29, 355, 353, 398, 352, 0 
2017-09-07 13:05:23, 45, 593, 55, 200, 62, 29, 355, 353, 398, 352, 0 
2017-09-07 13:05:23, 45, 593, 66, 100, 44, 21, 257, 256, 281, 254, 0 
2017-09-07 13:05:24, 45, 593, 66, 200, 44, 21, 257, 255, 281, 254, 1 
2017-09-07 13:05:25, 45, 593, 77, 100, 40, 20, 232, 231, 247, 233, 1 
2017-09-07 13:05:25, 45, 593, 77, 200, 40, 20, 232, 231, 247, 233, 0 
2017-09-07 13:05:26, 46, 580, 44, 100, 33, 17, 200, 199, 215, 200, 0 
2017-09-07 13:05:27, 46, 580, 44, 200, 33, 17, 201, 200, 212, 200, 2 
2017-09-07 13:05:28, 46, 580, 55, 100, 62, 29, 361, 360, 406, 357, 0 
2017-09-07 13:05:28, 46, 580, 55, 200, 62, 29, 362, 360, 406, 357, 1 
2017-09-07 13:05:29, 46, 580, 66, 100, 44, 21, 262, 261, 286, 259, 0 
2017-09-07 13:05:30, 46, 580, 66, 200, 44, 21, 262, 261, 286, 259, 0 
2017-09-07 13:05:31, 46, 580, 77, 100, 40, 19, 237, 236, 256, 235, 0 
2017-09-07 13:05:31, 46, 580, 77, 200, 40, 19, 237, 236, 256, 235, 0 
2017-09-07 13:05:32, 47, 566, 44, 100, 33, 17, 205, 204, 221, 205, 0 
2017-09-07 13:05:33, 47, 566, 44, 200, 33, 17, 205, 204, 221, 205, 0 
2017-09-07 13:05:34, 47, 566, 55, 100, 63, 28, 369, 367, 418, 366, 0 
2017-09-07 13:05:34, 47, 566, 55, 200, 63, 28, 369, 367, 418, 366, 0 
2017-09-07 13:05:35, 47, 566, 66, 100, 44, 21, 268, 266, 292, 265, 0 
2017-09-07 13:05:36, 47, 566, 66, 200, 44, 21, 268, 266, 292, 265, 0 
2017-09-07 13:05:37, 47, 566, 77, 100, 40, 19, 242, 241, 261, 240, 0 
2017-09-07 13:05:37, 47, 566, 77, 200, 40, 19, 242, 241, 261, 240, 0 
2017-09-07 13:05:38, 48, 552, 44, 100, 34, 16, 209, 208, 226, 210, 0 
2017-09-07 13:05:39, 48, 552, 44, 200, 34, 16, 209, 208, 226, 210, 0 
2017-09-07 13:05:40, 48, 552, 55, 100, 63, 27, 376, 374, 428, 376, 0 
2017-09-07 13:05:40, 48, 552, 55, 200, 63, 27, 376, 374, 427, 376, 1 
2017-09-07 13:05:41, 48, 552, 66, 100, 44, 20, 273, 272, 302, 271, 0 
2017-09-07 13:05:42, 48, 552, 66, 200, 44, 20, 273, 272, 302, 271, 0 
2017-09-07 13:05:42, 48, 552, 77, 100, 40, 19, 247, 246, 267, 245, 1 
2017-09-07 13:05:43, 48, 552, 77, 200, 40, 19, 247, 246, 267, 245, 0 
2017-09-07 13:05:44, 49, 538, 44, 100, 33, 16, 210, 209, 226, 210, 0 
2017-09-07 13:05:45, 49, 538, 44, 200, 34, 16, 210, 209, 226, 210, 1 
2017-09-07 13:05:46, 49, 538, 55, 100, 62, 28, 377, 374, 428, 376, 0 
2017-09-07 13:05:46, 49, 538, 55, 200, 63, 27, 377, 374, 427, 376, 3 
2017-09-07 13:05:47, 49, 538, 66, 100, 44, 20, 273, 272, 302, 271, 0 
2017-09-07 13:05:48, 49, 538, 66, 200, 44, 20, 273, 272, 302, 271, 0 
2017-09-07 13:05:48, 49, 538, 77, 100, 40, 19, 247, 246, 267, 245, 1 
2017-09-07 13:05:49, 49, 538, 77, 200, 40, 19, 247, 246, 267, 245, 0 
2017-09-07 13:05:52,*SeqNo.,Time,DAC_Cnt,BGO,AM_LCh0,AM_RCh0,AM_Rch1,AM_RCh2,AM_LCh3,AM_LCh3
2017-09-07 13:05:52, BGO Set:0, AM_RegBuffer:0
2017-09-07 13:05:55, BGO Set:0,725 
2017-09-07 13:05:55, Gain Set:0, AM_RegBuffer:0 
2017-09-07 13:06:00,*SeqNo.,Time,DAC_Cnt,BGO,AM_LCh0,AM_RCh0,AM_Rch1,AM_RCh2,AM_LCh3,AM_LCh3
2017-09-07 13:06:00, BGO Set:0, AM_RegBuffer:0
2017-09-07 13:06:03, BGO Set:0,733 
2017-09-07 13:06:03, Gain Set:0, AM_RegBuffer:0 
