2017-09-13 17:47:19, 43,:e,:a0,:14,:7a,:4,:2 @

2017-09-13 17:47:19, SeqNo,VChan3,DVDD,BGO,NTCPWR,NC,VDD_HV,HV_Is<1>,HV_Is<0>

2017-09-13 17:47:20,
2017-09-13 17:47:21,
2017-09-13 17:47:22,
2017-09-13 17:47:23,
2017-09-13 17:47:24,
2017-09-13 17:47:25,
2017-09-13 17:47:25,0,0,0,0,0,0,0,0,0,0,0,0,0,0,0,0 

2017-09-13 17:47:26,
2017-09-13 17:47:27,
2017-09-13 17:47:28,
2017-09-13 17:47:29,
2017-09-13 17:47:30,
2017-09-13 17:47:31,
2017-09-13 17:47:32,0,0,0,0,0,0,0,0,0,0,0,0,0,0,0,0 

2017-09-13 17:47:33,
2017-09-13 17:47:34,
2017-09-13 17:47:35,
2017-09-13 17:47:36,
2017-09-13 17:47:37,
2017-09-13 17:47:38,
2017-09-13 17:47:38,0,0,0,0,0,0,0,0,0,0,0,0,0,0,0,0 

2017-09-13 17:47:39,
2017-09-13 17:47:40,
2017-09-13 17:47:41,
2017-09-13 17:47:42,
2017-09-13 17:47:43,
2017-09-13 17:47:44,
2017-09-13 17:47:45,0,0,0,0,0,0,0,0,0,0,0,0,0,0,0,0 

2017-09-13 17:47:45,*******DONE*******#

Exiting PsocAmPreRad