2017-09-13 17:55:27, 43,:e,:a0,:14,:7a,:4,:2 @

2017-09-13 17:55:27, SeqNo,VChan3,DVDD,BGO,NTCPWR,NC,VDD_HV,HV_Is<1>,HV_Is<0>

2017-09-13 17:55:28,
2017-09-13 17:55:29,
2017-09-13 17:55:30,
2017-09-13 17:55:30,0,0,0,0,0,0,0,0,0,0,0,0,0,0,0,0 

2017-09-13 17:55:31,
2017-09-13 17:55:32,
2017-09-13 17:55:33,
2017-09-13 17:55:34,0,0,0,0,0,0,0,0,0,0,0,0,0,0,0,0 

2017-09-13 17:55:35,
2017-09-13 17:55:36,
2017-09-13 17:55:37,
2017-09-13 17:55:37,0,0,0,0,0,0,0,0,0,0,0,0,0,0,0,0 

2017-09-13 17:55:38,
2017-09-13 17:55:39,
2017-09-13 17:55:49,0,0,0,0,0,0,0,0,0,0,0,0,0,0,0,0 

2017-09-13 17:55:49,*******DONE*******#

Exiting PsocAmPreRad