2017-09-13 16:18:47, 43,:e,:a0,:14,:7a,:4,:2 @

2017-09-13 16:18:47, SeqNo,VChan3,DVDD,BGO,NTCPWR,NC,VDD_HV,HV_Is<1>,HV_Is<0>

2017-09-13 16:18:48,0,4,2, 
2017-09-13 16:18:49,
2017-09-13 16:18:50,
2017-09-13 16:18:51,
2017-09-13 16:18:52,
2017-09-13 16:18:53,
2017-09-13 16:18:54,
2017-09-13 16:18:55,
2017-09-13 16:18:56,
2017-09-13 16:18:57,
2017-09-13 16:18:58,
2017-09-13 16:18:59,
2017-09-13 16:19:00,
2017-09-13 16:19:01,
2017-09-13 16:19:02,
2017-09-13 16:19:03,Sending data!!0,0,0,0,0,0,0,0 

2017-09-13 16:19:04,
2017-09-13 16:19:05,
2017-09-13 16:19:06,
2017-09-13 16:19:07,
2017-09-13 16:19:08,
2017-09-13 16:19:09,
2017-09-13 16:19:10,
2017-09-13 16:19:11,
2017-09-13 16:19:12,
2017-09-13 16:19:13,
