2017-09-13 17:20:31, 43,:e,:a0,:14,:7a,:4,:2 @

2017-09-13 17:20:31, SeqNo,VChan3,DVDD,BGO,NTCPWR,NC,VDD_HV,HV_Is<1>,HV_Is<0>

2017-09-13 17:20:32,
2017-09-13 17:20:33,
2017-09-13 17:20:34,
2017-09-13 17:20:35,
2017-09-13 17:20:36,
2017-09-13 17:20:37,
2017-09-13 17:20:38,
2017-09-13 17:20:39,
2017-09-13 17:20:40,
2017-09-13 17:20:41,
2017-09-13 17:20:42,
2017-09-13 17:20:43,
2017-09-13 17:20:44,
2017-09-13 17:20:45,
2017-09-13 17:20:46,6287,857,19229,1411,43663,65535,955,961 

2017-09-13 17:20:46,239,32,733,53,1665,2500,36,36 

2017-09-13 17:20:47,
2017-09-13 17:20:48,
2017-09-13 17:20:49,
2017-09-13 17:20:50,
2017-09-13 17:20:51,
2017-09-13 17:20:52,
2017-09-13 17:20:53,
2017-09-13 17:20:54,
2017-09-13 17:20:55,
2017-09-13 17:20:55,6287,857,19231,1411,43623,1,955,961 

2017-09-13 17:20:55,239,32,733,53,1664,0,36,36 

2017-09-13 17:20:56,
2017-09-13 17:20:57,
2017-09-13 17:20:58,
2017-09-13 17:20:59,
2017-09-13 17:21:00,
2017-09-13 17:21:01,
2017-09-13 17:21:02,
2017-09-13 17:21:03,
2017-09-13 17:21:04,
2017-09-13 17:21:05,6287,857,19231,1411,43651,65535,955,961 

2017-09-13 17:21:05,239,32,733,53,1665,2500,36,36 

2017-09-13 17:21:06,
2017-09-13 17:21:07,
2017-09-13 17:21:08,
2017-09-13 17:21:09,
2017-09-13 17:21:10,
2017-09-13 17:21:11,
2017-09-13 17:21:12,
2017-09-13 17:21:13,
2017-09-13 17:21:14,
2017-09-13 17:21:15,6287,857,19231,1411,43623,65535,955,961 

2017-09-13 17:21:15,239,32,733,53,1664,2500,36,36 

2017-09-13 17:21:15,*******DONE*******#

Exiting PsocAmPreRad