#B0E00FFFFC8001AAMPT_T.

2017-10-20 18:20:24, 42,:e,:0,:ffff,:c8,:0,:1a @

2017-10-20 18:20:24,*******AM_PROTECTION_TEST*******

2017-10-20 18:20:24,*SeqNo,Samples,maxCnt,Vin1a,Vin1b,Isense0,Vin2a,Vin2b,Isense1

2017-10-20 18:20:24,#B#,0,26,2520,0,0,0,0,0,0

2017-10-20 18:20:25,
2017-10-20 18:20:26,#B#,1,26,2520,-78,-156,78,-78,-156,0

2017-10-20 18:20:27,
2017-10-20 18:20:27,#B#,2,26,2520,-199,-199,0,-199,-199,0

2017-10-20 18:20:28,
2017-10-20 18:20:28,#B#,3,26,2520,-228,-234,6,-228,-234,0

2017-10-20 18:20:29,
2017-10-20 18:20:29,#B#,4,26,2520,-258,-267,9,-258,-267,0

2017-10-20 18:20:30,
2017-10-20 18:20:31,#B#,5,26,2520,-302,-311,9,-302,-311,0

2017-10-20 18:20:32,
2017-10-20 18:20:32,#B#,6,26,2520,-345,-347,2,-345,-347,0

2017-10-20 18:20:33,
2017-10-20 18:20:33,#B#,7,26,2520,-409,-415,6,-409,-415,0

2017-10-20 18:20:34,
2017-10-20 18:20:34,#B#,8,26,2520,-428,-428,0,-428,-428,0

2017-10-20 18:20:35,
2017-10-20 18:20:35,#B#,9,26,2520,-430,-420,10,-430,-420,10

2017-10-20 18:20:36,
2017-10-20 18:20:37,#B#,10,26,2520,-426,-421,5,-426,-421,5

2017-10-20 18:20:38,
2017-10-20 18:20:38,#B#,11,26,2520,-409,-401,8,-409,-401,8

2017-10-20 18:20:39,
2017-10-20 18:20:39,#B#,12,26,2520,-390,-380,10,-390,-380,10

2017-10-20 18:20:40,
2017-10-20 18:20:40,#B#,13,26,2520,-378,-367,11,-378,-367,11

2017-10-20 18:20:41,
2017-10-20 18:20:41,#B#,14,26,2520,-378,-373,5,-378,-373,5

2017-10-20 18:20:42,
2017-10-20 18:20:43,#B#,15,26,2520,-385,-374,11,-385,-374,11

2017-10-20 18:20:44,
2017-10-20 18:20:44,#B#,16,26,2520,-385,-374,11,-385,-374,11

2017-10-20 18:20:45,
2017-10-20 18:20:45,#B#,17,26,2520,-413,-210,203,-413,-210,203

2017-10-20 18:20:46,
2017-10-20 18:20:46,#B#,18,26,2520,-4,-4,0,-4,-4,0

2017-10-20 18:20:47,
2017-10-20 18:20:47,#B#,19,26,2520,-4,-4,0,-4,-4,0

2017-10-20 18:20:48,
2017-10-20 18:20:49,#B#,20,26,2520,-4,-4,0,-4,-4,0

2017-10-20 18:20:50,
2017-10-20 18:20:50,#B#,21,26,2520,-4,-4,0,-4,-4,0

2017-10-20 18:20:51,
2017-10-20 18:20:51,#B#,22,26,2520,-4,-4,0,-4,-4,0

2017-10-20 18:20:52,
2017-10-20 18:20:52,#B#,23,26,2520,-4,-4,0,-4,-4,0

2017-10-20 18:20:53,
2017-10-20 18:20:53,#B#,24,26,2520,-4,-4,0,-4,-4,0

2017-10-20 18:20:54,
2017-10-20 18:20:55,#B#,25,26,2520,-4,-4,0,-4,-4,0

2017-10-20 18:20:56,
2017-10-20 18:20:56,#B#,26,26,2520,-4,-4,0,-4,-4,0

2017-10-20 18:20:57,
2017-10-20 18:20:57,#B#,27,26,2520,-4,-4,0,-4,-4,0

2017-10-20 18:20:58,
2017-10-20 18:20:58,#B#,28,26,2520,-4,-4,0,-4,-4,0

2017-10-20 18:20:59,
2017-10-20 18:20:59,#B#,29,26,2520,-4,-4,0,-4,-4,0

2017-10-20 18:21:00,
2017-10-20 18:21:01,#B#,30,26,2520,837,1180,343,837,1180,343

2017-10-20 18:21:02,
2017-10-20 18:21:02,#B#,31,26,2520,1460,1470,10,1460,1470,10

2017-10-20 18:21:03,
2017-10-20 18:21:03,#B#,32,26,2520,1481,1483,2,1481,1483,2

2017-10-20 18:21:04,
2017-10-20 18:21:04,#B#,33,26,2520,1484,1485,1,1484,1485,1

2017-10-20 18:21:05,
2017-10-20 18:21:05,#B#,34,26,2520,1568,1607,39,1568,1607,39

2017-10-20 18:21:06,
2017-10-20 18:21:07,#B#,35,26,2520,1650,1654,4,1650,1654,4

2017-10-20 18:21:08,
2017-10-20 18:21:08,#B#,36,26,2520,1659,1660,1,1659,1660,1

2017-10-20 18:21:09,
2017-10-20 18:21:09,#B#,37,26,2520,1541,1516,25,1541,1516,1

2017-10-20 18:21:10,
2017-10-20 18:21:10,#B#,38,26,2520,1497,1492,5,1497,1492,1

2017-10-20 18:21:11,
2017-10-20 18:21:12,#B#,39,26,2520,1487,1486,1,1487,1486,1

2017-10-20 18:21:13,
2017-10-20 18:21:13,#B#,40,26,2520,1487,1487,0,1487,1487,0

2017-10-20 18:21:14,
2017-10-20 18:21:14,#B#,41,26,2520,1487,1486,1,1487,1486,0

2017-10-20 18:21:15,
2017-10-20 18:21:15,#B#,42,26,2520,1485,1487,2,1485,1487,2

2017-10-20 18:21:16,
2017-10-20 18:21:16,#B#,43,26,2520,1546,1599,53,1546,1599,53

2017-10-20 18:21:17,
2017-10-20 18:21:18,#B#,44,26,2520,1651,1656,5,1651,1656,5

2017-10-20 18:21:19,
2017-10-20 18:21:19,#B#,45,26,2520,1661,1661,0,1661,1661,0

2017-10-20 18:21:20,
2017-10-20 18:21:20,#B#,46,26,2520,1663,1663,0,1663,1663,0

2017-10-20 18:21:21,
2017-10-20 18:21:21,#B#,47,26,2520,1663,1662,1,1663,1662,0

2017-10-20 18:21:22,
2017-10-20 18:21:22,#B#,48,26,2520,1663,1663,0,1663,1663,0

2017-10-20 18:21:23,
2017-10-20 18:21:24,#B#,49,26,2520,1664,1664,0,1664,1664,0

2017-10-20 18:21:25,
2017-10-20 18:21:25,#B#,50,26,2520,1665,1664,1,1665,1664,0

2017-10-20 18:21:26,
2017-10-20 18:21:26,#B#,51,26,2520,1663,1663,0,1663,1663,0

2017-10-20 18:21:27,
2017-10-20 18:21:27,#B#,52,26,2520,1663,1663,0,1663,1663,0

2017-10-20 18:21:28,
2017-10-20 18:21:28,#B#,53,26,2520,1663,1664,1,1663,1664,1

2017-10-20 18:21:29,
2017-10-20 18:21:30,#B#,54,26,2520,1664,1664,0,1664,1664,0

2017-10-20 18:21:31,
2017-10-20 18:21:31,#B#,55,26,2520,1663,1663,0,1663,1663,0

2017-10-20 18:21:32,
2017-10-20 18:21:32,#B#,56,26,2520,1663,1664,1,1663,1664,1

2017-10-20 18:21:33,
2017-10-20 18:21:33,#B#,57,26,2520,1664,1664,0,1664,1664,0

2017-10-20 18:21:34,
2017-10-20 18:21:34,#B#,58,26,2520,1664,1665,1,1664,1665,1

2017-10-20 18:21:35,
2017-10-20 18:21:36,#B#,59,26,2520,1664,1663,1,1664,1663,1

2017-10-20 18:21:37,
2017-10-20 18:21:37,#B#,60,26,2520,1665,1664,1,1665,1664,1

2017-10-20 18:21:38,
2017-10-20 18:21:38,#B#,61,26,2520,1663,1663,0,1663,1663,0

2017-10-20 18:21:39,
2017-10-20 18:21:39,#B#,62,26,2520,1663,1663,0,1663,1663,0

2017-10-20 18:21:40,
2017-10-20 18:21:40,#B#,63,26,2520,1664,1663,1,1664,1663,0

2017-10-20 18:21:41,
2017-10-20 18:21:42,#B#,64,26,2520,1663,1386,277,1663,1386,0

2017-10-20 18:21:43,
2017-10-20 18:21:43,#B#,65,26,2520,1668,1666,2,1668,1666,0

2017-10-20 18:21:44,
2017-10-20 18:21:44,#B#,66,26,2520,1664,1663,1,1664,1663,0

2017-10-20 18:21:45,
2017-10-20 18:21:45,#B#,67,26,2520,1663,1662,1,1663,1662,0

2017-10-20 18:21:46,
2017-10-20 18:21:46,#B#,68,26,2520,1661,1660,1,1661,1660,0

2017-10-20 18:21:48,
2017-10-20 18:21:48,#B#,69,26,2520,1660,1656,4,1660,1656,0

2017-10-20 18:21:49,
2017-10-20 18:21:49,#B#,70,26,2520,1660,1661,1,1660,1661,1

2017-10-20 18:21:50,
2017-10-20 18:21:50,#B#,71,26,2520,1657,1656,1,1657,1656,1

2017-10-20 18:21:51,
2017-10-20 18:21:51,#B#,72,26,2520,1649,1648,1,1649,1648,1

2017-10-20 18:21:52,
2017-10-20 18:21:53,#B#,73,26,2520,1648,1655,7,1648,1655,7

2017-10-20 18:21:54,
2017-10-20 18:21:54,#B#,74,26,2520,846,261,585,846,261,7

2017-10-20 18:21:55,
2017-10-20 18:21:55,#B#,75,26,2520,1520,1011,509,1520,1011,7

2017-10-20 18:21:56,
2017-10-20 18:21:56,#B#,76,26,2520,1659,1660,1,1659,1660,1

2017-10-20 18:21:57,
2017-10-20 18:21:57,#B#,77,26,2520,1662,1662,0,1662,1662,0

2017-10-20 18:21:58,
2017-10-20 18:21:59,#B#,78,26,2520,1664,1663,1,1664,1663,0

2017-10-20 18:22:00,
2017-10-20 18:22:00,#B#,79,26,2520,1664,1663,1,1664,1663,0

2017-10-20 18:22:01,
2017-10-20 18:22:01,#B#,80,26,2520,1664,1663,1,1664,1663,0

2017-10-20 18:22:02,
2017-10-20 18:22:02,#B#,81,26,2520,1664,1663,1,1664,1663,0

2017-10-20 18:22:03,
2017-10-20 18:22:03,#B#,82,26,2520,1664,1663,1,1664,1663,0

2017-10-20 18:22:04,
2017-10-20 18:22:05,#B#,83,26,2520,1531,1510,21,1531,1510,0

2017-10-20 18:22:06,
2017-10-20 18:22:06,#B#,84,26,2520,1491,1488,3,1491,1488,0

2017-10-20 18:22:07,
2017-10-20 18:22:07,#B#,85,26,2520,1487,1487,0,1487,1487,0

2017-10-20 18:22:08,
2017-10-20 18:22:08,#B#,86,26,2520,1487,1487,0,1487,1487,0

2017-10-20 18:22:09,
2017-10-20 18:22:09,#B#,87,26,2520,1488,1488,0,1488,1488,0

2017-10-20 18:22:10,
2017-10-20 18:22:11,#B#,88,26,2520,1488,1487,1,1488,1487,0

2017-10-20 18:22:12,
2017-10-20 18:22:12,#B#,89,26,2520,1540,1595,55,1540,1595,55

2017-10-20 18:22:13,
2017-10-20 18:22:13,#B#,90,26,2520,1652,1632,20,1652,1632,55

2017-10-20 18:22:14,
2017-10-20 18:22:14,#B#,91,26,2520,1507,1568,61,1507,1568,61

2017-10-20 18:22:15,
2017-10-20 18:22:15,#B#,92,26,2520,1648,1654,6,1648,1654,6

2017-10-20 18:22:16,
2017-10-20 18:22:17,#B#,93,26,2520,1661,1661,0,1661,1661,0

2017-10-20 18:22:18,
2017-10-20 18:22:18,#B#,94,26,2520,1663,1663,0,1663,1663,0

2017-10-20 18:22:19,
2017-10-20 18:22:19,#B#,95,26,2520,1663,1186,477,1663,1186,0

2017-10-20 18:22:20,
2017-10-20 18:22:20,#B#,96,26,2520,1680,1671,9,1680,1671,0

2017-10-20 18:22:21,
2017-10-20 18:22:21,#B#,97,26,2520,1666,1665,1,1666,1665,0

2017-10-20 18:22:22,
2017-10-20 18:22:23,#B#,98,26,2520,1664,1663,1,1664,1663,0

2017-10-20 18:22:24,
2017-10-20 18:22:24,#B#,99,26,2520,1664,1665,1,1664,1665,1

2017-10-20 18:22:25,
2017-10-20 18:22:25,#B#,100,26,2520,1664,1664,0,1664,1664,0

2017-10-20 18:22:26,
2017-10-20 18:22:26,#B#,101,26,2520,1664,1664,0,1664,1664,0

2017-10-20 18:22:27,
2017-10-20 18:22:28,#B#,102,26,2520,1664,1664,0,1664,1664,0

2017-10-20 18:22:29,
2017-10-20 18:22:29,#B#,103,26,2520,1663,1661,2,1663,1661,0

2017-10-20 18:22:30,
2017-10-20 18:22:30,#B#,104,26,2520,1649,751,898,1649,751,0

2017-10-20 18:22:31,
2017-10-20 18:22:31,#B#,105,26,2520,880,876,4,880,876,0

2017-10-20 18:22:32,
2017-10-20 18:22:32,#B#,106,26,2520,71,66,5,71,66,0

2017-10-20 18:22:33,
2017-10-20 18:22:34,#B#,107,26,2520,10,13,3,10,13,3

2017-10-20 18:22:35,
2017-10-20 18:22:35,#B#,108,26,2520,4,3,1,4,3,3

2017-10-20 18:22:36,
2017-10-20 18:22:36,#B#,109,26,2520,3,2,1,3,2,3

2017-10-20 18:22:37,
2017-10-20 18:22:37,#B#,110,26,2520,3,2,1,3,2,3

2017-10-20 18:22:38,
2017-10-20 18:22:38,#B#,111,26,2520,4,2,2,4,2,3

2017-10-20 18:22:39,
2017-10-20 18:22:40,#B#,112,26,2520,4,2,2,4,2,3

2017-10-20 18:22:41,
2017-10-20 18:22:41,#B#,113,26,2520,2,0,2,2,0,3

2017-10-20 18:22:42,
2017-10-20 18:22:42,#B#,114,26,2520,-1,1,2,-1,1,2

2017-10-20 18:22:43,
2017-10-20 18:22:43,#B#,115,26,2520,0,1,1,0,1,1

2017-10-20 18:22:44,
2017-10-20 18:22:44,#B#,116,26,2520,-1,4,5,-1,4,5

2017-10-20 18:22:45,
2017-10-20 18:22:46,#B#,117,26,2520,1,2,1,1,2,1

2017-10-20 18:22:47,
2017-10-20 18:22:47,#B#,118,26,2520,3,0,3,3,0,1

2017-10-20 18:22:48,
2017-10-20 18:22:48,#B#,119,26,2520,0,-2,2,0,-2,1

2017-10-20 18:22:49,
2017-10-20 18:22:49,#B#,120,26,2520,1,1,0,1,1,0

2017-10-20 18:22:50,
2017-10-20 18:22:50,#B#,121,26,2520,-1,1,2,-1,1,2

2017-10-20 18:22:51,
2017-10-20 18:22:52,#B#,122,26,2520,-1,-2,1,-1,-2,2

2017-10-20 18:22:53,
2017-10-20 18:22:53,#B#,123,26,2520,2,0,2,2,0,2

2017-10-20 18:22:54,
2017-10-20 18:22:54,#B#,124,26,2520,2,-1,3,2,-1,2

2017-10-20 18:22:55,
2017-10-20 18:22:55,#B#,125,26,2520,1,2,1,1,2,1

2017-10-20 18:22:56,
2017-10-20 18:22:56,#B#,126,26,2520,1,2,1,1,2,1

2017-10-20 18:22:57,
2017-10-20 18:22:58,#B#,127,26,2520,-1,1,2,-1,1,2

2017-10-20 18:22:59,
2017-10-20 18:22:59,#B#,128,26,2520,0,0,0,0,0,0

2017-10-20 18:23:00,
2017-10-20 18:23:00,#B#,129,26,2520,1,-1,2,1,-1,0

2017-10-20 18:23:01,
2017-10-20 18:23:01,#B#,130,26,2520,-1,0,1,-1,0,1

2017-10-20 18:23:02,
2017-10-20 18:23:02,#B#,131,26,2520,1,2,1,1,2,1

2017-10-20 18:23:03,
2017-10-20 18:23:04,#B#,132,26,2520,-1,-2,1,-1,-2,1

2017-10-20 18:23:05,
2017-10-20 18:23:05,#B#,133,26,2520,3,-1,4,3,-1,1

2017-10-20 18:23:06,
2017-10-20 18:23:06,#B#,134,26,2520,-1,1,2,-1,1,2

2017-10-20 18:23:07,
2017-10-20 18:23:07,#B#,135,26,2520,1,-1,2,1,-1,2

2017-10-20 18:23:08,
2017-10-20 18:23:08,#B#,136,26,2520,2,0,2,2,0,2

2017-10-20 18:23:09,
2017-10-20 18:23:10,#B#,137,26,2520,-1,-1,0,-1,-1,0

2017-10-20 18:23:11,
2017-10-20 18:23:11,#B#,138,26,2520,1,1,0,1,1,0

2017-10-20 18:23:12,
2017-10-20 18:23:12,#B#,139,26,2520,-1,4,5,-1,4,5

2017-10-20 18:23:13,
2017-10-20 18:23:13,#B#,140,26,2520,-1,1,2,-1,1,2

2017-10-20 18:23:14,
2017-10-20 18:23:15,#B#,141,26,2520,1,-2,3,1,-2,2

2017-10-20 18:23:16,
2017-10-20 18:23:16,#B#,142,26,2520,2,-1,3,2,-1,2

