#B0E00FFFFC8001AAMPT_T.

2017-10-20 19:25:44, 42,:e,:0,:ffff,:c8,:0,:1a @

2017-10-20 19:25:44,*******AM_PROTECTION_TEST*******

2017-10-20 19:25:44,*SeqNo,Samples,maxCnt,Vin1a,Vin1b,Isense0,Vin2a,Vin2b,Isense1

2017-10-20 19:25:45,#B#,0,26,2520,1811,1604,207,1811,1604,0

2017-10-20 19:25:46,
2017-10-20 19:25:46,#B#,1,26,2520,949,1604,655,949,1604,655

2017-10-20 19:25:47,
2017-10-20 19:25:47,#B#,2,26,2520,856,1604,748,856,1604,748

2017-10-20 19:25:48,
2017-10-20 19:25:48,#B#,3,26,2520,841,1604,763,841,1604,763

2017-10-20 19:25:49,
2017-10-20 19:25:49,#B#,4,26,2520,840,1604,764,840,1604,764

2017-10-20 19:25:50,
2017-10-20 19:25:51,#B#,5,26,2520,839,1604,765,839,1604,765

2017-10-20 19:25:52,
2017-10-20 19:25:52,#B#,6,26,2520,838,1368,530,838,1368,530

2017-10-20 19:25:53,
2017-10-20 19:25:53,#B#,7,26,2520,837,1034,197,837,1034,197

2017-10-20 19:25:54,
2017-10-20 19:25:54,#B#,8,26,2520,837,943,106,837,943,106

2017-10-20 19:25:55,
2017-10-20 19:25:55,#B#,9,26,2520,330,334,4,330,334,4

2017-10-20 19:25:56,
2017-10-20 19:25:57,#B#,10,26,2520,327,334,7,327,334,7

2017-10-20 19:25:58,
2017-10-20 19:25:58,#B#,11,26,2520,327,334,7,327,334,7

2017-10-20 19:25:59,
2017-10-20 19:25:59,#B#,12,26,2520,327,334,7,327,334,7

2017-10-20 19:26:00,
2017-10-20 19:26:00,#B#,13,26,2520,327,334,7,327,334,7

2017-10-20 19:26:01,
2017-10-20 19:26:01,#B#,14,26,2520,327,334,7,327,334,7

2017-10-20 19:26:02,
2017-10-20 19:26:03,#B#,15,26,2520,327,334,7,327,334,7

2017-10-20 19:26:04,
2017-10-20 19:26:04,#B#,16,26,2520,327,334,7,327,334,7

2017-10-20 19:26:05,
2017-10-20 19:26:05,#B#,17,26,2520,310,399,89,310,399,89

2017-10-20 19:26:06,
2017-10-20 19:26:06,#B#,18,26,2520,400,436,36,400,436,36

2017-10-20 19:26:07,
2017-10-20 19:26:07,#B#,19,26,2520,379,381,2,379,381,2

2017-10-20 19:26:08,
2017-10-20 19:26:09,#B#,20,26,2520,358,359,1,358,359,1

2017-10-20 19:26:10,
2017-10-20 19:26:10,#B#,21,26,2520,341,349,8,341,349,8

2017-10-20 19:26:11,
2017-10-20 19:26:11,#B#,22,26,2520,341,349,8,341,349,8

2017-10-20 19:26:12,
2017-10-20 19:26:12,#B#,23,26,2520,326,332,6,326,332,6

2017-10-20 19:26:13,
2017-10-20 19:26:14,#B#,24,26,2520,325,331,6,325,331,6

2017-10-20 19:26:15,
2017-10-20 19:26:15,#B#,25,26,2520,324,331,7,324,331,7

2017-10-20 19:26:16,
2017-10-20 19:26:16,#B#,26,26,2520,324,355,31,324,355,31

2017-10-20 19:26:17,
2017-10-20 19:26:17,#B#,27,26,2520,338,389,51,338,389,51

2017-10-20 19:26:18,
2017-10-20 19:26:18,#B#,28,26,2520,1935,55,1880,1935,55,51

2017-10-20 19:26:19,
2017-10-20 19:26:20,#B#,29,26,2520,965,0,965,965,0,51

2017-10-20 19:26:21,
2017-10-20 19:26:21,#B#,30,26,2520,858,0,858,858,0,51

2017-10-20 19:26:22,
2017-10-20 19:26:22,#B#,31,26,2520,844,10,834,844,10,51

2017-10-20 19:26:23,
2017-10-20 19:26:23,#B#,32,26,2520,844,321,523,844,321,51

2017-10-20 19:26:24,
2017-10-20 19:26:24,#B#,33,26,2520,405,415,10,405,415,10

2017-10-20 19:26:25,
2017-10-20 19:26:26,#B#,34,26,2520,359,347,12,359,347,10

2017-10-20 19:26:27,
2017-10-20 19:26:27,#B#,35,26,2520,309,298,11,309,298,10

2017-10-20 19:26:28,
2017-10-20 19:26:28,#B#,36,26,2520,243,229,14,243,229,10

2017-10-20 19:26:29,
2017-10-20 19:26:29,#B#,37,26,2520,208,208,0,208,208,0

2017-10-20 19:26:30,
2017-10-20 19:26:30,#B#,38,26,2520,243,281,38,243,281,38

2017-10-20 19:26:31,
2017-10-20 19:26:32,#B#,39,26,2520,337,367,30,337,367,30

2017-10-20 19:26:33,
2017-10-20 19:26:33,#B#,40,26,2520,406,437,31,406,437,31

2017-10-20 19:26:34,
2017-10-20 19:26:34,#B#,41,26,2520,1954,211,1743,1954,211,31

2017-10-20 19:26:35,
2017-10-20 19:26:35,#B#,42,26,2520,972,3,969,972,3,31

2017-10-20 19:26:36,
2017-10-20 19:26:36,#B#,43,26,2520,859,5,854,859,5,31

2017-10-20 19:26:37,
2017-10-20 19:26:38,#B#,44,26,2520,843,5,838,843,5,31

2017-10-20 19:26:39,
2017-10-20 19:26:39,#B#,45,26,2520,840,5,835,840,5,31

2017-10-20 19:26:40,
2017-10-20 19:26:40,#B#,46,26,2520,840,5,835,840,5,31

2017-10-20 19:26:41,
2017-10-20 19:26:41,#B#,47,26,2520,839,49,790,839,49,31

2017-10-20 19:26:42,
2017-10-20 19:26:42,#B#,48,26,2520,839,0,839,839,0,31

2017-10-20 19:26:43,
2017-10-20 19:26:44,#B#,49,26,2520,837,3,834,837,3,31

2017-10-20 19:26:45,
2017-10-20 19:26:45,#B#,50,26,2520,837,3,834,837,3,31

2017-10-20 19:26:46,
2017-10-20 19:26:46,#B#,51,26,2520,837,3,834,837,3,31

2017-10-20 19:26:47,
2017-10-20 19:26:47,#B#,52,26,2520,837,3,834,837,3,31

2017-10-20 19:26:48,
2017-10-20 19:26:48,#B#,53,26,2520,838,3,835,838,3,31

2017-10-20 19:26:49,
2017-10-20 19:26:50,#B#,54,26,2520,837,3,834,837,3,31

2017-10-20 19:26:51,
2017-10-20 19:26:51,#B#,55,26,2520,836,3,833,836,3,31

2017-10-20 19:26:52,
2017-10-20 19:26:52,#B#,56,26,2520,837,3,834,837,3,31

2017-10-20 19:26:53,
2017-10-20 19:26:53,#B#,57,26,2520,835,51,784,835,51,31

2017-10-20 19:26:54,
2017-10-20 19:26:55,#B#,58,26,2520,863,393,470,863,393,31

2017-10-20 19:26:56,
2017-10-20 19:26:56,#B#,59,26,2520,388,332,56,388,332,31

2017-10-20 19:26:57,
2017-10-20 19:26:57,#B#,60,26,2520,1923,5,1918,1923,5,31

2017-10-20 19:26:58,
2017-10-20 19:26:58,#B#,61,26,2520,956,5,951,956,5,31

2017-10-20 19:26:59,
2017-10-20 19:26:59,#B#,62,26,2520,854,5,849,854,5,31

2017-10-20 19:27:00,
2017-10-20 19:27:01,#B#,63,26,2520,840,5,835,840,5,31

2017-10-20 19:27:02,
2017-10-20 19:27:02,#B#,64,26,2520,839,5,834,839,5,31

2017-10-20 19:27:03,
2017-10-20 19:27:03,#B#,65,26,2520,838,5,833,838,5,31

2017-10-20 19:27:04,
2017-10-20 19:27:04,#B#,66,26,2520,836,5,831,836,5,31

2017-10-20 19:27:05,
2017-10-20 19:27:05,#B#,67,26,2520,835,5,830,835,5,31

2017-10-20 19:27:06,
2017-10-20 19:27:07,#B#,68,26,2520,836,5,831,836,5,31

2017-10-20 19:27:08,
2017-10-20 19:27:08,#B#,69,26,2520,838,5,833,838,5,31

2017-10-20 19:27:09,
2017-10-20 19:27:09,#B#,70,26,2520,836,5,831,836,5,31

2017-10-20 19:27:10,
2017-10-20 19:27:10,#B#,71,26,2520,836,5,831,836,5,31

2017-10-20 19:27:11,
2017-10-20 19:27:11,#B#,72,26,2520,836,5,831,836,5,31

2017-10-20 19:27:12,
2017-10-20 19:27:13,#B#,73,26,2520,836,5,831,836,5,31

2017-10-20 19:27:14,
2017-10-20 19:27:14,#B#,74,26,2520,836,5,831,836,5,31

2017-10-20 19:27:15,
2017-10-20 19:27:15,#B#,75,26,2520,834,5,829,834,5,31

2017-10-20 19:27:16,
2017-10-20 19:27:16,#B#,76,26,2520,835,5,830,835,5,31

2017-10-20 19:27:17,
2017-10-20 19:27:17,#B#,77,26,2520,835,5,830,835,5,31

2017-10-20 19:27:18,
2017-10-20 19:27:19,#B#,78,26,2520,836,5,831,836,5,31

2017-10-20 19:27:20,
2017-10-20 19:27:20,#B#,79,26,2520,836,5,831,836,5,31

2017-10-20 19:27:21,
2017-10-20 19:27:21,#B#,80,26,2520,835,5,830,835,5,31

2017-10-20 19:27:22,
2017-10-20 19:27:22,#B#,81,26,2520,835,5,830,835,5,31

2017-10-20 19:27:23,
2017-10-20 19:27:23,#B#,82,26,2520,836,5,831,836,5,31

2017-10-20 19:27:24,
2017-10-20 19:27:25,#B#,83,26,2520,835,5,830,835,5,31

2017-10-20 19:27:26,
2017-10-20 19:27:26,#B#,84,26,2520,834,5,829,834,5,31

2017-10-20 19:27:27,
2017-10-20 19:27:27,#B#,85,26,2520,834,5,829,834,5,31

2017-10-20 19:27:28,
2017-10-20 19:27:28,#B#,86,26,2520,836,5,831,836,5,31

2017-10-20 19:27:29,
2017-10-20 19:27:29,#B#,87,26,2520,836,5,831,836,5,31

2017-10-20 19:27:30,
2017-10-20 19:27:31,#B#,88,26,2520,836,5,831,836,5,31

2017-10-20 19:27:32,
2017-10-20 19:27:32,#B#,89,26,2520,836,5,831,836,5,31

2017-10-20 19:27:33,
2017-10-20 19:27:33,#B#,90,26,2520,836,5,831,836,5,31

2017-10-20 19:27:34,
2017-10-20 19:27:34,#B#,91,26,2520,835,5,830,835,5,31

2017-10-20 19:27:35,
2017-10-20 19:27:35,#B#,92,26,2520,835,5,830,835,5,31

2017-10-20 19:27:36,
2017-10-20 19:27:37,#B#,93,26,2520,836,5,831,836,5,31

2017-10-20 19:27:38,
2017-10-20 19:27:38,#B#,94,26,2520,836,5,831,836,5,31

2017-10-20 19:27:39,
2017-10-20 19:27:39,#B#,95,26,2520,835,5,830,835,5,31

2017-10-20 19:27:40,
2017-10-20 19:27:40,#B#,96,26,2520,835,5,830,835,5,31

2017-10-20 19:27:41,
2017-10-20 19:27:42,#B#,97,26,2520,834,5,829,834,5,31

2017-10-20 19:27:43,
2017-10-20 19:27:43,#B#,98,26,2520,835,5,830,835,5,31

2017-10-20 19:27:44,
2017-10-20 19:27:44,#B#,99,26,2520,835,5,830,835,5,31

2017-10-20 19:27:45,
2017-10-20 19:27:46,
2017-10-20 19:27:47,
2017-10-20 19:27:48,
2017-10-20 19:27:49,
2017-10-20 19:27:50,
2017-10-20 19:27:51,
2017-10-20 19:27:52,
2017-10-20 19:27:53,
