#B0E00FFFFC8001AAMPT_T.

2017-10-20 16:42:02, 42,:e,:0,:ffff,:c8,:0,:1a @

2017-10-20 16:42:02,#B#,0,8,2520,0,0,0,0,0,0

2017-10-20 16:42:03,
2017-10-20 16:42:04,#B#,1,8,2520,-1,2499,63036,-1,2499,63036

2017-10-20 16:42:05,
2017-10-20 16:42:05,#B#,2,8,2520,-1,2499,63036,-1,2499,63036

2017-10-20 16:42:06,
2017-10-20 16:42:06,#B#,3,8,2520,-1,2499,63036,-1,2499,63036

2017-10-20 16:42:07,
2017-10-20 16:42:07,#B#,4,8,2520,-1,2499,63036,-1,2499,63036

2017-10-20 16:42:08,
2017-10-20 16:42:08,#B#,5,8,2520,-1,2499,63036,-1,2499,63036

2017-10-20 16:42:09,
2017-10-20 16:42:10,#B#,6,8,2520,-1,2460,63075,-1,2460,63075

2017-10-20 16:42:11,
2017-10-20 16:42:11,#B#,7,8,2520,-54,2446,63036,-54,2446,63036

2017-10-20 16:42:12,
2017-10-20 16:42:12,#B#,8,8,2520,-54,2446,63036,-54,2446,63036

2017-10-20 16:42:13,
2017-10-20 16:42:13,#B#,9,8,2520,-54,2446,63036,-54,2446,63036

2017-10-20 16:42:14,
2017-10-20 16:42:15,#B#,10,8,2520,-54,2446,63036,-54,2446,63036

2017-10-20 16:42:16,
2017-10-20 16:42:16,#B#,11,8,2520,-54,2446,63036,-54,2446,63036

2017-10-20 16:42:17,
2017-10-20 16:42:17,#B#,12,8,2520,-54,2446,63036,-54,2446,63036

2017-10-20 16:42:18,
2017-10-20 16:42:18,#B#,13,8,2520,-54,2446,63036,-54,2446,63036

2017-10-20 16:42:19,
2017-10-20 16:42:19,#B#,14,8,2520,-54,2446,63036,-54,2446,63036

2017-10-20 16:42:20,
2017-10-20 16:42:21,#B#,15,8,2520,-54,2446,63036,-54,2446,63036

2017-10-20 16:42:22,
2017-10-20 16:42:22,#B#,16,8,2520,-54,2446,63036,-54,2446,63036

2017-10-20 16:42:23,
2017-10-20 16:42:23,#B#,17,8,2520,-54,2446,63036,-54,2446,63036

2017-10-20 16:42:24,
2017-10-20 16:42:24,#B#,18,8,2520,-54,2446,63036,-54,2446,63036

2017-10-20 16:42:25,
2017-10-20 16:42:25,#B#,19,8,2520,-54,2446,63036,-54,2446,63036

2017-10-20 16:42:26,
2017-10-20 16:42:27,#B#,20,8,2520,-54,2446,63036,-54,2446,63036

2017-10-20 16:42:28,
2017-10-20 16:42:28,#B#,21,8,2520,-54,2446,63036,-54,2446,63036

2017-10-20 16:42:29,
2017-10-20 16:42:29,#B#,22,8,2520,-54,2446,63036,-54,2446,63036

2017-10-20 16:42:30,
2017-10-20 16:42:30,#B#,23,8,2520,-54,2446,63036,-54,2446,63036

2017-10-20 16:42:31,
2017-10-20 16:42:31,#B#,24,8,2520,-54,2446,63036,-54,2446,63036

2017-10-20 16:42:32,
2017-10-20 16:42:33,#B#,25,8,2520,-54,2446,63036,-54,2446,63036

2017-10-20 16:42:34,
2017-10-20 16:42:34,#B#,26,8,2520,-54,2446,63036,-54,2446,63036

2017-10-20 16:42:35,
2017-10-20 16:42:35,#B#,27,8,2520,-54,2446,63036,-54,2446,63036

2017-10-20 16:42:36,
2017-10-20 16:42:36,#B#,28,8,2520,-54,2446,63036,-54,2446,63036

2017-10-20 16:42:37,
2017-10-20 16:42:37,#B#,29,8,2520,-54,2446,63036,-54,2446,63036

2017-10-20 16:42:38,
2017-10-20 16:42:39,#B#,30,8,2520,-54,2446,63036,-54,2446,63036

2017-10-20 16:42:40,
2017-10-20 16:42:40,#B#,31,8,2520,-54,2446,63036,-54,2446,63036

2017-10-20 16:42:41,
2017-10-20 16:42:41,#B#,32,8,2520,-54,2446,63036,-54,2446,63036

2017-10-20 16:42:42,
2017-10-20 16:42:42,#B#,33,8,2520,-54,2446,63036,-54,2446,63036

2017-10-20 16:42:43,
2017-10-20 16:42:43,#B#,34,8,2520,-54,2446,63036,-54,2446,63036

2017-10-20 16:42:44,
2017-10-20 16:42:45,#B#,35,8,2520,-54,2446,63036,-54,2446,63036

2017-10-20 16:42:46,
2017-10-20 16:42:46,#B#,36,8,2520,-54,2446,63036,-54,2446,63036

2017-10-20 16:42:47,
2017-10-20 16:42:47,#B#,37,8,2520,-54,2446,63036,-54,2446,63036

2017-10-20 16:42:48,
2017-10-20 16:42:48,#B#,38,8,2520,-54,2446,63036,-54,2446,63036

2017-10-20 16:42:49,
2017-10-20 16:42:50,#B#,39,8,2520,-54,2446,63036,-54,2446,63036

2017-10-20 16:42:51,
2017-10-20 16:42:51,#B#,40,8,2520,-54,2446,63036,-54,2446,63036

2017-10-20 16:42:52,
2017-10-20 16:42:52,#B#,41,8,2520,-54,2446,63036,-54,2446,63036

2017-10-20 16:42:53,
2017-10-20 16:42:53,#B#,42,8,2520,-54,2446,63036,-54,2446,63036

2017-10-20 16:42:54,
2017-10-20 16:42:54,#B#,43,8,2520,-54,2446,63036,-54,2446,63036

2017-10-20 16:42:55,
2017-10-20 16:42:56,#B#,44,8,2520,-54,2446,63036,-54,2446,63036

2017-10-20 16:42:57,
2017-10-20 16:42:57,#B#,45,8,2520,-54,2446,63036,-54,2446,63036

2017-10-20 16:42:58,
2017-10-20 16:42:58,#B#,46,8,2520,-54,2446,63036,-54,2446,63036

2017-10-20 16:42:59,
2017-10-20 16:42:59,#B#,47,8,2520,-54,2446,63036,-54,2446,63036

2017-10-20 16:43:00,
2017-10-20 16:43:00,#B#,48,8,2520,-54,2446,63036,-54,2446,63036

2017-10-20 16:43:01,
2017-10-20 16:43:02,#B#,49,8,2520,-54,641,64841,-54,641,64841

2017-10-20 16:43:03,
2017-10-20 16:43:03,#B#,50,8,2520,656,656,0,656,656,0

2017-10-20 16:43:04,
2017-10-20 16:43:04,#B#,51,8,2520,688,661,27,688,661,27

2017-10-20 16:43:05,
2017-10-20 16:43:05,#B#,52,8,2520,661,657,4,661,657,4

2017-10-20 16:43:06,
2017-10-20 16:43:06,#B#,53,8,2520,660,661,65535,660,661,65535

2017-10-20 16:43:07,
2017-10-20 16:43:08,#B#,54,8,2520,662,661,1,662,661,1

2017-10-20 16:43:09,
2017-10-20 16:43:09,#B#,55,8,2520,660,661,65535,660,661,65535

2017-10-20 16:43:10,
2017-10-20 16:43:10,#B#,56,8,2520,659,658,1,659,658,1

2017-10-20 16:43:11,
2017-10-20 16:43:11,#B#,57,8,2520,657,657,0,657,657,0

2017-10-20 16:43:12,
2017-10-20 16:43:12,#B#,58,8,2520,657,657,0,657,657,0

2017-10-20 16:43:13,
2017-10-20 16:43:14,#B#,59,8,2520,655,655,0,655,655,0

2017-10-20 16:43:15,
2017-10-20 16:43:15,#B#,60,8,2520,656,668,65524,656,668,65524

2017-10-20 16:43:16,
2017-10-20 16:43:16,#B#,61,8,2520,663,663,0,663,663,0

2017-10-20 16:43:17,
2017-10-20 16:43:17,#B#,62,8,2520,665,664,1,665,664,1

2017-10-20 16:43:18,
2017-10-20 16:43:18,#B#,63,8,2520,663,2493,63706,663,2493,63706

2017-10-20 16:43:19,
2017-10-20 16:43:20,#B#,64,8,2520,-43,2457,63036,-43,2457,63036

2017-10-20 16:43:21,
2017-10-20 16:43:21,#B#,65,8,2520,-43,2457,63036,-43,2457,63036

2017-10-20 16:43:22,
2017-10-20 16:43:22,#B#,66,8,2520,-43,2457,63036,-43,2457,63036

2017-10-20 16:43:23,
2017-10-20 16:43:23,#B#,67,8,2520,-42,2458,63036,-42,2458,63036

2017-10-20 16:43:24,
2017-10-20 16:43:24,#B#,68,8,2520,-42,2458,63036,-42,2458,63036

2017-10-20 16:43:25,
2017-10-20 16:43:26,#B#,69,8,2520,-42,2458,63036,-42,2458,63036

2017-10-20 16:43:27,
2017-10-20 16:43:27,#B#,70,8,2520,-41,2458,63037,-41,2458,63037

2017-10-20 16:43:28,
2017-10-20 16:43:28,#B#,71,8,2520,-42,2458,63036,-42,2458,63036

2017-10-20 16:43:29,
2017-10-20 16:43:29,#B#,72,8,2520,-42,2458,63036,-42,2458,63036

2017-10-20 16:43:30,
2017-10-20 16:43:31,#B#,73,8,2520,-42,2458,63036,-42,2458,63036

2017-10-20 16:43:32,
2017-10-20 16:43:32,#B#,74,8,2520,-42,2458,63036,-42,2458,63036

2017-10-20 16:43:33,
2017-10-20 16:43:33,#B#,75,8,2520,-55,2428,63053,-55,2428,63053

2017-10-20 16:43:34,
2017-10-20 16:43:34,#B#,76,8,2520,-67,2432,63037,-67,2432,63037

2017-10-20 16:43:35,
2017-10-20 16:43:35,#B#,77,8,2520,-68,2433,63035,-68,2433,63035

2017-10-20 16:43:36,
2017-10-20 16:43:37,#B#,78,8,2520,-68,2432,63036,-68,2432,63036

2017-10-20 16:43:38,
2017-10-20 16:43:38,#B#,79,8,2520,-68,2432,63036,-68,2432,63036

2017-10-20 16:43:39,
2017-10-20 16:43:39,#B#,80,8,2520,-68,2432,63036,-68,2432,63036

2017-10-20 16:43:40,
2017-10-20 16:43:40,#B#,81,8,2520,-68,2432,63036,-68,2432,63036

2017-10-20 16:43:41,
2017-10-20 16:43:41,#B#,82,8,2520,-67,2433,63036,-67,2433,63036

2017-10-20 16:43:42,
2017-10-20 16:43:43,#B#,83,8,2520,-67,2432,63037,-67,2432,63037

2017-10-20 16:43:44,
2017-10-20 16:43:44,#B#,84,8,2520,-67,2432,63037,-67,2432,63037

2017-10-20 16:43:45,
2017-10-20 16:43:45,#B#,85,8,2520,-67,2432,63037,-67,2432,63037

2017-10-20 16:43:46,
2017-10-20 16:43:46,#B#,86,8,2520,-67,2432,63037,-67,2432,63037

2017-10-20 16:43:47,
2017-10-20 16:43:47,#B#,87,8,2520,-68,2432,63036,-68,2432,63036

2017-10-20 16:43:48,
2017-10-20 16:43:49,#B#,88,8,2520,-68,2432,63036,-68,2432,63036

2017-10-20 16:43:50,
2017-10-20 16:43:50,#B#,89,8,2520,-68,2432,63036,-68,2432,63036

2017-10-20 16:43:51,
2017-10-20 16:43:51,#B#,90,8,2520,-68,2432,63036,-68,2432,63036

2017-10-20 16:43:52,
2017-10-20 16:43:52,#B#,91,8,2520,-68,2432,63036,-68,2432,63036

2017-10-20 16:43:53,
2017-10-20 16:43:53,#B#,92,8,2520,-67,2432,63037,-67,2432,63037

2017-10-20 16:43:54,
2017-10-20 16:43:55,#B#,93,8,2520,-67,2433,63036,-67,2433,63036

2017-10-20 16:43:56,
2017-10-20 16:43:56,#B#,94,8,2520,-67,2433,63036,-67,2433,63036

2017-10-20 16:43:57,
2017-10-20 16:43:57,#B#,95,8,2520,-66,2433,63037,-66,2433,63037

2017-10-20 16:43:58,
2017-10-20 16:43:58,#B#,96,8,2520,-67,2433,63036,-67,2433,63036

2017-10-20 16:43:59,
2017-10-20 16:43:59,#B#,97,8,2520,-66,2433,63037,-66,2433,63037

2017-10-20 16:44:00,
2017-10-20 16:44:01,#B#,98,8,2520,-67,2433,63036,-67,2433,63036

2017-10-20 16:44:02,
2017-10-20 16:44:02,#B#,99,8,2520,-67,2443,63026,-67,2443,63026

2017-10-20 16:44:03,
2017-10-20 16:44:03,#B#,100,8,2520,-75,2425,63036,-75,2425,63036

2017-10-20 16:44:04,
2017-10-20 16:44:04,#B#,101,8,2520,-74,2425,63037,-74,2425,63037

2017-10-20 16:44:05,
2017-10-20 16:44:06,#B#,102,8,2520,-75,2425,63036,-75,2425,63036

2017-10-20 16:44:07,
2017-10-20 16:44:07,#B#,103,8,2520,-69,2431,63036,-69,2431,63036

2017-10-20 16:44:08,
2017-10-20 16:44:08,#B#,104,8,2520,-68,2432,63036,-68,2432,63036

2017-10-20 16:44:09,
2017-10-20 16:44:09,#B#,105,8,2520,-71,2430,63035,-71,2430,63035

2017-10-20 16:44:10,
2017-10-20 16:44:10,#B#,106,8,2520,-70,2431,63035,-70,2431,63035

2017-10-20 16:44:11,
2017-10-20 16:44:12,#B#,107,8,2520,-69,2431,63036,-69,2431,63036

2017-10-20 16:44:13,
2017-10-20 16:44:13,#B#,108,8,2520,-69,2431,63036,-69,2431,63036

2017-10-20 16:44:14,
2017-10-20 16:44:14,#B#,109,8,2520,-68,2432,63036,-68,2432,63036

2017-10-20 16:44:15,
2017-10-20 16:44:15,#B#,110,8,2520,-67,2432,63037,-67,2432,63037

2017-10-20 16:44:16,
2017-10-20 16:44:16,#B#,111,8,2520,-68,2431,63037,-68,2431,63037

2017-10-20 16:44:17,
2017-10-20 16:44:18,#B#,112,8,2520,-69,2431,63036,-69,2431,63036

2017-10-20 16:44:19,
2017-10-20 16:44:19,#B#,113,8,2520,-69,2431,63036,-69,2431,63036

2017-10-20 16:44:20,
2017-10-20 16:44:20,#B#,114,8,2520,-68,2432,63036,-68,2432,63036

2017-10-20 16:44:21,
2017-10-20 16:44:21,#B#,115,8,2520,-68,2432,63036,-68,2432,63036

2017-10-20 16:44:22,
2017-10-20 16:44:22,#B#,116,8,2520,-68,2432,63036,-68,2432,63036

2017-10-20 16:44:23,
2017-10-20 16:44:24,#B#,117,8,2520,-67,2433,63036,-67,2433,63036

2017-10-20 16:44:25,
2017-10-20 16:44:25,#B#,118,8,2520,-67,2433,63036,-67,2433,63036

2017-10-20 16:44:26,
2017-10-20 16:44:26,#B#,119,8,2520,-67,2432,63037,-67,2432,63037

2017-10-20 16:44:27,
2017-10-20 16:44:27,#B#,120,8,2520,-68,2432,63036,-68,2432,63036

2017-10-20 16:44:28,
2017-10-20 16:44:28,#B#,121,8,2520,-68,2432,63036,-68,2432,63036

2017-10-20 16:44:29,
2017-10-20 16:44:30,#B#,122,8,2520,-67,2433,63036,-67,2433,63036

2017-10-20 16:44:31,
2017-10-20 16:44:31,#B#,123,8,2520,-67,2433,63036,-67,2433,63036

2017-10-20 16:44:32,
2017-10-20 16:44:32,#B#,124,8,2520,-71,2429,63036,-71,2429,63036

2017-10-20 16:44:33,
2017-10-20 16:44:33,#B#,125,8,2520,-71,2429,63036,-71,2429,63036

2017-10-20 16:44:34,
2017-10-20 16:44:34,#B#,126,8,2520,-68,2431,63037,-68,2431,63037

2017-10-20 16:44:35,
2017-10-20 16:44:36,#B#,127,8,2520,-69,2430,63037,-69,2430,63037

2017-10-20 16:44:37,
2017-10-20 16:44:37,#B#,128,8,2520,-70,2429,63037,-70,2429,63037

2017-10-20 16:44:38,
2017-10-20 16:44:38,#B#,129,8,2520,-71,2429,63036,-71,2429,63036

2017-10-20 16:44:39,
2017-10-20 16:44:39,#B#,130,8,2520,-71,2429,63036,-71,2429,63036

2017-10-20 16:44:40,
2017-10-20 16:44:40,#B#,131,8,2520,-72,2428,63036,-72,2428,63036

2017-10-20 16:44:41,
2017-10-20 16:44:42,#B#,132,8,2520,-72,2428,63036,-72,2428,63036

2017-10-20 16:44:43,
2017-10-20 16:44:43,#B#,133,8,2520,-72,2429,63035,-72,2429,63035

2017-10-20 16:44:44,
2017-10-20 16:44:44,#B#,134,8,2520,-71,2428,63037,-71,2428,63037

2017-10-20 16:44:45,
2017-10-20 16:44:45,#B#,135,8,2520,-71,2428,63037,-71,2428,63037

2017-10-20 16:44:46,
2017-10-20 16:44:47,#B#,136,8,2520,-71,2429,63036,-71,2429,63036

2017-10-20 16:44:48,
2017-10-20 16:44:48,#B#,137,8,2520,-71,2429,63036,-71,2429,63036

2017-10-20 16:44:49,
2017-10-20 16:44:49,#B#,138,8,2520,-71,2428,63037,-71,2428,63037

2017-10-20 16:44:50,
2017-10-20 16:44:50,#B#,139,8,2520,-70,2429,63037,-70,2429,63037

2017-10-20 16:44:51,
2017-10-20 16:44:51,#B#,140,8,2520,-71,2429,63036,-71,2429,63036

2017-10-20 16:44:52,
2017-10-20 16:44:53,#B#,141,8,2520,-66,2434,63036,-66,2434,63036

2017-10-20 16:44:54,
2017-10-20 16:44:54,#B#,142,8,2520,-67,2432,63037,-67,2432,63037

2017-10-20 16:44:55,
2017-10-20 16:44:55,#B#,143,8,2520,-67,2433,63036,-67,2433,63036

2017-10-20 16:44:56,
2017-10-20 16:44:56,#B#,144,8,2520,-68,2431,63037,-68,2431,63037

2017-10-20 16:44:57,
2017-10-20 16:44:57,#B#,145,8,2520,-68,2432,63036,-68,2432,63036

2017-10-20 16:44:58,
2017-10-20 16:44:59,#B#,146,8,2520,-61,2438,63037,-61,2438,63037

2017-10-20 16:45:00,
2017-10-20 16:45:00,#B#,147,8,2520,-62,2437,63037,-62,2437,63037

2017-10-20 16:45:01,
2017-10-20 16:45:01,#B#,148,8,2520,-63,2437,63036,-63,2437,63036

2017-10-20 16:45:02,
2017-10-20 16:45:02,#B#,149,8,2520,-63,2437,63036,-63,2437,63036

2017-10-20 16:45:03,
2017-10-20 16:45:03,#B#,150,8,2520,-61,2437,63038,-61,2437,63038

2017-10-20 16:45:04,
2017-10-20 16:45:05,#B#,151,8,2520,-64,2436,63036,-64,2436,63036

2017-10-20 16:45:06,
2017-10-20 16:45:06,#B#,152,8,2520,-63,2440,63033,-63,2440,63033

2017-10-20 16:45:07,
2017-10-20 16:45:07,#B#,153,8,2520,-61,2438,63037,-61,2438,63037

2017-10-20 16:45:08,
2017-10-20 16:45:08,#B#,154,8,2520,-55,2433,63048,-55,2433,63048

2017-10-20 16:45:09,
2017-10-20 16:45:09,#B#,155,8,2520,-69,2428,63039,-69,2428,63039

2017-10-20 16:45:10,
2017-10-20 16:45:11,#B#,156,8,2520,-72,2428,63036,-72,2428,63036

2017-10-20 16:45:12,
2017-10-20 16:45:12,#B#,157,8,2520,-72,2428,63036,-72,2428,63036

2017-10-20 16:45:13,
2017-10-20 16:45:13,#B#,158,8,2520,-71,2429,63036,-71,2429,63036

2017-10-20 16:45:14,
2017-10-20 16:45:14,#B#,159,8,2520,-71,2429,63036,-71,2429,63036

2017-10-20 16:45:15,
2017-10-20 16:45:15,#B#,160,8,2520,-71,2429,63036,-71,2429,63036

2017-10-20 16:45:16,
2017-10-20 16:45:17,#B#,161,8,2520,-71,2429,63036,-71,2429,63036

2017-10-20 16:45:18,
2017-10-20 16:45:18,#B#,162,8,2520,-71,2429,63036,-71,2429,63036

2017-10-20 16:45:19,
2017-10-20 16:45:19,#B#,163,8,2520,-72,2427,63037,-72,2427,63037

2017-10-20 16:45:20,
2017-10-20 16:45:20,#B#,164,8,2520,-73,2427,63036,-73,2427,63036

2017-10-20 16:45:21,
2017-10-20 16:45:22,#B#,165,8,2520,-73,2427,63036,-73,2427,63036

2017-10-20 16:45:23,
2017-10-20 16:45:23,#B#,166,8,2520,-73,2427,63036,-73,2427,63036

2017-10-20 16:45:24,
2017-10-20 16:45:24,#B#,167,8,2520,-73,2427,63036,-73,2427,63036

2017-10-20 16:45:25,
2017-10-20 16:45:25,#B#,168,8,2520,-73,2427,63036,-73,2427,63036

2017-10-20 16:45:26,
2017-10-20 16:45:26,#B#,169,8,2520,-73,2427,63036,-73,2427,63036

2017-10-20 16:45:27,
2017-10-20 16:45:28,#B#,170,8,2520,-72,2427,63037,-72,2427,63037

2017-10-20 16:45:29,
2017-10-20 16:45:29,#B#,171,8,2520,-72,2427,63037,-72,2427,63037

2017-10-20 16:45:30,
2017-10-20 16:45:30,#B#,172,8,2520,-72,2427,63037,-72,2427,63037

2017-10-20 16:45:31,
2017-10-20 16:45:31,#B#,173,8,2520,-72,2427,63037,-72,2427,63037

2017-10-20 16:45:32,
2017-10-20 16:45:32,#B#,174,8,2520,-72,2427,63037,-72,2427,63037

2017-10-20 16:45:33,
2017-10-20 16:45:34,#B#,175,8,2520,-72,2427,63037,-72,2427,63037

2017-10-20 16:45:35,
2017-10-20 16:45:35,#B#,176,8,2520,-72,2427,63037,-72,2427,63037

2017-10-20 16:45:36,
2017-10-20 16:45:36,#B#,177,8,2520,-72,2427,63037,-72,2427,63037

2017-10-20 16:45:37,
2017-10-20 16:45:37,#B#,178,8,2520,-72,2427,63037,-72,2427,63037

2017-10-20 16:45:38,
2017-10-20 16:45:38,#B#,179,8,2520,-72,2427,63037,-72,2427,63037

2017-10-20 16:45:39,
2017-10-20 16:45:40,#B#,180,8,2520,-72,2427,63037,-72,2427,63037

2017-10-20 16:45:41,
2017-10-20 16:45:41,#B#,181,8,2520,-72,2427,63037,-72,2427,63037

2017-10-20 16:45:42,
2017-10-20 16:45:42,#B#,182,8,2520,-72,2427,63037,-72,2427,63037

2017-10-20 16:45:43,
2017-10-20 16:45:43,#B#,183,8,2520,-72,2427,63037,-72,2427,63037

2017-10-20 16:45:44,
2017-10-20 16:45:44,#B#,184,8,2520,-73,2427,63036,-73,2427,63036

2017-10-20 16:45:45,
2017-10-20 16:45:46,#B#,185,8,2520,-73,2427,63036,-73,2427,63036

2017-10-20 16:45:47,
2017-10-20 16:45:47,#B#,186,8,2520,-73,2427,63036,-73,2427,63036

2017-10-20 16:45:48,
2017-10-20 16:45:48,#B#,187,8,2520,-73,2427,63036,-73,2427,63036

2017-10-20 16:45:49,
2017-10-20 16:45:49,#B#,188,8,2520,-73,2427,63036,-73,2427,63036

2017-10-20 16:45:50,
2017-10-20 16:45:50,#B#,189,8,2520,-73,2427,63036,-73,2427,63036

2017-10-20 16:45:51,
2017-10-20 16:45:52,#B#,190,8,2520,-73,2427,63036,-73,2427,63036

2017-10-20 16:45:53,
2017-10-20 16:45:53,#B#,191,8,2520,-73,2427,63036,-73,2427,63036

2017-10-20 16:45:54,
2017-10-20 16:45:54,#B#,192,8,2520,-73,2427,63036,-73,2427,63036

2017-10-20 16:45:55,
2017-10-20 16:45:55,#B#,193,8,2520,-73,2427,63036,-73,2427,63036

2017-10-20 16:45:56,
2017-10-20 16:45:57,#B#,194,8,2520,-73,2427,63036,-73,2427,63036

2017-10-20 16:45:58,
2017-10-20 16:45:58,#B#,195,8,2520,-73,2427,63036,-73,2427,63036

2017-10-20 16:45:59,
2017-10-20 16:45:59,#B#,196,8,2520,-73,2427,63036,-73,2427,63036

2017-10-20 16:46:00,
2017-10-20 16:46:00,#B#,197,8,2520,-73,2427,63036,-73,2427,63036

2017-10-20 16:46:01,
2017-10-20 16:46:01,#B#,198,8,2520,-73,2427,63036,-73,2427,63036

2017-10-20 16:46:02,
2017-10-20 16:46:03,#B#,199,8,2520,-73,2427,63036,-73,2427,63036

2017-10-20 16:46:04,
2017-10-20 16:46:04,#B#,200,8,2520,-73,2427,63036,-73,2427,63036

2017-10-20 16:46:05,
2017-10-20 16:46:05,#B#,201,8,2520,-73,2427,63036,-73,2427,63036

2017-10-20 16:46:06,
2017-10-20 16:46:06,#B#,202,8,2520,-73,2427,63036,-73,2427,63036

2017-10-20 16:46:07,
2017-10-20 16:46:07,#B#,203,8,2520,-73,2427,63036,-73,2427,63036

2017-10-20 16:46:08,
2017-10-20 16:46:09,#B#,204,8,2520,-73,2427,63036,-73,2427,63036

2017-10-20 16:46:10,
2017-10-20 16:46:10,#B#,205,8,2520,-73,2427,63036,-73,2427,63036

2017-10-20 16:46:11,
2017-10-20 16:46:11,#B#,206,8,2520,-73,2427,63036,-73,2427,63036

2017-10-20 16:46:12,
2017-10-20 16:46:12,#B#,207,8,2520,-73,2427,63036,-73,2427,63036

2017-10-20 16:46:13,
2017-10-20 16:46:13,#B#,208,8,2520,-73,2427,63036,-73,2427,63036

2017-10-20 16:46:14,
2017-10-20 16:46:15,#B#,209,8,2520,-73,2427,63036,-73,2427,63036

2017-10-20 16:46:16,
2017-10-20 16:46:16,#B#,210,8,2520,-73,2427,63036,-73,2427,63036

2017-10-20 16:46:17,
2017-10-20 16:46:17,#B#,211,8,2520,-73,2427,63036,-73,2427,63036

2017-10-20 16:46:18,
2017-10-20 16:46:18,#B#,212,8,2520,-73,2427,63036,-73,2427,63036

2017-10-20 16:46:19,
2017-10-20 16:46:19,#B#,213,8,2520,-73,2427,63036,-73,2427,63036

2017-10-20 16:46:20,
2017-10-20 16:46:21,#B#,214,8,2520,-73,2427,63036,-73,2427,63036

2017-10-20 16:46:22,
2017-10-20 16:46:22,#B#,215,8,2520,-73,2427,63036,-73,2427,63036

2017-10-20 16:46:23,
2017-10-20 16:46:23,#B#,216,8,2520,-73,2427,63036,-73,2427,63036

2017-10-20 16:46:24,
2017-10-20 16:46:24,#B#,217,8,2520,-73,2427,63036,-73,2427,63036

2017-10-20 16:46:25,
2017-10-20 16:46:25,#B#,218,8,2520,-73,2427,63036,-73,2427,63036

2017-10-20 16:46:26,
2017-10-20 16:46:27,#B#,219,8,2520,-73,2427,63036,-73,2427,63036

2017-10-20 16:46:28,
2017-10-20 16:46:28,#B#,220,8,2520,-73,2427,63036,-73,2427,63036

2017-10-20 16:46:29,
2017-10-20 16:46:29,#B#,221,8,2520,-73,2427,63036,-73,2427,63036

2017-10-20 16:46:30,
2017-10-20 16:46:30,#B#,222,8,2520,-73,2427,63036,-73,2427,63036

2017-10-20 16:46:31,
2017-10-20 16:46:32,#B#,223,8,2520,-73,2427,63036,-73,2427,63036

2017-10-20 16:46:33,
2017-10-20 16:46:33,#B#,224,8,2520,-73,2427,63036,-73,2427,63036

2017-10-20 16:46:34,
2017-10-20 16:46:34,#B#,225,8,2520,-73,2427,63036,-73,2427,63036

2017-10-20 16:46:35,
2017-10-20 16:46:35,#B#,226,8,2520,-73,2427,63036,-73,2427,63036

2017-10-20 16:46:36,
2017-10-20 16:46:36,#B#,227,8,2520,-73,2427,63036,-73,2427,63036

2017-10-20 16:46:37,
2017-10-20 16:46:38,#B#,228,8,2520,-73,2427,63036,-73,2427,63036

2017-10-20 16:46:39,
2017-10-20 16:46:39,#B#,229,8,2520,-73,2427,63036,-73,2427,63036

2017-10-20 16:46:40,
2017-10-20 16:46:40,#B#,230,8,2520,-73,2427,63036,-73,2427,63036

2017-10-20 16:46:41,
2017-10-20 16:46:41,#B#,231,8,2520,-73,2428,63035,-73,2428,63035

2017-10-20 16:46:42,
2017-10-20 16:46:42,#B#,232,8,2520,-71,2428,63037,-71,2428,63037

2017-10-20 16:46:43,
2017-10-20 16:46:44,#B#,233,8,2520,-43,2446,63047,-43,2446,63047

2017-10-20 16:46:45,
2017-10-20 16:46:45,#B#,234,8,2520,-64,2435,63037,-64,2435,63037

2017-10-20 16:46:46,
2017-10-20 16:46:46,#B#,235,8,2520,-66,2434,63036,-66,2434,63036

2017-10-20 16:46:47,
2017-10-20 16:46:47,#B#,236,8,2520,-66,2433,63037,-66,2433,63037

2017-10-20 16:46:48,
2017-10-20 16:46:48,#B#,237,8,2520,-67,2433,63036,-67,2433,63036

2017-10-20 16:46:49,
2017-10-20 16:46:50,#B#,238,8,2520,-64,2431,63041,-64,2431,63041

2017-10-20 16:46:51,
2017-10-20 16:46:51,#B#,239,8,2520,-66,2435,63035,-66,2435,63035

2017-10-20 16:46:52,
2017-10-20 16:46:52,#B#,240,8,2520,-56,2456,63024,-56,2456,63024

2017-10-20 16:46:53,
2017-10-20 16:46:53,#B#,241,8,2520,-50,2465,63021,-50,2465,63021

2017-10-20 16:46:54,
2017-10-20 16:46:54,#B#,242,8,2520,-47,2464,63025,-47,2464,63025

2017-10-20 16:46:55,
2017-10-20 16:46:56,#B#,243,8,2520,-27,2470,63039,-27,2470,63039

2017-10-20 16:46:57,
2017-10-20 16:46:57,#B#,244,8,2520,-35,2471,63030,-35,2471,63030

2017-10-20 16:46:58,
2017-10-20 16:46:58,#B#,245,8,2520,-11,1,65524,-11,1,65524

2017-10-20 16:46:59,
2017-10-20 16:46:59,#B#,246,8,2520,-49,2473,63014,-49,2473,63014

2017-10-20 16:47:00,
2017-10-20 16:47:00,#B#,247,8,2520,-44,2456,63036,-44,2456,63036

2017-10-20 16:47:01,
2017-10-20 16:47:02,#B#,248,8,2520,-31,2472,63033,-31,2472,63033

2017-10-20 16:47:03,
2017-10-20 16:47:03,#B#,249,8,2520,-13,2497,63026,-13,2497,63026

2017-10-20 16:47:04,
2017-10-20 16:47:04,#B#,250,8,2520,-8,2483,63045,-8,2483,63045

2017-10-20 16:47:05,
2017-10-20 16:47:05,#B#,251,8,2520,-15,2488,63033,-15,2488,63033

2017-10-20 16:47:06,
2017-10-20 16:47:07,#B#,252,8,2520,-30,2466,63040,-30,2466,63040

2017-10-20 16:47:08,
2017-10-20 16:47:08,#B#,253,8,2520,-56,2438,63042,-56,2438,63042

2017-10-20 16:47:09,
2017-10-20 16:47:09,#B#,254,8,2520,-19,2475,63042,-19,2475,63042

2017-10-20 16:47:10,
2017-10-20 16:47:10,#B#,255,8,2520,-23,2482,63031,-23,2482,63031

2017-10-20 16:47:11,
2017-10-20 16:47:11,#B#,256,8,2520,-38,2455,63043,-38,2455,63043

2017-10-20 16:47:12,
2017-10-20 16:47:13,#B#,257,8,2520,-52,2447,63037,-52,2447,63037

2017-10-20 16:47:14,
2017-10-20 16:47:14,#B#,258,8,2520,-50,2462,63024,-50,2462,63024

2017-10-20 16:47:15,
2017-10-20 16:47:15,#B#,259,8,2520,-40,2456,63040,-40,2456,63040

2017-10-20 16:47:16,
2017-10-20 16:47:16,#B#,260,8,2520,-37,2466,63033,-37,2466,63033

2017-10-20 16:47:17,
2017-10-20 16:47:17,#B#,261,8,2520,-28,2468,63040,-28,2468,63040

2017-10-20 16:47:18,
2017-10-20 16:47:19,#B#,262,8,2520,-6,2487,63043,-6,2487,63043

2017-10-20 16:47:20,
2017-10-20 16:47:20,#B#,263,8,2520,-26,2490,63020,-26,2490,63020

2017-10-20 16:47:21,
2017-10-20 16:47:21,#B#,264,8,2520,-34,2464,63038,-34,2464,63038

2017-10-20 16:47:22,
2017-10-20 16:47:22,#B#,265,8,2520,-49,2448,63039,-49,2448,63039

2017-10-20 16:47:23,
2017-10-20 16:47:23,#B#,266,8,2520,-54,2445,63037,-54,2445,63037

2017-10-20 16:47:24,
2017-10-20 16:47:25,#B#,267,8,2520,-56,2442,63038,-56,2442,63038

2017-10-20 16:47:26,
2017-10-20 16:47:26,#B#,268,8,2520,-57,2443,63036,-57,2443,63036

2017-10-20 16:47:27,
2017-10-20 16:47:27,#B#,269,8,2520,-60,2441,63035,-60,2441,63035

2017-10-20 16:47:28,
2017-10-20 16:47:28,#B#,270,8,2520,-60,2443,63033,-60,2443,63033

2017-10-20 16:47:29,
2017-10-20 16:47:29,#B#,271,8,2520,-50,2446,63040,-50,2446,63040

2017-10-20 16:47:30,
2017-10-20 16:47:31,#B#,272,8,2520,-47,2452,63037,-47,2452,63037

2017-10-20 16:47:32,
2017-10-20 16:47:32,#B#,273,8,2520,-39,2459,63038,-39,2459,63038

2017-10-20 16:47:33,
2017-10-20 16:47:33,#B#,274,8,2520,-22,2473,63041,-22,2473,63041

2017-10-20 16:47:34,
2017-10-20 16:47:34,#B#,275,8,2520,-25,2474,63037,-25,2474,63037

2017-10-20 16:47:35,
2017-10-20 16:47:35,#B#,276,8,2520,-25,26,65485,-25,26,65485

2017-10-20 16:47:36,
2017-10-20 16:47:37,#B#,277,8,2520,-23,2484,63029,-23,2484,63029

2017-10-20 16:47:38,
2017-10-20 16:47:38,#B#,278,8,2520,-1,2491,63044,-1,2491,63044

2017-10-20 16:47:39,
2017-10-20 16:47:39,#B#,279,8,2520,-2,2491,63043,-2,2491,63043

2017-10-20 16:47:40,
2017-10-20 16:47:40,#B#,280,8,2520,-1,2482,63053,-1,2482,63053

2017-10-20 16:47:41,
2017-10-20 16:47:41,#B#,281,8,2520,-41,2461,63034,-41,2461,63034

2017-10-20 16:47:42,
2017-10-20 16:47:43,#B#,282,8,2520,-34,2474,63028,-34,2474,63028

2017-10-20 16:47:44,
2017-10-20 16:47:44,#B#,283,8,2520,-31,2473,63032,-31,2473,63032

2017-10-20 16:47:45,
2017-10-20 16:47:45,#B#,284,8,2520,-25,2470,63041,-25,2470,63041

2017-10-20 16:47:46,
2017-10-20 16:47:46,#B#,285,8,2520,-33,2472,63031,-33,2472,63031

2017-10-20 16:47:47,
2017-10-20 16:47:48,#B#,286,8,2520,-35,2463,63038,-35,2463,63038

2017-10-20 16:47:49,
2017-10-20 16:47:49,#B#,287,8,2520,-31,2462,63043,-31,2462,63043

2017-10-20 16:47:50,
2017-10-20 16:47:50,#B#,288,8,2520,-43,2456,63037,-43,2456,63037

2017-10-20 16:47:51,
2017-10-20 16:47:51,#B#,289,8,2520,-45,2459,63032,-45,2459,63032

2017-10-20 16:47:52,
2017-10-20 16:47:52,#B#,290,8,2520,-55,2484,62997,-55,2484,62997

2017-10-20 16:47:53,
2017-10-20 16:47:54,#B#,291,8,2520,-59,2462,63015,-59,2462,63015

2017-10-20 16:47:55,
2017-10-20 16:47:55,#B#,292,8,2520,-49,2446,63041,-49,2446,63041

2017-10-20 16:47:56,
2017-10-20 16:47:56,#B#,293,8,2520,-59,2436,63041,-59,2436,63041

2017-10-20 16:47:57,
2017-10-20 16:47:57,#B#,294,8,2520,-65,2434,63037,-65,2434,63037

2017-10-20 16:47:58,
2017-10-20 16:47:58,#B#,295,8,2520,-67,2433,63036,-67,2433,63036

2017-10-20 16:47:59,
2017-10-20 16:48:00,#B#,296,8,2520,-50,2447,63039,-50,2447,63039

2017-10-20 16:48:01,
2017-10-20 16:48:01,#B#,297,8,2520,-53,2445,63038,-53,2445,63038

2017-10-20 16:48:02,
2017-10-20 16:48:02,#B#,298,8,2520,-53,2447,63036,-53,2447,63036

2017-10-20 16:48:03,
2017-10-20 16:48:03,#B#,299,8,2520,-56,2447,63033,-56,2447,63033

2017-10-20 16:48:04,
2017-10-20 16:48:04,#B#,300,8,2520,-54,2446,63036,-54,2446,63036

2017-10-20 16:48:05,
2017-10-20 16:48:06,#B#,301,8,2520,-57,2442,63037,-57,2442,63037

2017-10-20 16:48:07,
2017-10-20 16:48:07,#B#,302,8,2520,-57,2442,63037,-57,2442,63037

2017-10-20 16:48:08,
2017-10-20 16:48:08,#B#,303,8,2520,-58,2440,63038,-58,2440,63038

2017-10-20 16:48:09,
2017-10-20 16:48:09,#B#,304,8,2520,-58,2441,63037,-58,2441,63037

2017-10-20 16:48:10,
2017-10-20 16:48:10,#B#,305,8,2520,-60,2439,63037,-60,2439,63037

2017-10-20 16:48:11,
2017-10-20 16:48:12,#B#,306,8,2520,-59,2441,63036,-59,2441,63036

2017-10-20 16:48:13,
2017-10-20 16:48:13,#B#,307,8,2520,-61,2438,63037,-61,2438,63037

2017-10-20 16:48:14,
2017-10-20 16:48:14,#B#,308,8,2520,-63,2437,63036,-63,2437,63036

2017-10-20 16:48:15,
2017-10-20 16:48:15,#B#,309,8,2520,-64,2435,63037,-64,2435,63037

2017-10-20 16:48:16,
2017-10-20 16:48:16,#B#,310,8,2520,-66,2434,63036,-66,2434,63036

2017-10-20 16:48:17,
2017-10-20 16:48:18,#B#,311,8,2520,-65,2435,63036,-65,2435,63036

2017-10-20 16:48:19,
2017-10-20 16:48:19,#B#,312,8,2520,-65,2435,63036,-65,2435,63036

2017-10-20 16:48:20,
2017-10-20 16:48:20,#B#,313,8,2520,-66,2434,63036,-66,2434,63036

2017-10-20 16:48:21,
2017-10-20 16:48:21,#B#,314,8,2520,-65,2434,63037,-65,2434,63037

2017-10-20 16:48:22,
2017-10-20 16:48:23,#B#,315,8,2520,-63,2438,63035,-63,2438,63035

2017-10-20 16:48:24,
2017-10-20 16:48:24,#B#,316,8,2520,-61,2441,63034,-61,2441,63034

2017-10-20 16:48:25,
2017-10-20 16:48:25,#B#,317,8,2520,-61,2438,63037,-61,2438,63037

2017-10-20 16:48:26,
2017-10-20 16:48:26,#B#,318,8,2520,-60,2439,63037,-60,2439,63037

2017-10-20 16:48:27,
2017-10-20 16:48:27,#B#,319,8,2520,-60,2440,63036,-60,2440,63036

2017-10-20 16:48:28,
2017-10-20 16:48:29,#B#,320,8,2520,-60,2439,63037,-60,2439,63037

2017-10-20 16:48:30,
2017-10-20 16:48:30,#B#,321,8,2520,-59,2440,63037,-59,2440,63037

2017-10-20 16:48:31,
2017-10-20 16:48:31,#B#,322,8,2520,-60,2439,63037,-60,2439,63037

2017-10-20 16:48:32,
2017-10-20 16:48:32,#B#,323,8,2520,-62,2438,63036,-62,2438,63036

2017-10-20 16:48:33,
2017-10-20 16:48:33,#B#,324,8,2520,-62,2438,63036,-62,2438,63036

2017-10-20 16:48:34,
2017-10-20 16:48:35,#B#,325,8,2520,-62,2438,63036,-62,2438,63036

2017-10-20 16:48:36,
2017-10-20 16:48:36,#B#,326,8,2520,-62,2438,63036,-62,2438,63036

2017-10-20 16:48:37,
2017-10-20 16:48:37,#B#,327,8,2520,-63,2437,63036,-63,2437,63036

2017-10-20 16:48:38,
2017-10-20 16:48:38,#B#,328,8,2520,-63,2436,63037,-63,2436,63037

2017-10-20 16:48:39,
2017-10-20 16:48:39,#B#,329,8,2520,-64,2436,63036,-64,2436,63036

2017-10-20 16:48:40,
2017-10-20 16:48:41,#B#,330,8,2520,-63,2437,63036,-63,2437,63036

2017-10-20 16:48:42,
2017-10-20 16:48:42,#B#,331,8,2520,-63,2437,63036,-63,2437,63036

2017-10-20 16:48:43,
2017-10-20 16:48:43,#B#,332,8,2520,-64,2436,63036,-64,2436,63036

2017-10-20 16:48:44,
2017-10-20 16:48:44,#B#,333,8,2520,-64,2436,63036,-64,2436,63036

2017-10-20 16:48:45,
2017-10-20 16:48:45,#B#,334,8,2520,-64,2436,63036,-64,2436,63036

2017-10-20 16:48:46,
2017-10-20 16:48:47,#B#,335,8,2520,-64,2436,63036,-64,2436,63036

2017-10-20 16:48:48,
2017-10-20 16:48:48,#B#,336,8,2520,-63,2437,63036,-63,2437,63036

2017-10-20 16:48:49,
2017-10-20 16:48:49,#B#,337,8,2520,-64,2436,63036,-64,2436,63036

2017-10-20 16:48:50,
2017-10-20 16:48:50,#B#,338,8,2520,-65,2436,63035,-65,2436,63035

2017-10-20 16:48:51,
2017-10-20 16:48:51,#B#,339,8,2520,-65,2436,63035,-65,2436,63035

2017-10-20 16:48:52,
2017-10-20 16:48:53,#B#,340,8,2520,-64,2435,63037,-64,2435,63037

2017-10-20 16:48:54,
2017-10-20 16:48:54,#B#,341,8,2520,-64,2436,63036,-64,2436,63036

2017-10-20 16:48:55,
2017-10-20 16:48:55,#B#,342,8,2520,-63,2437,63036,-63,2437,63036

2017-10-20 16:48:56,
2017-10-20 16:48:56,#B#,343,8,2520,-63,2437,63036,-63,2437,63036

2017-10-20 16:48:57,
2017-10-20 16:48:58,#B#,344,8,2520,-63,2437,63036,-63,2437,63036

2017-10-20 16:48:59,
2017-10-20 16:48:59,#B#,345,8,2520,-64,2437,63035,-64,2437,63035

2017-10-20 16:49:00,
2017-10-20 16:49:00,#B#,346,8,2520,-60,2441,63035,-60,2441,63035

2017-10-20 16:49:01,
2017-10-20 16:49:01,#B#,347,8,2520,-61,2439,63036,-61,2439,63036

2017-10-20 16:49:02,
2017-10-20 16:49:02,#B#,348,8,2520,-62,2438,63036,-62,2438,63036

2017-10-20 16:49:03,
2017-10-20 16:49:04,#B#,349,8,2520,-63,2437,63036,-63,2437,63036

2017-10-20 16:49:05,
2017-10-20 16:49:05,#B#,350,8,2520,-64,2437,63035,-64,2437,63035

2017-10-20 16:49:06,
2017-10-20 16:49:06,#B#,351,8,2520,-64,2436,63036,-64,2436,63036

2017-10-20 16:49:07,
2017-10-20 16:49:07,#B#,352,8,2520,-64,2437,63035,-64,2437,63035

2017-10-20 16:49:08,
2017-10-20 16:49:08,#B#,353,8,2520,-62,2438,63036,-62,2438,63036

2017-10-20 16:49:09,
2017-10-20 16:49:10,#B#,354,8,2520,-63,2437,63036,-63,2437,63036

2017-10-20 16:49:11,
2017-10-20 16:49:11,#B#,355,8,2520,-62,2437,63037,-62,2437,63037

2017-10-20 16:49:12,
2017-10-20 16:49:12,#B#,356,8,2520,-61,2440,63035,-61,2440,63035

2017-10-20 16:49:13,
2017-10-20 16:49:13,#B#,357,8,2520,-59,2441,63036,-59,2441,63036

2017-10-20 16:49:14,
2017-10-20 16:49:14,#B#,358,8,2520,-61,2439,63036,-61,2439,63036

2017-10-20 16:49:15,
2017-10-20 16:49:16,#B#,359,8,2520,-62,2438,63036,-62,2438,63036

2017-10-20 16:49:17,
2017-10-20 16:49:17,#B#,360,8,2520,-62,2438,63036,-62,2438,63036

2017-10-20 16:49:18,
2017-10-20 16:49:18,#B#,361,8,2520,-62,2437,63037,-62,2437,63037

2017-10-20 16:49:19,
2017-10-20 16:49:19,#B#,362,8,2520,-62,2438,63036,-62,2438,63036

2017-10-20 16:49:20,
2017-10-20 16:49:20,#B#,363,8,2520,-62,2437,63037,-62,2437,63037

2017-10-20 16:49:21,
2017-10-20 16:49:22,#B#,364,8,2520,-63,2437,63036,-63,2437,63036

2017-10-20 16:49:23,
2017-10-20 16:49:23,#B#,365,8,2520,-63,2437,63036,-63,2437,63036

2017-10-20 16:49:24,
2017-10-20 16:49:24,#B#,366,8,2520,-62,2437,63037,-62,2437,63037

2017-10-20 16:49:25,
2017-10-20 16:49:25,#B#,367,8,2520,-63,2437,63036,-63,2437,63036

2017-10-20 16:49:26,
2017-10-20 16:49:26,#B#,368,8,2520,-63,2436,63037,-63,2436,63037

2017-10-20 16:49:27,
2017-10-20 16:49:28,#B#,369,8,2520,-64,2436,63036,-64,2436,63036

2017-10-20 16:49:29,
2017-10-20 16:49:29,#B#,370,8,2520,-63,2437,63036,-63,2437,63036

2017-10-20 16:49:30,
2017-10-20 16:49:30,#B#,371,8,2520,-63,2437,63036,-63,2437,63036

2017-10-20 16:49:31,
2017-10-20 16:49:31,#B#,372,8,2520,-62,2438,63036,-62,2438,63036

2017-10-20 16:49:32,
2017-10-20 16:49:33,#B#,373,8,2520,-62,2438,63036,-62,2438,63036

2017-10-20 16:49:34,
2017-10-20 16:49:34,#B#,374,8,2520,-62,2438,63036,-62,2438,63036

2017-10-20 16:49:35,
2017-10-20 16:49:35,#B#,375,8,2520,-62,2437,63037,-62,2437,63037

2017-10-20 16:49:36,
2017-10-20 16:49:36,#B#,376,8,2520,-63,2437,63036,-63,2437,63036

2017-10-20 16:49:37,
2017-10-20 16:49:37,#B#,377,8,2520,-62,2438,63036,-62,2438,63036

2017-10-20 16:49:38,
2017-10-20 16:49:39,#B#,378,8,2520,-62,2438,63036,-62,2438,63036

2017-10-20 16:49:40,
2017-10-20 16:49:40,#B#,379,8,2520,-62,2437,63037,-62,2437,63037

2017-10-20 16:49:41,
2017-10-20 16:49:41,#B#,380,8,2520,-63,2437,63036,-63,2437,63036

2017-10-20 16:49:42,
2017-10-20 16:49:42,#B#,381,8,2520,-63,2437,63036,-63,2437,63036

2017-10-20 16:49:43,
2017-10-20 16:49:43,#B#,382,8,2520,-63,2437,63036,-63,2437,63036

2017-10-20 16:49:44,
2017-10-20 16:49:45,#B#,383,8,2520,-63,2437,63036,-63,2437,63036

2017-10-20 16:49:46,
2017-10-20 16:49:46,#B#,384,8,2520,-63,2437,63036,-63,2437,63036

2017-10-20 16:49:47,
2017-10-20 16:49:47,#B#,385,8,2520,-62,2437,63037,-62,2437,63037

2017-10-20 16:49:48,
2017-10-20 16:49:48,#B#,386,8,2520,-63,2437,63036,-63,2437,63036

2017-10-20 16:49:49,
2017-10-20 16:49:49,#B#,387,8,2520,-63,2437,63036,-63,2437,63036

2017-10-20 16:49:50,
2017-10-20 16:49:51,#B#,388,8,2520,-63,2437,63036,-63,2437,63036

2017-10-20 16:49:52,
2017-10-20 16:49:52,#B#,389,8,2520,-63,2437,63036,-63,2437,63036

2017-10-20 16:49:53,
2017-10-20 16:49:53,#B#,390,8,2520,-63,2437,63036,-63,2437,63036

2017-10-20 16:49:54,
2017-10-20 16:49:54,#B#,391,8,2520,-63,2436,63037,-63,2436,63037

2017-10-20 16:49:55,
2017-10-20 16:49:55,#B#,392,8,2520,-64,2436,63036,-64,2436,63036

2017-10-20 16:49:56,
2017-10-20 16:49:57,#B#,393,8,2520,-64,2436,63036,-64,2436,63036

2017-10-20 16:49:58,
2017-10-20 16:49:58,#B#,394,8,2520,-64,2436,63036,-64,2436,63036

2017-10-20 16:49:59,
2017-10-20 16:49:59,#B#,395,8,2520,-63,2437,63036,-63,2437,63036

2017-10-20 16:50:00,
2017-10-20 16:50:00,#B#,396,8,2520,-63,2437,63036,-63,2437,63036

2017-10-20 16:50:01,
2017-10-20 16:50:01,#B#,397,8,2520,-63,2437,63036,-63,2437,63036

2017-10-20 16:50:02,
2017-10-20 16:50:03,#B#,398,8,2520,-62,2437,63037,-62,2437,63037

2017-10-20 16:50:04,
2017-10-20 16:50:04,#B#,399,8,2520,-62,2437,63037,-62,2437,63037

2017-10-20 16:50:05,
2017-10-20 16:50:05,#B#,400,8,2520,-63,2437,63036,-63,2437,63036

2017-10-20 16:50:06,
2017-10-20 16:50:06,#B#,401,8,2520,-63,2437,63036,-63,2437,63036

2017-10-20 16:50:07,
2017-10-20 16:50:07,#B#,402,8,2520,-63,2437,63036,-63,2437,63036

2017-10-20 16:50:08,
2017-10-20 16:50:09,#B#,403,8,2520,-63,2437,63036,-63,2437,63036

2017-10-20 16:50:10,
2017-10-20 16:50:10,#B#,404,8,2520,-63,2436,63037,-63,2436,63037

2017-10-20 16:50:11,
2017-10-20 16:50:11,#B#,405,8,2520,-64,2436,63036,-64,2436,63036

2017-10-20 16:50:12,
2017-10-20 16:50:12,#B#,406,8,2520,-64,2436,63036,-64,2436,63036

2017-10-20 16:50:13,
2017-10-20 16:50:14,#B#,407,8,2520,-64,2436,63036,-64,2436,63036

2017-10-20 16:50:15,
2017-10-20 16:50:15,#B#,408,8,2520,-64,2436,63036,-64,2436,63036

2017-10-20 16:50:16,
2017-10-20 16:50:16,#B#,409,8,2520,-64,2436,63036,-64,2436,63036

2017-10-20 16:50:17,
2017-10-20 16:50:17,#B#,410,8,2520,-64,2436,63036,-64,2436,63036

2017-10-20 16:50:18,
2017-10-20 16:50:18,#B#,411,8,2520,-64,2436,63036,-64,2436,63036

2017-10-20 16:50:19,
2017-10-20 16:50:20,#B#,412,8,2520,-64,2436,63036,-64,2436,63036

2017-10-20 16:50:21,
2017-10-20 16:50:21,#B#,413,8,2520,-64,2435,63037,-64,2435,63037

2017-10-20 16:50:22,
2017-10-20 16:50:22,#B#,414,8,2520,-65,2435,63036,-65,2435,63036

2017-10-20 16:50:23,
2017-10-20 16:50:23,#B#,415,8,2520,-65,2435,63036,-65,2435,63036

2017-10-20 16:50:24,
2017-10-20 16:50:25,#B#,416,8,2520,-65,2435,63036,-65,2435,63036

2017-10-20 16:50:26,
2017-10-20 16:50:26,#B#,417,8,2520,-65,2435,63036,-65,2435,63036

2017-10-20 16:50:27,
2017-10-20 16:50:27,#B#,418,8,2520,-64,2436,63036,-64,2436,63036

2017-10-20 16:50:28,
2017-10-20 16:50:28,#B#,419,8,2520,-64,2436,63036,-64,2436,63036

2017-10-20 16:50:29,
2017-10-20 16:50:30,
2017-10-20 16:50:31,
