#B0E00FFFFC8001AAMPT_T.

2017-10-20 17:15:07, 42,:e,:0,:ffff,:c8,:0,:1a @

2017-10-20 17:15:07,*******AM_PROTECTION_TEST*******

2017-10-20 17:15:07,*SeqNo,Samples,maxCnt,Vin1a,Vin1b,Isense0,Vin2a,Vin2b,Isense1

2017-10-20 17:15:08,#B#,0,26,2520,0,0,0,0,0,0

2017-10-20 17:15:09,
2017-10-20 17:15:09,#B#,1,26,2520,0,0,0,0,0,0

2017-10-20 17:15:10,
2017-10-20 17:15:10,#B#,2,26,2520,0,0,0,0,0,0

2017-10-20 17:15:11,
2017-10-20 17:15:11,#B#,3,26,2520,0,0,0,0,0,0

2017-10-20 17:15:12,
2017-10-20 17:15:12,#B#,4,26,2520,0,0,0,0,0,0

2017-10-20 17:15:13,
2017-10-20 17:15:14,#B#,5,26,2520,0,0,0,0,0,0

2017-10-20 17:15:15,
2017-10-20 17:15:15,#B#,6,26,2520,0,0,0,0,0,0

2017-10-20 17:15:16,
2017-10-20 17:15:16,#B#,7,26,2520,-43,-35,8,-43,-35,8

2017-10-20 17:15:17,
2017-10-20 17:15:17,#B#,8,26,2520,-35,-35,0,-35,-35,0

2017-10-20 17:15:18,
2017-10-20 17:15:18,#B#,9,26,2520,-35,-35,0,-35,-35,0

2017-10-20 17:15:19,
2017-10-20 17:15:20,#B#,10,26,2520,-35,-35,0,-35,-35,0

2017-10-20 17:15:21,
2017-10-20 17:15:21,#B#,11,26,2520,-35,-35,0,-35,-35,0

2017-10-20 17:15:22,
2017-10-20 17:15:22,#B#,12,26,2520,-35,-35,0,-35,-35,0

2017-10-20 17:15:23,
2017-10-20 17:15:23,#B#,13,26,2520,-62,-62,0,-62,-62,0

2017-10-20 17:15:24,
2017-10-20 17:15:24,#B#,14,26,2520,-62,-62,0,-62,-62,0

2017-10-20 17:15:25,
2017-10-20 17:15:26,#B#,15,26,2520,-62,-62,0,-62,-62,0

2017-10-20 17:15:27,
2017-10-20 17:15:27,#B#,16,26,2520,-64,-65,65535,-64,-65,65535

2017-10-20 17:15:28,
2017-10-20 17:15:28,#B#,17,26,2520,-95,-95,0,-95,-95,0

2017-10-20 17:15:29,
2017-10-20 17:15:29,#B#,18,26,2520,-95,-95,0,-95,-95,0

2017-10-20 17:15:30,
2017-10-20 17:15:30,#B#,19,26,2520,-96,-96,0,-96,-96,0

2017-10-20 17:15:31,
2017-10-20 17:15:32,#B#,20,26,2520,-112,-121,65527,-112,-121,65527

2017-10-20 17:15:33,
2017-10-20 17:15:33,#B#,21,26,2520,-130,-130,0,-130,-130,0

2017-10-20 17:15:34,
2017-10-20 17:15:34,#B#,22,26,2520,-130,-130,0,-130,-130,0

2017-10-20 17:15:35,
2017-10-20 17:15:35,#B#,23,26,2520,-156,-164,65528,-156,-164,65528

2017-10-20 17:15:36,
2017-10-20 17:15:36,#B#,24,26,2520,-164,-164,0,-164,-164,0

2017-10-20 17:15:37,
2017-10-20 17:15:38,#B#,25,26,2520,-164,-184,65516,-164,-184,65516

2017-10-20 17:15:39,
2017-10-20 17:15:39,#B#,26,26,2520,-209,-209,0,-209,-209,0

2017-10-20 17:15:40,
2017-10-20 17:15:40,#B#,27,26,2520,-209,-209,0,-209,-209,0

2017-10-20 17:15:41,
2017-10-20 17:15:41,#B#,28,26,2520,-210,-218,65528,-210,-218,65528

2017-10-20 17:15:42,
2017-10-20 17:15:42,#B#,29,26,2520,-234,-234,0,-234,-234,0

2017-10-20 17:15:43,
2017-10-20 17:15:44,#B#,30,26,2520,-234,-234,0,-234,-234,0

2017-10-20 17:15:45,
2017-10-20 17:15:45,#B#,31,26,2520,-256,-271,65521,-256,-271,65521

2017-10-20 17:15:46,
2017-10-20 17:15:46,#B#,32,26,2520,-275,-274,1,-275,-274,1

2017-10-20 17:15:47,
2017-10-20 17:15:47,#B#,33,26,2520,-275,-274,1,-275,-274,1

2017-10-20 17:15:48,
2017-10-20 17:15:49,#B#,34,26,2520,-285,-291,65530,-285,-291,65530

2017-10-20 17:15:50,
2017-10-20 17:15:50,#B#,35,26,2520,-291,-291,0,-291,-291,0

2017-10-20 17:15:51,
2017-10-20 17:15:51,#B#,36,26,2520,-291,-291,0,-291,-291,0

2017-10-20 17:15:52,
2017-10-20 17:15:52,#B#,37,26,2520,-323,-322,1,-323,-322,1

2017-10-20 17:15:53,
2017-10-20 17:15:53,#B#,38,26,2520,-323,-322,1,-323,-322,1

2017-10-20 17:15:54,
2017-10-20 17:15:55,#B#,39,26,2520,-323,-322,1,-323,-322,1

2017-10-20 17:15:56,
2017-10-20 17:15:56,#B#,40,26,2520,-323,-322,1,-323,-322,1

2017-10-20 17:15:57,
2017-10-20 17:15:57,#B#,41,26,2520,-323,-322,1,-323,-322,1

2017-10-20 17:15:58,
2017-10-20 17:15:58,#B#,42,26,2520,-323,-322,1,-323,-322,1

2017-10-20 17:15:59,
2017-10-20 17:15:59,#B#,43,26,2520,-337,-342,65531,-337,-342,65531

2017-10-20 17:16:00,
2017-10-20 17:16:01,#B#,44,26,2520,-355,-353,2,-355,-353,2

2017-10-20 17:16:02,
2017-10-20 17:16:02,#B#,45,26,2520,-355,-353,2,-355,-353,2

2017-10-20 17:16:03,
2017-10-20 17:16:03,#B#,46,26,2520,-355,-353,2,-355,-353,2

2017-10-20 17:16:04,
2017-10-20 17:16:04,#B#,47,26,2520,-355,-354,1,-355,-354,1

2017-10-20 17:16:05,
2017-10-20 17:16:05,#B#,48,26,2520,-374,-383,65527,-374,-383,65527

2017-10-20 17:16:06,
2017-10-20 17:16:07,#B#,49,26,2520,-396,-393,3,-396,-393,3

2017-10-20 17:16:08,
2017-10-20 17:16:08,#B#,50,26,2520,-396,-393,3,-396,-393,3

2017-10-20 17:16:09,
2017-10-20 17:16:09,#B#,51,26,2520,-396,-393,3,-396,-393,3

2017-10-20 17:16:10,
2017-10-20 17:16:10,#B#,52,26,2520,-396,-393,3,-396,-393,3

2017-10-20 17:16:11,
2017-10-20 17:16:11,#B#,53,26,2520,-396,-393,3,-396,-393,3

2017-10-20 17:16:12,
2017-10-20 17:16:13,#B#,54,26,2520,-398,-404,65530,-398,-404,65530

2017-10-20 17:16:14,
2017-10-20 17:16:14,#B#,55,26,2520,-412,-409,3,-412,-409,3

2017-10-20 17:16:15,
2017-10-20 17:16:15,#B#,56,26,2520,-412,-409,3,-412,-409,3

2017-10-20 17:16:16,
2017-10-20 17:16:16,#B#,57,26,2520,-418,-420,65534,-418,-420,65534

2017-10-20 17:16:17,
2017-10-20 17:16:17,#B#,58,26,2520,-422,-420,2,-422,-420,2

2017-10-20 17:16:18,
2017-10-20 17:16:19,#B#,59,26,2520,-422,-420,2,-422,-420,2

2017-10-20 17:16:20,
2017-10-20 17:16:20,#B#,60,26,2520,-422,-420,2,-422,-420,2

2017-10-20 17:16:21,
2017-10-20 17:16:21,#B#,61,26,2520,-422,-425,65533,-422,-425,65533

2017-10-20 17:16:22,
2017-10-20 17:16:22,#B#,62,26,2520,-427,-425,2,-427,-425,2

2017-10-20 17:16:23,
2017-10-20 17:16:23,#B#,63,26,2520,-427,-425,2,-427,-425,2

2017-10-20 17:16:24,
2017-10-20 17:16:25,#B#,64,26,2520,-427,-425,2,-427,-425,2

2017-10-20 17:16:26,
2017-10-20 17:16:26,#B#,65,26,2520,-428,-427,1,-428,-427,1

2017-10-20 17:16:27,
2017-10-20 17:16:27,#B#,66,26,2520,-429,-428,1,-429,-428,1

2017-10-20 17:16:28,
2017-10-20 17:16:28,#B#,67,26,2520,-430,-428,2,-430,-428,2

2017-10-20 17:16:29,
2017-10-20 17:16:30,#B#,68,26,2520,-430,-428,2,-430,-428,2

2017-10-20 17:16:31,
2017-10-20 17:16:31,#B#,69,26,2520,-431,-429,2,-431,-429,2

2017-10-20 17:16:32,
2017-10-20 17:16:32,#B#,70,26,2520,-431,-429,2,-431,-429,2

2017-10-20 17:16:33,
2017-10-20 17:16:33,#B#,71,26,2520,-431,-429,2,-431,-429,2

2017-10-20 17:16:34,
2017-10-20 17:16:34,#B#,72,26,2520,-431,-429,2,-431,-429,2

2017-10-20 17:16:35,
2017-10-20 17:16:36,#B#,73,26,2520,-431,-429,2,-431,-429,2

2017-10-20 17:16:37,
2017-10-20 17:16:37,#B#,74,26,2520,-430,-429,1,-430,-429,1

2017-10-20 17:16:38,
2017-10-20 17:16:38,#B#,75,26,2520,-430,-429,1,-430,-429,1

2017-10-20 17:16:39,
2017-10-20 17:16:39,#B#,76,26,2520,-429,-428,1,-429,-428,1

2017-10-20 17:16:40,
2017-10-20 17:16:40,#B#,77,26,2520,-429,-428,1,-429,-428,1

2017-10-20 17:16:41,
2017-10-20 17:16:42,#B#,78,26,2520,-429,-428,1,-429,-428,1

2017-10-20 17:16:43,
2017-10-20 17:16:43,#B#,79,26,2520,-429,-428,1,-429,-428,1

2017-10-20 17:16:44,
2017-10-20 17:16:44,#B#,80,26,2520,-429,-428,1,-429,-428,1

2017-10-20 17:16:45,
2017-10-20 17:16:45,#B#,81,26,2520,-429,-428,1,-429,-428,1

2017-10-20 17:16:46,
2017-10-20 17:16:46,#B#,82,26,2520,-429,-428,1,-429,-428,1

2017-10-20 17:16:47,
2017-10-20 17:16:48,#B#,83,26,2520,-429,-428,1,-429,-428,1

2017-10-20 17:16:49,
2017-10-20 17:16:49,#B#,84,26,2520,-429,-428,1,-429,-428,1

2017-10-20 17:16:50,
2017-10-20 17:16:50,#B#,85,26,2520,-427,-423,4,-427,-423,4

2017-10-20 17:16:51,
2017-10-20 17:16:51,#B#,86,26,2520,-422,-420,2,-422,-420,2

2017-10-20 17:16:52,
2017-10-20 17:16:52,#B#,87,26,2520,-419,-418,1,-419,-418,1

2017-10-20 17:16:53,
2017-10-20 17:16:54,#B#,88,26,2520,-419,-418,1,-419,-418,1

2017-10-20 17:16:55,
2017-10-20 17:16:55,#B#,89,26,2520,-415,-414,1,-415,-414,1

2017-10-20 17:16:56,
2017-10-20 17:16:56,#B#,90,26,2520,-414,-412,2,-414,-412,2

2017-10-20 17:16:57,
2017-10-20 17:16:57,#B#,91,26,2520,-412,-412,0,-412,-412,0

2017-10-20 17:16:58,
2017-10-20 17:16:58,#B#,92,26,2520,-410,-410,0,-410,-410,0

2017-10-20 17:16:59,
2017-10-20 17:17:00,#B#,93,26,2520,-407,-407,0,-407,-407,0

2017-10-20 17:17:01,
2017-10-20 17:17:01,#B#,94,26,2520,-408,-408,0,-408,-408,0

2017-10-20 17:17:02,
2017-10-20 17:17:02,#B#,95,26,2520,-408,-408,0,-408,-408,0

2017-10-20 17:17:03,
2017-10-20 17:17:03,#B#,96,26,2520,-408,-408,0,-408,-408,0

2017-10-20 17:17:04,
2017-10-20 17:17:05,#B#,97,26,2520,-408,-408,0,-408,-408,0

2017-10-20 17:17:06,
2017-10-20 17:17:06,#B#,98,26,2520,-408,-408,0,-408,-408,0

2017-10-20 17:17:07,
2017-10-20 17:17:07,#B#,99,26,2520,-408,-408,0,-408,-408,0

2017-10-20 17:17:08,
2017-10-20 17:17:08,#B#,100,26,2520,386,984,598,386,984,598

2017-10-20 17:17:09,
2017-10-20 17:17:09,#B#,101,26,2520,1179,982,65339,1179,982,65339

2017-10-20 17:17:10,
2017-10-20 17:17:11,#B#,102,26,2520,1179,981,65338,1179,981,65338

2017-10-20 17:17:12,
2017-10-20 17:17:12,#B#,103,26,2520,1179,981,65338,1179,981,65338

2017-10-20 17:17:13,
2017-10-20 17:17:13,#B#,104,26,2520,1178,981,65339,1178,981,65339

2017-10-20 17:17:14,
2017-10-20 17:17:14,#B#,105,26,2520,1178,981,65339,1178,981,65339

2017-10-20 17:17:15,
2017-10-20 17:17:15,#B#,106,26,2520,1178,980,65338,1178,980,65338

2017-10-20 17:17:16,
2017-10-20 17:17:17,#B#,107,26,2520,1178,980,65338,1178,980,65338

2017-10-20 17:17:18,
2017-10-20 17:17:18,#B#,108,26,2520,1178,980,65338,1178,980,65338

2017-10-20 17:17:19,
2017-10-20 17:17:19,#B#,109,26,2520,1178,980,65338,1178,980,65338

2017-10-20 17:17:20,
2017-10-20 17:17:20,#B#,110,26,2520,1178,980,65338,1178,980,65338

2017-10-20 17:17:21,
2017-10-20 17:17:21,#B#,111,26,2520,1178,980,65338,1178,980,65338

2017-10-20 17:17:22,
2017-10-20 17:17:23,#B#,112,26,2520,1178,980,65338,1178,980,65338

2017-10-20 17:17:24,
2017-10-20 17:17:24,#B#,113,26,2520,1178,980,65338,1178,980,65338

2017-10-20 17:17:25,
2017-10-20 17:17:25,#B#,114,26,2520,1178,980,65338,1178,980,65338

2017-10-20 17:17:26,
2017-10-20 17:17:26,#B#,115,26,2520,1178,980,65338,1178,980,65338

2017-10-20 17:17:27,
2017-10-20 17:17:27,#B#,116,26,2520,1178,980,65338,1178,980,65338

2017-10-20 17:17:28,
2017-10-20 17:17:29,#B#,117,26,2520,1178,980,65338,1178,980,65338

2017-10-20 17:17:30,
2017-10-20 17:17:30,#B#,118,26,2520,1178,980,65338,1178,980,65338

2017-10-20 17:17:31,
2017-10-20 17:17:31,#B#,119,26,2520,1178,980,65338,1178,980,65338

2017-10-20 17:17:32,
2017-10-20 17:17:32,#B#,120,26,2520,1178,980,65338,1178,980,65338

2017-10-20 17:17:33,
2017-10-20 17:17:33,#B#,121,26,2520,1178,980,65338,1178,980,65338

2017-10-20 17:17:34,
2017-10-20 17:17:35,#B#,122,26,2520,-409,-408,1,-409,-408,1

2017-10-20 17:17:36,
2017-10-20 17:17:36,#B#,123,26,2520,-408,-408,0,-408,-408,0

2017-10-20 17:17:37,
2017-10-20 17:17:37,#B#,124,26,2520,-408,-408,0,-408,-408,0

2017-10-20 17:17:38,
2017-10-20 17:17:38,#B#,125,26,2520,-408,-408,0,-408,-408,0

2017-10-20 17:17:39,
2017-10-20 17:17:39,#B#,126,26,2520,-408,-408,0,-408,-408,0

2017-10-20 17:17:40,
2017-10-20 17:17:41,#B#,127,26,2520,-408,-408,0,-408,-408,0

2017-10-20 17:17:42,
2017-10-20 17:17:42,#B#,128,26,2520,-408,-408,0,-408,-408,0

2017-10-20 17:17:43,
2017-10-20 17:17:43,#B#,129,26,2520,-408,-407,1,-408,-407,1

2017-10-20 17:17:44,
2017-10-20 17:17:44,#B#,130,26,2520,1180,982,65338,1180,982,65338

2017-10-20 17:17:45,
2017-10-20 17:17:46,#B#,131,26,2520,1179,981,65338,1179,981,65338

2017-10-20 17:17:47,
2017-10-20 17:17:47,#B#,132,26,2520,1179,981,65338,1179,981,65338

2017-10-20 17:17:48,
2017-10-20 17:17:48,#B#,133,26,2520,1178,981,65339,1178,981,65339

2017-10-20 17:17:49,
2017-10-20 17:17:49,#B#,134,26,2520,1178,980,65338,1178,980,65338

2017-10-20 17:17:50,
2017-10-20 17:17:50,#B#,135,26,2520,1178,980,65338,1178,980,65338

2017-10-20 17:17:51,
2017-10-20 17:17:52,#B#,136,26,2520,1178,980,65338,1178,980,65338

2017-10-20 17:17:53,
2017-10-20 17:17:53,#B#,137,26,2520,1178,980,65338,1178,980,65338

2017-10-20 17:17:54,
2017-10-20 17:17:54,#B#,138,26,2520,1178,980,65338,1178,980,65338

2017-10-20 17:17:55,
2017-10-20 17:17:55,#B#,139,26,2520,1178,980,65338,1178,980,65338

2017-10-20 17:17:56,
2017-10-20 17:17:56,#B#,140,26,2520,1178,980,65338,1178,980,65338

2017-10-20 17:17:57,
2017-10-20 17:17:58,#B#,141,26,2520,1178,980,65338,1178,980,65338

2017-10-20 17:17:59,
2017-10-20 17:17:59,#B#,142,26,2520,1178,980,65338,1178,980,65338

2017-10-20 17:18:00,
2017-10-20 17:18:00,#B#,143,26,2520,1178,980,65338,1178,980,65338

2017-10-20 17:18:01,
2017-10-20 17:18:01,#B#,144,26,2520,1178,980,65338,1178,980,65338

2017-10-20 17:18:02,
2017-10-20 17:18:02,#B#,145,26,2520,1178,980,65338,1178,980,65338

2017-10-20 17:18:03,
2017-10-20 17:18:04,#B#,146,26,2520,1178,980,65338,1178,980,65338

2017-10-20 17:18:05,
2017-10-20 17:18:05,#B#,147,26,2520,-410,-410,0,-410,-410,0

2017-10-20 17:18:06,
2017-10-20 17:18:06,#B#,148,26,2520,-409,-409,0,-409,-409,0

2017-10-20 17:18:07,
2017-10-20 17:18:07,#B#,149,26,2520,-409,-409,0,-409,-409,0

2017-10-20 17:18:08,
2017-10-20 17:18:08,#B#,150,26,2520,-409,-409,0,-409,-409,0

2017-10-20 17:18:09,
2017-10-20 17:18:10,#B#,151,26,2520,-409,-409,0,-409,-409,0

2017-10-20 17:18:11,
2017-10-20 17:18:11,#B#,152,26,2520,-409,-409,0,-409,-409,0

2017-10-20 17:18:12,
2017-10-20 17:18:12,#B#,153,26,2520,-409,-409,0,-409,-409,0

2017-10-20 17:18:13,
2017-10-20 17:18:13,#B#,154,26,2520,-409,-409,0,-409,-409,0

2017-10-20 17:18:14,
2017-10-20 17:18:14,#B#,155,26,2520,-409,-409,0,-409,-409,0

2017-10-20 17:18:15,
2017-10-20 17:18:16,#B#,156,26,2520,-409,-409,0,-409,-409,0

2017-10-20 17:18:17,
2017-10-20 17:18:17,#B#,157,26,2520,-403,-336,67,-403,-336,67

2017-10-20 17:18:18,
2017-10-20 17:18:18,#B#,158,26,2520,5,0,65531,5,0,65531

2017-10-20 17:18:19,
2017-10-20 17:18:19,#B#,159,26,2520,0,0,0,0,0,0

2017-10-20 17:18:20,
2017-10-20 17:18:21,#B#,160,26,2520,0,0,0,0,0,0

2017-10-20 17:18:22,
2017-10-20 17:18:22,#B#,161,26,2520,0,0,0,0,0,0

2017-10-20 17:18:23,
2017-10-20 17:18:23,#B#,162,26,2520,0,0,0,0,0,0

2017-10-20 17:18:24,
2017-10-20 17:18:24,#B#,163,26,2520,0,0,0,0,0,0

2017-10-20 17:18:25,
2017-10-20 17:18:25,#B#,164,26,2520,0,0,0,0,0,0

2017-10-20 17:18:26,
2017-10-20 17:18:27,#B#,165,26,2520,0,0,0,0,0,0

2017-10-20 17:18:28,
2017-10-20 17:18:28,#B#,166,26,2520,0,0,0,0,0,0

2017-10-20 17:18:29,
2017-10-20 17:18:29,#B#,167,26,2520,0,0,0,0,0,0

2017-10-20 17:18:30,
2017-10-20 17:18:30,#B#,168,26,2520,0,0,0,0,0,0

2017-10-20 17:18:31,
2017-10-20 17:18:31,#B#,169,26,2520,0,0,0,0,0,0

2017-10-20 17:18:32,
2017-10-20 17:18:33,#B#,170,26,2520,0,0,0,0,0,0

2017-10-20 17:18:34,
2017-10-20 17:18:34,#B#,171,26,2520,1,0,65535,1,0,65535

2017-10-20 17:18:35,
2017-10-20 17:18:35,#B#,172,26,2520,0,0,0,0,0,0

2017-10-20 17:18:36,
2017-10-20 17:18:36,#B#,173,26,2520,0,0,0,0,0,0

2017-10-20 17:18:37,
2017-10-20 17:18:37,#B#,174,26,2520,0,0,0,0,0,0

2017-10-20 17:18:38,
2017-10-20 17:18:39,#B#,175,26,2520,0,0,0,0,0,0

2017-10-20 17:18:40,
2017-10-20 17:18:40,#B#,176,26,2520,0,0,0,0,0,0

2017-10-20 17:18:41,
2017-10-20 17:18:41,#B#,177,26,2520,0,0,0,0,0,0

2017-10-20 17:18:42,
2017-10-20 17:18:42,#B#,178,26,2520,0,0,0,0,0,0

2017-10-20 17:18:43,
2017-10-20 17:18:43,#B#,179,26,2520,0,0,0,0,0,0

2017-10-20 17:18:44,
2017-10-20 17:18:45,#B#,180,26,2520,0,-1,65535,0,-1,65535

2017-10-20 17:18:46,
2017-10-20 17:18:46,#B#,181,26,2520,0,-1,65535,0,-1,65535

2017-10-20 17:18:47,
2017-10-20 17:18:47,#B#,182,26,2520,0,0,0,0,0,0

2017-10-20 17:18:48,
2017-10-20 17:18:48,#B#,183,26,2520,0,0,0,0,0,0

2017-10-20 17:18:49,
2017-10-20 17:18:49,#B#,184,26,2520,0,0,0,0,0,0

2017-10-20 17:18:50,
2017-10-20 17:18:51,#B#,185,26,2520,0,0,0,0,0,0

2017-10-20 17:18:52,
2017-10-20 17:18:52,#B#,186,26,2520,0,0,0,0,0,0

2017-10-20 17:18:53,
2017-10-20 17:18:53,#B#,187,26,2520,0,0,0,0,0,0

2017-10-20 17:18:54,
2017-10-20 17:18:54,#B#,188,26,2520,0,0,0,0,0,0

2017-10-20 17:18:55,
2017-10-20 17:18:55,#B#,189,26,2520,0,0,0,0,0,0

2017-10-20 17:18:56,
2017-10-20 17:18:57,#B#,190,26,2520,0,0,0,0,0,0

2017-10-20 17:18:58,
2017-10-20 17:18:58,#B#,191,26,2520,0,0,0,0,0,0

2017-10-20 17:18:59,
2017-10-20 17:18:59,#B#,192,26,2520,0,0,0,0,0,0

2017-10-20 17:19:00,
2017-10-20 17:19:00,#B#,193,26,2520,0,0,0,0,0,0

2017-10-20 17:19:01,
2017-10-20 17:19:01,#B#,194,26,2520,0,0,0,0,0,0

2017-10-20 17:19:02,
2017-10-20 17:19:03,#B#,195,26,2520,0,0,0,0,0,0

2017-10-20 17:19:04,
2017-10-20 17:19:04,#B#,196,26,2520,0,0,0,0,0,0

2017-10-20 17:19:05,
2017-10-20 17:19:05,#B#,197,26,2520,0,0,0,0,0,0

2017-10-20 17:19:06,
2017-10-20 17:19:06,#B#,198,26,2520,0,0,0,0,0,0

2017-10-20 17:19:07,
2017-10-20 17:19:08,#B#,199,26,2520,0,0,0,0,0,0

2017-10-20 17:19:09,
2017-10-20 17:19:09,#B#,200,26,2520,0,0,0,0,0,0

2017-10-20 17:19:10,
2017-10-20 17:19:10,#B#,201,26,2520,0,0,0,0,0,0

2017-10-20 17:19:11,
2017-10-20 17:19:11,#B#,202,26,2520,0,0,0,0,0,0

2017-10-20 17:19:12,
2017-10-20 17:19:12,#B#,203,26,2520,0,0,0,0,0,0

2017-10-20 17:19:13,
2017-10-20 17:19:14,#B#,204,26,2520,0,0,0,0,0,0

2017-10-20 17:19:15,
2017-10-20 17:19:15,#B#,205,26,2520,0,0,0,0,0,0

2017-10-20 17:19:16,
2017-10-20 17:19:16,#B#,206,26,2520,0,0,0,0,0,0

2017-10-20 17:19:17,
2017-10-20 17:19:17,#B#,207,26,2520,0,0,0,0,0,0

2017-10-20 17:19:18,
2017-10-20 17:19:18,#B#,208,26,2520,0,0,0,0,0,0

2017-10-20 17:19:19,
2017-10-20 17:19:20,#B#,209,26,2520,0,0,0,0,0,0

2017-10-20 17:19:21,
2017-10-20 17:19:21,#B#,210,26,2520,0,0,0,0,0,0

2017-10-20 17:19:22,
2017-10-20 17:19:22,#B#,211,26,2520,0,0,0,0,0,0

2017-10-20 17:19:23,
2017-10-20 17:19:23,#B#,212,26,2520,0,0,0,0,0,0

2017-10-20 17:19:24,
2017-10-20 17:19:24,#B#,213,26,2520,0,0,0,0,0,0

2017-10-20 17:19:25,
2017-10-20 17:19:26,#B#,214,26,2520,0,0,0,0,0,0

2017-10-20 17:19:27,
2017-10-20 17:19:27,#B#,215,26,2520,0,0,0,0,0,0

2017-10-20 17:19:28,
2017-10-20 17:19:28,#B#,216,26,2520,0,0,0,0,0,0

2017-10-20 17:19:29,
2017-10-20 17:19:29,#B#,217,26,2520,0,0,0,0,0,0

2017-10-20 17:19:30,
2017-10-20 17:19:30,#B#,218,26,2520,0,0,0,0,0,0

2017-10-20 17:19:31,
2017-10-20 17:19:32,#B#,219,26,2520,0,0,0,0,0,0

2017-10-20 17:19:33,
2017-10-20 17:19:33,#B#,220,26,2520,0,0,0,0,0,0

2017-10-20 17:19:34,
2017-10-20 17:19:34,#B#,221,26,2520,0,0,0,0,0,0

2017-10-20 17:19:35,
2017-10-20 17:19:35,#B#,222,26,2520,0,0,0,0,0,0

2017-10-20 17:19:36,
2017-10-20 17:19:36,#B#,223,26,2520,0,0,0,0,0,0

2017-10-20 17:19:37,
2017-10-20 17:19:38,#B#,224,26,2520,0,0,0,0,0,0

2017-10-20 17:19:39,
2017-10-20 17:19:39,#B#,225,26,2520,0,0,0,0,0,0

2017-10-20 17:19:40,
2017-10-20 17:19:40,#B#,226,26,2520,0,0,0,0,0,0

2017-10-20 17:19:41,
2017-10-20 17:19:41,#B#,227,26,2520,0,0,0,0,0,0

2017-10-20 17:19:42,
2017-10-20 17:19:42,#B#,228,26,2520,0,0,0,0,0,0

2017-10-20 17:19:43,
2017-10-20 17:19:44,#B#,229,26,2520,0,0,0,0,0,0

2017-10-20 17:19:45,
2017-10-20 17:19:45,#B#,230,26,2520,0,0,0,0,0,0

2017-10-20 17:19:46,
2017-10-20 17:19:46,#B#,231,26,2520,0,0,0,0,0,0

2017-10-20 17:19:47,
2017-10-20 17:19:47,#B#,232,26,2520,0,0,0,0,0,0

2017-10-20 17:19:48,
2017-10-20 17:19:48,#B#,233,26,2520,0,0,0,0,0,0

2017-10-20 17:19:49,
2017-10-20 17:19:50,#B#,234,26,2520,0,0,0,0,0,0

2017-10-20 17:19:51,
2017-10-20 17:19:51,#B#,235,26,2520,0,0,0,0,0,0

2017-10-20 17:19:52,
2017-10-20 17:19:52,#B#,236,26,2520,0,0,0,0,0,0

2017-10-20 17:19:53,
2017-10-20 17:19:53,#B#,237,26,2520,0,0,0,0,0,0

2017-10-20 17:19:54,
2017-10-20 17:19:55,#B#,238,26,2520,0,0,0,0,0,0

2017-10-20 17:19:56,
2017-10-20 17:19:56,#B#,239,26,2520,0,0,0,0,0,0

2017-10-20 17:19:57,
2017-10-20 17:19:57,#B#,240,26,2520,0,0,0,0,0,0

2017-10-20 17:19:58,
2017-10-20 17:19:58,#B#,241,26,2520,0,0,0,0,0,0

2017-10-20 17:19:59,
2017-10-20 17:19:59,#B#,242,26,2520,0,0,0,0,0,0

2017-10-20 17:20:00,
2017-10-20 17:20:01,#B#,243,26,2520,0,0,0,0,0,0

2017-10-20 17:20:02,
2017-10-20 17:20:02,#B#,244,26,2520,0,0,0,0,0,0

2017-10-20 17:20:03,
2017-10-20 17:20:03,#B#,245,26,2520,0,0,0,0,0,0

2017-10-20 17:20:04,
2017-10-20 17:20:04,#B#,246,26,2520,0,0,0,0,0,0

2017-10-20 17:20:05,
2017-10-20 17:20:05,#B#,247,26,2520,0,0,0,0,0,0

2017-10-20 17:20:06,
2017-10-20 17:20:07,#B#,248,26,2520,0,0,0,0,0,0

2017-10-20 17:20:08,
2017-10-20 17:20:08,#B#,249,26,2520,0,0,0,0,0,0

2017-10-20 17:20:09,
2017-10-20 17:20:09,#B#,250,26,2520,0,0,0,0,0,0

2017-10-20 17:20:10,
2017-10-20 17:20:10,#B#,251,26,2520,0,0,0,0,0,0

2017-10-20 17:20:11,
2017-10-20 17:20:11,#B#,252,26,2520,0,0,0,0,0,0

2017-10-20 17:20:12,
2017-10-20 17:20:13,#B#,253,26,2520,0,0,0,0,0,0

2017-10-20 17:20:14,
2017-10-20 17:20:14,#B#,254,26,2520,0,0,0,0,0,0

2017-10-20 17:20:15,
2017-10-20 17:20:15,#B#,255,26,2520,0,0,0,0,0,0

2017-10-20 17:20:16,
2017-10-20 17:20:16,#B#,256,26,2520,0,0,0,0,0,0

2017-10-20 17:20:17,
2017-10-20 17:20:17,#B#,257,26,2520,0,0,0,0,0,0

2017-10-20 17:20:18,
2017-10-20 17:20:19,#B#,258,26,2520,0,1,1,0,1,1

2017-10-20 17:20:20,
2017-10-20 17:20:20,#B#,259,26,2520,1,1,0,1,1,0

2017-10-20 17:20:21,
2017-10-20 17:20:21,#B#,260,26,2520,1,0,65535,1,0,65535

2017-10-20 17:20:22,
2017-10-20 17:20:22,#B#,261,26,2520,1,0,65535,1,0,65535

2017-10-20 17:20:23,
2017-10-20 17:20:23,#B#,262,26,2520,1,0,65535,1,0,65535

2017-10-20 17:20:24,
2017-10-20 17:20:25,#B#,263,26,2520,1,1,0,1,1,0

2017-10-20 17:20:26,
2017-10-20 17:20:26,#B#,264,26,2520,1,0,65535,1,0,65535

2017-10-20 17:20:27,
2017-10-20 17:20:27,#B#,265,26,2520,1,0,65535,1,0,65535

2017-10-20 17:20:28,
2017-10-20 17:20:28,#B#,266,26,2520,1,0,65535,1,0,65535

2017-10-20 17:20:29,
2017-10-20 17:20:29,#B#,267,26,2520,1,0,65535,1,0,65535

2017-10-20 17:20:30,
2017-10-20 17:20:31,#B#,268,26,2520,1,0,65535,1,0,65535

2017-10-20 17:20:32,
2017-10-20 17:20:32,#B#,269,26,2520,1,0,65535,1,0,65535

2017-10-20 17:20:33,
2017-10-20 17:20:33,#B#,270,26,2520,1,0,65535,1,0,65535

2017-10-20 17:20:34,
2017-10-20 17:20:34,#B#,271,26,2520,1,0,65535,1,0,65535

2017-10-20 17:20:35,
2017-10-20 17:20:35,#B#,272,26,2520,1,0,65535,1,0,65535

2017-10-20 17:20:36,
2017-10-20 17:20:37,#B#,273,26,2520,1,0,65535,1,0,65535

2017-10-20 17:20:38,
2017-10-20 17:20:38,#B#,274,26,2520,1,0,65535,1,0,65535

2017-10-20 17:20:39,
2017-10-20 17:20:39,#B#,275,26,2520,1,0,65535,1,0,65535

2017-10-20 17:20:40,
2017-10-20 17:20:40,#B#,276,26,2520,1,0,65535,1,0,65535

2017-10-20 17:20:41,
2017-10-20 17:20:42,#B#,277,26,2520,1,0,65535,1,0,65535

2017-10-20 17:20:43,
2017-10-20 17:20:43,#B#,278,26,2520,1,0,65535,1,0,65535

2017-10-20 17:20:44,
2017-10-20 17:20:44,#B#,279,26,2520,1,0,65535,1,0,65535

2017-10-20 17:20:45,
2017-10-20 17:20:45,#B#,280,26,2520,1,0,65535,1,0,65535

2017-10-20 17:20:46,
2017-10-20 17:20:46,#B#,281,26,2520,1,0,65535,1,0,65535

2017-10-20 17:20:47,
2017-10-20 17:20:48,#B#,282,26,2520,1,0,65535,1,0,65535

2017-10-20 17:20:49,
2017-10-20 17:20:49,#B#,283,26,2520,1,0,65535,1,0,65535

2017-10-20 17:20:50,
2017-10-20 17:20:50,#B#,284,26,2520,1,0,65535,1,0,65535

2017-10-20 17:20:51,
2017-10-20 17:20:51,#B#,285,26,2520,1,0,65535,1,0,65535

2017-10-20 17:20:52,
2017-10-20 17:20:52,#B#,286,26,2520,1,0,65535,1,0,65535

2017-10-20 17:20:53,
2017-10-20 17:20:54,#B#,287,26,2520,1,0,65535,1,0,65535

2017-10-20 17:20:55,
2017-10-20 17:20:55,#B#,288,26,2520,1,0,65535,1,0,65535

2017-10-20 17:20:56,
2017-10-20 17:20:56,#B#,289,26,2520,1,0,65535,1,0,65535

2017-10-20 17:20:57,
2017-10-20 17:20:57,#B#,290,26,2520,1,0,65535,1,0,65535

2017-10-20 17:20:58,
2017-10-20 17:20:58,#B#,291,26,2520,1,0,65535,1,0,65535

2017-10-20 17:20:59,
2017-10-20 17:21:00,#B#,292,26,2520,1,0,65535,1,0,65535

2017-10-20 17:21:01,
2017-10-20 17:21:01,#B#,293,26,2520,1,0,65535,1,0,65535

2017-10-20 17:21:02,
2017-10-20 17:21:02,#B#,294,26,2520,1,0,65535,1,0,65535

2017-10-20 17:21:03,
2017-10-20 17:21:03,#B#,295,26,2520,1,0,65535,1,0,65535

2017-10-20 17:21:04,
2017-10-20 17:21:04,#B#,296,26,2520,1,0,65535,1,0,65535

2017-10-20 17:21:05,
2017-10-20 17:21:06,#B#,297,26,2520,1,0,65535,1,0,65535

2017-10-20 17:21:07,
2017-10-20 17:21:07,#B#,298,26,2520,1,0,65535,1,0,65535

2017-10-20 17:21:08,
2017-10-20 17:21:08,#B#,299,26,2520,1,1,0,1,1,0

2017-10-20 17:21:09,
2017-10-20 17:21:09,#B#,300,26,2520,1,1,0,1,1,0

2017-10-20 17:21:10,
2017-10-20 17:21:10,#B#,301,26,2520,1,1,0,1,1,0

2017-10-20 17:21:11,
2017-10-20 17:21:12,#B#,302,26,2520,1,1,0,1,1,0

2017-10-20 17:21:13,
2017-10-20 17:21:13,#B#,303,26,2520,1,1,0,1,1,0

2017-10-20 17:21:14,
2017-10-20 17:21:14,#B#,304,26,2520,1,1,0,1,1,0

2017-10-20 17:21:15,
2017-10-20 17:21:15,#B#,305,26,2520,1,1,0,1,1,0

2017-10-20 17:21:16,
2017-10-20 17:21:16,#B#,306,26,2520,1,1,0,1,1,0

2017-10-20 17:21:17,
2017-10-20 17:21:18,#B#,307,26,2520,1,0,65535,1,0,65535

2017-10-20 17:21:19,
2017-10-20 17:21:19,#B#,308,26,2520,1,0,65535,1,0,65535

2017-10-20 17:21:20,
2017-10-20 17:21:20,#B#,309,26,2520,1,0,65535,1,0,65535

2017-10-20 17:21:21,
2017-10-20 17:21:21,#B#,310,26,2520,1,0,65535,1,0,65535

2017-10-20 17:21:22,
2017-10-20 17:21:23,#B#,311,26,2520,1,0,65535,1,0,65535

2017-10-20 17:21:24,
2017-10-20 17:21:24,#B#,312,26,2520,1,0,65535,1,0,65535

2017-10-20 17:21:25,
2017-10-20 17:21:25,#B#,313,26,2520,1,0,65535,1,0,65535

2017-10-20 17:21:26,
2017-10-20 17:21:26,#B#,314,26,2520,1,0,65535,1,0,65535

2017-10-20 17:21:27,
2017-10-20 17:21:27,#B#,315,26,2520,1,0,65535,1,0,65535

2017-10-20 17:21:28,
2017-10-20 17:21:29,#B#,316,26,2520,1,0,65535,1,0,65535

2017-10-20 17:21:30,
2017-10-20 17:21:30,#B#,317,26,2520,1,0,65535,1,0,65535

2017-10-20 17:21:31,
2017-10-20 17:21:31,#B#,318,26,2520,1,0,65535,1,0,65535

2017-10-20 17:21:32,
2017-10-20 17:21:32,#B#,319,26,2520,1,0,65535,1,0,65535

2017-10-20 17:21:33,
2017-10-20 17:21:33,#B#,320,26,2520,1,0,65535,1,0,65535

2017-10-20 17:21:34,
2017-10-20 17:21:35,#B#,321,26,2520,1,0,65535,1,0,65535

2017-10-20 17:21:36,
2017-10-20 17:21:36,#B#,322,26,2520,1,0,65535,1,0,65535

2017-10-20 17:21:37,
2017-10-20 17:21:37,#B#,323,26,2520,0,0,0,0,0,0

2017-10-20 17:21:38,
2017-10-20 17:21:38,#B#,324,26,2520,0,0,0,0,0,0

2017-10-20 17:21:39,
2017-10-20 17:21:39,#B#,325,26,2520,0,0,0,0,0,0

2017-10-20 17:21:40,
2017-10-20 17:21:41,#B#,326,26,2520,0,0,0,0,0,0

2017-10-20 17:21:42,
2017-10-20 17:21:42,#B#,327,26,2520,0,0,0,0,0,0

2017-10-20 17:21:43,
2017-10-20 17:21:43,#B#,328,26,2520,0,0,0,0,0,0

2017-10-20 17:21:44,
2017-10-20 17:21:44,#B#,329,26,2520,0,0,0,0,0,0

2017-10-20 17:21:45,
2017-10-20 17:21:45,#B#,330,26,2520,0,0,0,0,0,0

2017-10-20 17:21:46,
2017-10-20 17:21:47,#B#,331,26,2520,0,0,0,0,0,0

2017-10-20 17:21:48,
2017-10-20 17:21:48,#B#,332,26,2520,0,0,0,0,0,0

2017-10-20 17:21:49,
2017-10-20 17:21:49,#B#,333,26,2520,0,0,0,0,0,0

2017-10-20 17:21:50,
2017-10-20 17:21:50,#B#,334,26,2520,0,0,0,0,0,0

2017-10-20 17:21:51,
2017-10-20 17:21:51,#B#,335,26,2520,0,0,0,0,0,0

2017-10-20 17:21:52,
2017-10-20 17:21:53,#B#,336,26,2520,0,0,0,0,0,0

2017-10-20 17:21:54,
2017-10-20 17:21:54,#B#,337,26,2520,0,0,0,0,0,0

2017-10-20 17:21:55,
2017-10-20 17:21:55,#B#,338,26,2520,0,0,0,0,0,0

2017-10-20 17:21:56,
2017-10-20 17:21:56,#B#,339,26,2520,0,0,0,0,0,0

2017-10-20 17:21:57,
2017-10-20 17:21:57,#B#,340,26,2520,0,0,0,0,0,0

2017-10-20 17:21:58,
2017-10-20 17:21:59,#B#,341,26,2520,0,0,0,0,0,0

2017-10-20 17:22:00,
2017-10-20 17:22:00,#B#,342,26,2520,0,0,0,0,0,0

2017-10-20 17:22:01,
2017-10-20 17:22:01,#B#,343,26,2520,0,0,0,0,0,0

2017-10-20 17:22:02,
2017-10-20 17:22:02,#B#,344,26,2520,0,0,0,0,0,0

2017-10-20 17:22:03,
2017-10-20 17:22:04,#B#,345,26,2520,0,0,0,0,0,0

2017-10-20 17:22:05,
2017-10-20 17:22:05,#B#,346,26,2520,0,0,0,0,0,0

2017-10-20 17:22:06,
2017-10-20 17:22:06,#B#,347,26,2520,0,0,0,0,0,0

2017-10-20 17:22:07,
2017-10-20 17:22:07,#B#,348,26,2520,0,0,0,0,0,0

2017-10-20 17:22:08,
2017-10-20 17:22:08,#B#,349,26,2520,0,0,0,0,0,0

2017-10-20 17:22:09,
2017-10-20 17:22:10,#B#,350,26,2520,0,0,0,0,0,0

2017-10-20 17:22:11,
2017-10-20 17:22:11,#B#,351,26,2520,0,0,0,0,0,0

2017-10-20 17:22:12,
2017-10-20 17:22:12,#B#,352,26,2520,0,0,0,0,0,0

2017-10-20 17:22:13,
2017-10-20 17:22:13,#B#,353,26,2520,0,0,0,0,0,0

2017-10-20 17:22:14,
2017-10-20 17:22:14,#B#,354,26,2520,0,0,0,0,0,0

2017-10-20 17:22:15,
2017-10-20 17:22:16,#B#,355,26,2520,0,0,0,0,0,0

2017-10-20 17:22:17,
2017-10-20 17:22:17,#B#,356,26,2520,0,0,0,0,0,0

2017-10-20 17:22:18,
2017-10-20 17:22:18,#B#,357,26,2520,0,0,0,0,0,0

2017-10-20 17:22:19,
2017-10-20 17:22:19,#B#,358,26,2520,0,0,0,0,0,0

2017-10-20 17:22:20,
2017-10-20 17:22:20,#B#,359,26,2520,0,0,0,0,0,0

2017-10-20 17:22:21,
2017-10-20 17:22:22,#B#,360,26,2520,0,0,0,0,0,0

2017-10-20 17:22:23,
2017-10-20 17:22:23,#B#,361,26,2520,0,0,0,0,0,0

2017-10-20 17:22:24,
2017-10-20 17:22:24,#B#,362,26,2520,0,0,0,0,0,0

2017-10-20 17:22:25,
2017-10-20 17:22:25,#B#,363,26,2520,0,0,0,0,0,0

2017-10-20 17:22:26,
2017-10-20 17:22:26,#B#,364,26,2520,1,0,65535,1,0,65535

2017-10-20 17:22:27,
2017-10-20 17:22:28,#B#,365,26,2520,1,0,65535,1,0,65535

2017-10-20 17:22:29,
2017-10-20 17:22:29,#B#,366,26,2520,1,0,65535,1,0,65535

2017-10-20 17:22:30,
2017-10-20 17:22:30,#B#,367,26,2520,1,0,65535,1,0,65535

2017-10-20 17:22:31,
2017-10-20 17:22:31,#B#,368,26,2520,1,0,65535,1,0,65535

2017-10-20 17:22:32,
2017-10-20 17:22:32,#B#,369,26,2520,1,0,65535,1,0,65535

2017-10-20 17:22:33,
2017-10-20 17:22:34,#B#,370,26,2520,1,0,65535,1,0,65535

2017-10-20 17:22:35,
2017-10-20 17:22:35,#B#,371,26,2520,1,0,65535,1,0,65535

2017-10-20 17:22:36,
2017-10-20 17:22:36,#B#,372,26,2520,1,0,65535,1,0,65535

2017-10-20 17:22:37,
2017-10-20 17:22:37,#B#,373,26,2520,1,0,65535,1,0,65535

2017-10-20 17:22:38,
2017-10-20 17:22:38,#B#,374,26,2520,1,0,65535,1,0,65535

2017-10-20 17:22:39,
2017-10-20 17:22:40,#B#,375,26,2520,1,0,65535,1,0,65535

2017-10-20 17:22:41,
2017-10-20 17:22:41,#B#,376,26,2520,1,0,65535,1,0,65535

2017-10-20 17:22:42,
2017-10-20 17:22:42,#B#,377,26,2520,1,0,65535,1,0,65535

2017-10-20 17:22:43,
2017-10-20 17:22:43,#B#,378,26,2520,1,0,65535,1,0,65535

2017-10-20 17:22:44,
2017-10-20 17:22:44,#B#,379,26,2520,1,0,65535,1,0,65535

2017-10-20 17:22:45,
2017-10-20 17:22:46,#B#,380,26,2520,1,0,65535,1,0,65535

2017-10-20 17:22:47,
2017-10-20 17:22:47,#B#,381,26,2520,1,0,65535,1,0,65535

2017-10-20 17:22:48,
2017-10-20 17:22:48,#B#,382,26,2520,1,0,65535,1,0,65535

2017-10-20 17:22:49,
2017-10-20 17:22:49,#B#,383,26,2520,1,0,65535,1,0,65535

2017-10-20 17:22:50,
2017-10-20 17:22:51,#B#,384,26,2520,1,0,65535,1,0,65535

2017-10-20 17:22:52,
2017-10-20 17:22:52,#B#,385,26,2520,1,0,65535,1,0,65535

2017-10-20 17:22:53,
2017-10-20 17:22:53,#B#,386,26,2520,1,0,65535,1,0,65535

2017-10-20 17:22:54,
2017-10-20 17:22:54,#B#,387,26,2520,1,0,65535,1,0,65535

2017-10-20 17:22:55,
2017-10-20 17:22:55,#B#,388,26,2520,1,0,65535,1,0,65535

2017-10-20 17:22:56,
2017-10-20 17:22:57,#B#,389,26,2520,1,0,65535,1,0,65535

2017-10-20 17:22:58,
2017-10-20 17:22:58,#B#,390,26,2520,1,0,65535,1,0,65535

2017-10-20 17:22:59,
2017-10-20 17:22:59,#B#,391,26,2520,1,0,65535,1,0,65535

2017-10-20 17:23:00,
2017-10-20 17:23:00,#B#,392,26,2520,1,0,65535,1,0,65535

2017-10-20 17:23:01,
2017-10-20 17:23:01,#B#,393,26,2520,1,0,65535,1,0,65535

2017-10-20 17:23:02,
2017-10-20 17:23:03,#B#,394,26,2520,1,0,65535,1,0,65535

2017-10-20 17:23:04,
2017-10-20 17:23:04,#B#,395,26,2520,1,0,65535,1,0,65535

2017-10-20 17:23:05,
2017-10-20 17:23:05,#B#,396,26,2520,1,0,65535,1,0,65535

2017-10-20 17:23:06,
2017-10-20 17:23:06,#B#,397,26,2520,1,0,65535,1,0,65535

2017-10-20 17:23:07,
2017-10-20 17:23:07,#B#,398,26,2520,1,0,65535,1,0,65535

2017-10-20 17:23:08,
2017-10-20 17:23:09,#B#,399,26,2520,1,1,0,1,1,0

2017-10-20 17:23:10,
2017-10-20 17:23:10,#B#,400,26,2520,1,1,0,1,1,0

2017-10-20 17:23:11,
2017-10-20 17:23:11,#B#,401,26,2520,1,1,0,1,1,0

2017-10-20 17:23:12,
2017-10-20 17:23:12,#B#,402,26,2520,1,1,0,1,1,0

2017-10-20 17:23:13,
2017-10-20 17:23:13,#B#,403,26,2520,1,1,0,1,1,0

2017-10-20 17:23:14,
2017-10-20 17:23:15,#B#,404,26,2520,1,1,0,1,1,0

2017-10-20 17:23:16,
2017-10-20 17:23:16,#B#,405,26,2520,1,1,0,1,1,0

2017-10-20 17:23:17,
2017-10-20 17:23:17,#B#,406,26,2520,1,1,0,1,1,0

2017-10-20 17:23:18,
2017-10-20 17:23:18,#B#,407,26,2520,1,1,0,1,1,0

2017-10-20 17:23:19,
2017-10-20 17:23:19,#B#,408,26,2520,1,0,65535,1,0,65535

2017-10-20 17:23:20,
2017-10-20 17:23:21,#B#,409,26,2520,1,0,65535,1,0,65535

2017-10-20 17:23:22,
2017-10-20 17:23:22,#B#,410,26,2520,1,1,0,1,1,0

2017-10-20 17:23:23,
2017-10-20 17:23:23,#B#,411,26,2520,1,1,0,1,1,0

2017-10-20 17:23:24,
2017-10-20 17:23:24,#B#,412,26,2520,1,1,0,1,1,0

2017-10-20 17:23:25,
2017-10-20 17:23:25,#B#,413,26,2520,1,1,0,1,1,0

2017-10-20 17:23:26,
2017-10-20 17:23:27,#B#,414,26,2520,1,1,0,1,1,0

2017-10-20 17:23:28,
2017-10-20 17:23:28,#B#,415,26,2520,1,1,0,1,1,0

2017-10-20 17:23:29,
2017-10-20 17:23:29,#B#,416,26,2520,1,1,0,1,1,0

2017-10-20 17:23:30,
2017-10-20 17:23:30,#B#,417,26,2520,1,1,0,1,1,0

2017-10-20 17:23:31,
2017-10-20 17:23:32,#B#,418,26,2520,1,1,0,1,1,0

2017-10-20 17:23:33,
2017-10-20 17:23:33,#B#,419,26,2520,1,1,0,1,1,0

2017-10-20 17:23:34,
2017-10-20 17:23:34,#B#,420,26,2520,1,1,0,1,1,0

2017-10-20 17:23:35,
2017-10-20 17:23:35,#B#,421,26,2520,1,1,0,1,1,0

2017-10-20 17:23:36,
2017-10-20 17:23:36,#B#,422,26,2520,1,1,0,1,1,0

2017-10-20 17:23:37,
2017-10-20 17:23:38,#B#,423,26,2520,1,1,0,1,1,0

2017-10-20 17:23:39,
2017-10-20 17:23:39,#B#,424,26,2520,1,1,0,1,1,0

2017-10-20 17:23:40,
2017-10-20 17:23:40,#B#,425,26,2520,1,1,0,1,1,0

2017-10-20 17:23:41,
2017-10-20 17:23:41,#B#,426,26,2520,1,1,0,1,1,0

2017-10-20 17:23:42,
2017-10-20 17:23:42,#B#,427,26,2520,1,1,0,1,1,0

2017-10-20 17:23:43,
2017-10-20 17:23:44,#B#,428,26,2520,1,1,0,1,1,0

2017-10-20 17:23:45,
2017-10-20 17:23:45,#B#,429,26,2520,1,1,0,1,1,0

2017-10-20 17:23:46,
2017-10-20 17:23:46,#B#,430,26,2520,1,1,0,1,1,0

2017-10-20 17:23:47,
2017-10-20 17:23:47,#B#,431,26,2520,1,1,0,1,1,0

2017-10-20 17:23:48,
2017-10-20 17:23:48,#B#,432,26,2520,1,1,0,1,1,0

2017-10-20 17:23:49,
2017-10-20 17:23:50,#B#,433,26,2520,1,1,0,1,1,0

2017-10-20 17:23:51,
2017-10-20 17:23:51,#B#,434,26,2520,1,1,0,1,1,0

2017-10-20 17:23:52,
2017-10-20 17:23:52,#B#,435,26,2520,1,1,0,1,1,0

2017-10-20 17:23:53,
2017-10-20 17:23:53,#B#,436,26,2520,1,1,0,1,1,0

2017-10-20 17:23:54,
2017-10-20 17:23:54,#B#,437,26,2520,1,1,0,1,1,0

2017-10-20 17:23:55,
2017-10-20 17:23:56,#B#,438,26,2520,1,1,0,1,1,0

2017-10-20 17:23:57,
2017-10-20 17:23:57,#B#,439,26,2520,1,1,0,1,1,0

2017-10-20 17:23:58,
2017-10-20 17:23:58,#B#,440,26,2520,1,1,0,1,1,0

2017-10-20 17:23:59,
2017-10-20 17:23:59,#B#,441,26,2520,1,1,0,1,1,0

2017-10-20 17:24:00,
2017-10-20 17:24:00,#B#,442,26,2520,1,1,0,1,1,0

2017-10-20 17:24:01,
2017-10-20 17:24:02,#B#,443,26,2520,1,0,65535,1,0,65535

2017-10-20 17:24:03,
2017-10-20 17:24:03,#B#,444,26,2520,1,0,65535,1,0,65535

2017-10-20 17:24:04,
2017-10-20 17:24:04,#B#,445,26,2520,1,0,65535,1,0,65535

2017-10-20 17:24:05,
2017-10-20 17:24:05,#B#,446,26,2520,1,0,65535,1,0,65535

2017-10-20 17:24:06,
2017-10-20 17:24:06,#B#,447,26,2520,1,0,65535,1,0,65535

2017-10-20 17:24:07,
2017-10-20 17:24:08,#B#,448,26,2520,1,0,65535,1,0,65535

2017-10-20 17:24:09,
2017-10-20 17:24:09,#B#,449,26,2520,1,0,65535,1,0,65535

2017-10-20 17:24:10,
2017-10-20 17:24:10,#B#,450,26,2520,1,0,65535,1,0,65535

2017-10-20 17:24:11,
2017-10-20 17:24:11,#B#,451,26,2520,1,0,65535,1,0,65535

2017-10-20 17:24:12,
2017-10-20 17:24:12,#B#,452,26,2520,1,0,65535,1,0,65535

2017-10-20 17:24:13,
2017-10-20 17:24:14,#B#,453,26,2520,1,0,65535,1,0,65535

2017-10-20 17:24:15,
2017-10-20 17:24:15,#B#,454,26,2520,1,0,65535,1,0,65535

2017-10-20 17:24:16,
2017-10-20 17:24:16,#B#,455,26,2520,1,0,65535,1,0,65535

2017-10-20 17:24:17,
2017-10-20 17:24:17,#B#,456,26,2520,1,0,65535,1,0,65535

2017-10-20 17:24:18,
2017-10-20 17:24:19,#B#,457,26,2520,1,0,65535,1,0,65535

2017-10-20 17:24:20,
2017-10-20 17:24:20,#B#,458,26,2520,1,0,65535,1,0,65535

2017-10-20 17:24:21,
2017-10-20 17:24:21,#B#,459,26,2520,1,0,65535,1,0,65535

2017-10-20 17:24:22,
2017-10-20 17:24:22,#B#,460,26,2520,1,0,65535,1,0,65535

2017-10-20 17:24:23,
2017-10-20 17:24:23,#B#,461,26,2520,1,0,65535,1,0,65535

2017-10-20 17:24:24,
2017-10-20 17:24:25,#B#,462,26,2520,1,0,65535,1,0,65535

2017-10-20 17:24:26,
2017-10-20 17:24:26,#B#,463,26,2520,1,0,65535,1,0,65535

2017-10-20 17:24:27,
2017-10-20 17:24:27,#B#,464,26,2520,1,1,0,1,1,0

2017-10-20 17:24:28,
2017-10-20 17:24:28,#B#,465,26,2520,1,1,0,1,1,0

2017-10-20 17:24:29,
2017-10-20 17:24:29,#B#,466,26,2520,1,1,0,1,1,0

2017-10-20 17:24:30,
2017-10-20 17:24:31,#B#,467,26,2520,1,1,0,1,1,0

2017-10-20 17:24:32,
2017-10-20 17:24:32,#B#,468,26,2520,1,1,0,1,1,0

2017-10-20 17:24:33,
2017-10-20 17:24:33,#B#,469,26,2520,1,1,0,1,1,0

2017-10-20 17:24:34,
2017-10-20 17:24:34,#B#,470,26,2520,1,1,0,1,1,0

2017-10-20 17:24:35,
2017-10-20 17:24:35,#B#,471,26,2520,1,1,0,1,1,0

2017-10-20 17:24:36,
2017-10-20 17:24:37,#B#,472,26,2520,1,1,0,1,1,0

2017-10-20 17:24:38,
2017-10-20 17:24:38,#B#,473,26,2520,1,1,0,1,1,0

2017-10-20 17:24:39,
2017-10-20 17:24:39,#B#,474,26,2520,1,1,0,1,1,0

2017-10-20 17:24:40,
2017-10-20 17:24:40,#B#,475,26,2520,1,1,0,1,1,0

2017-10-20 17:24:41,
2017-10-20 17:24:41,#B#,476,26,2520,1,1,0,1,1,0

2017-10-20 17:24:42,
2017-10-20 17:24:43,#B#,477,26,2520,1,1,0,1,1,0

2017-10-20 17:24:44,
2017-10-20 17:24:44,#B#,478,26,2520,1,1,0,1,1,0

2017-10-20 17:24:45,
2017-10-20 17:24:45,#B#,479,26,2520,1,1,0,1,1,0

2017-10-20 17:24:46,
2017-10-20 17:24:46,#B#,480,26,2520,1,1,0,1,1,0

2017-10-20 17:24:47,
2017-10-20 17:24:47,#B#,481,26,2520,1,1,0,1,1,0

2017-10-20 17:24:48,
2017-10-20 17:24:49,#B#,482,26,2520,1,1,0,1,1,0

2017-10-20 17:24:50,
2017-10-20 17:24:50,#B#,483,26,2520,1,1,0,1,1,0

2017-10-20 17:24:51,
2017-10-20 17:24:51,#B#,484,26,2520,1,1,0,1,1,0

2017-10-20 17:24:52,
2017-10-20 17:24:52,#B#,485,26,2520,1,1,0,1,1,0

2017-10-20 17:24:53,
2017-10-20 17:24:53,#B#,486,26,2520,1,1,0,1,1,0

2017-10-20 17:24:54,
2017-10-20 17:24:55,#B#,487,26,2520,1,1,0,1,1,0

2017-10-20 17:24:56,
2017-10-20 17:24:56,#B#,488,26,2520,1,1,0,1,1,0

2017-10-20 17:24:57,
2017-10-20 17:24:57,#B#,489,26,2520,1,1,0,1,1,0

2017-10-20 17:24:58,
2017-10-20 17:24:58,#B#,490,26,2520,1,1,0,1,1,0

2017-10-20 17:24:59,
2017-10-20 17:24:59,#B#,491,26,2520,1,1,0,1,1,0

2017-10-20 17:25:00,
2017-10-20 17:25:01,#B#,492,26,2520,1,1,0,1,1,0

2017-10-20 17:25:02,
2017-10-20 17:25:02,#B#,493,26,2520,1,1,0,1,1,0

2017-10-20 17:25:03,
2017-10-20 17:25:03,#B#,494,26,2520,1,1,0,1,1,0

2017-10-20 17:25:04,
2017-10-20 17:25:04,#B#,495,26,2520,1,1,0,1,1,0

2017-10-20 17:25:05,
2017-10-20 17:25:06,#B#,496,26,2520,1,1,0,1,1,0

2017-10-20 17:25:07,
2017-10-20 17:25:07,#B#,497,26,2520,1,1,0,1,1,0

2017-10-20 17:25:08,
2017-10-20 17:25:08,#B#,498,26,2520,1,1,0,1,1,0

2017-10-20 17:25:09,
2017-10-20 17:25:09,#B#,499,26,2520,1,1,0,1,1,0

2017-10-20 17:25:10,
2017-10-20 17:25:10,#B#,500,26,2520,1,1,0,1,1,0

2017-10-20 17:25:11,
2017-10-20 17:25:12,#B#,501,26,2520,1,1,0,1,1,0

2017-10-20 17:25:13,
2017-10-20 17:25:13,#B#,502,26,2520,1,1,0,1,1,0

2017-10-20 17:25:14,
2017-10-20 17:25:14,#B#,503,26,2520,1,1,0,1,1,0

2017-10-20 17:25:15,
2017-10-20 17:25:15,#B#,504,26,2520,1,1,0,1,1,0

2017-10-20 17:25:16,
2017-10-20 17:25:16,#B#,505,26,2520,1,1,0,1,1,0

2017-10-20 17:25:17,
2017-10-20 17:25:18,#B#,506,26,2520,1,1,0,1,1,0

2017-10-20 17:25:19,
2017-10-20 17:25:19,#B#,507,26,2520,1,1,0,1,1,0

2017-10-20 17:25:20,
2017-10-20 17:25:20,#B#,508,26,2520,1,1,0,1,1,0

2017-10-20 17:25:21,
2017-10-20 17:25:21,#B#,509,26,2520,1,1,0,1,1,0

2017-10-20 17:25:22,
2017-10-20 17:25:22,#B#,510,26,2520,1,1,0,1,1,0

2017-10-20 17:25:23,
2017-10-20 17:25:24,#B#,511,26,2520,1,1,0,1,1,0

2017-10-20 17:25:25,
2017-10-20 17:25:25,#B#,512,26,2520,1,1,0,1,1,0

2017-10-20 17:25:26,
2017-10-20 17:25:26,#B#,513,26,2520,1,1,0,1,1,0

2017-10-20 17:25:27,
2017-10-20 17:25:27,#B#,514,26,2520,1,1,0,1,1,0

2017-10-20 17:25:28,
2017-10-20 17:25:28,#B#,515,26,2520,1,1,0,1,1,0

2017-10-20 17:25:29,
2017-10-20 17:25:30,#B#,516,26,2520,1,1,0,1,1,0

2017-10-20 17:25:31,
2017-10-20 17:25:31,#B#,517,26,2520,1,1,0,1,1,0

2017-10-20 17:25:32,
2017-10-20 17:25:32,#B#,518,26,2520,1,1,0,1,1,0

2017-10-20 17:25:33,
2017-10-20 17:25:33,#B#,519,26,2520,1,1,0,1,1,0

2017-10-20 17:25:34,
2017-10-20 17:25:34,#B#,520,26,2520,1,1,0,1,1,0

2017-10-20 17:25:35,
2017-10-20 17:25:36,#B#,521,26,2520,1,1,0,1,1,0

2017-10-20 17:25:37,
2017-10-20 17:25:37,#B#,522,26,2520,1,0,65535,1,0,65535

2017-10-20 17:25:38,
2017-10-20 17:25:38,#B#,523,26,2520,1,0,65535,1,0,65535

2017-10-20 17:25:39,
2017-10-20 17:25:39,#B#,524,26,2520,1,1,0,1,1,0

2017-10-20 17:25:40,
2017-10-20 17:25:40,#B#,525,26,2520,1,1,0,1,1,0

2017-10-20 17:25:41,
2017-10-20 17:25:42,#B#,526,26,2520,1,1,0,1,1,0

2017-10-20 17:25:43,
2017-10-20 17:25:43,#B#,527,26,2520,1,1,0,1,1,0

2017-10-20 17:25:44,
2017-10-20 17:25:44,#B#,528,26,2520,1,1,0,1,1,0

2017-10-20 17:25:45,
2017-10-20 17:25:45,#B#,529,26,2520,1,1,0,1,1,0

2017-10-20 17:25:46,
2017-10-20 17:25:46,#B#,530,26,2520,1,1,0,1,1,0

2017-10-20 17:25:47,
2017-10-20 17:25:48,#B#,531,26,2520,1,1,0,1,1,0

2017-10-20 17:25:49,
2017-10-20 17:25:49,#B#,532,26,2520,1,1,0,1,1,0

2017-10-20 17:25:50,
2017-10-20 17:25:50,#B#,533,26,2520,1,1,0,1,1,0

2017-10-20 17:25:51,
2017-10-20 17:25:51,#B#,534,26,2520,1,1,0,1,1,0

2017-10-20 17:25:52,
2017-10-20 17:25:53,#B#,535,26,2520,1,1,0,1,1,0

2017-10-20 17:25:54,
2017-10-20 17:25:54,#B#,536,26,2520,1,1,0,1,1,0

2017-10-20 17:25:55,
2017-10-20 17:25:55,#B#,537,26,2520,1,1,0,1,1,0

2017-10-20 17:25:56,
2017-10-20 17:25:56,#B#,538,26,2520,1,0,65535,1,0,65535

2017-10-20 17:25:57,
2017-10-20 17:25:57,#B#,539,26,2520,1,0,65535,1,0,65535

2017-10-20 17:25:58,
2017-10-20 17:25:59,#B#,540,26,2520,1,1,0,1,1,0

2017-10-20 17:26:00,
2017-10-20 17:26:00,#B#,541,26,2520,1,1,0,1,1,0

2017-10-20 17:26:01,
2017-10-20 17:26:01,#B#,542,26,2520,1,1,0,1,1,0

2017-10-20 17:26:02,
2017-10-20 17:26:02,#B#,543,26,2520,1,1,0,1,1,0

2017-10-20 17:26:03,
2017-10-20 17:26:03,#B#,544,26,2520,1,1,0,1,1,0

2017-10-20 17:26:04,
2017-10-20 17:26:05,#B#,545,26,2520,1,1,0,1,1,0

2017-10-20 17:26:06,
2017-10-20 17:26:06,#B#,546,26,2520,1,1,0,1,1,0

2017-10-20 17:26:07,
2017-10-20 17:26:07,#B#,547,26,2520,1,1,0,1,1,0

2017-10-20 17:26:08,
2017-10-20 17:26:08,#B#,548,26,2520,1,1,0,1,1,0

2017-10-20 17:26:09,
2017-10-20 17:26:09,#B#,549,26,2520,1,1,0,1,1,0

2017-10-20 17:26:10,
2017-10-20 17:26:11,#B#,550,26,2520,1,1,0,1,1,0

2017-10-20 17:26:12,
2017-10-20 17:26:12,#B#,551,26,2520,1,1,0,1,1,0

2017-10-20 17:26:13,
2017-10-20 17:26:13,#B#,552,26,2520,1,1,0,1,1,0

2017-10-20 17:26:14,
2017-10-20 17:26:14,#B#,553,26,2520,1,1,0,1,1,0

2017-10-20 17:26:15,
2017-10-20 17:26:15,#B#,554,26,2520,1,1,0,1,1,0

2017-10-20 17:26:16,
2017-10-20 17:26:17,#B#,555,26,2520,1,1,0,1,1,0

2017-10-20 17:26:18,
2017-10-20 17:26:18,#B#,556,26,2520,1,1,0,1,1,0

2017-10-20 17:26:19,
2017-10-20 17:26:19,#B#,557,26,2520,1,1,0,1,1,0

2017-10-20 17:26:20,
2017-10-20 17:26:20,#B#,558,26,2520,1,1,0,1,1,0

2017-10-20 17:26:21,
2017-10-20 17:26:21,#B#,559,26,2520,1,1,0,1,1,0

2017-10-20 17:26:22,
2017-10-20 17:26:23,#B#,560,26,2520,1,1,0,1,1,0

2017-10-20 17:26:24,
2017-10-20 17:26:24,#B#,561,26,2520,1,1,0,1,1,0

2017-10-20 17:26:25,
2017-10-20 17:26:25,#B#,562,26,2520,1,1,0,1,1,0

2017-10-20 17:26:26,
2017-10-20 17:26:26,#B#,563,26,2520,1,1,0,1,1,0

2017-10-20 17:26:27,
2017-10-20 17:26:27,#B#,564,26,2520,1,1,0,1,1,0

2017-10-20 17:26:28,
2017-10-20 17:26:29,#B#,565,26,2520,1,1,0,1,1,0

2017-10-20 17:26:30,
2017-10-20 17:26:30,#B#,566,26,2520,1,1,0,1,1,0

2017-10-20 17:26:31,
2017-10-20 17:26:31,#B#,567,26,2520,1,1,0,1,1,0

2017-10-20 17:26:32,
2017-10-20 17:26:32,#B#,568,26,2520,1,1,0,1,1,0

2017-10-20 17:26:33,
2017-10-20 17:26:34,#B#,569,26,2520,1,1,0,1,1,0

2017-10-20 17:26:35,
2017-10-20 17:26:35,#B#,570,26,2520,1,1,0,1,1,0

2017-10-20 17:26:36,
2017-10-20 17:26:36,#B#,571,26,2520,1,1,0,1,1,0

2017-10-20 17:26:37,
2017-10-20 17:26:37,#B#,572,26,2520,1,1,0,1,1,0

2017-10-20 17:26:38,
2017-10-20 17:26:38,#B#,573,26,2520,1,1,0,1,1,0

2017-10-20 17:26:39,
2017-10-20 17:26:40,#B#,574,26,2520,1,1,0,1,1,0

2017-10-20 17:26:41,
2017-10-20 17:26:41,#B#,575,26,2520,1,1,0,1,1,0

2017-10-20 17:26:42,
2017-10-20 17:26:42,#B#,576,26,2520,1,1,0,1,1,0

2017-10-20 17:26:43,
2017-10-20 17:26:43,#B#,577,26,2520,1,1,0,1,1,0

2017-10-20 17:26:44,
2017-10-20 17:26:44,#B#,578,26,2520,1,1,0,1,1,0

2017-10-20 17:26:45,
2017-10-20 17:26:46,#B#,579,26,2520,1,1,0,1,1,0

2017-10-20 17:26:47,
2017-10-20 17:26:47,#B#,580,26,2520,1,1,0,1,1,0

2017-10-20 17:26:48,
2017-10-20 17:26:48,#B#,581,26,2520,1,1,0,1,1,0

2017-10-20 17:26:49,
2017-10-20 17:26:49,#B#,582,26,2520,1,1,0,1,1,0

2017-10-20 17:26:50,
2017-10-20 17:26:50,#B#,583,26,2520,1,1,0,1,1,0

2017-10-20 17:26:51,
2017-10-20 17:26:52,#B#,584,26,2520,1,1,0,1,1,0

2017-10-20 17:26:53,
2017-10-20 17:26:53,#B#,585,26,2520,1,1,0,1,1,0

2017-10-20 17:26:54,
2017-10-20 17:26:54,#B#,586,26,2520,1,1,0,1,1,0

2017-10-20 17:26:55,
2017-10-20 17:26:55,#B#,587,26,2520,1,1,0,1,1,0

2017-10-20 17:26:56,
2017-10-20 17:26:56,#B#,588,26,2520,1,1,0,1,1,0

2017-10-20 17:26:57,
2017-10-20 17:26:58,#B#,589,26,2520,1,1,0,1,1,0

2017-10-20 17:26:59,
2017-10-20 17:26:59,#B#,590,26,2520,1,1,0,1,1,0

2017-10-20 17:27:00,
2017-10-20 17:27:00,#B#,591,26,2520,1,1,0,1,1,0

2017-10-20 17:27:01,
2017-10-20 17:27:01,#B#,592,26,2520,1,1,0,1,1,0

2017-10-20 17:27:02,
2017-10-20 17:27:02,#B#,593,26,2520,1,1,0,1,1,0

2017-10-20 17:27:03,
2017-10-20 17:27:04,#B#,594,26,2520,1,1,0,1,1,0

2017-10-20 17:27:05,
2017-10-20 17:27:05,#B#,595,26,2520,1,1,0,1,1,0

2017-10-20 17:27:06,
2017-10-20 17:27:06,#B#,596,26,2520,1,1,0,1,1,0

2017-10-20 17:27:07,
2017-10-20 17:27:07,#B#,597,26,2520,1,1,0,1,1,0

2017-10-20 17:27:08,
2017-10-20 17:27:08,#B#,598,26,2520,1,1,0,1,1,0

2017-10-20 17:27:09,
2017-10-20 17:27:10,#B#,599,26,2520,1,1,0,1,1,0

2017-10-20 17:27:11,
2017-10-20 17:27:11,#B#,600,26,2520,1,1,0,1,1,0

2017-10-20 17:27:12,
2017-10-20 17:27:12,#B#,601,26,2520,1,1,0,1,1,0

2017-10-20 17:27:13,
2017-10-20 17:27:13,#B#,602,26,2520,1,1,0,1,1,0

2017-10-20 17:27:14,
2017-10-20 17:27:14,#B#,603,26,2520,1,1,0,1,1,0

2017-10-20 17:27:15,
2017-10-20 17:27:16,#B#,604,26,2520,1,1,0,1,1,0

2017-10-20 17:27:17,
2017-10-20 17:27:17,#B#,605,26,2520,1,1,0,1,1,0

2017-10-20 17:27:18,
2017-10-20 17:27:18,#B#,606,26,2520,1,1,0,1,1,0

2017-10-20 17:27:19,
2017-10-20 17:27:19,#B#,607,26,2520,1,1,0,1,1,0

2017-10-20 17:27:20,
2017-10-20 17:27:21,#B#,608,26,2520,1,1,0,1,1,0

2017-10-20 17:27:22,
2017-10-20 17:27:22,#B#,609,26,2520,1,1,0,1,1,0

2017-10-20 17:27:23,
2017-10-20 17:27:23,#B#,610,26,2520,1,1,0,1,1,0

2017-10-20 17:27:24,
2017-10-20 17:27:24,#B#,611,26,2520,1,1,0,1,1,0

2017-10-20 17:27:25,
2017-10-20 17:27:25,#B#,612,26,2520,1,1,0,1,1,0

2017-10-20 17:27:26,
2017-10-20 17:27:27,#B#,613,26,2520,1,0,65535,1,0,65535

2017-10-20 17:27:28,
2017-10-20 17:27:28,#B#,614,26,2520,1,0,65535,1,0,65535

2017-10-20 17:27:29,
2017-10-20 17:27:29,#B#,615,26,2520,1,0,65535,1,0,65535

2017-10-20 17:27:30,
2017-10-20 17:27:30,#B#,616,26,2520,1,0,65535,1,0,65535

2017-10-20 17:27:31,
2017-10-20 17:27:31,#B#,617,26,2520,1,0,65535,1,0,65535

2017-10-20 17:27:32,
2017-10-20 17:27:33,#B#,618,26,2520,1,0,65535,1,0,65535

2017-10-20 17:27:34,
2017-10-20 17:27:34,#B#,619,26,2520,1,1,0,1,1,0

2017-10-20 17:27:35,
2017-10-20 17:27:35,#B#,620,26,2520,1,1,0,1,1,0

2017-10-20 17:27:36,
2017-10-20 17:27:36,#B#,621,26,2520,1,1,0,1,1,0

2017-10-20 17:27:37,
2017-10-20 17:27:37,#B#,622,26,2520,1,1,0,1,1,0

2017-10-20 17:27:38,
2017-10-20 17:27:39,#B#,623,26,2520,1,1,0,1,1,0

2017-10-20 17:27:40,
2017-10-20 17:27:40,#B#,624,26,2520,1,1,0,1,1,0

2017-10-20 17:27:41,
2017-10-20 17:27:41,#B#,625,26,2520,1,1,0,1,1,0

2017-10-20 17:27:42,
2017-10-20 17:27:42,#B#,626,26,2520,1,1,0,1,1,0

2017-10-20 17:27:43,
2017-10-20 17:27:43,#B#,627,26,2520,1,1,0,1,1,0

2017-10-20 17:27:44,
2017-10-20 17:27:45,#B#,628,26,2520,1,1,0,1,1,0

2017-10-20 17:27:46,
2017-10-20 17:27:46,#B#,629,26,2520,1,1,0,1,1,0

2017-10-20 17:27:47,
2017-10-20 17:27:47,#B#,630,26,2520,1,1,0,1,1,0

2017-10-20 17:27:48,
2017-10-20 17:27:48,#B#,631,26,2520,1,1,0,1,1,0

2017-10-20 17:27:49,
2017-10-20 17:27:50,#B#,632,26,2520,1,1,0,1,1,0

2017-10-20 17:27:51,
2017-10-20 17:27:51,#B#,633,26,2520,1,1,0,1,1,0

2017-10-20 17:27:52,
2017-10-20 17:27:52,#B#,634,26,2520,1,1,0,1,1,0

2017-10-20 17:27:53,
2017-10-20 17:27:53,#B#,635,26,2520,1,1,0,1,1,0

2017-10-20 17:27:54,
2017-10-20 17:27:55,
2017-10-20 17:27:56,
2017-10-20 17:27:57,
2017-10-20 17:27:58,
2017-10-20 17:27:59,
2017-10-20 17:28:00,
2017-10-20 17:28:01,
2017-10-20 17:28:02,
2017-10-20 17:28:02, BGO Set:0, GAIN Set:0

2017-10-20 17:28:03,
2017-10-20 17:28:04,
2017-10-20 17:28:05,
2017-10-20 17:28:06,
2017-10-20 17:28:07,
2017-10-20 17:28:08,
2017-10-20 17:28:09,
2017-10-20 17:28:10,
2017-10-20 17:28:11,
2017-10-20 17:28:12,
2017-10-20 17:28:13,
2017-10-20 17:28:14,
2017-10-20 17:28:15,
2017-10-20 17:28:16,
2017-10-20 17:28:17,
2017-10-20 17:28:18,
2017-10-20 17:28:19,
2017-10-20 17:28:20,
2017-10-20 17:28:21,
2017-10-20 17:28:22,
2017-10-20 17:28:23,
2017-10-20 17:28:24,
2017-10-20 17:28:25,
2017-10-20 17:28:26,
2017-10-20 17:28:27,
2017-10-20 17:28:28,
2017-10-20 17:28:29,
