#B0E00FFFFC8001AAMPT_T.

2017-10-20 19:31:00, 42,:e,:0,:ffff,:c8,:0,:1a @

2017-10-20 19:31:00,*******AM_PROTECTION_TEST*******

2017-10-20 19:31:00,*SeqNo,Samples,maxCnt,Vin1a,Vin1b,Isense0,Vin2a,Vin2b,Isense1

2017-10-20 19:31:00,#B#,0,26,2520,842,5,837,842,5,0

2017-10-20 19:31:01,
2017-10-20 19:31:02,#B#,1,26,2520,835,5,830,835,5,0

2017-10-20 19:31:03,
2017-10-20 19:31:03,#B#,2,26,2520,833,5,828,833,5,0

2017-10-20 19:31:04,
2017-10-20 19:31:04,#B#,3,26,2520,834,5,829,834,5,0

2017-10-20 19:31:05,
2017-10-20 19:31:05,#B#,4,26,2520,834,5,829,834,5,0

2017-10-20 19:31:06,
2017-10-20 19:31:06,#B#,5,26,2520,836,5,831,836,5,0

2017-10-20 19:31:07,
2017-10-20 19:31:08,#B#,6,26,2520,834,5,829,834,5,0

2017-10-20 19:31:09,
2017-10-20 19:31:09,#B#,7,26,2520,836,5,831,836,5,0

2017-10-20 19:31:10,
2017-10-20 19:31:10,#B#,8,26,2520,836,5,831,836,5,0

2017-10-20 19:31:11,
2017-10-20 19:31:11,#B#,9,26,2520,835,5,830,835,5,0

2017-10-20 19:31:12,
2017-10-20 19:31:12,#B#,10,26,2520,834,5,829,834,5,0

2017-10-20 19:31:13,
2017-10-20 19:31:14,#B#,11,26,2520,835,5,830,835,5,0

2017-10-20 19:31:15,
2017-10-20 19:31:15,#B#,12,26,2520,835,5,830,835,5,0

2017-10-20 19:31:16,
2017-10-20 19:31:16,#B#,13,26,2520,836,5,831,836,5,0

2017-10-20 19:31:17,
2017-10-20 19:31:17,#B#,14,26,2520,833,5,828,833,5,0

2017-10-20 19:31:18,
2017-10-20 19:31:18,#B#,15,26,2520,836,5,831,836,5,0

2017-10-20 19:31:19,
2017-10-20 19:31:20,#B#,16,26,2520,836,5,831,836,5,0

2017-10-20 19:31:21,
2017-10-20 19:31:21,#B#,17,26,2520,835,5,830,835,5,0

2017-10-20 19:31:22,
2017-10-20 19:31:22,#B#,18,26,2520,396,438,42,396,438,42

2017-10-20 19:31:23,
2017-10-20 19:31:23,#B#,19,26,2520,399,438,39,399,438,39

2017-10-20 19:31:24,
2017-10-20 19:31:25,#B#,20,26,2520,399,438,39,399,438,39

2017-10-20 19:31:26,
2017-10-20 19:31:26,#B#,21,26,2520,399,438,39,399,438,39

2017-10-20 19:31:27,
2017-10-20 19:31:27,#B#,22,26,2520,399,429,30,399,429,30

2017-10-20 19:31:28,
2017-10-20 19:31:28,#B#,23,26,2520,353,335,18,353,335,30

2017-10-20 19:31:29,
2017-10-20 19:31:29,#B#,24,26,2520,306,278,28,306,278,30

2017-10-20 19:31:30,
2017-10-20 19:31:31,#B#,25,26,2520,257,259,2,257,259,2

2017-10-20 19:31:32,
2017-10-20 19:31:32,#B#,26,26,2520,216,215,1,216,215,2

2017-10-20 19:31:33,
2017-10-20 19:31:33,#B#,27,26,2520,175,173,2,175,173,2

2017-10-20 19:31:34,
2017-10-20 19:31:34,#B#,28,26,2520,144,141,3,144,141,2

2017-10-20 19:31:35,
2017-10-20 19:31:35,#B#,29,26,2520,134,127,7,134,127,2

2017-10-20 19:31:36,
2017-10-20 19:31:37,#B#,30,26,2520,130,127,3,130,127,2

2017-10-20 19:31:38,
2017-10-20 19:31:38,#B#,31,26,2520,143,160,17,143,160,17

2017-10-20 19:31:39,
2017-10-20 19:31:39,#B#,32,26,2520,199,199,0,199,199,0

2017-10-20 19:31:40,
2017-10-20 19:31:40,#B#,33,26,2520,194,194,0,194,194,0

2017-10-20 19:31:41,
2017-10-20 19:31:41,#B#,34,26,2520,322,326,4,322,326,4

2017-10-20 19:31:42,
2017-10-20 19:31:43,#B#,35,26,2520,1487,3,1484,1487,3,4

2017-10-20 19:31:44,
2017-10-20 19:31:44,#B#,36,26,2520,915,3,912,915,3,4

2017-10-20 19:31:45,
2017-10-20 19:31:45,#B#,37,26,2520,850,3,847,850,3,4

2017-10-20 19:31:46,
2017-10-20 19:31:46,#B#,38,26,2520,841,1624,783,841,1624,783

2017-10-20 19:31:47,
2017-10-20 19:31:47,#B#,39,26,2520,839,1111,272,839,1111,272

2017-10-20 19:31:48,
2017-10-20 19:31:49,#B#,40,26,2520,839,937,98,839,937,98

2017-10-20 19:31:50,
2017-10-20 19:31:50,#B#,41,26,2520,837,877,40,837,877,40

2017-10-20 19:31:51,
2017-10-20 19:31:51,#B#,42,26,2520,837,854,17,837,854,17

2017-10-20 19:31:52,
2017-10-20 19:31:52,#B#,43,26,2520,837,846,9,837,846,9

2017-10-20 19:31:53,
2017-10-20 19:31:53,#B#,44,26,2520,835,843,8,835,843,8

2017-10-20 19:31:54,
2017-10-20 19:31:55,#B#,45,26,2520,837,842,5,837,842,5

2017-10-20 19:31:56,
2017-10-20 19:31:56,#B#,46,26,2520,837,840,3,837,840,3

2017-10-20 19:31:57,
2017-10-20 19:31:57,#B#,47,26,2520,836,839,3,836,839,3

2017-10-20 19:31:58,
2017-10-20 19:31:58,#B#,48,26,2520,836,840,4,836,840,4

2017-10-20 19:31:59,
2017-10-20 19:31:59,#B#,49,26,2520,835,840,5,835,840,5

2017-10-20 19:32:00,
2017-10-20 19:32:01,#B#,50,26,2520,835,839,4,835,839,4

2017-10-20 19:32:02,
2017-10-20 19:32:02,#B#,51,26,2520,836,838,2,836,838,2

2017-10-20 19:32:03,
2017-10-20 19:32:03,#B#,52,26,2520,836,838,2,836,838,2

2017-10-20 19:32:04,
2017-10-20 19:32:04,#B#,53,26,2520,836,837,1,836,837,1

2017-10-20 19:32:05,
2017-10-20 19:32:05,#B#,54,26,2520,836,838,2,836,838,2

2017-10-20 19:32:06,
2017-10-20 19:32:07,#B#,55,26,2520,836,837,1,836,837,1

2017-10-20 19:32:08,
2017-10-20 19:32:08,#B#,56,26,2520,837,837,0,837,837,0

2017-10-20 19:32:09,
2017-10-20 19:32:09,#B#,57,26,2520,835,838,3,835,838,3

2017-10-20 19:32:10,
2017-10-20 19:32:10,#B#,58,26,2520,834,838,4,834,838,4

2017-10-20 19:32:11,
2017-10-20 19:32:12,#B#,59,26,2520,836,838,2,836,838,2

2017-10-20 19:32:13,
2017-10-20 19:32:13,#B#,60,26,2520,834,838,4,834,838,4

2017-10-20 19:32:14,
2017-10-20 19:32:14,#B#,61,26,2520,836,837,1,836,837,1

2017-10-20 19:32:15,
2017-10-20 19:32:15,#B#,62,26,2520,835,837,2,835,837,2

2017-10-20 19:32:16,
2017-10-20 19:32:16,#B#,63,26,2520,834,837,3,834,837,3

2017-10-20 19:32:17,
2017-10-20 19:32:18,#B#,64,26,2520,836,837,1,836,837,1

2017-10-20 19:32:19,
2017-10-20 19:32:19,#B#,65,26,2520,836,837,1,836,837,1

2017-10-20 19:32:20,
2017-10-20 19:32:20,#B#,66,26,2520,834,836,2,834,836,2

2017-10-20 19:32:21,
2017-10-20 19:32:21,#B#,67,26,2520,836,837,1,836,837,1

2017-10-20 19:32:22,
2017-10-20 19:32:22,#B#,68,26,2520,835,836,1,835,836,1

2017-10-20 19:32:23,
2017-10-20 19:32:24,#B#,69,26,2520,836,836,0,836,836,0

2017-10-20 19:32:25,
2017-10-20 19:32:25,#B#,70,26,2520,837,837,0,837,837,0

2017-10-20 19:32:26,
2017-10-20 19:32:26,#B#,71,26,2520,835,837,2,835,837,2

2017-10-20 19:32:27,
2017-10-20 19:32:27,#B#,72,26,2520,834,836,2,834,836,2

2017-10-20 19:32:28,
2017-10-20 19:32:28,#B#,73,26,2520,836,836,0,836,836,0

2017-10-20 19:32:29,
2017-10-20 19:32:30,#B#,74,26,2520,837,837,0,837,837,0

2017-10-20 19:32:31,
2017-10-20 19:32:31,#B#,75,26,2520,834,837,3,834,837,3

2017-10-20 19:32:32,
2017-10-20 19:32:32,#B#,76,26,2520,835,1569,734,835,1569,734

2017-10-20 19:32:33,
2017-10-20 19:32:33,#B#,77,26,2520,835,3,832,835,3,734

2017-10-20 19:32:34,
2017-10-20 19:32:34,#B#,78,26,2520,836,3,833,836,3,734

2017-10-20 19:32:35,
2017-10-20 19:32:36,#B#,79,26,2520,836,3,833,836,3,734

2017-10-20 19:32:37,
2017-10-20 19:32:37,#B#,80,26,2520,836,3,833,836,3,734

2017-10-20 19:32:38,
2017-10-20 19:32:38,#B#,81,26,2520,836,3,833,836,3,734

2017-10-20 19:32:39,
2017-10-20 19:32:39,#B#,82,26,2520,836,3,833,836,3,734

2017-10-20 19:32:40,
2017-10-20 19:32:40,#B#,83,26,2520,835,3,832,835,3,734

2017-10-20 19:32:41,
2017-10-20 19:32:42,#B#,84,26,2520,834,3,831,834,3,734

2017-10-20 19:32:43,
2017-10-20 19:32:43,#B#,85,26,2520,835,3,832,835,3,734

2017-10-20 19:32:44,
2017-10-20 19:32:44,#B#,86,26,2520,835,3,832,835,3,734

2017-10-20 19:32:45,
2017-10-20 19:32:45,#B#,87,26,2520,835,3,832,835,3,734

2017-10-20 19:32:46,
2017-10-20 19:32:46,#B#,88,26,2520,834,3,831,834,3,734

2017-10-20 19:32:47,
2017-10-20 19:32:48,#B#,89,26,2520,835,138,697,835,138,734

2017-10-20 19:32:49,
2017-10-20 19:32:49,#B#,90,26,2520,401,422,21,401,422,21

2017-10-20 19:32:50,
2017-10-20 19:32:50,#B#,91,26,2520,401,422,21,401,422,21

2017-10-20 19:32:51,
2017-10-20 19:32:51,#B#,92,26,2520,401,422,21,401,422,21

2017-10-20 19:32:52,
2017-10-20 19:32:53,#B#,93,26,2520,401,422,21,401,422,21

2017-10-20 19:32:54,
2017-10-20 19:32:54,#B#,94,26,2520,400,422,22,400,422,22

2017-10-20 19:32:55,
2017-10-20 19:32:55,#B#,95,26,2520,346,341,5,346,341,22

2017-10-20 19:32:56,
2017-10-20 19:32:56,#B#,96,26,2520,308,311,3,308,311,3

2017-10-20 19:32:57,
2017-10-20 19:32:57,#B#,97,26,2520,292,297,5,292,297,5

2017-10-20 19:32:58,
2017-10-20 19:32:59,#B#,98,26,2520,300,305,5,300,305,5

2017-10-20 19:33:00,
2017-10-20 19:33:00,#B#,99,26,2520,300,305,5,300,305,5

2017-10-20 19:33:01,
2017-10-20 19:33:01,#B#,100,26,2520,300,304,4,300,304,4

2017-10-20 19:33:02,
2017-10-20 19:33:02,#B#,101,26,2520,299,303,4,299,303,4

2017-10-20 19:33:03,
2017-10-20 19:33:03,#B#,102,26,2520,300,304,4,300,304,4

2017-10-20 19:33:04,
2017-10-20 19:33:05,#B#,103,26,2520,293,296,3,293,296,3

2017-10-20 19:33:06,
2017-10-20 19:33:06,#B#,104,26,2520,320,329,9,320,329,9

2017-10-20 19:33:07,
2017-10-20 19:33:07,#B#,105,26,2520,375,429,54,375,429,54

2017-10-20 19:33:08,
2017-10-20 19:33:08,#B#,106,26,2520,407,437,30,407,437,30

2017-10-20 19:33:09,
2017-10-20 19:33:09,#B#,107,26,2520,401,438,37,401,438,37

2017-10-20 19:33:10,
2017-10-20 19:33:11,#B#,108,26,2520,401,438,37,401,438,37

2017-10-20 19:33:12,
2017-10-20 19:33:12,#B#,109,26,2520,401,438,37,401,438,37

2017-10-20 19:33:13,
2017-10-20 19:33:13,#B#,110,26,2520,401,438,37,401,438,37

2017-10-20 19:33:14,
2017-10-20 19:33:14,#B#,111,26,2520,401,438,37,401,438,37

2017-10-20 19:33:15,
2017-10-20 19:33:15,#B#,112,26,2520,401,438,37,401,438,37

2017-10-20 19:33:16,
2017-10-20 19:33:17,#B#,113,26,2520,401,438,37,401,438,37

2017-10-20 19:33:18,
2017-10-20 19:33:18,#B#,114,26,2520,401,438,37,401,438,37

2017-10-20 19:33:19,
2017-10-20 19:33:19,#B#,115,26,2520,401,438,37,401,438,37

2017-10-20 19:33:20,
2017-10-20 19:33:20,#B#,116,26,2520,1983,294,1689,1983,294,37

2017-10-20 19:33:21,
2017-10-20 19:33:21,#B#,117,26,2520,1015,191,824,1015,191,37

2017-10-20 19:33:22,
2017-10-20 19:33:23,#B#,118,26,2520,871,241,630,871,241,37

2017-10-20 19:33:24,
2017-10-20 19:33:24,#B#,119,26,2520,851,237,614,851,237,37

2017-10-20 19:33:25,
2017-10-20 19:33:25,#B#,120,26,2520,849,228,621,849,228,37

2017-10-20 19:33:26,
2017-10-20 19:33:26,#B#,121,26,2520,845,224,621,845,224,37

2017-10-20 19:33:27,
2017-10-20 19:33:27,#B#,122,26,2520,841,49,792,841,49,37

2017-10-20 19:33:28,
2017-10-20 19:33:29,#B#,123,26,2520,839,1,838,839,1,37

2017-10-20 19:33:30,
2017-10-20 19:33:30,#B#,124,26,2520,838,3,835,838,3,37

2017-10-20 19:33:31,
2017-10-20 19:33:31,#B#,125,26,2520,837,3,834,837,3,37

2017-10-20 19:33:32,
2017-10-20 19:33:32,#B#,126,26,2520,836,362,474,836,362,37

2017-10-20 19:33:33,
2017-10-20 19:33:33,#B#,127,26,2520,375,389,14,375,389,14

2017-10-20 19:33:34,
2017-10-20 19:33:35,#B#,128,26,2520,316,288,28,316,288,14

2017-10-20 19:33:36,
2017-10-20 19:33:36,#B#,129,26,2520,255,230,25,255,230,14

2017-10-20 19:33:37,
2017-10-20 19:33:37,#B#,130,26,2520,210,210,0,210,210,0

2017-10-20 19:33:38,
2017-10-20 19:33:38,#B#,131,26,2520,181,171,10,181,171,0

2017-10-20 19:33:39,
2017-10-20 19:33:40,#B#,132,26,2520,154,144,10,154,144,0

2017-10-20 19:33:41,
2017-10-20 19:33:41,#B#,133,26,2520,129,125,4,129,125,0

2017-10-20 19:33:42,
2017-10-20 19:33:42,#B#,134,26,2520,125,123,2,125,123,0

2017-10-20 19:33:43,
2017-10-20 19:33:43,#B#,135,26,2520,125,122,3,125,122,0

2017-10-20 19:33:44,
2017-10-20 19:33:44,#B#,136,26,2520,109,105,4,109,105,0

2017-10-20 19:33:45,
2017-10-20 19:33:46,#B#,137,26,2520,107,105,2,107,105,0

2017-10-20 19:33:47,
2017-10-20 19:33:47,#B#,138,26,2520,103,99,4,103,99,0

2017-10-20 19:33:48,
2017-10-20 19:33:48,#B#,139,26,2520,97,94,3,97,94,0

2017-10-20 19:33:49,
2017-10-20 19:33:49,#B#,140,26,2520,94,91,3,94,91,0

2017-10-20 19:33:50,
2017-10-20 19:33:50,#B#,141,26,2520,93,91,2,93,91,0

2017-10-20 19:33:51,
2017-10-20 19:33:52,#B#,142,26,2520,92,88,4,92,88,0

2017-10-20 19:33:53,
2017-10-20 19:33:53,#B#,143,26,2520,87,85,2,87,85,0

2017-10-20 19:33:54,
2017-10-20 19:33:54,#B#,144,26,2520,87,85,2,87,85,0

2017-10-20 19:33:55,
2017-10-20 19:33:55,#B#,145,26,2520,85,82,3,85,82,0

2017-10-20 19:33:56,
2017-10-20 19:33:56,#B#,146,26,2520,80,77,3,80,77,0

2017-10-20 19:33:57,
2017-10-20 19:33:58,#B#,147,26,2520,77,75,2,77,75,0

2017-10-20 19:33:59,
2017-10-20 19:33:59,#B#,148,26,2520,77,76,1,77,76,0

2017-10-20 19:34:00,
2017-10-20 19:34:00,#B#,149,26,2520,77,77,0,77,77,0

2017-10-20 19:34:01,
2017-10-20 19:34:01,#B#,150,26,2520,111,128,17,111,128,17

2017-10-20 19:34:02,
2017-10-20 19:34:02,#B#,151,26,2520,273,281,8,273,281,8

2017-10-20 19:34:03,
2017-10-20 19:34:04,#B#,152,26,2520,1932,0,1932,1932,0,8

2017-10-20 19:34:05,
2017-10-20 19:34:05,#B#,153,26,2520,965,0,965,965,0,8

2017-10-20 19:34:06,
2017-10-20 19:34:06,#B#,154,26,2520,859,0,859,859,0,8

2017-10-20 19:34:07,
2017-10-20 19:34:07,#B#,155,26,2520,842,0,842,842,0,8

2017-10-20 19:34:08,
2017-10-20 19:34:08,#B#,156,26,2520,841,3,838,841,3,8

2017-10-20 19:34:09,
2017-10-20 19:34:10,#B#,157,26,2520,358,313,45,358,313,8

2017-10-20 19:34:11,
2017-10-20 19:34:11,#B#,158,26,2520,265,246,19,265,246,8

2017-10-20 19:34:12,
2017-10-20 19:34:12,#B#,159,26,2520,231,226,5,231,226,8

2017-10-20 19:34:13,
2017-10-20 19:34:13,#B#,160,26,2520,225,225,0,225,225,0

2017-10-20 19:34:14,
2017-10-20 19:34:14,#B#,161,26,2520,225,225,0,225,225,0

2017-10-20 19:34:15,
2017-10-20 19:34:16,#B#,162,26,2520,327,334,7,327,334,7

2017-10-20 19:34:17,
2017-10-20 19:34:17,#B#,163,26,2520,381,121,260,381,121,7

2017-10-20 19:34:18,
2017-10-20 19:34:18,#B#,164,26,2520,1597,3,1594,1597,3,7

2017-10-20 19:34:19,
2017-10-20 19:34:19,#B#,165,26,2520,927,3,924,927,3,7

2017-10-20 19:34:20,
2017-10-20 19:34:21,#B#,166,26,2520,850,3,847,850,3,7

2017-10-20 19:34:22,
2017-10-20 19:34:22,#B#,167,26,2520,842,229,613,842,229,7

2017-10-20 19:34:23,
2017-10-20 19:34:23,#B#,168,26,2520,844,211,633,844,211,7

2017-10-20 19:34:24,
2017-10-20 19:34:24,#B#,169,26,2520,842,323,519,842,323,7

2017-10-20 19:34:25,
2017-10-20 19:34:25,#B#,170,26,2520,1456,376,1080,1456,376,7

2017-10-20 19:34:26,
2017-10-20 19:34:27,#B#,171,26,2520,65,388,323,65,388,323

2017-10-20 19:34:28,
2017-10-20 19:34:28,#B#,172,26,2520,64,388,324,64,388,324

2017-10-20 19:34:29,
2017-10-20 19:34:29,#B#,173,26,2520,63,388,325,63,388,325

2017-10-20 19:34:30,
2017-10-20 19:34:30,#B#,174,26,2520,58,388,330,58,388,330

2017-10-20 19:34:31,
2017-10-20 19:34:31,#B#,175,26,2520,345,412,67,345,412,67

2017-10-20 19:34:32,
2017-10-20 19:34:33,#B#,176,26,2520,371,431,60,371,431,60

2017-10-20 19:34:34,
2017-10-20 19:34:34,#B#,177,26,2520,402,438,36,402,438,36

2017-10-20 19:34:35,
2017-10-20 19:34:35,#B#,178,26,2520,400,438,38,400,438,38

2017-10-20 19:34:36,
2017-10-20 19:34:36,#B#,179,26,2520,400,438,38,400,438,38

2017-10-20 19:34:37,
2017-10-20 19:34:37,#B#,180,26,2520,400,438,38,400,438,38

2017-10-20 19:34:38,
2017-10-20 19:34:39,#B#,181,26,2520,400,438,38,400,438,38

2017-10-20 19:34:40,
2017-10-20 19:34:40,#B#,182,26,2520,400,438,38,400,438,38

2017-10-20 19:34:41,
2017-10-20 19:34:41,#B#,183,26,2520,400,438,38,400,438,38

2017-10-20 19:34:42,
2017-10-20 19:34:42,#B#,184,26,2520,400,438,38,400,438,38

2017-10-20 19:34:43,
2017-10-20 19:34:43,#B#,185,26,2520,400,438,38,400,438,38

2017-10-20 19:34:44,
2017-10-20 19:34:45,#B#,186,26,2520,400,438,38,400,438,38

2017-10-20 19:34:46,
2017-10-20 19:34:46,#B#,187,26,2520,400,438,38,400,438,38

2017-10-20 19:34:47,
2017-10-20 19:34:47,#B#,188,26,2520,400,438,38,400,438,38

2017-10-20 19:34:48,
2017-10-20 19:34:48,#B#,189,26,2520,400,438,38,400,438,38

2017-10-20 19:34:49,
2017-10-20 19:34:49,#B#,190,26,2520,400,438,38,400,438,38

2017-10-20 19:34:50,
2017-10-20 19:34:51,#B#,191,26,2520,400,438,38,400,438,38

2017-10-20 19:34:52,
2017-10-20 19:34:52,#B#,192,26,2520,400,438,38,400,438,38

2017-10-20 19:34:53,
2017-10-20 19:34:53,#B#,193,26,2520,400,438,38,400,438,38

2017-10-20 19:34:54,
2017-10-20 19:34:54,#B#,194,26,2520,400,438,38,400,438,38

2017-10-20 19:34:55,
2017-10-20 19:34:55,#B#,195,26,2520,400,438,38,400,438,38

2017-10-20 19:34:56,
2017-10-20 19:34:57,#B#,196,26,2520,400,438,38,400,438,38

2017-10-20 19:34:58,
2017-10-20 19:34:58,#B#,197,26,2520,400,438,38,400,438,38

2017-10-20 19:34:59,
2017-10-20 19:34:59,#B#,198,26,2520,400,438,38,400,438,38

2017-10-20 19:35:00,
2017-10-20 19:35:00,#B#,199,26,2520,400,438,38,400,438,38

2017-10-20 19:35:01,
2017-10-20 19:35:02,#B#,200,26,2520,400,438,38,400,438,38

2017-10-20 19:35:03,
2017-10-20 19:35:03,#B#,201,26,2520,400,438,38,400,438,38

2017-10-20 19:35:04,
2017-10-20 19:35:04,#B#,202,26,2520,400,438,38,400,438,38

2017-10-20 19:35:05,
2017-10-20 19:35:05,#B#,203,26,2520,400,438,38,400,438,38

2017-10-20 19:35:06,
2017-10-20 19:35:06,#B#,204,26,2520,400,438,38,400,438,38

2017-10-20 19:35:07,
2017-10-20 19:35:08,#B#,205,26,2520,400,438,38,400,438,38

2017-10-20 19:35:09,
2017-10-20 19:35:09,#B#,206,26,2520,400,438,38,400,438,38

2017-10-20 19:35:10,
2017-10-20 19:35:10,#B#,207,26,2520,400,438,38,400,438,38

2017-10-20 19:35:11,
2017-10-20 19:35:11,#B#,208,26,2520,400,438,38,400,438,38

2017-10-20 19:35:12,
2017-10-20 19:35:12,#B#,209,26,2520,400,438,38,400,438,38

2017-10-20 19:35:13,
2017-10-20 19:35:14,#B#,210,26,2520,400,438,38,400,438,38

2017-10-20 19:35:15,
2017-10-20 19:35:15,#B#,211,26,2520,400,438,38,400,438,38

2017-10-20 19:35:16,
2017-10-20 19:35:16,#B#,212,26,2520,400,438,38,400,438,38

2017-10-20 19:35:17,
2017-10-20 19:35:17,#B#,213,26,2520,400,438,38,400,438,38

2017-10-20 19:35:18,
2017-10-20 19:35:18,#B#,214,26,2520,400,438,38,400,438,38

2017-10-20 19:35:19,
2017-10-20 19:35:20,#B#,215,26,2520,400,438,38,400,438,38

2017-10-20 19:35:21,
2017-10-20 19:35:21,#B#,216,26,2520,400,438,38,400,438,38

2017-10-20 19:35:22,
2017-10-20 19:35:22,#B#,217,26,2520,400,438,38,400,438,38

2017-10-20 19:35:23,
2017-10-20 19:35:23,#B#,218,26,2520,400,438,38,400,438,38

2017-10-20 19:35:24,
2017-10-20 19:35:24,#B#,219,26,2520,400,438,38,400,438,38

2017-10-20 19:35:25,
2017-10-20 19:35:26,#B#,220,26,2520,400,438,38,400,438,38

2017-10-20 19:35:27,
2017-10-20 19:35:27,#B#,221,26,2520,400,438,38,400,438,38

2017-10-20 19:35:28,
2017-10-20 19:35:28,#B#,222,26,2520,400,438,38,400,438,38

2017-10-20 19:35:29,
2017-10-20 19:35:29,#B#,223,26,2520,400,438,38,400,438,38

2017-10-20 19:35:30,
2017-10-20 19:35:31,#B#,224,26,2520,400,438,38,400,438,38

2017-10-20 19:35:32,
2017-10-20 19:35:32,#B#,225,26,2520,400,438,38,400,438,38

2017-10-20 19:35:33,
2017-10-20 19:35:33,#B#,226,26,2520,400,438,38,400,438,38

2017-10-20 19:35:34,
2017-10-20 19:35:34,#B#,227,26,2520,400,438,38,400,438,38

2017-10-20 19:35:35,
2017-10-20 19:35:35,#B#,228,26,2520,400,438,38,400,438,38

2017-10-20 19:35:36,
2017-10-20 19:35:37,
2017-10-20 19:35:38,
2017-10-20 19:35:39,
2017-10-20 19:35:40,
2017-10-20 19:35:41,
2017-10-20 19:35:42,
