#B0E00FFFFC801AMPT_Tst.

2017-10-20 16:14:38, 42,:e,:0,:ffff,:c8,:1,:1a1 @

2017-10-20 16:14:39,#B#,0,0,157,0,0,0,0,0,0

2017-10-20 16:14:40,
2017-10-20 16:14:40,#B#,1,0,157,0,0,0,0,0,0

2017-10-20 16:14:41,
2017-10-20 16:14:41,#B#,2,0,157,0,0,0,0,0,0

2017-10-20 16:14:42,
2017-10-20 16:14:42,#B#,3,0,157,0,0,0,0,0,0

2017-10-20 16:14:43,
2017-10-20 16:14:43,#B#,4,0,157,0,0,0,0,0,0

2017-10-20 16:14:44,
2017-10-20 16:14:45,#B#,5,0,157,0,0,0,0,0,0

2017-10-20 16:14:46,
2017-10-20 16:14:46,#B#,6,0,157,0,0,0,0,0,0

2017-10-20 16:14:47,
2017-10-20 16:14:47,#B#,7,0,157,0,0,0,0,0,0

2017-10-20 16:14:48,
2017-10-20 16:14:48,#B#,8,0,157,0,0,0,0,0,0

2017-10-20 16:14:49,
2017-10-20 16:14:49,#B#,9,0,157,0,0,0,0,0,0

2017-10-20 16:14:50,
2017-10-20 16:14:51,#B#,10,0,157,0,0,0,0,0,0

2017-10-20 16:14:52,
2017-10-20 16:14:52,#B#,11,0,157,0,0,0,0,0,0

2017-10-20 16:14:53,
2017-10-20 16:14:53,#B#,12,0,157,0,0,0,0,0,0

2017-10-20 16:14:54,
2017-10-20 16:14:54,#B#,13,0,157,0,0,0,0,0,0

2017-10-20 16:14:55,
2017-10-20 16:14:55,#B#,14,0,157,0,0,0,0,0,0

2017-10-20 16:14:56,
2017-10-20 16:14:57,#B#,15,0,157,0,0,0,0,0,0

2017-10-20 16:14:58,
2017-10-20 16:14:58,#B#,16,0,157,0,0,0,0,0,0

2017-10-20 16:14:59,
2017-10-20 16:14:59,#B#,17,0,157,0,0,0,0,0,0

2017-10-20 16:15:00,
2017-10-20 16:15:00,#B#,18,0,157,0,0,0,0,0,0

2017-10-20 16:15:01,
2017-10-20 16:15:01,#B#,19,0,157,0,0,0,0,0,0

2017-10-20 16:15:02,
2017-10-20 16:15:03,#B#,20,0,157,0,0,0,0,0,0

2017-10-20 16:15:04,
2017-10-20 16:15:04,#B#,21,0,157,0,0,0,0,0,0

2017-10-20 16:15:05,
2017-10-20 16:15:05,#B#,22,0,157,0,0,0,0,0,0

2017-10-20 16:15:06,
2017-10-20 16:15:06,#B#,23,0,157,0,0,0,0,0,0

2017-10-20 16:15:07,
2017-10-20 16:15:07,#B#,24,0,157,0,0,0,0,0,0

2017-10-20 16:15:08,
2017-10-20 16:15:09,#B#,25,0,157,0,0,0,0,0,0

2017-10-20 16:15:10,
2017-10-20 16:15:10,#B#,26,0,157,0,0,0,0,0,0

2017-10-20 16:15:11,
2017-10-20 16:15:11,#B#,27,0,157,0,0,0,0,0,0

2017-10-20 16:15:12,
2017-10-20 16:15:12,#B#,28,0,157,0,0,0,0,0,0

2017-10-20 16:15:13,
2017-10-20 16:15:14,#B#,29,0,157,0,0,0,0,0,0

2017-10-20 16:15:15,
2017-10-20 16:15:15,#B#,30,0,157,0,0,0,0,0,0

2017-10-20 16:15:16,
2017-10-20 16:15:16,#B#,31,0,157,0,0,0,0,0,0

2017-10-20 16:15:17,
2017-10-20 16:15:17,#B#,32,0,157,0,0,0,0,0,0

2017-10-20 16:15:18,
2017-10-20 16:15:18,#B#,33,0,157,0,0,0,0,0,0

2017-10-20 16:15:19,
2017-10-20 16:15:20,#B#,34,0,157,0,0,0,0,0,0

2017-10-20 16:15:21,
2017-10-20 16:15:21,#B#,35,0,157,0,0,0,0,0,0

2017-10-20 16:15:22,
2017-10-20 16:15:22,#B#,36,0,157,0,0,0,0,0,0

2017-10-20 16:15:23,
2017-10-20 16:15:23,#B#,37,0,157,0,0,0,0,0,0

2017-10-20 16:15:24,
2017-10-20 16:15:24,#B#,38,0,157,0,0,0,0,0,0

2017-10-20 16:15:25,
2017-10-20 16:15:26,#B#,39,0,157,0,0,0,0,0,0

2017-10-20 16:15:27,
2017-10-20 16:15:27,#B#,40,0,157,0,0,0,0,0,0

2017-10-20 16:15:28,
2017-10-20 16:15:28,#B#,41,0,157,0,0,0,0,0,0

2017-10-20 16:15:29,
2017-10-20 16:15:29,#B#,42,0,157,0,0,0,0,0,0

2017-10-20 16:15:30,
2017-10-20 16:15:30,#B#,43,0,157,0,0,0,0,0,0

2017-10-20 16:15:31,
2017-10-20 16:15:32,#B#,44,0,157,0,0,0,0,0,0

2017-10-20 16:15:33,
2017-10-20 16:15:33,#B#,45,0,157,0,0,0,0,0,0

2017-10-20 16:15:34,
2017-10-20 16:15:34,#B#,46,0,157,0,0,0,0,0,0

2017-10-20 16:15:35,
2017-10-20 16:15:35,#B#,47,0,157,0,0,0,0,0,0

2017-10-20 16:15:36,
2017-10-20 16:15:36,#B#,48,0,157,0,0,0,0,0,0

2017-10-20 16:15:37,
2017-10-20 16:15:38,#B#,49,0,157,0,0,0,0,0,0

2017-10-20 16:15:39,
2017-10-20 16:15:39,#B#,50,0,157,0,0,0,0,0,0

2017-10-20 16:15:40,
2017-10-20 16:15:40,#B#,51,0,157,0,0,0,0,0,0

2017-10-20 16:15:41,
2017-10-20 16:15:41,#B#,52,0,157,0,0,0,0,0,0

2017-10-20 16:15:42,
2017-10-20 16:15:42,#B#,53,0,157,0,0,0,0,0,0

2017-10-20 16:15:43,
2017-10-20 16:15:44,#B#,54,0,157,0,0,0,0,0,0

2017-10-20 16:15:45,
2017-10-20 16:15:45,#B#,55,0,157,0,0,0,0,0,0

2017-10-20 16:15:46,
2017-10-20 16:15:46,#B#,56,0,157,0,0,0,0,0,0

2017-10-20 16:15:47,
2017-10-20 16:15:47,#B#,57,0,157,0,0,0,0,0,0

2017-10-20 16:15:48,
2017-10-20 16:15:48,#B#,58,0,157,0,0,0,0,0,0

2017-10-20 16:15:49,
2017-10-20 16:15:50,#B#,59,0,157,0,0,0,0,0,0

2017-10-20 16:15:51,
2017-10-20 16:15:51,#B#,60,0,157,0,0,0,0,0,0

2017-10-20 16:15:52,
2017-10-20 16:15:52,#B#,61,0,157,0,0,0,0,0,0

2017-10-20 16:15:53,
2017-10-20 16:15:53,#B#,62,0,157,0,0,0,0,0,0

2017-10-20 16:15:54,
2017-10-20 16:15:54,#B#,63,0,157,0,0,0,0,0,0

2017-10-20 16:15:55,
2017-10-20 16:15:56,#B#,64,0,157,0,0,0,0,0,0

2017-10-20 16:15:57,
2017-10-20 16:15:57,#B#,65,0,157,0,0,0,0,0,0

2017-10-20 16:15:58,
2017-10-20 16:15:58,#B#,66,0,157,0,0,0,0,0,0

2017-10-20 16:15:59,
2017-10-20 16:15:59,#B#,67,0,157,0,0,0,0,0,0

2017-10-20 16:16:00,
2017-10-20 16:16:00,#B#,68,0,157,0,0,0,0,0,0

2017-10-20 16:16:01,
2017-10-20 16:16:02,#B#,69,0,157,0,0,0,0,0,0

2017-10-20 16:16:03,
2017-10-20 16:16:03,#B#,70,0,157,-1,2499,63036,-1,2499,63036

2017-10-20 16:16:04,
2017-10-20 16:16:04,#B#,71,0,157,-1,2499,63036,-1,2499,63036

2017-10-20 16:16:05,
2017-10-20 16:16:05,#B#,72,0,157,-1,2499,63036,-1,2499,63036

2017-10-20 16:16:06,
2017-10-20 16:16:06,#B#,73,0,157,-1,2499,63036,-1,2499,63036

2017-10-20 16:16:08,
2017-10-20 16:16:08,#B#,74,0,157,-1,2499,63036,-1,2499,63036

2017-10-20 16:16:09,
2017-10-20 16:16:09,#B#,75,0,157,-1,2499,63036,-1,2499,63036

2017-10-20 16:16:10,
2017-10-20 16:16:10,#B#,76,0,157,-1,2499,63036,-1,2499,63036

2017-10-20 16:16:11,
2017-10-20 16:16:11,#B#,77,0,157,2,2,0,2,2,0

2017-10-20 16:16:12,
2017-10-20 16:16:13,#B#,78,0,157,0,0,0,0,0,0

2017-10-20 16:16:14,
2017-10-20 16:16:14,#B#,79,0,157,0,0,0,0,0,0

2017-10-20 16:16:15,
2017-10-20 16:16:15,#B#,80,0,157,0,0,0,0,0,0

2017-10-20 16:16:16,
2017-10-20 16:16:16,#B#,81,0,157,0,0,0,0,0,0

2017-10-20 16:16:17,
2017-10-20 16:16:17,#B#,82,0,157,-1,2499,63036,-1,2499,63036

2017-10-20 16:16:18,
2017-10-20 16:16:19,#B#,83,0,157,-1,2499,63036,-1,2499,63036

2017-10-20 16:16:20,
2017-10-20 16:16:20,#B#,84,0,157,-1,2499,63036,-1,2499,63036

2017-10-20 16:16:21,
2017-10-20 16:16:21,#B#,85,0,157,-1,2499,63036,-1,2499,63036

2017-10-20 16:16:22,
2017-10-20 16:16:22,#B#,86,0,157,-1,2499,63036,-1,2499,63036

2017-10-20 16:16:23,
2017-10-20 16:16:23,#B#,87,0,157,-1,2499,63036,-1,2499,63036

2017-10-20 16:16:24,
2017-10-20 16:16:25,#B#,88,0,157,-1,2499,63036,-1,2499,63036

2017-10-20 16:16:26,
2017-10-20 16:16:26,#B#,89,0,157,-1,2499,63036,-1,2499,63036

2017-10-20 16:16:27,
2017-10-20 16:16:27,#B#,90,0,157,-1,2499,63036,-1,2499,63036

2017-10-20 16:16:28,
2017-10-20 16:16:28,#B#,91,0,157,-1,2499,63036,-1,2499,63036

2017-10-20 16:16:29,
2017-10-20 16:16:29,#B#,92,0,157,-1,2499,63036,-1,2499,63036

2017-10-20 16:16:30,
2017-10-20 16:16:31,#B#,93,0,157,-1,2499,63036,-1,2499,63036

2017-10-20 16:16:32,
2017-10-20 16:16:32,#B#,94,0,157,-1,2499,63036,-1,2499,63036

2017-10-20 16:16:33,
2017-10-20 16:16:33,#B#,95,0,157,0,1,65535,0,1,65535

2017-10-20 16:16:34,
2017-10-20 16:16:34,#B#,96,0,157,0,2500,63036,0,2500,63036

2017-10-20 16:16:35,
2017-10-20 16:16:35,#B#,97,0,157,-1,2,65533,-1,2,65533

2017-10-20 16:16:36,
2017-10-20 16:16:37,#B#,98,0,157,0,0,0,0,0,0

2017-10-20 16:16:38,
2017-10-20 16:16:38,#B#,99,0,157,0,0,0,0,0,0

2017-10-20 16:16:39,
2017-10-20 16:16:39,#B#,100,0,157,-1,2499,63036,-1,2499,63036

2017-10-20 16:16:40,
2017-10-20 16:16:40,#B#,101,0,157,-1,2499,63036,-1,2499,63036

2017-10-20 16:16:41,
2017-10-20 16:16:41,#B#,102,0,157,0,0,0,0,0,0

2017-10-20 16:16:42,
2017-10-20 16:16:43,#B#,103,0,157,0,0,0,0,0,0

2017-10-20 16:16:44,
2017-10-20 16:16:44,#B#,104,0,157,0,0,0,0,0,0

2017-10-20 16:16:45,
2017-10-20 16:16:45,#B#,105,0,157,-87,2415,63034,-87,2415,63034

2017-10-20 16:16:46,
2017-10-20 16:16:46,#B#,106,0,157,-82,2420,63034,-82,2420,63034

2017-10-20 16:16:47,
2017-10-20 16:16:47,#B#,107,0,157,-79,2421,63036,-79,2421,63036

2017-10-20 16:16:48,
2017-10-20 16:16:49,#B#,108,0,157,-79,2420,63037,-79,2420,63037

2017-10-20 16:16:50,
2017-10-20 16:16:50,#B#,109,0,157,-79,2420,63037,-79,2420,63037

2017-10-20 16:16:51,
2017-10-20 16:16:51,#B#,110,0,157,-80,2420,63036,-80,2420,63036

2017-10-20 16:16:52,
2017-10-20 16:16:52,#B#,111,0,157,-80,2420,63036,-80,2420,63036

2017-10-20 16:16:53,
2017-10-20 16:16:54,#B#,112,0,157,-80,2420,63036,-80,2420,63036

2017-10-20 16:16:55,
2017-10-20 16:16:55,#B#,113,0,157,-80,2420,63036,-80,2420,63036

2017-10-20 16:16:56,
2017-10-20 16:16:56,#B#,114,0,157,-80,2420,63036,-80,2420,63036

2017-10-20 16:16:57,
2017-10-20 16:16:57,#B#,115,0,157,-80,2420,63036,-80,2420,63036

2017-10-20 16:16:58,
2017-10-20 16:16:58,#B#,116,0,157,-80,2420,63036,-80,2420,63036

2017-10-20 16:16:59,
2017-10-20 16:17:00,#B#,117,0,157,-80,2420,63036,-80,2420,63036

2017-10-20 16:17:01,
2017-10-20 16:17:01,#B#,118,0,157,-80,2420,63036,-80,2420,63036

2017-10-20 16:17:02,
2017-10-20 16:17:02,#B#,119,0,157,-80,2420,63036,-80,2420,63036

2017-10-20 16:17:03,
2017-10-20 16:17:03,#B#,120,0,157,-80,2420,63036,-80,2420,63036

2017-10-20 16:17:04,
2017-10-20 16:17:04,#B#,121,0,157,-80,2420,63036,-80,2420,63036

2017-10-20 16:17:05,
2017-10-20 16:17:06,#B#,122,0,157,-80,2420,63036,-80,2420,63036

2017-10-20 16:17:07,
2017-10-20 16:17:07,#B#,123,0,157,-80,2420,63036,-80,2420,63036

2017-10-20 16:17:08,
2017-10-20 16:17:08,#B#,124,0,157,-80,2420,63036,-80,2420,63036

2017-10-20 16:17:09,
2017-10-20 16:17:09,#B#,125,0,157,-80,2420,63036,-80,2420,63036

2017-10-20 16:17:10,
2017-10-20 16:17:10,#B#,126,0,157,-80,2420,63036,-80,2420,63036

2017-10-20 16:17:11,
2017-10-20 16:17:12,#B#,127,0,157,-80,2420,63036,-80,2420,63036

2017-10-20 16:17:13,
2017-10-20 16:17:13,#B#,128,0,157,-80,2420,63036,-80,2420,63036

2017-10-20 16:17:14,
2017-10-20 16:17:14,#B#,129,0,157,-80,2420,63036,-80,2420,63036

2017-10-20 16:17:15,
2017-10-20 16:17:15,#B#,130,0,157,-80,2420,63036,-80,2420,63036

2017-10-20 16:17:16,
2017-10-20 16:17:16,#B#,131,0,157,-80,2420,63036,-80,2420,63036

2017-10-20 16:17:17,
2017-10-20 16:17:18,#B#,132,0,157,-80,2420,63036,-80,2420,63036

2017-10-20 16:17:19,
2017-10-20 16:17:19,#B#,133,0,157,-80,2420,63036,-80,2420,63036

2017-10-20 16:17:20,
2017-10-20 16:17:20,#B#,134,0,157,-80,2420,63036,-80,2420,63036

2017-10-20 16:17:21,
2017-10-20 16:17:21,#B#,135,0,157,-80,2420,63036,-80,2420,63036

2017-10-20 16:17:22,
2017-10-20 16:17:22,#B#,136,0,157,-80,2420,63036,-80,2420,63036

2017-10-20 16:17:23,
2017-10-20 16:17:24,#B#,137,0,157,-80,2420,63036,-80,2420,63036

2017-10-20 16:17:25,
2017-10-20 16:17:25,#B#,138,0,157,-80,2420,63036,-80,2420,63036

2017-10-20 16:17:26,
2017-10-20 16:17:26,#B#,139,0,157,-80,2420,63036,-80,2420,63036

2017-10-20 16:17:27,
2017-10-20 16:17:27,#B#,140,0,157,-80,2420,63036,-80,2420,63036

2017-10-20 16:17:28,
2017-10-20 16:17:28,#B#,141,0,157,-80,2420,63036,-80,2420,63036

2017-10-20 16:17:30,
2017-10-20 16:17:30,#B#,142,0,157,-80,2420,63036,-80,2420,63036

2017-10-20 16:17:31,
2017-10-20 16:17:31,#B#,143,0,157,-80,2420,63036,-80,2420,63036

2017-10-20 16:17:32,
2017-10-20 16:17:32,#B#,144,0,157,-80,2419,63037,-80,2419,63037

2017-10-20 16:17:33,
2017-10-20 16:17:33,#B#,145,0,157,-80,2419,63037,-80,2419,63037

2017-10-20 16:17:34,
2017-10-20 16:17:35,#B#,146,0,157,-80,2419,63037,-80,2419,63037

2017-10-20 16:17:36,
2017-10-20 16:17:36,#B#,147,0,157,-80,2419,63037,-80,2419,63037

2017-10-20 16:17:37,
2017-10-20 16:17:37,#B#,148,0,157,-80,2419,63037,-80,2419,63037

2017-10-20 16:17:38,
2017-10-20 16:17:38,#B#,149,0,157,-80,2419,63037,-80,2419,63037

2017-10-20 16:17:39,
2017-10-20 16:17:39,#B#,150,0,157,-80,2419,63037,-80,2419,63037

2017-10-20 16:17:40,
2017-10-20 16:17:41,#B#,151,0,157,-80,2419,63037,-80,2419,63037

2017-10-20 16:17:42,
2017-10-20 16:17:42,#B#,152,0,157,-81,2419,63036,-81,2419,63036

2017-10-20 16:17:43,
2017-10-20 16:17:43,#B#,153,0,157,-81,2419,63036,-81,2419,63036

2017-10-20 16:17:44,
2017-10-20 16:17:44,#B#,154,0,157,-81,2419,63036,-81,2419,63036

2017-10-20 16:17:45,
2017-10-20 16:17:45,#B#,155,0,157,-83,2417,63036,-83,2417,63036

2017-10-20 16:17:46,
2017-10-20 16:17:47,#B#,156,0,157,-110,2390,63036,-110,2390,63036

2017-10-20 16:17:48,
2017-10-20 16:17:48,#B#,157,0,157,-120,2380,63036,-120,2380,63036

2017-10-20 16:17:48,*******DONE*******#

Exiting PsocAmPreRad
