#B0E00FFFFC8001AAMPT_T.

2017-10-20 19:29:35, 42,:e,:0,:ffff,:c8,:0,:1a @

2017-10-20 19:29:35,*******AM_PROTECTION_TEST*******

2017-10-20 19:29:35,*SeqNo,Samples,maxCnt,Vin1a,Vin1b,Isense0,Vin2a,Vin2b,Isense1

2017-10-20 19:29:35,#B#,0,26,2520,391,434,65493,391,434,0

2017-10-20 19:29:36,
2017-10-20 19:29:37,#B#,1,26,2520,391,434,65493,391,434,0

2017-10-20 19:29:38,
2017-10-20 19:29:38,#B#,2,26,2520,391,434,65493,391,434,0

2017-10-20 19:29:39,
2017-10-20 19:29:39,#B#,3,26,2520,391,434,65493,391,434,0

2017-10-20 19:29:40,
2017-10-20 19:29:40,#B#,4,26,2520,391,434,65493,391,434,0

2017-10-20 19:29:41,
2017-10-20 19:29:42,#B#,5,26,2520,391,434,65493,391,434,0

2017-10-20 19:29:43,
2017-10-20 19:29:43,#B#,6,26,2520,407,434,65509,407,434,0

2017-10-20 19:29:44,
2017-10-20 19:29:44,#B#,7,26,2520,390,407,65519,390,407,0

2017-10-20 19:29:45,
2017-10-20 19:29:45,#B#,8,26,2520,381,378,65533,381,378,65533

2017-10-20 19:29:46,
2017-10-20 19:29:46,#B#,9,26,2520,364,376,65524,364,376,65533

2017-10-20 19:29:47,
2017-10-20 19:29:48,#B#,10,26,2520,364,376,65524,364,376,65533

2017-10-20 19:29:49,
2017-10-20 19:29:49,#B#,11,26,2520,364,376,65524,364,376,65533

2017-10-20 19:29:50,
2017-10-20 19:29:50,#B#,12,26,2520,364,367,65533,364,367,65533

2017-10-20 19:29:51,
2017-10-20 19:29:51,#B#,13,26,2520,320,326,65530,320,326,65533

2017-10-20 19:29:52,
2017-10-20 19:29:52,#B#,14,26,2520,345,412,65469,345,412,65533

2017-10-20 19:29:53,
2017-10-20 19:29:54,#B#,15,26,2520,359,308,65485,359,308,65485

2017-10-20 19:29:55,
2017-10-20 19:29:55,#B#,16,26,2520,1759,0,63777,1759,0,63777

2017-10-20 19:29:56,
2017-10-20 19:29:56,#B#,17,26,2520,944,0,64592,944,0,64592

2017-10-20 19:29:57,
2017-10-20 19:29:57,#B#,18,26,2520,855,3,64684,855,3,64684

2017-10-20 19:29:58,
2017-10-20 19:29:58,#B#,19,26,2520,841,5,64700,841,5,64700

2017-10-20 19:29:59,
2017-10-20 19:30:00,#B#,20,26,2520,840,5,64701,840,5,64701

2017-10-20 19:30:01,
2017-10-20 19:30:01,#B#,21,26,2520,839,5,64702,839,5,64702

2017-10-20 19:30:02,
2017-10-20 19:30:02,#B#,22,26,2520,839,5,64702,839,5,64702

2017-10-20 19:30:03,
2017-10-20 19:30:03,#B#,23,26,2520,838,5,64703,838,5,64703

2017-10-20 19:30:04,
2017-10-20 19:30:04,#B#,24,26,2520,836,5,64705,836,5,64705

2017-10-20 19:30:05,
2017-10-20 19:30:06,#B#,25,26,2520,836,5,64705,836,5,64705

2017-10-20 19:30:07,
2017-10-20 19:30:07,#B#,26,26,2520,836,5,64705,836,5,64705

2017-10-20 19:30:08,
2017-10-20 19:30:08,#B#,27,26,2520,837,5,64704,837,5,64704

2017-10-20 19:30:09,
2017-10-20 19:30:09,#B#,28,26,2520,836,5,64705,836,5,64705

2017-10-20 19:30:10,
2017-10-20 19:30:10,#B#,29,26,2520,836,5,64705,836,5,64705

2017-10-20 19:30:11,
2017-10-20 19:30:12,#B#,30,26,2520,838,5,64703,838,5,64703

2017-10-20 19:30:13,
2017-10-20 19:30:13,#B#,31,26,2520,835,5,64706,835,5,64706

2017-10-20 19:30:14,
2017-10-20 19:30:14,#B#,32,26,2520,834,5,64707,834,5,64707

2017-10-20 19:30:15,
2017-10-20 19:30:15,#B#,33,26,2520,836,5,64705,836,5,64705

2017-10-20 19:30:16,
2017-10-20 19:30:16,#B#,34,26,2520,834,5,64707,834,5,64707

2017-10-20 19:30:17,
2017-10-20 19:30:18,#B#,35,26,2520,836,5,64705,836,5,64705

2017-10-20 19:30:19,
2017-10-20 19:30:19,#B#,36,26,2520,836,5,64705,836,5,64705

2017-10-20 19:30:20,
2017-10-20 19:30:20,#B#,37,26,2520,836,5,64705,836,5,64705

2017-10-20 19:30:21,
2017-10-20 19:30:21,#B#,38,26,2520,836,5,64705,836,5,64705

2017-10-20 19:30:22,
2017-10-20 19:30:23,#B#,39,26,2520,835,5,64706,835,5,64706

2017-10-20 19:30:24,
2017-10-20 19:30:24,#B#,40,26,2520,836,5,64705,836,5,64705

2017-10-20 19:30:25,
2017-10-20 19:30:25,#B#,41,26,2520,836,5,64705,836,5,64705

2017-10-20 19:30:26,
2017-10-20 19:30:26,#B#,42,26,2520,836,5,64705,836,5,64705

2017-10-20 19:30:27,
2017-10-20 19:30:27,#B#,43,26,2520,835,5,64706,835,5,64706

2017-10-20 19:30:28,
2017-10-20 19:30:29,#B#,44,26,2520,835,5,64706,835,5,64706

2017-10-20 19:30:30,
2017-10-20 19:30:30,#B#,45,26,2520,835,5,64706,835,5,64706

2017-10-20 19:30:31,
2017-10-20 19:30:31,#B#,46,26,2520,835,5,64706,835,5,64706

2017-10-20 19:30:32,
2017-10-20 19:30:32,#B#,47,26,2520,836,5,64705,836,5,64705

2017-10-20 19:30:33,
2017-10-20 19:30:34,
2017-10-20 19:30:35,
2017-10-20 19:30:36,
2017-10-20 19:30:37,
