2017-09-15 14:45:05, 46,:e,:a0,:3,:95,:4,:2 @

2017-09-15 14:45:06,
2017-09-15 14:45:07,
2017-09-15 14:45:08,
2017-09-15 14:45:09,
2017-09-15 14:45:10,
2017-09-15 14:45:11,
2017-09-15 14:45:12,
2017-09-15 14:45:13,
2017-09-15 14:45:14,
2017-09-15 14:45:15,
2017-09-15 14:45:16,
2017-09-15 14:45:17,976,252,426,426,4,2479,198,198,198,31,730,53,1660,2500,801,801 

2017-09-15 14:45:18,
2017-09-15 14:45:19,
2017-09-15 14:45:20,
2017-09-15 14:45:21,
2017-09-15 14:45:22,
2017-09-15 14:45:23,
2017-09-15 14:45:24,
2017-09-15 14:45:25,
2017-09-15 14:45:26,
2017-09-15 14:45:27,976,252,426,427,4,2479,198,198,198,31,730,53,1664,0,801,801 

2017-09-15 14:45:27,801 

2017-09-15 14:45:27,*******DONE*******#

Exiting PsocAmPreRad2017-09-15 14:45:28, 43,:e,:a0,:0,:0,:4,:2 @

2017-09-15 14:45:28,*SeqNo,OTA,TAC,HVCLB,HVCL,VDD_H,VChan0,VChan1,VChan2,

2017-09-15 14:45:28, SeqNo,VChan3,DVDD,BGO,NTCPWR,NC,VDD_HV,HV_Is<1>,HV_Is<0>

2017-09-15 14:45:29,
2017-09-15 14:45:30,
2017-09-15 14:45:31,
2017-09-15 14:45:32,
2017-09-15 14:45:33,
2017-09-15 14:45:34,
2017-09-15 14:45:35,
2017-09-15 14:45:36,
2017-09-15 14:45:37,
2017-09-15 14:45:38,
2017-09-15 14:45:39,
2017-09-15 14:45:40,
2017-09-15 14:45:41,
2017-09-15 14:45:42,
2017-09-15 14:45:43,
2017-09-15 14:45:44,
2017-09-15 14:45:45,
2017-09-15 14:45:46,
2017-09-15 14:45:46,976,252,433,433,4,2479,198,198,198,31,730,53,1661,0,801,801 

2017-09-15 14:45:47,
2017-09-15 14:45:48,
2017-09-15 14:45:49,
2017-09-15 14:45:50,
2017-09-15 14:45:51,
2017-09-15 14:45:52,
2017-09-15 14:45:53,
2017-09-15 14:45:54,
2017-09-15 14:45:55,
2017-09-15 14:45:56,
2017-09-15 14:45:57,
2017-09-15 14:45:58,
2017-09-15 14:45:59,
2017-09-15 14:46:00,
2017-09-15 14:46:01,
2017-09-15 14:46:02,
2017-09-15 14:46:02,976,252,432,433,4,2479,198,198,198,31,730,53,1663,0,800,800 

2017-09-15 14:46:02,*******DONE*******#

Exiting PsocAmPreRad