2017-09-15 14:47:06, 46,:e,:a0,:3,:95,:4,:2 @

2017-09-15 14:47:07,
2017-09-15 14:47:08,
2017-09-15 14:47:09,
2017-09-15 14:47:10,
2017-09-15 14:47:11,
2017-09-15 14:47:12,
2017-09-15 14:47:13,
2017-09-15 14:47:14,
2017-09-15 14:47:15,
2017-09-15 14:47:16,
2017-09-15 14:47:17,
2017-09-15 14:47:17,976,252,426,426,4,2479,198,198,198,31,730,53,1663,0,800,800 

2017-09-15 14:47:18,
2017-09-15 14:47:19,
2017-09-15 14:47:20,
2017-09-15 14:47:21,
2017-09-15 14:47:22,
2017-09-15 14:47:23,
2017-09-15 14:47:24,
2017-09-15 14:47:25,
2017-09-15 14:47:26,
2017-09-15 14:47:27,976,252,426,426,4,2479,198,198,198,31,730,53,1663,0,800,800 

2017-09-15 14:47:27,800 

2017-09-15 14:47:27,*******DONE*******#

Exiting PsocAmPreRad2017-09-15 14:47:28, 43,:e,:a0,:0,:0,:4,:2 @

2017-09-15 14:47:28,*SeqNo,OTA,TAC,HVCLB,HVCL,VDD_H,VChan0,VChan1,VChan2,

2017-09-15 14:47:28, SeqNo,VChan3,DVDD,BGO,NTCPWR,NC,VDD_HV,HV_Is<1>,HV_Is<0>

2017-09-15 14:47:29,
2017-09-15 14:47:30,
2017-09-15 14:47:31,
2017-09-15 14:47:32,
2017-09-15 14:47:33,
2017-09-15 14:47:34,
2017-09-15 14:47:35,
2017-09-15 14:47:36,
2017-09-15 14:47:37,
2017-09-15 14:47:38,
2017-09-15 14:47:39,
2017-09-15 14:47:40,
2017-09-15 14:47:41,
2017-09-15 14:47:42,
2017-09-15 14:47:43,
2017-09-15 14:47:44,
2017-09-15 14:47:45,
2017-09-15 14:47:46,
2017-09-15 14:47:47,976,252,433,432,4,2479,198,198,198,31,730,53,1665,0,800,800 

2017-09-15 14:47:48,
2017-09-15 14:47:49,
2017-09-15 14:47:50,
2017-09-15 14:47:51,
2017-09-15 14:47:52,
2017-09-15 14:47:53,
2017-09-15 14:47:54,
2017-09-15 14:47:55,
2017-09-15 14:47:56,
2017-09-15 14:47:57,
2017-09-15 14:47:58,
2017-09-15 14:47:59,
2017-09-15 14:48:00,
2017-09-15 14:48:01,
2017-09-15 14:48:02,
2017-09-15 14:48:03,
2017-09-15 14:48:03,976,252,433,433,4,2479,198,198,198,31,730,53,1664,2500,800,800 

2017-09-15 14:48:03,*******DONE*******#

Exiting PsocAmPreRad