#P0E0000001900AM_RdFreq

2017-11-10 00:05:11, 50,:e,:0,:0,:19,:0,:a0 @

2017-11-10 00:05:11,*******Measure Period per Event & Freq in MHz*******

2017-11-10 00:05:11,****Period_cnt , Freq, SeqNo, Status,..........

2017-11-10 00:05:11,#P#, 36, 28800000, 0, 0 

2017-11-10 00:05:11,#P#, 37, 29600000, 1, 0 

2017-11-10 00:05:11,#P#, 39, 31200000, 2, 0 

2017-11-10 00:05:11,#P#, 38, 30400000, 3, 0 

2017-11-10 00:05:11,#P#, 38, 30400000, 4, 0 

2017-11-10 00:05:11,#P#, 38, 30400000, 5, 0 

2017-11-10 00:05:11,#P#, 37, 29600000, 6, 0 

2017-11-10 00:05:11,#P#, 39, 31200000, 7, 0 

2017-11-10 00:05:11,#P#, 38, 30400000, 8, 0 

2017-11-10 00:05:11,#P#, 38, 30400000, 9, 0 

2017-11-10 00:05:11,#P#, 37, 29600000, 10, 0 

2017-11-10 00:05:11,#P#, 38, 30400000, 11, 0 

2017-11-10 00:05:11,#P#, 37, 29600000, 12, 0 

2017-11-10 00:05:11,#P#, 38, 30400000, 13, 0 

2017-11-10 00:05:11,#P#, 37, 29600000, 14, 0 

2017-11-10 00:05:11,#P#, 38, 30400000, 15, 0 

2017-11-10 00:05:11,#P#, 38, 30400000, 16, 0 

2017-11-10 00:05:11,#P#, 39, 31200000, 17, 0 

2017-11-10 00:05:11,#P#, 39, 31200000, 18, 0 

2017-11-10 00:05:11,#P#, 38, 30400000, 19, 0 

2017-11-10 00:05:11,#P#, 39, 31200000, 20, 0 

2017-11-10 00:05:11,#P#, 38, 30400000, 21, 0 

2017-11-10 00:05:11,#P#, 38, 30400000, 22, 0 

2017-11-10 00:05:11,#P#, 38, 30400000, 23, 0 

2017-11-10 00:05:11,#P#, 39, 31200000, 24, 0 

2017-11-10 00:05:11,*******DONE*******#

Exiting PsocAmPreRad
#A0E0000002B05AM_RegRW.

2017-11-10 00:05:13, 41,:e,:0,:0,:2b,:5,:5a5 @

2017-11-10 00:05:13,Value:5 was written to AMReg:43 

2017-11-10 00:05:13,*******DONE*******#

Exiting PsocAmPreRad
