2017-09-20 11:17:59, 50,:e,:0,:0,:0,:c8,:0 @

2017-09-20 11:17:59,*******Measure Period per Event & Freq in MHz*******

2017-09-20 11:17:59,****Period_cnt , Freq, SeqNo, Status,..........

2017-09-20 11:17:59,#P#, 38, 30400000, 0, 0 

2017-09-20 11:17:59,#P#, 37, 29600000, 1, 0 

2017-09-20 11:17:59,#P#, 37, 29600000, 2, 0 

2017-09-20 11:17:59,#P#, 37, 29600000, 3, 0 

2017-09-20 11:17:59,#P#, 37, 29600000, 4, 0 

2017-09-20 11:17:59,#P#, 37, 29600000, 5, 0 

2017-09-20 11:17:59,#P#, 38, 30400000, 6, 0 

2017-09-20 11:17:59,#P#, 36, 28800000, 7, 0 

2017-09-20 11:17:59,#P#, 36, 28800000, 8, 0 

2017-09-20 11:17:59,#P#, 36, 28800000, 9, 0 

2017-09-20 11:17:59,#P#, 36, 28800000, 10, 0 

2017-09-20 11:17:59,#P#, 37, 29600000, 11, 0 

2017-09-20 11:17:59,#P#, 36, 28800000, 12, 0 

2017-09-20 11:17:59,#P#, 36, 28800000, 13, 0 

2017-09-20 11:17:59,#P#, 38, 30400000, 14, 0 

2017-09-20 11:17:59,#P#, 37, 29600000, 15, 0 

2017-09-20 11:17:59,#P#, 37, 29600000, 16, 0 

2017-09-20 11:17:59,#P#, 37, 29600000, 17, 0 

2017-09-20 11:17:59,#P#, 37, 29600000, 18, 0 

2017-09-20 11:17:59,#P#, 36, 28800000, 19, 0 

2017-09-20 11:17:59,#P#, 37, 29600000, 20, 0 

2017-09-20 11:17:59,#P#, 38, 30400000, 21, 0 

2017-09-20 11:17:59,#P#, 37, 29600000, 22, 0 

2017-09-20 11:17:59,#P#, 37, 29600000, 23, 0 

2017-09-20 11:17:59,#P#, 37, 29600000, 24, 0 

2017-09-20 11:17:59,#P#, 37, 29600000, 25, 0 

2017-09-20 11:17:59,#P#, 36, 28800000, 26, 0 

2017-09-20 11:17:59,#P#, 36, 28800000, 27, 0 

2017-09-20 11:17:59,#P#, 36, 28800000, 28, 0 

2017-09-20 11:17:59,#P#, 36, 28800000, 29, 0 

2017-09-20 11:17:59,#P#, 37, 29600000, 30, 0 

2017-09-20 11:17:59,#P#, 37, 29600000, 31, 0 

2017-09-20 11:17:59,#P#, 36, 28800000, 32, 0 

2017-09-20 11:17:59,#P#, 36, 28800000, 33, 0 

2017-09-20 11:17:59,#P#, 37, 29600000, 34, 0 

2017-09-20 11:17:59,#P#, 36, 28800000, 35, 0 

2017-09-20 11:17:59,#P#, 37, 29600000, 36, 0 

2017-09-20 11:17:59,#P#, 37, 29600000, 37, 0 

2017-09-20 11:17:59,#P#, 37, 29600000, 38, 0 

2017-09-20 11:17:59,#P#, 37, 29600000, 39, 0 

2017-09-20 11:17:59,#P#, 36, 28800000, 40, 0 

2017-09-20 11:17:59,#P#, 37, 29600000, 41, 0 

2017-09-20 11:17:59,#P#, 37, 29600000, 42, 0 

2017-09-20 11:17:59,#P#, 38, 30400000, 43, 0 

2017-09-20 11:17:59,#P#, 37, 29600000, 44, 0 

2017-09-20 11:17:59,#P#, 36, 28800000, 45, 0 

2017-09-20 11:17:59,#P#, 37, 29600000, 46, 0 

2017-09-20 11:17:59,#P#, 36, 28800000, 47, 0 

2017-09-20 11:17:59,#P#, 37, 29600000, 48, 0 

2017-09-20 11:17:59,#P#, 37, 29600000, 49, 0 

2017-09-20 11:17:59,#P#, 37, 29600000, 50, 0 

2017-09-20 11:17:59,#P#, 36, 28800000, 51, 0 

2017-09-20 11:17:59,#P#, 37, 29600000, 52, 0 

2017-09-20 11:17:59,#P#, 36, 28800000, 53, 0 

2017-09-20 11:17:59,#P#, 36, 28800000, 54, 0 

2017-09-20 11:17:59,#P#, 36, 28800000, 55, 0 

2017-09-20 11:17:59,#P#, 38, 30400000, 56, 0 

2017-09-20 11:17:59,#P#, 36, 28800000, 57, 0 

2017-09-20 11:17:59,#P#, 37, 29600000, 58, 0 

2017-09-20 11:17:59,#P#, 36, 28800000, 59, 0 

2017-09-20 11:17:59,#P#, 36, 28800000, 60, 0 

2017-09-20 11:17:59,#P#, 37, 29600000, 61, 0 

2017-09-20 11:17:59,#P#, 36, 28800000, 62, 0 

2017-09-20 11:17:59,#P#, 37, 29600000, 63, 0 

2017-09-20 11:17:59,#P#, 37, 29600000, 64, 0 

2017-09-20 11:17:59,#P#, 37, 29600000, 65, 0 

2017-09-20 11:17:59,#P#, 37, 29600000, 66, 0 

2017-09-20 11:17:59,#P#, 37, 29600000, 67, 0 

2017-09-20 11:17:59,#P#, 37, 29600000, 68, 0 

2017-09-20 11:17:59,#P#, 38, 30400000, 69, 0 

2017-09-20 11:17:59,#P#, 37, 29600000, 70, 0 

2017-09-20 11:17:59,#P#, 38, 30400000, 71, 0 

2017-09-20 11:17:59,#P#, 37, 29600000, 72, 0 

2017-09-20 11:17:59,#P#, 36, 28800000, 73, 0 

2017-09-20 11:17:59,#P#, 37, 29600000, 74, 0 

2017-09-20 11:17:59,#P#, 38, 30400000, 75, 0 

2017-09-20 11:17:59,#P#, 36, 28800000, 76, 0 

2017-09-20 11:17:59,#P#, 38, 30400000, 77, 0 

2017-09-20 11:17:59,#P#, 37, 29600000, 78, 0 

2017-09-20 11:17:59,#P#, 36, 28800000, 79, 0 

2017-09-20 11:17:59,#P#, 37, 29600000, 80, 0 

2017-09-20 11:17:59,#P#, 36, 28800000, 81, 0 

2017-09-20 11:17:59,#P#, 37, 29600000, 82, 0 

2017-09-20 11:17:59,#P#, 36, 28800000, 83, 0 

2017-09-20 11:17:59,#P#, 37, 29600000, 84, 0 

2017-09-20 11:17:59,#P#, 36, 28800000, 85, 0 

2017-09-20 11:17:59,#P#, 37, 29600000, 86, 0 

2017-09-20 11:17:59,#P#, 36, 28800000, 87, 0 

2017-09-20 11:17:59,#P#, 37, 29600000, 88, 0 

2017-09-20 11:17:59,#P#, 36, 28800000, 89, 0 

2017-09-20 11:17:59,#P#, 36, 28800000, 90, 0 

2017-09-20 11:17:59,#P#, 36, 28800000, 91, 0 

2017-09-20 11:18:00,#P#, 37, 29600000, 92, 0 

2017-09-20 11:18:00,#P#, 37, 29600000, 93, 0 

2017-09-20 11:18:00,#P#, 37, 29600000, 94, 0 

2017-09-20 11:18:00,#P#, 38, 30400000, 95, 0 

2017-09-20 11:18:00,#P#, 37, 29600000, 96, 0 

2017-09-20 11:18:00,#P#, 37, 29600000, 97, 0 

2017-09-20 11:18:00,#P#, 36, 28800000, 98, 0 

2017-09-20 11:18:00,#P#, 37, 29600000, 99, 0 

2017-09-20 11:18:00,#P#, 37, 29600000, 100, 0 

2017-09-20 11:18:00,#P#, 37, 29600000, 101, 0 

2017-09-20 11:18:00,#P#, 37, 29600000, 102, 0 

2017-09-20 11:18:00,#P#, 38, 30400000, 103, 0 

2017-09-20 11:18:00,#P#, 36, 28800000, 104, 0 

2017-09-20 11:18:00,#P#, 37, 29600000, 105, 0 

2017-09-20 11:18:00,#P#, 37, 29600000, 106, 0 

2017-09-20 11:18:00,#P#, 36, 28800000, 107, 0 

2017-09-20 11:18:00,#P#, 36, 28800000, 108, 0 

2017-09-20 11:18:00,#P#, 36, 28800000, 109, 0 

2017-09-20 11:18:00,#P#, 36, 28800000, 110, 0 

2017-09-20 11:18:00,#P#, 38, 30400000, 111, 0 

2017-09-20 11:18:00,#P#, 37, 29600000, 112, 0 

2017-09-20 11:18:00,#P#, 36, 28800000, 113, 0 

2017-09-20 11:18:00,#P#, 36, 28800000, 114, 0 

2017-09-20 11:18:00,#P#, 36, 28800000, 115, 0 

2017-09-20 11:18:00,#P#, 36, 28800000, 116, 0 

2017-09-20 11:18:00,#P#, 37, 29600000, 117, 0 

2017-09-20 11:18:00,#P#, 37, 29600000, 118, 0 

2017-09-20 11:18:00,#P#, 37, 29600000, 119, 0 

2017-09-20 11:18:00,#P#, 38, 30400000, 120, 0 

2017-09-20 11:18:00,#P#, 36, 28800000, 121, 0 

2017-09-20 11:18:00,#P#, 36, 28800000, 122, 0 

2017-09-20 11:18:00,#P#, 37, 29600000, 123, 0 

2017-09-20 11:18:00,#P#, 37, 29600000, 124, 0 

2017-09-20 11:18:00,#P#, 37, 29600000, 125, 0 

2017-09-20 11:18:00,#P#, 37, 29600000, 126, 0 

2017-09-20 11:18:00,#P#, 36, 28800000, 127, 0 

2017-09-20 11:18:00,#P#, 38, 30400000, 128, 0 

2017-09-20 11:18:00,#P#, 37, 29600000, 129, 0 

2017-09-20 11:18:00,#P#, 37, 29600000, 130, 0 

2017-09-20 11:18:00,#P#, 37, 29600000, 131, 0 

2017-09-20 11:18:00,#P#, 38, 30400000, 132, 0 

2017-09-20 11:18:00,#P#, 36, 28800000, 133, 0 

2017-09-20 11:18:00,#P#, 36, 28800000, 134, 0 

2017-09-20 11:18:00,#P#, 37, 29600000, 135, 0 

2017-09-20 11:18:00,#P#, 37, 29600000, 136, 0 

2017-09-20 11:18:00,#P#, 37, 29600000, 137, 0 

2017-09-20 11:18:00,#P#, 37, 29600000, 138, 0 

2017-09-20 11:18:00,#P#, 36, 28800000, 139, 0 

2017-09-20 11:18:00,#P#, 36, 28800000, 140, 0 

2017-09-20 11:18:00,#P#, 37, 29600000, 141, 0 

2017-09-20 11:18:00,#P#, 36, 28800000, 142, 0 

2017-09-20 11:18:00,#P#, 37, 29600000, 143, 0 

2017-09-20 11:18:00,#P#, 37, 29600000, 144, 0 

2017-09-20 11:18:00,#P#, 37, 29600000, 145, 0 

2017-09-20 11:18:00,#P#, 37, 29600000, 146, 0 

2017-09-20 11:18:00,#P#, 36, 28800000, 147, 0 

2017-09-20 11:18:00,#P#, 37, 29600000, 148, 0 

2017-09-20 11:18:00,#P#, 36, 28800000, 149, 0 

2017-09-20 11:18:00,#P#, 38, 30400000, 150, 0 

2017-09-20 11:18:00,#P#, 36, 28800000, 151, 0 

2017-09-20 11:18:00,#P#, 36, 28800000, 152, 0 

2017-09-20 11:18:00,#P#, 37, 29600000, 153, 0 

2017-09-20 11:18:00,#P#, 37, 29600000, 154, 0 

2017-09-20 11:18:00,#P#, 37, 29600000, 155, 0 

2017-09-20 11:18:00,#P#, 37, 29600000, 156, 0 

2017-09-20 11:18:00,#P#, 37, 29600000, 157, 0 

2017-09-20 11:18:00,#P#, 36, 28800000, 158, 0 

2017-09-20 11:18:00,#P#, 38, 30400000, 159, 0 

2017-09-20 11:18:00,#P#, 36, 28800000, 160, 0 

2017-09-20 11:18:00,#P#, 36, 28800000, 161, 0 

2017-09-20 11:18:00,#P#, 36, 28800000, 162, 0 

2017-09-20 11:18:00,#P#, 37, 29600000, 163, 0 

2017-09-20 11:18:00,#P#, 38, 30400000, 164, 0 

2017-09-20 11:18:00,#P#, 37, 29600000, 165, 0 

2017-09-20 11:18:00,#P#, 36, 28800000, 166, 0 

2017-09-20 11:18:00,#P#, 37, 29600000, 167, 0 

2017-09-20 11:18:00,#P#, 37, 29600000, 168, 0 

2017-09-20 11:18:00,#P#, 37, 29600000, 169, 0 

2017-09-20 11:18:00,#P#, 36, 28800000, 170, 0 

2017-09-20 11:18:00,#P#, 37, 29600000, 171, 0 

2017-09-20 11:18:00,#P#, 36, 28800000, 172, 0 

2017-09-20 11:18:00,#P#, 37, 29600000, 173, 0 

2017-09-20 11:18:00,#P#, 37, 29600000, 174, 0 

2017-09-20 11:18:00,#P#, 37, 29600000, 175, 0 

2017-09-20 11:18:00,#P#, 38, 30400000, 176, 0 

2017-09-20 11:18:00,#P#, 37, 29600000, 177, 0 

2017-09-20 11:18:00,#P#, 37, 29600000, 178, 0 

2017-09-20 11:18:00,#P#, 37, 29600000, 179, 0 

2017-09-20 11:18:00,#P#, 36, 28800000, 180, 0 

2017-09-20 11:18:00,#P#, 36, 28800000, 181, 0 

2017-09-20 11:18:00,#P#, 37, 29600000, 182, 0 

2017-09-20 11:18:00,#P#, 36, 28800000, 183, 0 

2017-09-20 11:18:00,#P#, 37, 29600000, 184, 0 

2017-09-20 11:18:00,#P#, 38, 30400000, 185, 0 

2017-09-20 11:18:00,#P#, 38, 30400000, 186, 0 

2017-09-20 11:18:00,#P#, 37, 29600000, 187, 0 

2017-09-20 11:18:00,#P#, 37, 29600000, 188, 0 

2017-09-20 11:18:00,#P#, 36, 28800000, 189, 0 

2017-09-20 11:18:00,#P#, 37, 29600000, 190, 0 

2017-09-20 11:18:00,#P#, 36, 28800000, 191, 0 

2017-09-20 11:18:00,#P#, 37, 29600000, 192, 0 

2017-09-20 11:18:00,#P#, 37, 29600000, 193, 0 

2017-09-20 11:18:00,#P#, 37, 29600000, 194, 0 

2017-09-20 11:18:00,#P#, 36, 28800000, 195, 0 

2017-09-20 11:18:00,#P#, 36, 28800000, 196, 0 

2017-09-20 11:18:00,#P#, 37, 29600000, 197, 0 

2017-09-20 11:18:00,#P#, 37, 29600000, 198, 0 

2017-09-20 11:18:00,#P#, 37, 29600000, 199, 0 

2017-09-20 11:18:00,*******DONE*******#

Exiting PsocAmPreRad2017-09-20 11:18:02, 46,:e,:a0,:0,:0,:4,:2 @

2017-09-20 11:18:03,
2017-09-20 11:18:04,
2017-09-20 11:18:05,
2017-09-20 11:18:06,
2017-09-20 11:18:07,
2017-09-20 11:18:08,
2017-09-20 11:18:09,
2017-09-20 11:18:10,
2017-09-20 11:18:10,0,0,0,0,0,0,0,0,0,0,0,0,0,0,0,0 

2017-09-20 11:18:11,
2017-09-20 11:18:12,
2017-09-20 11:18:13,
2017-09-20 11:18:14,
2017-09-20 11:18:16,
2017-09-20 11:18:17,0,0,0,0,0,0,0,0,0,0,0,0,0,0,0,0 

2017-09-20 11:18:17,0 

2017-09-20 11:18:17,*******DONE*******#

Exiting PsocAmPreRad