2017-09-26 16:23:05, 50,:e,:0,:0,:0,:c8,:0 @

2017-09-26 16:23:05,*******Measure Period per Event & Freq in MHz*******

2017-09-26 16:23:05,****Period_cnt , Freq, SeqNo, Status,..........

2017-09-26 16:23:06,
2017-09-26 16:23:07,
2017-09-26 16:23:08,
2017-09-26 16:23:09,
2017-09-26 16:23:09, BGO Set:0, GAIN Set:0

2017-09-26 16:23:10,
2017-09-26 16:23:11,
2017-09-26 16:23:12,
2017-09-26 16:23:13,
2017-09-26 16:23:14,
2017-09-26 16:23:15,
2017-09-26 16:23:16,
2017-09-26 16:23:17,
2017-09-26 16:23:18,
2017-09-26 16:23:19,
2017-09-26 16:23:20,
2017-09-26 16:23:21,
2017-09-26 16:23:22,
2017-09-26 16:23:23,
2017-09-26 16:23:24,
2017-09-26 16:23:25,
2017-09-26 16:23:26,
2017-09-26 16:23:27,
2017-09-26 16:23:28,
2017-09-26 16:23:29,
2017-09-26 16:23:30,
2017-09-26 16:23:31,
2017-09-26 16:23:32,
2017-09-26 16:23:33,
2017-09-26 16:23:34,
2017-09-26 16:23:35,
2017-09-26 16:23:36,
2017-09-26 16:23:37,
2017-09-26 16:23:38,
2017-09-26 16:23:39,
2017-09-26 16:23:40,
2017-09-26 16:23:41,
2017-09-26 16:23:42,
2017-09-26 16:23:43,
2017-09-26 16:23:44,
2017-09-26 16:23:45,
2017-09-26 16:23:46,
2017-09-26 16:23:47,
2017-09-26 16:23:48,
2017-09-26 16:23:49,
2017-09-26 16:23:50,
2017-09-26 16:23:51,
2017-09-26 16:23:52,
2017-09-26 16:23:53,
2017-09-26 16:23:54,
2017-09-26 16:23:55,
2017-09-26 16:23:56,
2017-09-26 16:23:57,
2017-09-26 16:23:58,
2017-09-26 16:23:59,
2017-09-26 16:24:00,
2017-09-26 16:24:01,
2017-09-26 16:24:02,
2017-09-26 16:24:03,
2017-09-26 16:24:04,
2017-09-26 16:24:05,
2017-09-26 16:24:06,
2017-09-26 16:24:07,
2017-09-26 16:24:08,
2017-09-26 16:24:09,
2017-09-26 16:24:10,
2017-09-26 16:24:11,
2017-09-26 16:24:12,
2017-09-26 16:24:13,
2017-09-26 16:24:14,
2017-09-26 16:24:15,
2017-09-26 16:24:17,
2017-09-26 16:24:18,
2017-09-26 16:24:19,
2017-09-26 16:24:20,
2017-09-26 16:24:21,
2017-09-26 16:24:22,
2017-09-26 16:24:23,
2017-09-26 16:24:24,
2017-09-26 16:24:25,
2017-09-26 16:24:26,
2017-09-26 16:24:27,
2017-09-26 16:24:28,
2017-09-26 16:24:29,
2017-09-26 16:24:30,
2017-09-26 16:24:31,
2017-09-26 16:24:32,
2017-09-26 16:24:33,
2017-09-26 16:24:34,
2017-09-26 16:24:35,
2017-09-26 16:24:36,
2017-09-26 16:24:37,
2017-09-26 16:24:38,
2017-09-26 16:24:39,
2017-09-26 16:24:40,
2017-09-26 16:24:41,
2017-09-26 16:24:42,
2017-09-26 16:24:43,
2017-09-26 16:24:44,
2017-09-26 16:24:45,
2017-09-26 16:24:46,
2017-09-26 16:24:47,
2017-09-26 16:24:48,
2017-09-26 16:24:49,
2017-09-26 16:24:50,
2017-09-26 16:24:51,
2017-09-26 16:24:52,
2017-09-26 16:24:53,
2017-09-26 16:24:54,
2017-09-26 16:24:55,
2017-09-26 16:24:56,
2017-09-26 16:24:57,
2017-09-26 16:24:58,
2017-09-26 16:24:59,
2017-09-26 16:25:00,
2017-09-26 16:25:01,
2017-09-26 16:25:02,
2017-09-26 16:25:03,
2017-09-26 16:25:04,
2017-09-26 16:25:05,
2017-09-26 16:25:06,
2017-09-26 16:25:07,
2017-09-26 16:25:08,
2017-09-26 16:25:09,
2017-09-26 16:25:10,
2017-09-26 16:25:11,
2017-09-26 16:25:12,
2017-09-26 16:25:13,
2017-09-26 16:25:14,
2017-09-26 16:25:15,
2017-09-26 16:25:16,
2017-09-26 16:25:17,
2017-09-26 16:25:18,
2017-09-26 16:25:19,
2017-09-26 16:25:20,
2017-09-26 16:25:21,
2017-09-26 16:25:22,
2017-09-26 16:25:23,
2017-09-26 16:25:24,
2017-09-26 16:25:25,
2017-09-26 16:25:26,
2017-09-26 16:25:27,
2017-09-26 16:25:28,
2017-09-26 16:25:29,
2017-09-26 16:25:30,
2017-09-26 16:25:31,
2017-09-26 16:25:32,
2017-09-26 16:25:33,
2017-09-26 16:25:34,
2017-09-26 16:25:35,
2017-09-26 16:25:36,
2017-09-26 16:25:37,
2017-09-26 16:25:38,
2017-09-26 16:25:39,
2017-09-26 16:25:40,
2017-09-26 16:25:41,
2017-09-26 16:25:42,
2017-09-26 16:25:43,
2017-09-26 16:25:44,
2017-09-26 16:25:45,
2017-09-26 16:25:46,
2017-09-26 16:25:47,
2017-09-26 16:25:48,
2017-09-26 16:25:49,
2017-09-26 16:25:50,
2017-09-26 16:25:51,
2017-09-26 16:25:52,
2017-09-26 16:25:53,
2017-09-26 16:25:54,
2017-09-26 16:25:55,
2017-09-26 16:25:56,
2017-09-26 16:25:57,
2017-09-26 16:25:58,
2017-09-26 16:25:59,
2017-09-26 16:26:00,
2017-09-26 16:26:01,
2017-09-26 16:26:02,
2017-09-26 16:26:03,
2017-09-26 16:26:04,
2017-09-26 16:26:05,
2017-09-26 16:26:06,
2017-09-26 16:26:07,
2017-09-26 16:26:08,
2017-09-26 16:26:09,
2017-09-26 16:26:10,
2017-09-26 16:26:11,
2017-09-26 16:26:12,
2017-09-26 16:26:13,
2017-09-26 16:26:14,
2017-09-26 16:26:15,
2017-09-26 16:26:16,
2017-09-26 16:26:17,
2017-09-26 16:26:18,
2017-09-26 16:26:19,
2017-09-26 16:26:20,
2017-09-26 16:26:21,
2017-09-26 16:26:22,
2017-09-26 16:26:23,
2017-09-26 16:26:24,
2017-09-26 16:26:25,
2017-09-26 16:26:26,
2017-09-26 16:26:27,
2017-09-26 16:26:28,
2017-09-26 16:26:29,
2017-09-26 16:26:30,
Exiting PsocAmPreRad2017-09-26 16:26:32, 47,:e,:0,:3,:95,:13,:0 @

2017-09-26 16:26:32,BandGap,VbandGap,AmacGain,AM_Isense0,AM_Isense1,AM_Vsense

2017-09-26 16:26:32,AM_LCh0,AM_RCh0,AM_Rch1,AM_RCh2,AM_LCh3,AM_RCh3

2017-09-26 16:26:33,
2017-09-26 16:26:34,
2017-09-26 16:26:35,
2017-09-26 16:26:36,
2017-09-26 16:26:37,
2017-09-26 16:26:38,
2017-09-26 16:26:39,
2017-09-26 16:26:40, BGO Set:0, GAIN Set:0

2017-09-26 16:26:41,
2017-09-26 16:26:42,
2017-09-26 16:26:43,
2017-09-26 16:26:44,
2017-09-26 16:26:45,
2017-09-26 16:26:46,
2017-09-26 16:26:47,
2017-09-26 16:26:48,
2017-09-26 16:26:49,
2017-09-26 16:26:50,
2017-09-26 16:26:51,
2017-09-26 16:26:52,
2017-09-26 16:26:53,
2017-09-26 16:26:54,
2017-09-26 16:26:55,
2017-09-26 16:26:56,
2017-09-26 16:26:57,
2017-09-26 16:26:58,
2017-09-26 16:26:59,
2017-09-26 16:27:00,
2017-09-26 16:27:01,
2017-09-26 16:27:02,
2017-09-26 16:27:03,
2017-09-26 16:27:04,
2017-09-26 16:27:05,
2017-09-26 16:27:06,
2017-09-26 16:27:07,
2017-09-26 16:27:08,
2017-09-26 16:27:09,
2017-09-26 16:27:10,
2017-09-26 16:27:11,
2017-09-26 16:27:12,
2017-09-26 16:27:13,
2017-09-26 16:27:14,
2017-09-26 16:27:15,
2017-09-26 16:27:16,
2017-09-26 16:27:17,
2017-09-26 16:27:18,
2017-09-26 16:27:19,
2017-09-26 16:27:20,
2017-09-26 16:27:21,
2017-09-26 16:27:22,
2017-09-26 16:27:23,
2017-09-26 16:27:24,
2017-09-26 16:27:25,
2017-09-26 16:27:26,
2017-09-26 16:27:27,
2017-09-26 16:27:28,
2017-09-26 16:27:29,
2017-09-26 16:27:30,
2017-09-26 16:27:31,
2017-09-26 16:27:32,
2017-09-26 16:27:33,
2017-09-26 16:27:34,
2017-09-26 16:27:35,
2017-09-26 16:27:36,
2017-09-26 16:27:37,
2017-09-26 16:27:38,
2017-09-26 16:27:39,
2017-09-26 16:27:40,
2017-09-26 16:27:41,
2017-09-26 16:27:42,
2017-09-26 16:27:43,
2017-09-26 16:27:44,
2017-09-26 16:27:45,
2017-09-26 16:27:46,
2017-09-26 16:27:47,
2017-09-26 16:27:48,
2017-09-26 16:27:49,
2017-09-26 16:27:50,
2017-09-26 16:27:51,
2017-09-26 16:27:52,
2017-09-26 16:27:53,
2017-09-26 16:27:54,
2017-09-26 16:27:55,
2017-09-26 16:27:56,
2017-09-26 16:27:57,
2017-09-26 16:27:58,
2017-09-26 16:27:59,
2017-09-26 16:28:00,
2017-09-26 16:28:01,
2017-09-26 16:28:02,
2017-09-26 16:28:03,
2017-09-26 16:28:04,
2017-09-26 16:28:05,
2017-09-26 16:28:06,
2017-09-26 16:28:07,
2017-09-26 16:28:08,
2017-09-26 16:28:09,
2017-09-26 16:28:10,
2017-09-26 16:28:11,
2017-09-26 16:28:12,
2017-09-26 16:28:13,
2017-09-26 16:28:14,
2017-09-26 16:28:15,
2017-09-26 16:28:16,
2017-09-26 16:28:17,
2017-09-26 16:28:18,
2017-09-26 16:28:19,
2017-09-26 16:28:20,
2017-09-26 16:28:21,
2017-09-26 16:28:22,
2017-09-26 16:28:23,
2017-09-26 16:28:24,
2017-09-26 16:28:25,
2017-09-26 16:28:26,
2017-09-26 16:28:27,
2017-09-26 16:28:28,
2017-09-26 16:28:29,
2017-09-26 16:28:30,
2017-09-26 16:28:31,
2017-09-26 16:28:32,
2017-09-26 16:28:33,
2017-09-26 16:28:34,
2017-09-26 16:28:35,
2017-09-26 16:28:36,
2017-09-26 16:28:37,
2017-09-26 16:28:38,
2017-09-26 16:28:40,
2017-09-26 16:28:41,
2017-09-26 16:28:42,
2017-09-26 16:28:43,
2017-09-26 16:28:44,
2017-09-26 16:28:45,
2017-09-26 16:28:46,
2017-09-26 16:28:47,
2017-09-26 16:28:48,
2017-09-26 16:28:49,
2017-09-26 16:28:50,
2017-09-26 16:28:51,
2017-09-26 16:28:52,
2017-09-26 16:28:53,
2017-09-26 16:28:54,
2017-09-26 16:28:55,
2017-09-26 16:28:56,
2017-09-26 16:28:57,
2017-09-26 16:28:58,
2017-09-26 16:28:59,
2017-09-26 16:29:00,
2017-09-26 16:29:01,
2017-09-26 16:29:02,
2017-09-26 16:29:03,
2017-09-26 16:29:04,
2017-09-26 16:29:05,
2017-09-26 16:29:06,
2017-09-26 16:29:07,
2017-09-26 16:29:08,
2017-09-26 16:29:09,
2017-09-26 16:29:10,
2017-09-26 16:29:11,
2017-09-26 16:29:12,
2017-09-26 16:29:13,
2017-09-26 16:29:14,
2017-09-26 16:29:15,
2017-09-26 16:29:16,
2017-09-26 16:29:17,
2017-09-26 16:29:18,
2017-09-26 16:29:19,
2017-09-26 16:29:20,
2017-09-26 16:29:21,
2017-09-26 16:29:22,
2017-09-26 16:29:23,
2017-09-26 16:29:24,
2017-09-26 16:29:25,
2017-09-26 16:29:26,
2017-09-26 16:29:27,
2017-09-26 16:29:28,
2017-09-26 16:29:29,
2017-09-26 16:29:30,
2017-09-26 16:29:31,
2017-09-26 16:29:32,
2017-09-26 16:29:33,
2017-09-26 16:29:34,
2017-09-26 16:29:35,
2017-09-26 16:29:36,
2017-09-26 16:29:37,
2017-09-26 16:29:38,
2017-09-26 16:29:39,
2017-09-26 16:29:40,
2017-09-26 16:29:41,
2017-09-26 16:29:42,
2017-09-26 16:29:43,
2017-09-26 16:29:44,
2017-09-26 16:29:45,
2017-09-26 16:29:46,
2017-09-26 16:29:47,
2017-09-26 16:29:48,
2017-09-26 16:29:49,
2017-09-26 16:29:50,
2017-09-26 16:29:51,
2017-09-26 16:29:52,
2017-09-26 16:29:53,
2017-09-26 16:29:54,
2017-09-26 16:29:55,
2017-09-26 16:29:56,
2017-09-26 16:29:57,
2017-09-26 16:29:58,
2017-09-26 16:29:59,
2017-09-26 16:30:00,
2017-09-26 16:30:01,
Exiting PsocAmPreRad2017-09-26 16:30:03, 44,:e,:0,:0,:34,:a,:0 @

2017-09-26 16:30:03,*SeqNo,Samples,DAC_Cnt,BGapReg,GainReg,AM_VCal,BGO,Isense0,Isense1

2017-09-26 16:30:03,Vsense,AM_LCh0,AM_RCh0,AM_Rch1,AM_RCh2,AM_LCh3,AM_RCh3

2017-09-26 16:30:04,
2017-09-26 16:30:05,
2017-09-26 16:30:06,
2017-09-26 16:30:06,#D#,0,0,26,12,102,1004,589,0,0,8,28,26,23,20,27,29

2017-09-26 16:30:06,#D#,0,1,26,12,102,1004,589,0,0,8,28,26,23,20,27,29

2017-09-26 16:30:06,#D#,0,2,26,12,102,1004,589,0,0,8,28,26,23,20,27,29

2017-09-26 16:30:06,#D#,0,3,26,12,102,1004,589,0,0,8,28,26,23,20,27,29

2017-09-26 16:30:06,#D#,0,4,26,12,102,1004,589,0,0,8,28,26,23,20,27,29

2017-09-26 16:30:06,#D#,0,5,26,12,102,1004,589,0,0,8,28,26,23,20,27,29

2017-09-26 16:30:06,#D#,0,6,26,12,102,1004,589,0,0,8,28,26,23,20,27,29

2017-09-26 16:30:06,#D#,0,7,26,12,102,1004,589,0,0,8,28,26,23,20,27,29

2017-09-26 16:30:06,#D#,0,8,26,12,102,1004,589,0,0,8,28,26,23,20,27,29

2017-09-26 16:30:06,#D#,0,9,26,12,102,1004,589,0,0,8,28,26,23,20,27,29

2017-09-26 16:30:07,#D#,1,0,52,12,102,1004,589,0,0,8,29,26,23,20,27,29

2017-09-26 16:30:07,#D#,1,1,52,12,102,1004,589,0,0,8,28,26,23,20,27,29

2017-09-26 16:30:07,#D#,1,2,52,12,102,1004,589,0,0,8,28,26,23,20,27,29

2017-09-26 16:30:07,#D#,1,3,52,12,102,1004,589,0,0,8,28,26,23,20,27,29

2017-09-26 16:30:07,#D#,1,4,52,12,102,1004,589,0,0,8,28,26,23,20,27,29

2017-09-26 16:30:07,#D#,1,5,52,12,102,1004,589,0,0,8,28,26,23,20,27,29

2017-09-26 16:30:07,#D#,1,6,52,12,102,1004,589,0,0,8,28,26,23,20,27,29

2017-09-26 16:30:07,#D#,1,7,52,12,102,1004,589,0,0,8,28,26,23,20,27,29

2017-09-26 16:30:07,#D#,1,8,52,12,102,1004,589,0,0,8,29,26,23,20,27,29

2017-09-26 16:30:07,#D#,1,9,52,12,102,1004,589,0,0,8,28,26,23,20,27,29

2017-09-26 16:30:08,#D#,2,0,78,12,102,1004,589,0,0,8,28,26,23,20,27,29

2017-09-26 16:30:08,#D#,2,1,78,12,102,1004,589,0,0,8,28,26,23,20,27,29

2017-09-26 16:30:08,#D#,2,2,78,12,102,1004,589,0,0,8,29,26,23,20,27,29

2017-09-26 16:30:08,#D#,2,3,78,12,102,1004,589,0,0,8,28,26,23,20,27,29

2017-09-26 16:30:08,#D#,2,4,78,12,102,1004,589,0,0,8,28,26,23,20,27,29

2017-09-26 16:30:08,#D#,2,5,78,12,102,1004,589,0,0,8,28,26,23,20,27,29

2017-09-26 16:30:08,#D#,2,6,78,12,102,1004,589,0,0,8,28,26,23,20,27,29

2017-09-26 16:30:08,#D#,2,7,78,12,102,1004,589,0,0,8,28,26,23,20,27,29

2017-09-26 16:30:08,#D#,2,8,78,12,102,1004,589,0,0,8,28,26,23,20,27,29

2017-09-26 16:30:08,#D#,2,9,78,12,102,1004,589,0,0,8,28,26,23,20,27,29

2017-09-26 16:30:09,#D#,3,0,104,12,102,1004,589,0,0,8,28,26,23,20,27,29

2017-09-26 16:30:09,#D#,3,1,104,12,102,1004,589,0,0,8,28,26,23,20,27,29

2017-09-26 16:30:09,#D#,3,2,104,12,102,1004,589,0,0,8,28,26,23,20,27,29

2017-09-26 16:30:09,#D#,3,3,104,12,102,1004,589,0,0,8,28,26,23,20,27,29

2017-09-26 16:30:09,#D#,3,4,104,12,102,1004,589,0,0,8,28,26,23,20,27,29

2017-09-26 16:30:09,#D#,3,5,104,12,102,1004,589,0,0,8,28,26,23,20,27,29

2017-09-26 16:30:09,#D#,3,6,104,12,102,1004,589,0,0,8,29,26,23,20,27,29

2017-09-26 16:30:09,#D#,3,7,104,12,102,1004,589,0,0,8,29,26,23,20,27,29

2017-09-26 16:30:09,#D#,3,8,104,12,102,1004,589,0,0,8,28,26,23,20,27,29

2017-09-26 16:30:09,#D#,3,9,104,12,102,1004,589,0,0,8,28,26,23,20,27,29

2017-09-26 16:30:10,#D#,4,0,130,12,102,1004,589,0,0,8,28,26,23,20,27,29

2017-09-26 16:30:10,#D#,4,1,130,12,102,1004,589,0,0,8,28,26,23,20,27,29

2017-09-26 16:30:10,#D#,4,2,130,12,102,1004,589,0,0,8,28,26,23,20,27,29

2017-09-26 16:30:10,#D#,4,3,130,12,102,1004,589,0,0,8,28,26,23,20,27,29

2017-09-26 16:30:10,#D#,4,4,130,12,102,1004,589,0,0,8,28,26,23,20,27,29

2017-09-26 16:30:10,#D#,4,5,130,12,102,1004,589,0,0,8,28,26,23,20,27,29

2017-09-26 16:30:10,#D#,4,6,130,12,102,1004,589,0,0,8,28,26,23,20,27,29

2017-09-26 16:30:10,#D#,4,7,130,12,102,1004,589,0,0,8,28,26,23,20,27,29

2017-09-26 16:30:10,#D#,4,8,130,12,102,1004,589,0,0,8,28,26,23,20,27,29

2017-09-26 16:30:10,#D#,4,9,130,12,102,1004,589,0,0,8,28,26,23,20,27,29

2017-09-26 16:30:11,#D#,5,0,156,12,102,1004,589,0,0,8,29,26,24,21,27,29

2017-09-26 16:30:11,#D#,5,1,156,12,102,1004,589,0,0,8,29,26,24,21,27,29

2017-09-26 16:30:11,#D#,5,2,156,12,102,1004,589,0,0,8,29,26,24,21,27,29

2017-09-26 16:30:11,#D#,5,3,156,12,102,1004,589,0,0,8,29,26,24,21,27,29

2017-09-26 16:30:11,#D#,5,4,156,12,102,1004,589,0,0,8,29,26,24,21,27,29

2017-09-26 16:30:11,#D#,5,5,156,12,102,1004,589,0,0,8,29,26,24,21,27,29

2017-09-26 16:30:11,#D#,5,6,156,12,102,1004,589,0,0,8,29,26,24,21,27,29

2017-09-26 16:30:11,#D#,5,7,156,12,102,1004,589,0,0,8,29,26,24,21,27,29

2017-09-26 16:30:11,#D#,5,8,156,12,102,1004,589,0,0,8,29,26,24,21,27,29

2017-09-26 16:30:11,#D#,5,9,156,12,102,1004,589,0,0,8,29,26,24,21,27,29

2017-09-26 16:30:12,#D#,6,0,182,12,102,1004,589,0,0,9,30,27,24,21,31,29

2017-09-26 16:30:12,#D#,6,1,182,12,102,1004,589,0,0,9,30,27,25,22,27,29

2017-09-26 16:30:12,#D#,6,2,182,12,102,1004,589,0,0,9,30,27,24,21,27,29

2017-09-26 16:30:12,#D#,6,3,182,12,102,1004,589,0,0,9,30,27,24,22,27,29

2017-09-26 16:30:12,#D#,6,4,182,12,102,1004,589,0,0,9,30,27,24,21,27,29

2017-09-26 16:30:12,#D#,6,5,182,12,102,1004,589,0,0,9,30,27,24,21,27,29

2017-09-26 16:30:12,#D#,6,6,182,12,102,1004,589,0,0,9,30,27,24,22,27,29

2017-09-26 16:30:12,#D#,6,7,182,12,102,1004,589,0,0,9,29,27,24,21,27,29

2017-09-26 16:30:12,#D#,6,8,182,12,102,1004,589,0,0,9,29,27,24,21,27,29

2017-09-26 16:30:12,#D#,6,9,182,12,102,1004,589,0,0,9,30,27,24,21,31,29

2017-09-26 16:30:13,#D#,7,0,208,12,102,1004,589,0,0,10,31,28,26,23,31,29

2017-09-26 16:30:13,#D#,7,1,208,12,102,1004,589,0,0,10,31,28,25,23,31,29

2017-09-26 16:30:13,#D#,7,2,208,12,102,1004,589,0,0,10,31,28,25,23,31,29

2017-09-26 16:30:13,#D#,7,3,208,12,102,1004,589,0,0,10,31,28,25,23,31,29

2017-09-26 16:30:13,#D#,7,4,208,12,102,1004,589,0,0,10,31,28,25,23,31,29

2017-09-26 16:30:13,#D#,7,5,208,12,102,1004,589,0,0,10,31,28,25,23,31,29

2017-09-26 16:30:13,#D#,7,6,208,12,102,1004,589,0,0,10,31,28,25,23,31,29

2017-09-26 16:30:13,#D#,7,7,208,12,102,1004,589,0,0,10,31,28,26,22,31,29

2017-09-26 16:30:13,#D#,7,8,208,12,102,1004,589,0,0,10,31,28,26,22,31,29

2017-09-26 16:30:13,#D#,7,9,208,12,102,1004,589,0,0,10,31,28,25,22,31,29

2017-09-26 16:30:14,#D#,8,0,234,12,102,1004,589,0,0,11,32,29,26,23,31,29

2017-09-26 16:30:14,#D#,8,1,234,12,102,1004,589,0,0,11,31,29,26,23,31,29

2017-09-26 16:30:14,#D#,8,2,234,12,102,1004,589,0,0,11,31,29,26,23,31,29

2017-09-26 16:30:14,#D#,8,3,234,12,102,1004,589,0,0,11,32,29,26,23,31,29

2017-09-26 16:30:14,#D#,8,4,234,12,102,1004,589,0,0,11,31,29,26,23,31,29

2017-09-26 16:30:14,#D#,8,5,234,12,102,1004,589,0,0,11,32,29,26,23,31,29

2017-09-26 16:30:14,#D#,8,6,234,12,102,1004,589,0,0,11,32,29,26,23,31,29

2017-09-26 16:30:14,#D#,8,7,234,12,102,1004,589,0,0,11,32,29,26,23,31,29

2017-09-26 16:30:14,#D#,8,8,234,12,102,1004,589,0,0,11,31,29,26,23,31,29

2017-09-26 16:30:14,#D#,8,9,234,12,102,1004,589,0,0,11,32,29,26,23,31,29

2017-09-26 16:30:14,#D#,9,0,260,12,102,1004,589,0,0,12,32,30,27,24,31,33

2017-09-26 16:30:14,#D#,9,1,260,12,102,1004,589,0,0,12,32,30,27,24,31,33

2017-09-26 16:30:14,#D#,9,2,260,12,102,1004,589,0,0,12,32,30,27,24,31,33

2017-09-26 16:30:14,#D#,9,3,260,12,102,1004,589,0,0,12,32,30,27,24,31,33

2017-09-26 16:30:14,#D#,9,4,260,12,102,1004,589,0,0,12,32,30,27,24,31,33

2017-09-26 16:30:15,#D#,9,5,260,12,102,1004,589,0,0,12,32,30,27,24,31,33

2017-09-26 16:30:15,#D#,9,6,260,12,102,1004,589,0,0,12,32,30,27,24,31,33

2017-09-26 16:30:15,#D#,9,7,260,12,102,1004,589,0,0,12,32,30,27,24,31,33

2017-09-26 16:30:15,#D#,9,8,260,12,102,1004,589,0,0,12,32,30,27,24,31,33

2017-09-26 16:30:15,#D#,9,9,260,12,102,1004,589,0,0,12,32,30,27,24,31,33

2017-09-26 16:30:15,#D#,10,0,286,12,102,1004,589,0,0,13,33,31,28,25,31,33

2017-09-26 16:30:15,#D#,10,1,286,12,102,1004,589,0,0,13,33,31,28,25,31,33

2017-09-26 16:30:15,#D#,10,2,286,12,102,1004,589,0,0,13,33,31,28,25,31,33

2017-09-26 16:30:15,#D#,10,3,286,12,102,1004,589,0,0,13,33,31,28,25,31,33

2017-09-26 16:30:15,#D#,10,4,286,12,102,1004,589,0,0,13,33,31,28,25,31,33

2017-09-26 16:30:15,#D#,10,5,286,12,102,1004,589,0,0,13,33,31,28,25,31,33

2017-09-26 16:30:15,#D#,10,6,286,12,102,1004,589,0,0,13,33,31,28,25,31,33

2017-09-26 16:30:15,#D#,10,7,286,12,102,1004,589,0,0,13,33,31,28,25,31,33

2017-09-26 16:30:15,#D#,10,8,286,12,102,1004,589,0,0,13,33,31,28,25,31,33

2017-09-26 16:30:15,#D#,10,9,286,12,102,1004,589,0,0,13,33,31,28,25,31,33

2017-09-26 16:30:16,#D#,11,0,312,12,102,1004,589,0,0,14,34,32,29,26,35,33

2017-09-26 16:30:16,#D#,11,1,312,12,102,1004,589,0,0,14,34,32,29,26,35,33

2017-09-26 16:30:16,#D#,11,2,312,12,102,1004,589,0,0,14,34,32,29,26,35,33

2017-09-26 16:30:16,#D#,11,3,312,12,102,1004,589,0,0,14,34,32,29,26,35,33

2017-09-26 16:30:16,#D#,11,4,312,12,102,1004,589,0,0,14,34,32,29,26,35,33

2017-09-26 16:30:16,#D#,11,5,312,12,102,1004,589,0,0,14,34,32,29,26,35,33

2017-09-26 16:30:16,#D#,11,6,312,12,102,1004,589,0,0,14,34,32,29,26,35,33

2017-09-26 16:30:16,#D#,11,7,312,12,102,1004,589,0,0,14,34,32,29,26,35,33

2017-09-26 16:30:16,#D#,11,8,312,12,102,1004,589,0,0,14,34,32,29,26,35,33

2017-09-26 16:30:16,#D#,11,9,312,12,102,1004,589,0,0,14,34,32,29,26,35,33

2017-09-26 16:30:17,#D#,12,0,338,12,102,1004,589,0,0,15,35,32,30,27,35,33

2017-09-26 16:30:17,#D#,12,1,338,12,102,1004,589,0,0,15,35,33,30,27,35,33

2017-09-26 16:30:17,#D#,12,2,338,12,102,1004,589,0,0,15,35,32,30,27,35,33

2017-09-26 16:30:17,#D#,12,3,338,12,102,1004,589,0,0,15,35,33,30,27,35,33

2017-09-26 16:30:17,#D#,12,4,338,12,102,1004,589,0,0,15,35,33,30,27,35,33

2017-09-26 16:30:17,#D#,12,5,338,12,102,1004,589,0,0,15,35,33,30,27,35,33

2017-09-26 16:30:17,#D#,12,6,338,12,102,1004,589,0,0,15,35,33,30,27,35,33

2017-09-26 16:30:17,#D#,12,7,338,12,102,1004,589,0,0,15,35,33,30,27,35,33

2017-09-26 16:30:17,#D#,12,8,338,12,102,1004,589,0,0,15,35,32,30,27,35,33

2017-09-26 16:30:17,#D#,12,9,338,12,102,1004,589,0,0,15,35,33,30,27,35,33

2017-09-26 16:30:18,#D#,13,0,364,12,102,1004,589,0,0,16,36,33,31,28,35,37

2017-09-26 16:30:18,#D#,13,1,364,12,102,1004,589,0,0,16,36,33,31,28,35,37

2017-09-26 16:30:18,#D#,13,2,364,12,102,1004,589,0,0,16,36,33,30,28,35,37

2017-09-26 16:30:18,#D#,13,3,364,12,102,1004,589,0,0,16,36,33,31,28,35,37

2017-09-26 16:30:18,#D#,13,4,364,12,102,1004,589,0,0,16,36,33,31,28,35,37

2017-09-26 16:30:18,#D#,13,5,364,12,102,1004,589,0,0,16,36,33,31,28,35,37

2017-09-26 16:30:18,#D#,13,6,364,12,102,1004,589,0,0,16,36,33,31,28,35,37

2017-09-26 16:30:18,#D#,13,7,364,12,102,1004,589,0,0,16,36,33,31,28,35,37

2017-09-26 16:30:18,#D#,13,8,364,12,102,1004,589,0,0,16,36,33,31,27,35,37

2017-09-26 16:30:18,#D#,13,9,364,12,102,1004,589,0,0,16,36,33,31,28,35,37

2017-09-26 16:30:19,#D#,14,0,390,12,102,1004,589,0,0,17,37,34,31,28,35,37

2017-09-26 16:30:19,#D#,14,1,390,12,102,1004,589,0,0,17,37,34,31,28,35,37

2017-09-26 16:30:19,#D#,14,2,390,12,102,1004,589,0,0,17,37,34,31,28,35,37

2017-09-26 16:30:19,#D#,14,3,390,12,102,1004,589,0,0,17,37,34,31,28,35,37

2017-09-26 16:30:19,#D#,14,4,390,12,102,1004,589,0,0,17,37,34,31,28,35,37

2017-09-26 16:30:19,#D#,14,5,390,12,102,1004,589,0,0,17,37,34,31,28,35,37

2017-09-26 16:30:19,#D#,14,6,390,12,102,1004,589,0,0,17,37,34,31,28,35,37

2017-09-26 16:30:19,#D#,14,7,390,12,102,1004,589,0,0,17,37,34,31,28,35,37

2017-09-26 16:30:19,#D#,14,8,390,12,102,1004,589,0,0,17,37,34,31,28,35,37

2017-09-26 16:30:19,#D#,14,9,390,12,102,1004,589,0,0,17,37,34,31,28,35,37

2017-09-26 16:30:20,#D#,15,0,416,12,102,1004,589,0,0,18,38,35,32,29,39,37

2017-09-26 16:30:20,#D#,15,1,416,12,102,1004,589,0,0,18,38,35,32,30,39,37

2017-09-26 16:30:20,#D#,15,2,416,12,102,1004,589,0,0,18,38,35,32,29,39,37

2017-09-26 16:30:20,#D#,15,3,416,12,102,1004,589,0,0,18,38,35,32,30,39,37

2017-09-26 16:30:20,#D#,15,4,416,12,102,1004,589,0,0,18,38,35,32,29,39,37

2017-09-26 16:30:20,#D#,15,5,416,12,102,1004,589,0,0,18,38,35,32,30,39,37

2017-09-26 16:30:20,#D#,15,6,416,12,102,1004,589,0,0,18,38,35,33,30,39,37

2017-09-26 16:30:20,#D#,15,7,416,12,102,1004,589,0,0,18,38,35,32,30,39,37

2017-09-26 16:30:20,#D#,15,8,416,12,102,1004,589,0,0,18,38,35,32,29,39,37

2017-09-26 16:30:20,#D#,15,9,416,12,102,1004,589,0,0,18,38,35,32,30,39,37

2017-09-26 16:30:21,#D#,16,0,442,12,102,1004,589,0,0,19,39,36,33,30,39,37

2017-09-26 16:30:21,#D#,16,1,442,12,102,1004,589,0,0,19,39,36,33,30,39,37

2017-09-26 16:30:21,#D#,16,2,442,12,102,1004,589,0,0,19,39,36,33,30,39,37

2017-09-26 16:30:21,#D#,16,3,442,12,102,1004,589,0,0,19,39,36,33,30,39,37

2017-09-26 16:30:21,#D#,16,4,442,12,102,1004,589,0,0,19,39,36,33,30,39,37

2017-09-26 16:30:21,#D#,16,5,442,12,102,1004,589,0,0,19,39,36,33,30,39,37

2017-09-26 16:30:21,#D#,16,6,442,12,102,1004,589,0,0,19,39,36,33,30,39,37

2017-09-26 16:30:21,#D#,16,7,442,12,102,1004,589,0,0,19,39,36,33,30,39,37

2017-09-26 16:30:21,#D#,16,8,442,12,102,1004,589,0,0,19,39,36,33,30,39,37

2017-09-26 16:30:21,#D#,16,9,442,12,102,1004,589,0,0,19,39,36,33,30,39,37

2017-09-26 16:30:22,#D#,17,0,468,12,102,1004,589,0,0,20,39,37,34,31,39,37

2017-09-26 16:30:22,#D#,17,1,468,12,102,1004,589,0,0,20,39,37,34,31,39,37

2017-09-26 16:30:22,#D#,17,2,468,12,102,1004,589,0,0,20,39,37,34,31,39,37

2017-09-26 16:30:22,#D#,17,3,468,12,102,1004,589,0,0,20,39,37,34,31,39,37

2017-09-26 16:30:22,#D#,17,4,468,12,102,1004,589,0,0,20,40,37,34,31,39,37

2017-09-26 16:30:22,#D#,17,5,468,12,102,1004,589,0,0,20,39,37,34,31,39,37

2017-09-26 16:30:22,#D#,17,6,468,12,102,1004,589,0,0,20,40,37,34,31,39,37

2017-09-26 16:30:22,#D#,17,7,468,12,102,1004,589,0,0,20,39,37,34,31,39,37

2017-09-26 16:30:22,#D#,17,8,468,12,102,1004,589,0,0,20,39,37,34,31,39,37

2017-09-26 16:30:22,#D#,17,9,468,12,102,1004,589,0,0,20,40,37,34,31,39,37

2017-09-26 16:30:23,#D#,18,0,494,12,102,1004,589,0,0,21,40,38,35,32,39,42

2017-09-26 16:30:23,#D#,18,1,494,12,102,1004,589,0,0,21,40,38,35,32,39,42

2017-09-26 16:30:23,#D#,18,2,494,12,102,1004,589,0,0,21,40,38,35,32,39,42

2017-09-26 16:30:23,#D#,18,3,494,12,102,1004,589,0,0,21,40,38,35,32,39,42

2017-09-26 16:30:23,#D#,18,4,494,12,102,1004,589,0,0,21,40,38,35,32,39,42

2017-09-26 16:30:23,#D#,18,5,494,12,102,1004,589,0,0,21,40,37,35,32,39,42

2017-09-26 16:30:23,#D#,18,6,494,12,102,1004,589,0,0,21,40,38,35,32,39,42

2017-09-26 16:30:23,#D#,18,7,494,12,102,1004,589,0,0,21,40,38,35,32,39,42

2017-09-26 16:30:23,#D#,18,8,494,12,102,1004,589,0,0,21,40,38,35,32,39,42

2017-09-26 16:30:23,#D#,18,9,494,12,102,1004,589,0,0,21,40,38,35,32,39,42

2017-09-26 16:30:24,#D#,19,0,520,12,102,1004,589,0,0,22,41,39,36,33,39,42

2017-09-26 16:30:24,#D#,19,1,520,12,102,1004,589,0,0,22,41,39,36,33,39,42

2017-09-26 16:30:24,#D#,19,2,520,12,102,1004,589,0,0,22,42,39,36,33,39,42

2017-09-26 16:30:24,#D#,19,3,520,12,102,1004,589,0,0,22,41,39,36,33,39,42

2017-09-26 16:30:24,#D#,19,4,520,12,102,1004,589,0,0,22,41,39,36,33,39,42

2017-09-26 16:30:24,#D#,19,5,520,12,102,1004,589,0,0,22,41,39,36,33,39,42

2017-09-26 16:30:24,#D#,19,6,520,12,102,1004,589,0,0,22,41,39,36,33,39,42

2017-09-26 16:30:24,#D#,19,7,520,12,102,1004,589,0,0,22,41,39,36,33,39,42

2017-09-26 16:30:24,#D#,19,8,520,12,102,1004,589,0,0,22,41,39,36,33,39,42

2017-09-26 16:30:24,#D#,19,9,520,12,102,1004,589,0,0,22,41,39,36,33,39,42

2017-09-26 16:30:24,#D#,20,0,546,12,102,1004,589,0,0,23,42,40,37,34,43,42

2017-09-26 16:30:24,#D#,20,1,546,12,102,1004,589,0,0,23,42,40,37,34,43,42

2017-09-26 16:30:24,#D#,20,2,546,12,102,1004,589,0,0,23,42,39,37,34,43,42

2017-09-26 16:30:24,#D#,20,3,546,12,102,1004,589,0,0,23,42,40,37,34,43,42

2017-09-26 16:30:25,#D#,20,4,546,12,102,1004,589,0,0,23,42,40,37,34,43,42

2017-09-26 16:30:25,#D#,20,5,546,12,102,1004,589,0,0,23,42,40,37,34,43,42

2017-09-26 16:30:25,#D#,20,6,546,12,102,1004,589,0,0,23,42,39,37,34,43,42

2017-09-26 16:30:25,#D#,20,7,546,12,102,1004,589,0,0,23,42,39,37,34,43,42

2017-09-26 16:30:25,#D#,20,8,546,12,102,1004,589,0,0,23,42,39,37,34,43,42

2017-09-26 16:30:25,#D#,20,9,546,12,102,1004,589,0,0,23,42,40,37,34,43,42

2017-09-26 16:30:25,#D#,21,0,572,12,102,1004,589,0,0,24,522,522,642,160,42,42

2017-09-26 16:30:25,#D#,21,1,572,12,102,1004,589,0,0,24,522,522,642,160,42,42

2017-09-26 16:30:25,#D#,21,2,572,12,102,1004,589,0,0,24,522,522,642,160,42,42

2017-09-26 16:30:25,#D#,21,3,572,12,102,1004,589,0,0,24,522,522,642,160,42,42

2017-09-26 16:30:25,#D#,21,4,572,12,102,1004,589,0,0,24,522,522,642,160,42,42

2017-09-26 16:30:25,#D#,21,5,572,12,102,1004,589,0,0,24,522,522,642,160,42,42

2017-09-26 16:30:25,#D#,21,6,572,12,102,1004,589,0,0,24,522,522,642,160,42,42

2017-09-26 16:30:25,#D#,21,7,572,12,102,1004,589,0,0,24,522,522,642,160,42,42

2017-09-26 16:30:25,#D#,21,8,572,12,102,1004,589,0,0,24,522,522,642,160,42,42

2017-09-26 16:30:25,#D#,21,9,572,12,102,1004,589,0,0,24,522,522,642,160,42,42

2017-09-26 16:30:26,#D#,22,0,598,12,102,1004,0,0,0,0,522,522,642,160,42,42

2017-09-26 16:30:26,#D#,22,1,598,12,102,1004,0,0,0,0,522,522,642,160,42,42

2017-09-26 16:30:26,#D#,22,2,598,12,102,1004,0,0,0,0,522,522,642,160,42,42

2017-09-26 16:30:26,#D#,22,3,598,12,102,1004,0,0,0,0,522,522,642,160,42,42

2017-09-26 16:30:26,#D#,22,4,598,12,102,1004,0,0,0,0,522,522,642,160,42,42

2017-09-26 16:30:26,#D#,22,5,598,12,102,1004,0,0,0,0,522,522,642,160,42,42

2017-09-26 16:30:26,#D#,22,6,598,12,102,1004,0,0,0,0,522,522,642,160,42,42

2017-09-26 16:30:26,#D#,22,7,598,12,102,1004,0,0,0,0,522,522,642,160,42,42

2017-09-26 16:30:26,#D#,22,8,598,12,102,1004,0,0,0,0,522,522,642,160,42,42

2017-09-26 16:30:26,#D#,22,9,598,12,102,1004,0,0,0,0,522,522,642,160,42,42

2017-09-26 16:30:27,#D#,23,0,624,12,102,1004,0,0,0,0,522,522,642,160,42,42

2017-09-26 16:30:27,#D#,23,1,624,12,102,1004,0,0,0,0,522,522,642,160,42,42

2017-09-26 16:30:27,#D#,23,2,624,12,102,1004,0,0,0,0,522,522,642,160,42,42

2017-09-26 16:30:27,#D#,23,3,624,12,102,1004,0,0,0,0,522,522,642,160,42,42

2017-09-26 16:30:27,#D#,23,4,624,12,102,1004,0,0,0,0,522,522,642,160,42,42

2017-09-26 16:30:27,#D#,23,5,624,12,102,1004,0,0,0,0,522,522,642,160,42,42

2017-09-26 16:30:27,#D#,23,6,624,12,102,1004,0,0,0,0,522,522,642,160,42,42

2017-09-26 16:30:27,#D#,23,7,624,12,102,1004,0,0,0,0,522,522,642,160,42,42

2017-09-26 16:30:27,#D#,23,8,624,12,102,1004,0,0,0,0,522,522,642,160,42,42

2017-09-26 16:30:27,#D#,23,9,624,12,102,1004,0,0,0,0,522,522,642,160,42,42

2017-09-26 16:30:28,#D#,24,0,650,12,102,1004,110,0,0,27,522,522,642,160,42,42

2017-09-26 16:30:28,#D#,24,1,650,12,102,1004,110,0,0,27,522,522,642,160,42,42

2017-09-26 16:30:28,#D#,24,2,650,12,102,1004,110,0,0,27,522,522,642,160,42,42

2017-09-26 16:30:28,#D#,24,3,650,12,102,1004,110,0,0,27,522,522,642,160,42,42

2017-09-26 16:30:28,#D#,24,4,650,12,102,1004,110,0,0,27,522,522,642,160,42,42

2017-09-26 16:30:28,#D#,24,5,650,12,102,1004,110,0,0,27,522,522,642,160,42,42

2017-09-26 16:30:28,#D#,24,6,650,12,102,1004,110,0,0,27,522,522,642,160,42,42

2017-09-26 16:30:28,#D#,24,7,650,12,102,1004,110,0,0,27,522,522,642,160,42,42

2017-09-26 16:30:28,#D#,24,8,650,12,102,1004,110,0,0,27,522,522,642,160,42,42

2017-09-26 16:30:28,#D#,24,9,650,12,102,1004,110,0,0,27,522,522,642,160,42,42

2017-09-26 16:30:29,#D#,25,0,676,12,102,1004,110,0,0,28,522,522,642,160,42,42

2017-09-26 16:30:29,#D#,25,1,676,12,102,1004,110,0,0,28,522,522,642,160,42,42

2017-09-26 16:30:29,#D#,25,2,676,12,102,1004,110,0,0,28,522,522,642,160,42,42

2017-09-26 16:30:29,#D#,25,3,676,12,102,1004,110,0,0,28,522,522,642,160,42,42

2017-09-26 16:30:29,#D#,25,4,676,12,102,1004,110,0,0,28,522,522,642,160,42,42

2017-09-26 16:30:29,#D#,25,5,676,12,102,1004,110,0,0,28,522,522,642,160,42,42

2017-09-26 16:30:29,#D#,25,6,676,12,102,1004,110,0,0,28,522,522,642,160,42,42

2017-09-26 16:30:29,#D#,25,7,676,12,102,1004,110,0,0,28,522,522,642,160,42,42

2017-09-26 16:30:29,#D#,25,8,676,12,102,1004,110,0,0,28,522,522,642,160,42,42

2017-09-26 16:30:29,#D#,25,9,676,12,102,1004,110,0,0,28,522,522,642,160,42,42

2017-09-26 16:30:30,#D#,26,0,702,12,102,1004,110,0,0,29,522,522,642,160,42,42

2017-09-26 16:30:30,#D#,26,1,702,12,102,1004,110,0,0,29,522,522,642,160,42,42

2017-09-26 16:30:30,#D#,26,2,702,12,102,1004,110,0,0,29,522,522,642,160,42,42

2017-09-26 16:30:30,#D#,26,3,702,12,102,1004,110,0,0,29,522,522,642,160,42,42

2017-09-26 16:30:30,#D#,26,4,702,12,102,1004,110,0,0,29,522,522,642,160,42,42

2017-09-26 16:30:30,#D#,26,5,702,12,102,1004,110,0,0,29,522,522,642,160,42,42

2017-09-26 16:30:30,#D#,26,6,702,12,102,1004,110,0,0,29,522,522,642,160,42,42

2017-09-26 16:30:30,#D#,26,7,702,12,102,1004,110,0,0,29,522,522,642,160,42,42

2017-09-26 16:30:30,#D#,26,8,702,12,102,1004,110,0,0,29,522,522,642,160,42,42

2017-09-26 16:30:30,#D#,26,9,702,12,102,1004,110,0,0,29,522,522,642,160,42,42

2017-09-26 16:30:31,#D#,27,0,728,12,102,1004,110,0,0,30,522,522,642,160,42,42

2017-09-26 16:30:31,#D#,27,1,728,12,102,1004,110,0,0,30,522,522,642,160,42,42

2017-09-26 16:30:31,#D#,27,2,728,12,102,1004,110,0,0,30,522,522,642,160,42,42

2017-09-26 16:30:31,#D#,27,3,728,12,102,1004,110,0,0,30,522,522,642,160,42,42

2017-09-26 16:30:31,#D#,27,4,728,12,102,1004,110,0,0,30,522,522,642,160,42,42

2017-09-26 16:30:31,#D#,27,5,728,12,102,1004,110,0,0,30,522,522,642,160,42,42

2017-09-26 16:30:31,#D#,27,6,728,12,102,1004,110,0,0,30,522,522,642,160,42,42

2017-09-26 16:30:31,#D#,27,7,728,12,102,1004,110,0,0,30,522,522,642,160,42,42

2017-09-26 16:30:31,#D#,27,8,728,12,102,1004,110,0,0,30,522,522,642,160,42,42

2017-09-26 16:30:31,#D#,27,9,728,12,102,1004,110,0,0,30,522,522,642,160,42,42

2017-09-26 16:30:32,#D#,28,0,754,12,102,1004,110,0,0,31,522,522,642,160,42,42

2017-09-26 16:30:32,#D#,28,1,754,12,102,1004,110,0,0,31,522,522,642,160,42,42

2017-09-26 16:30:32,#D#,28,2,754,12,102,1004,110,0,0,31,522,522,642,160,42,42

2017-09-26 16:30:32,#D#,28,3,754,12,102,1004,110,0,0,31,522,522,642,160,42,42

2017-09-26 16:30:32,#D#,28,4,754,12,102,1004,110,0,0,31,522,522,642,160,42,42

2017-09-26 16:30:32,#D#,28,5,754,12,102,1004,110,0,0,31,522,522,642,160,42,42

2017-09-26 16:30:32,#D#,28,6,754,12,102,1004,110,0,0,31,522,522,642,160,42,42

2017-09-26 16:30:32,#D#,28,7,754,12,102,1004,110,0,0,31,522,522,642,160,42,42

2017-09-26 16:30:32,#D#,28,8,754,12,102,1004,110,0,0,31,522,522,642,160,42,42

2017-09-26 16:30:32,#D#,28,9,754,12,102,1004,110,0,0,31,522,522,642,160,42,42

2017-09-26 16:30:32,#D#,29,0,780,12,102,1004,110,0,0,32,522,522,642,160,42,42

2017-09-26 16:30:32,#D#,29,1,780,12,102,1004,110,0,0,32,522,522,642,160,42,42

2017-09-26 16:30:32,#D#,29,2,780,12,102,1004,110,0,0,32,522,522,642,160,42,42

2017-09-26 16:30:32,#D#,29,3,780,12,102,1004,110,0,0,32,522,522,642,160,42,42

2017-09-26 16:30:32,#D#,29,4,780,12,102,1004,110,0,0,32,522,522,642,160,42,42

2017-09-26 16:30:32,#D#,29,5,780,12,102,1004,110,0,0,32,522,522,642,160,42,42

2017-09-26 16:30:32,#D#,29,6,780,12,102,1004,110,0,0,32,522,522,642,160,42,42

2017-09-26 16:30:32,#D#,29,7,780,12,102,1004,110,0,0,32,522,522,642,160,42,42

2017-09-26 16:30:33,#D#,29,8,780,12,102,1004,110,0,0,32,522,522,642,160,42,42

2017-09-26 16:30:33,#D#,29,9,780,12,102,1004,110,0,0,32,522,522,642,160,42,42

2017-09-26 16:30:33,#D#,30,0,806,12,102,1004,110,0,0,33,522,522,642,160,42,42

2017-09-26 16:30:33,#D#,30,1,806,12,102,1004,110,0,0,33,522,522,642,160,42,42

2017-09-26 16:30:33,#D#,30,2,806,12,102,1004,110,0,0,33,522,522,642,160,42,42

2017-09-26 16:30:33,#D#,30,3,806,12,102,1004,110,0,0,33,522,522,642,160,42,42

2017-09-26 16:30:33,#D#,30,4,806,12,102,1004,110,0,0,33,522,522,642,160,42,42

2017-09-26 16:30:33,#D#,30,5,806,12,102,1004,110,0,0,33,522,522,642,160,42,42

2017-09-26 16:30:33,#D#,30,6,806,12,102,1004,110,0,0,33,522,522,642,160,42,42

2017-09-26 16:30:33,#D#,30,7,806,12,102,1004,110,0,0,33,522,522,642,160,42,42

2017-09-26 16:30:33,#D#,30,8,806,12,102,1004,110,0,0,33,522,522,642,160,42,42

2017-09-26 16:30:33,#D#,30,9,806,12,102,1004,110,0,0,33,522,522,642,160,42,42

2017-09-26 16:30:34,#D#,31,0,832,12,102,1004,110,0,0,34,522,522,642,160,42,42

2017-09-26 16:30:34,#D#,31,1,832,12,102,1004,110,0,0,34,522,522,642,160,42,42

2017-09-26 16:30:34,#D#,31,2,832,12,102,1004,110,0,0,34,522,522,642,160,42,42

2017-09-26 16:30:34,#D#,31,3,832,12,102,1004,110,0,0,34,522,522,642,160,42,42

2017-09-26 16:30:34,#D#,31,4,832,12,102,1004,110,0,0,34,522,522,642,160,42,42

2017-09-26 16:30:34,#D#,31,5,832,12,102,1004,110,0,0,34,522,522,642,160,42,42

2017-09-26 16:30:34,#D#,31,6,832,12,102,1004,110,0,0,34,522,522,642,160,42,42

2017-09-26 16:30:34,#D#,31,7,832,12,102,1004,110,0,0,34,522,522,642,160,42,42

2017-09-26 16:30:34,#D#,31,8,832,12,102,1004,110,0,0,34,522,522,642,160,42,42

2017-09-26 16:30:34,#D#,31,9,832,12,102,1004,110,0,0,34,522,522,642,160,42,42

2017-09-26 16:30:35,#D#,32,0,858,12,102,1004,110,0,0,35,522,522,642,160,42,42

2017-09-26 16:30:35,#D#,32,1,858,12,102,1004,110,0,0,35,522,522,642,160,42,42

2017-09-26 16:30:35,#D#,32,2,858,12,102,1004,110,0,0,35,522,522,642,160,42,42

2017-09-26 16:30:35,#D#,32,3,858,12,102,1004,110,0,0,35,522,522,642,160,42,42

2017-09-26 16:30:35,#D#,32,4,858,12,102,1004,110,0,0,35,522,522,642,160,42,42

2017-09-26 16:30:35,#D#,32,5,858,12,102,1004,110,0,0,35,522,522,642,160,42,42

2017-09-26 16:30:35,#D#,32,6,858,12,102,1004,110,0,0,35,522,522,642,160,42,42

2017-09-26 16:30:35,#D#,32,7,858,12,102,1004,110,0,0,35,522,522,642,160,42,42

2017-09-26 16:30:35,#D#,32,8,858,12,102,1004,110,0,0,35,522,522,642,160,42,42

2017-09-26 16:30:35,#D#,32,9,858,12,102,1004,110,0,0,35,522,522,642,160,42,42

2017-09-26 16:30:36,#D#,33,0,884,12,102,1004,110,0,0,36,522,522,642,160,42,42

2017-09-26 16:30:36,#D#,33,1,884,12,102,1004,110,0,0,36,522,522,642,160,42,42

2017-09-26 16:30:36,#D#,33,2,884,12,102,1004,110,0,0,36,522,522,642,160,42,42

2017-09-26 16:30:36,#D#,33,3,884,12,102,1004,110,0,0,36,522,522,642,160,42,42

2017-09-26 16:30:36,#D#,33,4,884,12,102,1004,110,0,0,36,522,522,642,160,42,42

2017-09-26 16:30:36,#D#,33,5,884,12,102,1004,110,0,0,36,522,522,642,160,42,42

2017-09-26 16:30:36,#D#,33,6,884,12,102,1004,110,0,0,36,522,522,642,160,42,42

2017-09-26 16:30:36,#D#,33,7,884,12,102,1004,110,0,0,36,522,522,642,160,42,42

2017-09-26 16:30:36,#D#,33,8,884,12,102,1004,110,0,0,36,522,522,642,160,42,42

2017-09-26 16:30:36,#D#,33,9,884,12,102,1004,110,0,0,36,522,522,642,160,42,42

2017-09-26 16:30:37,#D#,34,0,910,12,102,1004,110,0,0,37,522,522,642,160,42,42

2017-09-26 16:30:37,#D#,34,1,910,12,102,1004,110,0,0,37,522,522,642,160,42,42

2017-09-26 16:30:37,#D#,34,2,910,12,102,1004,110,0,0,37,522,522,642,160,42,42

2017-09-26 16:30:37,#D#,34,3,910,12,102,1004,110,0,0,37,522,522,642,160,42,42

2017-09-26 16:30:37,#D#,34,4,910,12,102,1004,110,0,0,37,522,522,642,160,42,42

2017-09-26 16:30:37,#D#,34,5,910,12,102,1004,110,0,0,37,522,522,642,160,42,42

2017-09-26 16:30:37,#D#,34,6,910,12,102,1004,110,0,0,37,522,522,642,160,42,42

2017-09-26 16:30:37,#D#,34,7,910,12,102,1004,110,0,0,37,522,522,642,160,42,42

2017-09-26 16:30:37,#D#,34,8,910,12,102,1004,110,0,0,37,522,522,642,160,42,42

2017-09-26 16:30:37,#D#,34,9,910,12,102,1004,110,0,0,37,522,522,642,160,42,42

2017-09-26 16:30:38,#D#,35,0,936,12,102,1004,110,0,0,38,522,522,642,160,42,42

2017-09-26 16:30:38,#D#,35,1,936,12,102,1004,110,0,0,38,522,522,642,160,42,42

2017-09-26 16:30:38,#D#,35,2,936,12,102,1004,110,0,0,38,522,522,642,160,42,42

2017-09-26 16:30:38,#D#,35,3,936,12,102,1004,110,0,0,38,522,522,642,160,42,42

2017-09-26 16:30:38,#D#,35,4,936,12,102,1004,110,0,0,38,522,522,642,160,42,42

2017-09-26 16:30:38,#D#,35,5,936,12,102,1004,110,0,0,38,522,522,642,160,42,42

2017-09-26 16:30:38,#D#,35,6,936,12,102,1004,110,0,0,38,522,522,642,160,42,42

2017-09-26 16:30:38,#D#,35,7,936,12,102,1004,110,0,0,38,522,522,642,160,42,42

2017-09-26 16:30:38,#D#,35,8,936,12,102,1004,110,0,0,38,522,522,642,160,42,42

2017-09-26 16:30:38,#D#,35,9,936,12,102,1004,110,0,0,38,522,522,642,160,42,42

2017-09-26 16:30:39,#D#,36,0,962,12,102,1004,110,0,0,39,522,522,642,160,42,42

2017-09-26 16:30:39,#D#,36,1,962,12,102,1004,110,0,0,39,522,522,642,160,42,42

2017-09-26 16:30:39,#D#,36,2,962,12,102,1004,110,0,0,39,522,522,642,160,42,42

2017-09-26 16:30:39,#D#,36,3,962,12,102,1004,110,0,0,39,522,522,642,160,42,42

2017-09-26 16:30:39,#D#,36,4,962,12,102,1004,110,0,0,39,522,522,642,160,42,42

2017-09-26 16:30:39,#D#,36,5,962,12,102,1004,110,0,0,39,522,522,642,160,42,42

2017-09-26 16:30:39,#D#,36,6,962,12,102,1004,110,0,0,39,522,522,642,160,42,42

2017-09-26 16:30:39,#D#,36,7,962,12,102,1004,110,0,0,39,522,522,642,160,42,42

2017-09-26 16:30:39,#D#,36,8,962,12,102,1004,110,0,0,39,522,522,642,160,42,42

2017-09-26 16:30:39,#D#,36,9,962,12,102,1004,110,0,0,39,522,522,642,160,42,42

2017-09-26 16:30:40,#D#,37,0,988,12,102,1004,110,0,0,40,522,522,642,160,42,42

2017-09-26 16:30:40,#D#,37,1,988,12,102,1004,110,0,0,40,522,522,642,160,42,42

2017-09-26 16:30:40,#D#,37,2,988,12,102,1004,110,0,0,40,522,522,642,160,42,42

2017-09-26 16:30:40,#D#,37,3,988,12,102,1004,110,0,0,40,522,522,642,160,42,42

2017-09-26 16:30:40,#D#,37,4,988,12,102,1004,110,0,0,40,522,522,642,160,42,42

2017-09-26 16:30:40,#D#,37,5,988,12,102,1004,110,0,0,40,522,522,642,160,42,42

2017-09-26 16:30:40,#D#,37,6,988,12,102,1004,110,0,0,40,522,522,642,160,42,42

2017-09-26 16:30:40,#D#,37,7,988,12,102,1004,110,0,0,40,522,522,642,160,42,42

2017-09-26 16:30:40,#D#,37,8,988,12,102,1004,110,0,0,40,522,522,642,160,42,42

2017-09-26 16:30:40,#D#,37,9,988,12,102,1004,110,0,0,40,522,522,642,160,42,42

2017-09-26 16:30:40,#D#,38,0,1014,12,102,1004,110,0,0,41,522,522,642,160,42,42

2017-09-26 16:30:40,#D#,38,1,1014,12,102,1004,110,0,0,41,522,522,642,160,42,42

2017-09-26 16:30:40,#D#,38,2,1014,12,102,1004,110,0,0,41,522,522,642,160,42,42

2017-09-26 16:30:40,#D#,38,3,1014,12,102,1004,110,0,0,41,522,522,642,160,42,42

2017-09-26 16:30:40,#D#,38,4,1014,12,102,1004,110,0,0,41,522,522,642,160,42,42

2017-09-26 16:30:40,#D#,38,5,1014,12,102,1004,110,0,0,41,522,522,642,160,42,42

2017-09-26 16:30:40,#D#,38,6,1014,12,102,1004,110,0,0,41,522,522,642,160,42,42

2017-09-26 16:30:40,#D#,38,7,1014,12,102,1004,110,0,0,41,522,522,642,160,42,42

2017-09-26 16:30:40,#D#,38,8,1014,12,102,1004,110,0,0,41,522,522,642,160,42,42

2017-09-26 16:30:40,#D#,38,9,1014,12,102,1004,110,0,0,41,522,522,642,160,42,42

2017-09-26 16:30:41,#D#,39,0,1040,12,102,1004,110,0,0,42,522,522,642,160,42,42

2017-09-26 16:30:41,#D#,39,1,1040,12,102,1004,110,0,0,42,522,522,642,160,42,42

2017-09-26 16:30:41,#D#,39,2,1040,12,102,1004,110,0,0,42,522,522,642,160,42,42

2017-09-26 16:30:41,#D#,39,3,1040,12,102,1004,110,0,0,42,522,522,642,160,42,42

2017-09-26 16:30:41,#D#,39,4,1040,12,102,1004,110,0,0,42,522,522,642,160,42,42

2017-09-26 16:30:41,#D#,39,5,1040,12,102,1004,110,0,0,42,522,522,642,160,42,42

2017-09-26 16:30:41,#D#,39,6,1040,12,102,1004,110,0,0,42,522,522,642,160,42,42

2017-09-26 16:30:41,#D#,39,7,1040,12,102,1004,110,0,0,42,522,522,642,160,42,42

2017-09-26 16:30:41,#D#,39,8,1040,12,102,1004,110,0,0,42,522,522,642,160,42,42

2017-09-26 16:30:41,#D#,39,9,1040,12,102,1004,110,0,0,42,522,522,642,160,42,42

2017-09-26 16:30:42,#D#,40,0,1066,12,102,1004,110,0,0,43,522,522,642,160,42,42

2017-09-26 16:30:42,#D#,40,1,1066,12,102,1004,110,0,0,43,522,522,642,160,42,42

2017-09-26 16:30:42,#D#,40,2,1066,12,102,1004,110,0,0,43,522,522,642,160,42,42

2017-09-26 16:30:42,#D#,40,3,1066,12,102,1004,110,0,0,43,522,522,642,160,42,42

2017-09-26 16:30:42,#D#,40,4,1066,12,102,1004,110,0,0,43,522,522,642,160,42,42

2017-09-26 16:30:42,#D#,40,5,1066,12,102,1004,110,0,0,43,522,522,642,160,42,42

2017-09-26 16:30:42,#D#,40,6,1066,12,102,1004,110,0,0,43,522,522,642,160,42,42

2017-09-26 16:30:42,#D#,40,7,1066,12,102,1004,110,0,0,43,522,522,642,160,42,42

2017-09-26 16:30:42,#D#,40,8,1066,12,102,1004,110,0,0,43,522,522,642,160,42,42

2017-09-26 16:30:42,#D#,40,9,1066,12,102,1004,110,0,0,43,522,522,642,160,42,42

2017-09-26 16:30:43,#D#,41,0,1092,12,102,1004,110,0,0,44,522,522,642,160,42,42

2017-09-26 16:30:43,#D#,41,1,1092,12,102,1004,110,0,0,44,522,522,642,160,42,42

2017-09-26 16:30:43,#D#,41,2,1092,12,102,1004,110,0,0,44,522,522,642,160,42,42

2017-09-26 16:30:43,#D#,41,3,1092,12,102,1004,110,0,0,44,522,522,642,160,42,42

2017-09-26 16:30:43,#D#,41,4,1092,12,102,1004,110,0,0,44,522,522,642,160,42,42

2017-09-26 16:30:43,#D#,41,5,1092,12,102,1004,110,0,0,44,522,522,642,160,42,42

2017-09-26 16:30:43,#D#,41,6,1092,12,102,1004,110,0,0,44,522,522,642,160,42,42

2017-09-26 16:30:43,#D#,41,7,1092,12,102,1004,110,0,0,44,522,522,642,160,42,42

2017-09-26 16:30:43,#D#,41,8,1092,12,102,1004,110,0,0,44,522,522,642,160,42,42

2017-09-26 16:30:43,#D#,41,9,1092,12,102,1004,110,0,0,44,522,522,642,160,42,42

2017-09-26 16:30:44,#D#,42,0,1118,12,102,1004,110,0,0,45,522,522,642,160,42,42

2017-09-26 16:30:44,#D#,42,1,1118,12,102,1004,110,0,0,45,522,522,642,160,42,42

2017-09-26 16:30:44,#D#,42,2,1118,12,102,1004,110,0,0,45,522,522,642,160,42,42

2017-09-26 16:30:44,#D#,42,3,1118,12,102,1004,110,0,0,45,522,522,642,160,42,42

2017-09-26 16:30:44,#D#,42,4,1118,12,102,1004,110,0,0,45,522,522,642,160,42,42

2017-09-26 16:30:44,#D#,42,5,1118,12,102,1004,110,0,0,45,522,522,642,160,42,42

2017-09-26 16:30:44,#D#,42,6,1118,12,102,1004,110,0,0,45,522,522,642,160,42,42

2017-09-26 16:30:44,#D#,42,7,1118,12,102,1004,110,0,0,45,522,522,642,160,42,42

2017-09-26 16:30:44,#D#,42,8,1118,12,102,1004,110,0,0,45,522,522,642,160,42,42

2017-09-26 16:30:44,#D#,42,9,1118,12,102,1004,110,0,0,45,522,522,642,160,42,42

2017-09-26 16:30:45,#D#,43,0,1144,12,102,1004,110,0,0,46,522,522,642,160,42,42

2017-09-26 16:30:45,#D#,43,1,1144,12,102,1004,110,0,0,46,522,522,642,160,42,42

2017-09-26 16:30:45,#D#,43,2,1144,12,102,1004,110,0,0,46,522,522,642,160,42,42

2017-09-26 16:30:45,#D#,43,3,1144,12,102,1004,110,0,0,46,522,522,642,160,42,42

2017-09-26 16:30:45,#D#,43,4,1144,12,102,1004,110,0,0,46,522,522,642,160,42,42

2017-09-26 16:30:45,#D#,43,5,1144,12,102,1004,110,0,0,46,522,522,642,160,42,42

2017-09-26 16:30:45,#D#,43,6,1144,12,102,1004,110,0,0,46,522,522,642,160,42,42

2017-09-26 16:30:45,#D#,43,7,1144,12,102,1004,110,0,0,46,522,522,642,160,42,42

2017-09-26 16:30:45,#D#,43,8,1144,12,102,1004,110,0,0,46,522,522,642,160,42,42

2017-09-26 16:30:45,#D#,43,9,1144,12,102,1004,110,0,0,46,522,522,642,160,42,42

2017-09-26 16:30:46,#D#,44,0,1170,12,102,1004,110,0,0,47,522,522,642,160,42,42

2017-09-26 16:30:46,#D#,44,1,1170,12,102,1004,110,0,0,47,522,522,642,160,42,42

2017-09-26 16:30:46,#D#,44,2,1170,12,102,1004,110,0,0,47,522,522,642,160,42,42

2017-09-26 16:30:46,#D#,44,3,1170,12,102,1004,110,0,0,47,522,522,642,160,42,42

2017-09-26 16:30:46,#D#,44,4,1170,12,102,1004,110,0,0,47,522,522,642,160,42,42

2017-09-26 16:30:46,#D#,44,5,1170,12,102,1004,110,0,0,47,522,522,642,160,42,42

2017-09-26 16:30:46,#D#,44,6,1170,12,102,1004,110,0,0,47,522,522,642,160,42,42

2017-09-26 16:30:46,#D#,44,7,1170,12,102,1004,110,0,0,47,522,522,642,160,42,42

2017-09-26 16:30:46,#D#,44,8,1170,12,102,1004,110,0,0,47,522,522,642,160,42,42

2017-09-26 16:30:46,#D#,44,9,1170,12,102,1004,110,0,0,47,522,522,642,160,42,42

2017-09-26 16:30:47,#D#,45,0,1196,12,102,1004,110,0,0,48,522,522,642,160,42,42

2017-09-26 16:30:47,#D#,45,1,1196,12,102,1004,110,0,0,48,522,522,642,160,42,42

2017-09-26 16:30:47,#D#,45,2,1196,12,102,1004,110,0,0,48,522,522,642,160,42,42

2017-09-26 16:30:47,#D#,45,3,1196,12,102,1004,110,0,0,48,522,522,642,160,42,42

2017-09-26 16:30:47,#D#,45,4,1196,12,102,1004,110,0,0,48,522,522,642,160,42,42

2017-09-26 16:30:47,#D#,45,5,1196,12,102,1004,110,0,0,48,522,522,642,160,42,42

2017-09-26 16:30:47,#D#,45,6,1196,12,102,1004,110,0,0,48,522,522,642,160,42,42

2017-09-26 16:30:47,#D#,45,7,1196,12,102,1004,110,0,0,48,522,522,642,160,42,42

2017-09-26 16:30:47,#D#,45,8,1196,12,102,1004,110,0,0,48,522,522,642,160,42,42

2017-09-26 16:30:47,#D#,45,9,1196,12,102,1004,110,0,0,48,522,522,642,160,42,42

2017-09-26 16:30:48,#D#,46,0,1222,12,102,1004,110,0,0,49,522,522,642,160,42,42

2017-09-26 16:30:48,#D#,46,1,1222,12,102,1004,110,0,0,49,522,522,642,160,42,42

2017-09-26 16:30:48,#D#,46,2,1222,12,102,1004,110,0,0,49,522,522,642,160,42,42

2017-09-26 16:30:48,#D#,46,3,1222,12,102,1004,110,0,0,49,522,522,642,160,42,42

2017-09-26 16:30:48,#D#,46,4,1222,12,102,1004,110,0,0,49,522,522,642,160,42,42

2017-09-26 16:30:48,#D#,46,5,1222,12,102,1004,110,0,0,49,522,522,642,160,42,42

2017-09-26 16:30:48,#D#,46,6,1222,12,102,1004,110,0,0,49,522,522,642,160,42,42

2017-09-26 16:30:48,#D#,46,7,1222,12,102,1004,110,0,0,49,522,522,642,160,42,42

2017-09-26 16:30:48,#D#,46,8,1222,12,102,1004,110,0,0,49,522,522,642,160,42,42

2017-09-26 16:30:48,#D#,46,9,1222,12,102,1004,110,0,0,49,522,522,642,160,42,42

2017-09-26 16:30:48,#D#,47,0,1248,12,102,1004,110,0,0,50,522,522,642,160,42,42

2017-09-26 16:30:48,#D#,47,1,1248,12,102,1004,110,0,0,50,522,522,642,160,42,42

2017-09-26 16:30:48,#D#,47,2,1248,12,102,1004,110,0,0,50,522,522,642,160,42,42

2017-09-26 16:30:48,#D#,47,3,1248,12,102,1004,110,0,0,50,522,522,642,160,42,42

2017-09-26 16:30:48,#D#,47,4,1248,12,102,1004,110,0,0,50,522,522,642,160,42,42

2017-09-26 16:30:48,#D#,47,5,1248,12,102,1004,110,0,0,50,522,522,642,160,42,42

2017-09-26 16:30:48,#D#,47,6,1248,12,102,1004,110,0,0,50,522,522,642,160,42,42

2017-09-26 16:30:48,#D#,47,7,1248,12,102,1004,110,0,0,50,522,522,642,160,42,42

2017-09-26 16:30:48,#D#,47,8,1248,12,102,1004,110,0,0,50,522,522,642,160,42,42

2017-09-26 16:30:48,#D#,47,9,1248,12,102,1004,110,0,0,50,522,522,642,160,42,42

2017-09-26 16:30:49,#D#,48,0,1274,12,102,1004,110,0,0,51,522,522,642,160,42,42

2017-09-26 16:30:49,#D#,48,1,1274,12,102,1004,110,0,0,51,522,522,642,160,42,42

2017-09-26 16:30:49,#D#,48,2,1274,12,102,1004,110,0,0,51,522,522,642,160,42,42

2017-09-26 16:30:49,#D#,48,3,1274,12,102,1004,110,0,0,51,522,522,642,160,42,42

2017-09-26 16:30:49,#D#,48,4,1274,12,102,1004,110,0,0,51,522,522,642,160,42,42

2017-09-26 16:30:49,#D#,48,5,1274,12,102,1004,110,0,0,51,522,522,642,160,42,42

2017-09-26 16:30:49,#D#,48,6,1274,12,102,1004,110,0,0,51,522,522,642,160,42,42

2017-09-26 16:30:49,#D#,48,7,1274,12,102,1004,110,0,0,51,522,522,642,160,42,42

2017-09-26 16:30:49,#D#,48,8,1274,12,102,1004,110,0,0,51,522,522,642,160,42,42

2017-09-26 16:30:49,#D#,48,9,1274,12,102,1004,110,0,0,51,522,522,642,160,42,42

2017-09-26 16:30:50,#D#,49,0,1300,12,102,1004,110,0,0,51,522,522,642,160,42,42

2017-09-26 16:30:50,#D#,49,1,1300,12,102,1004,110,0,0,51,522,522,642,160,42,42

2017-09-26 16:30:50,#D#,49,2,1300,12,102,1004,110,0,0,51,522,522,642,160,42,42

2017-09-26 16:30:50,#D#,49,3,1300,12,102,1004,110,0,0,51,522,522,642,160,42,42

2017-09-26 16:30:50,#D#,49,4,1300,12,102,1004,110,0,0,51,522,522,642,160,42,42

2017-09-26 16:30:50,#D#,49,5,1300,12,102,1004,110,0,0,51,522,522,642,160,42,42

2017-09-26 16:30:50,#D#,49,6,1300,12,102,1004,110,0,0,51,522,522,642,160,42,42

2017-09-26 16:30:50,#D#,49,7,1300,12,102,1004,110,0,0,51,522,522,642,160,42,42

2017-09-26 16:30:50,#D#,49,8,1300,12,102,1004,110,0,0,51,522,522,642,160,42,42

2017-09-26 16:30:50,#D#,49,9,1300,12,102,1004,110,0,0,51,522,522,642,160,42,42

2017-09-26 16:30:51,#D#,50,0,1326,12,102,1004,110,0,0,52,522,522,642,160,42,42

2017-09-26 16:30:51,#D#,50,1,1326,12,102,1004,110,0,0,52,522,522,642,160,42,42

2017-09-26 16:30:51,#D#,50,2,1326,12,102,1004,110,0,0,52,522,522,642,160,42,42

2017-09-26 16:30:51,#D#,50,3,1326,12,102,1004,110,0,0,52,522,522,642,160,42,42

2017-09-26 16:30:51,#D#,50,4,1326,12,102,1004,110,0,0,52,522,522,642,160,42,42

2017-09-26 16:30:51,#D#,50,5,1326,12,102,1004,110,0,0,52,522,522,642,160,42,42

2017-09-26 16:30:51,#D#,50,6,1326,12,102,1004,110,0,0,52,522,522,642,160,42,42

2017-09-26 16:30:51,#D#,50,7,1326,12,102,1004,110,0,0,52,522,522,642,160,42,42

2017-09-26 16:30:51,#D#,50,8,1326,12,102,1004,110,0,0,52,522,522,642,160,42,42

2017-09-26 16:30:51,#D#,50,9,1326,12,102,1004,110,0,0,52,522,522,642,160,42,42

2017-09-26 16:30:52,#D#,51,0,1352,12,102,1004,110,0,0,54,522,522,642,160,42,42

2017-09-26 16:30:52,#D#,51,1,1352,12,102,1004,110,0,0,54,522,522,642,160,42,42

2017-09-26 16:30:52,#D#,51,2,1352,12,102,1004,110,0,0,54,522,522,642,160,42,42

2017-09-26 16:30:52,#D#,51,3,1352,12,102,1004,110,0,0,54,522,522,642,160,42,42

2017-09-26 16:30:52,#D#,51,4,1352,12,102,1004,110,0,0,54,522,522,642,160,42,42

2017-09-26 16:30:52,#D#,51,5,1352,12,102,1004,110,0,0,54,522,522,642,160,42,42

2017-09-26 16:30:52,#D#,51,6,1352,12,102,1004,110,0,0,54,522,522,642,160,42,42

2017-09-26 16:30:52,#D#,51,7,1352,12,102,1004,110,0,0,54,522,522,642,160,42,42

2017-09-26 16:30:52,#D#,51,8,1352,12,102,1004,110,0,0,54,522,522,642,160,42,42

2017-09-26 16:30:52,#D#,51,9,1352,12,102,1004,110,0,0,54,522,522,642,160,42,42

2017-09-26 16:30:53,#D#,52,0,1378,12,102,1004,110,0,0,55,522,522,642,160,42,42

2017-09-26 16:30:53,#D#,52,1,1378,12,102,1004,110,0,0,55,522,522,642,160,42,42

2017-09-26 16:30:53,#D#,52,2,1378,12,102,1004,110,0,0,55,522,522,642,160,42,42

2017-09-26 16:30:53,#D#,52,3,1378,12,102,1004,110,0,0,55,522,522,642,160,42,42

2017-09-26 16:30:53,#D#,52,4,1378,12,102,1004,110,0,0,55,522,522,642,160,42,42

2017-09-26 16:30:53,#D#,52,5,1378,12,102,1004,110,0,0,55,522,522,642,160,42,42

2017-09-26 16:30:53,#D#,52,6,1378,12,102,1004,110,0,0,55,522,522,642,160,42,42

2017-09-26 16:30:53,#D#,52,7,1378,12,102,1004,110,0,0,55,522,522,642,160,42,42

2017-09-26 16:30:53,#D#,52,8,1378,12,102,1004,110,0,0,55,522,522,642,160,42,42

2017-09-26 16:30:53,#D#,52,9,1378,12,102,1004,110,0,0,55,522,522,642,160,42,42

2017-09-26 16:30:54,#D#,53,0,1404,12,102,1004,110,0,0,55,522,522,642,160,42,42

2017-09-26 16:30:54,#D#,53,1,1404,12,102,1004,110,0,0,55,522,522,642,160,42,42

2017-09-26 16:30:54,#D#,53,2,1404,12,102,1004,110,0,0,55,522,522,642,160,42,42

2017-09-26 16:30:54,#D#,53,3,1404,12,102,1004,110,0,0,55,522,522,642,160,42,42

2017-09-26 16:30:54,#D#,53,4,1404,12,102,1004,110,0,0,55,522,522,642,160,42,42

2017-09-26 16:30:54,#D#,53,5,1404,12,102,1004,110,0,0,55,522,522,642,160,42,42

2017-09-26 16:30:54,#D#,53,6,1404,12,102,1004,110,0,0,55,522,522,642,160,42,42

2017-09-26 16:30:54,#D#,53,7,1404,12,102,1004,110,0,0,55,522,522,642,160,42,42

2017-09-26 16:30:54,#D#,53,8,1404,12,102,1004,110,0,0,55,522,522,642,160,42,42

2017-09-26 16:30:54,#D#,53,9,1404,12,102,1004,110,0,0,55,522,522,642,160,42,42

2017-09-26 16:30:55,#D#,54,0,1430,12,102,1004,110,0,0,56,522,522,642,160,42,42

2017-09-26 16:30:55,#D#,54,1,1430,12,102,1004,110,0,0,56,522,522,642,160,42,42

2017-09-26 16:30:55,#D#,54,2,1430,12,102,1004,110,0,0,56,522,522,642,160,42,42

2017-09-26 16:30:55,#D#,54,3,1430,12,102,1004,110,0,0,56,522,522,642,160,42,42

2017-09-26 16:30:55,#D#,54,4,1430,12,102,1004,110,0,0,56,522,522,642,160,42,42

2017-09-26 16:30:55,#D#,54,5,1430,12,102,1004,110,0,0,56,522,522,642,160,42,42

2017-09-26 16:30:55,#D#,54,6,1430,12,102,1004,110,0,0,56,522,522,642,160,42,42

2017-09-26 16:30:55,#D#,54,7,1430,12,102,1004,110,0,0,56,522,522,642,160,42,42

2017-09-26 16:30:55,#D#,54,8,1430,12,102,1004,110,0,0,56,522,522,642,160,42,42

2017-09-26 16:30:55,#D#,54,9,1430,12,102,1004,110,0,0,56,522,522,642,160,42,42

2017-09-26 16:30:56,#D#,55,0,1456,12,102,1004,110,0,0,58,522,522,642,160,42,42

2017-09-26 16:30:56,#D#,55,1,1456,12,102,1004,110,0,0,58,522,522,642,160,42,42

2017-09-26 16:30:56,#D#,55,2,1456,12,102,1004,110,0,0,58,522,522,642,160,42,42

2017-09-26 16:30:56,#D#,55,3,1456,12,102,1004,110,0,0,58,522,522,642,160,42,42

2017-09-26 16:30:56,#D#,55,4,1456,12,102,1004,110,0,0,58,522,522,642,160,42,42

2017-09-26 16:30:56,#D#,55,5,1456,12,102,1004,110,0,0,58,522,522,642,160,42,42

2017-09-26 16:30:56,#D#,55,6,1456,12,102,1004,110,0,0,58,522,522,642,160,42,42

2017-09-26 16:30:56,#D#,55,7,1456,12,102,1004,110,0,0,58,522,522,642,160,42,42

2017-09-26 16:30:56,#D#,55,8,1456,12,102,1004,110,0,0,58,522,522,642,160,42,42

2017-09-26 16:30:56,#D#,55,9,1456,12,102,1004,110,0,0,58,522,522,642,160,42,42

2017-09-26 16:30:56,#D#,56,0,1482,12,102,1004,110,0,0,0,522,522,642,160,42,42

2017-09-26 16:30:56,#D#,56,1,1482,12,102,1004,110,0,0,0,522,522,642,160,42,42

2017-09-26 16:30:56,#D#,56,2,1482,12,102,1004,110,0,0,0,522,522,642,160,42,42

2017-09-26 16:30:56,#D#,56,3,1482,12,102,1004,110,0,0,0,522,522,642,160,42,42

2017-09-26 16:30:56,#D#,56,4,1482,12,102,1004,110,0,0,0,522,522,642,160,42,42

2017-09-26 16:30:56,#D#,56,5,1482,12,102,1004,110,0,0,0,522,522,642,160,42,42

2017-09-26 16:30:56,#D#,56,6,1482,12,102,1004,110,0,0,0,522,522,642,160,42,42

2017-09-26 16:30:56,#D#,56,7,1482,12,102,1004,110,0,0,0,522,522,642,160,42,42

2017-09-26 16:30:56,#D#,56,8,1482,12,102,1004,110,0,0,0,522,522,642,160,42,42

2017-09-26 16:30:56,#D#,56,9,1482,12,102,1004,110,0,0,0,522,522,642,160,42,42

2017-09-26 16:30:57,#D#,57,0,1508,12,102,1004,0,0,0,0,522,522,642,160,42,42

2017-09-26 16:30:57,#D#,57,1,1508,12,102,1004,0,0,0,0,522,522,642,160,42,42

2017-09-26 16:30:57,#D#,57,2,1508,12,102,1004,0,0,0,0,522,522,642,160,42,42

2017-09-26 16:30:57,#D#,57,3,1508,12,102,1004,0,0,0,0,522,522,642,160,42,42

2017-09-26 16:30:57,#D#,57,4,1508,12,102,1004,0,0,0,0,522,522,642,160,42,42

2017-09-26 16:30:57,#D#,57,5,1508,12,102,1004,0,0,0,0,522,522,642,160,42,42

2017-09-26 16:30:57,#D#,57,6,1508,12,102,1004,0,0,0,0,522,522,642,160,42,42

2017-09-26 16:30:57,#D#,57,7,1508,12,102,1004,0,0,0,0,522,522,642,160,42,42

2017-09-26 16:30:57,#D#,57,8,1508,12,102,1004,0,0,0,0,522,522,642,160,42,42

2017-09-26 16:30:57,#D#,57,9,1508,12,102,1004,0,0,0,0,522,522,642,160,42,42

2017-09-26 16:30:58,#D#,58,0,1534,12,102,1004,0,0,0,0,522,522,642,160,42,42

2017-09-26 16:30:58,#D#,58,1,1534,12,102,1004,0,0,0,0,522,522,642,160,42,42

2017-09-26 16:30:58,#D#,58,2,1534,12,102,1004,0,0,0,0,522,522,642,160,42,42

2017-09-26 16:30:58,#D#,58,3,1534,12,102,1004,0,0,0,0,522,522,642,160,42,42

2017-09-26 16:30:58,#D#,58,4,1534,12,102,1004,0,0,0,0,522,522,642,160,42,42

2017-09-26 16:30:58,#D#,58,5,1534,12,102,1004,0,0,0,0,522,522,642,160,42,42

2017-09-26 16:30:58,#D#,58,6,1534,12,102,1004,0,0,0,0,522,522,642,160,42,42

2017-09-26 16:30:58,#D#,58,7,1534,12,102,1004,0,0,0,0,522,522,642,160,42,42

2017-09-26 16:30:58,#D#,58,8,1534,12,102,1004,0,0,0,0,522,522,642,160,42,42

2017-09-26 16:30:58,#D#,58,9,1534,12,102,1004,0,0,0,0,522,522,642,160,42,42

2017-09-26 16:30:59,#D#,59,0,1560,12,102,1004,0,0,0,0,522,522,642,160,42,42

2017-09-26 16:30:59,#D#,59,1,1560,12,102,1004,0,0,0,0,522,522,642,160,42,42

2017-09-26 16:30:59,#D#,59,2,1560,12,102,1004,0,0,0,0,522,522,642,160,42,42

2017-09-26 16:30:59,#D#,59,3,1560,12,102,1004,0,0,0,0,522,522,642,160,42,42

2017-09-26 16:30:59,#D#,59,4,1560,12,102,1004,0,0,0,0,522,522,642,160,42,42

2017-09-26 16:30:59,#D#,59,5,1560,12,102,1004,0,0,0,0,522,522,642,160,42,42

2017-09-26 16:30:59,#D#,59,6,1560,12,102,1004,0,0,0,0,522,522,642,160,42,42

2017-09-26 16:30:59,#D#,59,7,1560,12,102,1004,0,0,0,0,522,522,642,160,42,42

2017-09-26 16:30:59,#D#,59,8,1560,12,102,1004,0,0,0,0,522,522,642,160,42,42

2017-09-26 16:30:59,#D#,59,9,1560,12,102,1004,0,0,0,0,522,522,642,160,42,42

2017-09-26 16:31:00,#D#,60,0,1586,12,102,1004,110,0,0,62,522,522,642,160,42,42

2017-09-26 16:31:00,#D#,60,1,1586,12,102,1004,110,0,0,62,522,522,642,160,42,42

2017-09-26 16:31:00,#D#,60,2,1586,12,102,1004,110,0,0,62,522,522,642,160,42,42

2017-09-26 16:31:00,#D#,60,3,1586,12,102,1004,110,0,0,62,522,522,642,160,42,42

2017-09-26 16:31:00,#D#,60,4,1586,12,102,1004,110,0,0,62,522,522,642,160,42,42

2017-09-26 16:31:00,#D#,60,5,1586,12,102,1004,110,0,0,62,522,522,642,160,42,42

2017-09-26 16:31:00,#D#,60,6,1586,12,102,1004,110,0,0,62,522,522,642,160,42,42

2017-09-26 16:31:00,#D#,60,7,1586,12,102,1004,110,0,0,62,522,522,642,160,42,42

2017-09-26 16:31:00,#D#,60,8,1586,12,102,1004,110,0,0,62,522,522,642,160,42,42

2017-09-26 16:31:00,#D#,60,9,1586,12,102,1004,110,0,0,62,522,522,642,160,42,42

2017-09-26 16:31:01,#D#,61,0,1612,12,102,1004,110,0,0,63,522,522,642,160,42,42

2017-09-26 16:31:01,#D#,61,1,1612,12,102,1004,110,0,0,63,522,522,642,160,42,42

2017-09-26 16:31:01,#D#,61,2,1612,12,102,1004,110,0,0,63,522,522,642,160,42,42

2017-09-26 16:31:01,#D#,61,3,1612,12,102,1004,110,0,0,63,522,522,642,160,42,42

2017-09-26 16:31:01,#D#,61,4,1612,12,102,1004,110,0,0,63,522,522,642,160,42,42

2017-09-26 16:31:01,#D#,61,5,1612,12,102,1004,110,0,0,63,522,522,642,160,42,42

2017-09-26 16:31:01,#D#,61,6,1612,12,102,1004,110,0,0,63,522,522,642,160,42,42

2017-09-26 16:31:01,#D#,61,7,1612,12,102,1004,110,0,0,63,522,522,642,160,42,42

2017-09-26 16:31:01,#D#,61,8,1612,12,102,1004,110,0,0,63,522,522,642,160,42,42

2017-09-26 16:31:01,#D#,61,9,1612,12,102,1004,110,0,0,63,522,522,642,160,42,42

2017-09-26 16:31:02,#D#,62,0,1638,12,102,1004,110,0,0,64,522,522,642,160,42,42

2017-09-26 16:31:02,#D#,62,1,1638,12,102,1004,110,0,0,64,522,522,642,160,42,42

2017-09-26 16:31:02,#D#,62,2,1638,12,102,1004,110,0,0,64,522,522,642,160,42,42

2017-09-26 16:31:02,#D#,62,3,1638,12,102,1004,110,0,0,64,522,522,642,160,42,42

2017-09-26 16:31:02,#D#,62,4,1638,12,102,1004,110,0,0,64,522,522,642,160,42,42

2017-09-26 16:31:02,#D#,62,5,1638,12,102,1004,110,0,0,64,522,522,642,160,42,42

2017-09-26 16:31:02,#D#,62,6,1638,12,102,1004,110,0,0,64,522,522,642,160,42,42

2017-09-26 16:31:02,#D#,62,7,1638,12,102,1004,110,0,0,64,522,522,642,160,42,42

2017-09-26 16:31:02,#D#,62,8,1638,12,102,1004,110,0,0,64,522,522,642,160,42,42

2017-09-26 16:31:02,#D#,62,9,1638,12,102,1004,110,0,0,64,522,522,642,160,42,42

2017-09-26 16:31:03,#D#,63,0,1664,12,102,1004,110,0,0,65,522,522,642,160,42,42

2017-09-26 16:31:03,#D#,63,1,1664,12,102,1004,110,0,0,65,522,522,642,160,42,42

2017-09-26 16:31:03,#D#,63,2,1664,12,102,1004,110,0,0,65,522,522,642,160,42,42

2017-09-26 16:31:03,#D#,63,3,1664,12,102,1004,110,0,0,65,522,522,642,160,42,42

2017-09-26 16:31:03,#D#,63,4,1664,12,102,1004,110,0,0,65,522,522,642,160,42,42

2017-09-26 16:31:03,#D#,63,5,1664,12,102,1004,110,0,0,65,522,522,642,160,42,42

2017-09-26 16:31:03,#D#,63,6,1664,12,102,1004,110,0,0,65,522,522,642,160,42,42

2017-09-26 16:31:03,#D#,63,7,1664,12,102,1004,110,0,0,65,522,522,642,160,42,42

2017-09-26 16:31:03,#D#,63,8,1664,12,102,1004,110,0,0,65,522,522,642,160,42,42

2017-09-26 16:31:03,#D#,63,9,1664,12,102,1004,110,0,0,65,522,522,642,160,42,42

2017-09-26 16:31:03,#D#,64,0,1690,12,102,1004,110,0,0,66,522,522,642,160,42,42

2017-09-26 16:31:03,#D#,64,1,1690,12,102,1004,110,0,0,66,522,522,642,160,42,42

2017-09-26 16:31:03,#D#,64,2,1690,12,102,1004,110,0,0,66,522,522,642,160,42,42

2017-09-26 16:31:03,#D#,64,3,1690,12,102,1004,110,0,0,66,522,522,642,160,42,42

2017-09-26 16:31:03,#D#,64,4,1690,12,102,1004,110,0,0,66,522,522,642,160,42,42

2017-09-26 16:31:03,#D#,64,5,1690,12,102,1004,110,0,0,66,522,522,642,160,42,42

2017-09-26 16:31:03,#D#,64,6,1690,12,102,1004,110,0,0,66,522,522,642,160,42,42

2017-09-26 16:31:03,#D#,64,7,1690,12,102,1004,110,0,0,66,522,522,642,160,42,42

2017-09-26 16:31:03,#D#,64,8,1690,12,102,1004,110,0,0,66,522,522,642,160,42,42

2017-09-26 16:31:04,#D#,64,9,1690,12,102,1004,110,0,0,66,522,522,642,160,42,42

2017-09-26 16:31:04,#D#,65,0,1716,12,102,1004,110,0,0,67,522,522,642,160,42,42

2017-09-26 16:31:04,#D#,65,1,1716,12,102,1004,110,0,0,67,522,522,642,160,42,42

2017-09-26 16:31:04,#D#,65,2,1716,12,102,1004,110,0,0,67,522,522,642,160,42,42

2017-09-26 16:31:04,#D#,65,3,1716,12,102,1004,110,0,0,67,522,522,642,160,42,42

2017-09-26 16:31:04,#D#,65,4,1716,12,102,1004,110,0,0,67,522,522,642,160,42,42

2017-09-26 16:31:04,#D#,65,5,1716,12,102,1004,110,0,0,67,522,522,642,160,42,42

2017-09-26 16:31:04,#D#,65,6,1716,12,102,1004,110,0,0,67,522,522,642,160,42,42

2017-09-26 16:31:04,#D#,65,7,1716,12,102,1004,110,0,0,67,522,522,642,160,42,42

2017-09-26 16:31:04,#D#,65,8,1716,12,102,1004,110,0,0,67,522,522,642,160,42,42

2017-09-26 16:31:04,#D#,65,9,1716,12,102,1004,110,0,0,67,522,522,642,160,42,42

2017-09-26 16:31:05,#D#,66,0,1742,12,102,1004,110,0,0,68,522,522,642,160,42,42

2017-09-26 16:31:05,#D#,66,1,1742,12,102,1004,110,0,0,68,522,522,642,160,42,42

2017-09-26 16:31:05,#D#,66,2,1742,12,102,1004,110,0,0,68,522,522,642,160,42,42

2017-09-26 16:31:05,#D#,66,3,1742,12,102,1004,110,0,0,68,522,522,642,160,42,42

2017-09-26 16:31:05,#D#,66,4,1742,12,102,1004,110,0,0,68,522,522,642,160,42,42

2017-09-26 16:31:05,#D#,66,5,1742,12,102,1004,110,0,0,68,522,522,642,160,42,42

2017-09-26 16:31:05,#D#,66,6,1742,12,102,1004,110,0,0,68,522,522,642,160,42,42

2017-09-26 16:31:05,#D#,66,7,1742,12,102,1004,110,0,0,68,522,522,642,160,42,42

2017-09-26 16:31:05,#D#,66,8,1742,12,102,1004,110,0,0,68,522,522,642,160,42,42

2017-09-26 16:31:05,#D#,66,9,1742,12,102,1004,110,0,0,68,522,522,642,160,42,42

2017-09-26 16:31:06,#D#,67,0,1768,12,102,1004,110,0,0,69,522,522,642,160,42,42

2017-09-26 16:31:06,#D#,67,1,1768,12,102,1004,110,0,0,69,522,522,642,160,42,42

2017-09-26 16:31:06,#D#,67,2,1768,12,102,1004,110,0,0,69,522,522,642,160,42,42

2017-09-26 16:31:06,#D#,67,3,1768,12,102,1004,110,0,0,69,522,522,642,160,42,42

2017-09-26 16:31:06,#D#,67,4,1768,12,102,1004,110,0,0,69,522,522,642,160,42,42

2017-09-26 16:31:06,#D#,67,5,1768,12,102,1004,110,0,0,69,522,522,642,160,42,42

2017-09-26 16:31:06,#D#,67,6,1768,12,102,1004,110,0,0,69,522,522,642,160,42,42

2017-09-26 16:31:06,#D#,67,7,1768,12,102,1004,110,0,0,69,522,522,642,160,42,42

2017-09-26 16:31:06,#D#,67,8,1768,12,102,1004,110,0,0,69,522,522,642,160,42,42

2017-09-26 16:31:06,#D#,67,9,1768,12,102,1004,110,0,0,69,522,522,642,160,42,42

2017-09-26 16:31:07,#D#,68,0,1794,12,102,1004,110,0,0,70,522,522,642,160,42,42

2017-09-26 16:31:07,#D#,68,1,1794,12,102,1004,110,0,0,70,522,522,642,160,42,42

2017-09-26 16:31:07,#D#,68,2,1794,12,102,1004,110,0,0,70,522,522,642,160,42,42

2017-09-26 16:31:07,#D#,68,3,1794,12,102,1004,110,0,0,70,522,522,642,160,42,42

2017-09-26 16:31:07,#D#,68,4,1794,12,102,1004,110,0,0,70,522,522,642,160,42,42

2017-09-26 16:31:07,#D#,68,5,1794,12,102,1004,110,0,0,70,522,522,642,160,42,42

2017-09-26 16:31:07,#D#,68,6,1794,12,102,1004,110,0,0,70,522,522,642,160,42,42

2017-09-26 16:31:07,#D#,68,7,1794,12,102,1004,110,0,0,70,522,522,642,160,42,42

2017-09-26 16:31:07,#D#,68,8,1794,12,102,1004,110,0,0,70,522,522,642,160,42,42

2017-09-26 16:31:07,#D#,68,9,1794,12,102,1004,110,0,0,70,522,522,642,160,42,42

2017-09-26 16:31:08,#D#,69,0,1820,12,102,1004,110,0,0,71,522,522,642,160,42,42

2017-09-26 16:31:08,#D#,69,1,1820,12,102,1004,110,0,0,71,522,522,642,160,42,42

2017-09-26 16:31:08,#D#,69,2,1820,12,102,1004,110,0,0,71,522,522,642,160,42,42

2017-09-26 16:31:08,#D#,69,3,1820,12,102,1004,110,0,0,71,522,522,642,160,42,42

2017-09-26 16:31:08,#D#,69,4,1820,12,102,1004,110,0,0,71,522,522,642,160,42,42

2017-09-26 16:31:08,#D#,69,5,1820,12,102,1004,110,0,0,71,522,522,642,160,42,42

2017-09-26 16:31:08,#D#,69,6,1820,12,102,1004,110,0,0,71,522,522,642,160,42,42

2017-09-26 16:31:08,#D#,69,7,1820,12,102,1004,110,0,0,71,522,522,642,160,42,42

2017-09-26 16:31:08,#D#,69,8,1820,12,102,1004,110,0,0,71,522,522,642,160,42,42

2017-09-26 16:31:08,#D#,69,9,1820,12,102,1004,110,0,0,71,522,522,642,160,42,42

2017-09-26 16:31:09,#D#,70,0,1846,12,102,1004,110,0,0,72,522,522,642,160,42,42

2017-09-26 16:31:09,#D#,70,1,1846,12,102,1004,110,0,0,72,522,522,642,160,42,42

2017-09-26 16:31:09,#D#,70,2,1846,12,102,1004,110,0,0,72,522,522,642,160,42,42

2017-09-26 16:31:09,#D#,70,3,1846,12,102,1004,110,0,0,72,522,522,642,160,42,42

2017-09-26 16:31:09,#D#,70,4,1846,12,102,1004,110,0,0,72,522,522,642,160,42,42

2017-09-26 16:31:09,#D#,70,5,1846,12,102,1004,110,0,0,72,522,522,642,160,42,42

2017-09-26 16:31:09,#D#,70,6,1846,12,102,1004,110,0,0,72,522,522,642,160,42,42

2017-09-26 16:31:09,#D#,70,7,1846,12,102,1004,110,0,0,72,522,522,642,160,42,42

2017-09-26 16:31:09,#D#,70,8,1846,12,102,1004,110,0,0,72,522,522,642,160,42,42

2017-09-26 16:31:09,#D#,70,9,1846,12,102,1004,110,0,0,72,522,522,642,160,42,42

2017-09-26 16:31:10,#D#,71,0,1872,12,102,1004,110,0,0,73,522,522,642,160,42,42

2017-09-26 16:31:10,#D#,71,1,1872,12,102,1004,110,0,0,73,522,522,642,160,42,42

2017-09-26 16:31:10,#D#,71,2,1872,12,102,1004,110,0,0,73,522,522,642,160,42,42

2017-09-26 16:31:10,#D#,71,3,1872,12,102,1004,110,0,0,73,522,522,642,160,42,42

2017-09-26 16:31:10,#D#,71,4,1872,12,102,1004,110,0,0,73,522,522,642,160,42,42

2017-09-26 16:31:10,#D#,71,5,1872,12,102,1004,110,0,0,73,522,522,642,160,42,42

2017-09-26 16:31:10,#D#,71,6,1872,12,102,1004,110,0,0,73,522,522,642,160,42,42

2017-09-26 16:31:10,#D#,71,7,1872,12,102,1004,110,0,0,73,522,522,642,160,42,42

2017-09-26 16:31:10,#D#,71,8,1872,12,102,1004,110,0,0,73,522,522,642,160,42,42

2017-09-26 16:31:10,#D#,71,9,1872,12,102,1004,110,0,0,73,522,522,642,160,42,42

2017-09-26 16:31:11,#D#,72,0,1898,12,102,1004,110,0,0,74,522,522,642,160,42,42

2017-09-26 16:31:11,#D#,72,1,1898,12,102,1004,110,0,0,74,522,522,642,160,42,42

2017-09-26 16:31:11,#D#,72,2,1898,12,102,1004,110,0,0,74,522,522,642,160,42,42

2017-09-26 16:31:11,#D#,72,3,1898,12,102,1004,110,0,0,74,522,522,642,160,42,42

2017-09-26 16:31:11,#D#,72,4,1898,12,102,1004,110,0,0,74,522,522,642,160,42,42

2017-09-26 16:31:11,#D#,72,5,1898,12,102,1004,110,0,0,74,522,522,642,160,42,42

2017-09-26 16:31:11,#D#,72,6,1898,12,102,1004,110,0,0,74,522,522,642,160,42,42

2017-09-26 16:31:11,#D#,72,7,1898,12,102,1004,110,0,0,74,522,522,642,160,42,42

2017-09-26 16:31:11,#D#,72,8,1898,12,102,1004,110,0,0,74,522,522,642,160,42,42

2017-09-26 16:31:11,#D#,72,9,1898,12,102,1004,110,0,0,74,522,522,642,160,42,42

2017-09-26 16:31:11,#D#,73,0,1924,12,102,1004,110,0,0,75,522,522,642,160,42,42

2017-09-26 16:31:11,#D#,73,1,1924,12,102,1004,110,0,0,75,522,522,642,160,42,42

2017-09-26 16:31:11,#D#,73,2,1924,12,102,1004,110,0,0,75,522,522,642,160,42,42

2017-09-26 16:31:11,#D#,73,3,1924,12,102,1004,110,0,0,75,522,522,642,160,42,42

2017-09-26 16:31:11,#D#,73,4,1924,12,102,1004,110,0,0,75,522,522,642,160,42,42

2017-09-26 16:31:11,#D#,73,5,1924,12,102,1004,110,0,0,75,522,522,642,160,42,42

2017-09-26 16:31:11,#D#,73,6,1924,12,102,1004,110,0,0,75,522,522,642,160,42,42

2017-09-26 16:31:11,#D#,73,7,1924,12,102,1004,110,0,0,75,522,522,642,160,42,42

2017-09-26 16:31:11,#D#,73,8,1924,12,102,1004,110,0,0,75,522,522,642,160,42,42

2017-09-26 16:31:11,#D#,73,9,1924,12,102,1004,110,0,0,75,522,522,642,160,42,42

2017-09-26 16:31:12,#D#,74,0,1950,12,102,1004,110,0,0,76,522,522,642,160,42,42

2017-09-26 16:31:12,#D#,74,1,1950,12,102,1004,110,0,0,76,522,522,642,160,42,42

2017-09-26 16:31:12,#D#,74,2,1950,12,102,1004,110,0,0,76,522,522,642,160,42,42

2017-09-26 16:31:12,#D#,74,3,1950,12,102,1004,110,0,0,76,522,522,642,160,42,42

2017-09-26 16:31:12,#D#,74,4,1950,12,102,1004,110,0,0,76,522,522,642,160,42,42

2017-09-26 16:31:12,#D#,74,5,1950,12,102,1004,110,0,0,76,522,522,642,160,42,42

2017-09-26 16:31:12,#D#,74,6,1950,12,102,1004,110,0,0,76,522,522,642,160,42,42

2017-09-26 16:31:12,#D#,74,7,1950,12,102,1004,110,0,0,76,522,522,642,160,42,42

2017-09-26 16:31:12,#D#,74,8,1950,12,102,1004,110,0,0,76,522,522,642,160,42,42

2017-09-26 16:31:12,#D#,74,9,1950,12,102,1004,110,0,0,76,522,522,642,160,42,42

2017-09-26 16:31:13,#D#,75,0,1976,12,102,1004,110,0,0,77,522,522,642,160,42,42

2017-09-26 16:31:13,#D#,75,1,1976,12,102,1004,110,0,0,77,522,522,642,160,42,42

2017-09-26 16:31:13,#D#,75,2,1976,12,102,1004,110,0,0,77,522,522,642,160,42,42

2017-09-26 16:31:13,#D#,75,3,1976,12,102,1004,110,0,0,77,522,522,642,160,42,42

2017-09-26 16:31:13,#D#,75,4,1976,12,102,1004,110,0,0,77,522,522,642,160,42,42

2017-09-26 16:31:13,#D#,75,5,1976,12,102,1004,110,0,0,77,522,522,642,160,42,42

2017-09-26 16:31:13,#D#,75,6,1976,12,102,1004,110,0,0,77,522,522,642,160,42,42

2017-09-26 16:31:13,#D#,75,7,1976,12,102,1004,110,0,0,77,522,522,642,160,42,42

2017-09-26 16:31:13,#D#,75,8,1976,12,102,1004,110,0,0,77,522,522,642,160,42,42

2017-09-26 16:31:13,#D#,75,9,1976,12,102,1004,110,0,0,77,522,522,642,160,42,42

2017-09-26 16:31:14,#D#,76,0,2002,12,102,1004,110,0,0,78,522,522,642,160,42,42

2017-09-26 16:31:14,#D#,76,1,2002,12,102,1004,110,0,0,78,522,522,642,160,42,42

2017-09-26 16:31:14,#D#,76,2,2002,12,102,1004,110,0,0,78,522,522,642,160,42,42

2017-09-26 16:31:14,#D#,76,3,2002,12,102,1004,110,0,0,78,522,522,642,160,42,42

2017-09-26 16:31:14,#D#,76,4,2002,12,102,1004,110,0,0,78,522,522,642,160,42,42

2017-09-26 16:31:14,#D#,76,5,2002,12,102,1004,110,0,0,78,522,522,642,160,42,42

2017-09-26 16:31:14,#D#,76,6,2002,12,102,1004,110,0,0,78,522,522,642,160,42,42

2017-09-26 16:31:14,#D#,76,7,2002,12,102,1004,110,0,0,78,522,522,642,160,42,42

2017-09-26 16:31:14,#D#,76,8,2002,12,102,1004,110,0,0,78,522,522,642,160,42,42

2017-09-26 16:31:14,#D#,76,9,2002,12,102,1004,110,0,0,78,522,522,642,160,42,42

2017-09-26 16:31:15,#D#,77,0,2028,12,102,1004,110,0,0,79,522,522,642,160,42,42

2017-09-26 16:31:15,#D#,77,1,2028,12,102,1004,110,0,0,79,522,522,642,160,42,42

2017-09-26 16:31:15,#D#,77,2,2028,12,102,1004,110,0,0,79,522,522,642,160,42,42

2017-09-26 16:31:15,#D#,77,3,2028,12,102,1004,110,0,0,79,522,522,642,160,42,42

2017-09-26 16:31:15,#D#,77,4,2028,12,102,1004,110,0,0,79,522,522,642,160,42,42

2017-09-26 16:31:15,#D#,77,5,2028,12,102,1004,110,0,0,79,522,522,642,160,42,42

2017-09-26 16:31:15,#D#,77,6,2028,12,102,1004,110,0,0,79,522,522,642,160,42,42

2017-09-26 16:31:15,#D#,77,7,2028,12,102,1004,110,0,0,79,522,522,642,160,42,42

2017-09-26 16:31:15,#D#,77,8,2028,12,102,1004,110,0,0,79,522,522,642,160,42,42

2017-09-26 16:31:15,#D#,77,9,2028,12,102,1004,110,0,0,79,522,522,642,160,42,42

2017-09-26 16:31:16,
2017-09-26 16:31:16,**NO AMAC Response!!

2017-09-26 16:31:17,
2017-09-26 16:31:18,
2017-09-26 16:31:19,
2017-09-26 16:31:20,
2017-09-26 16:31:21,
2017-09-26 16:31:23,
2017-09-26 16:31:24,
2017-09-26 16:31:25,
2017-09-26 16:31:26,
2017-09-26 16:31:27,
2017-09-26 16:31:28,
2017-09-26 16:31:28, BGO Set:0, GAIN Set:0

2017-09-26 16:31:29,
2017-09-26 16:31:30,
2017-09-26 16:31:31,
2017-09-26 16:31:32,
2017-09-26 16:31:33,
2017-09-26 16:31:34,
2017-09-26 16:31:35,
2017-09-26 16:31:36,
2017-09-26 16:31:37,
2017-09-26 16:31:38,
2017-09-26 16:31:39,
2017-09-26 16:31:40,
2017-09-26 16:31:41,
2017-09-26 16:31:42,
2017-09-26 16:31:43,
2017-09-26 16:31:44,
2017-09-26 16:31:45,
2017-09-26 16:31:46,
2017-09-26 16:31:47,
2017-09-26 16:31:48,
2017-09-26 16:31:49,
2017-09-26 16:31:50,
2017-09-26 16:31:51,
2017-09-26 16:31:52,
2017-09-26 16:31:53,
2017-09-26 16:31:54,
2017-09-26 16:31:55,
2017-09-26 16:31:56,
2017-09-26 16:31:57,
2017-09-26 16:31:58,
2017-09-26 16:31:59,
2017-09-26 16:32:00,
2017-09-26 16:32:01,
2017-09-26 16:32:02,
2017-09-26 16:32:03,
2017-09-26 16:32:04,
2017-09-26 16:32:05,
2017-09-26 16:32:06,
2017-09-26 16:32:07,
2017-09-26 16:32:08,
2017-09-26 16:32:09,
