#P0E0000001900AM_RdFreq

2017-12-11 13:46:56, 50,:e,:0,:0,:19,:0,:a0 @

2017-12-11 13:46:56,*******Measure Period per Event & Freq in MHz*******

2017-12-11 13:46:56,****Period_cnt , Freq, SeqNo, Status,..........

2017-12-11 13:46:56,#P#, 37, 29600000, 0, 0 

2017-12-11 13:46:56,#P#, 38, 30400000, 1, 0 

2017-12-11 13:46:56,#P#, 38, 30400000, 2, 0 

2017-12-11 13:46:56,#P#, 38, 30400000, 3, 0 

2017-12-11 13:46:56,#P#, 37, 29600000, 4, 0 

2017-12-11 13:46:56,#P#, 37, 29600000, 5, 0 

2017-12-11 13:46:56,#P#, 38, 30400000, 6, 0 

2017-12-11 13:46:56,#P#, 38, 30400000, 7, 0 

2017-12-11 13:46:56,#P#, 37, 29600000, 8, 0 

2017-12-11 13:46:56,#P#, 38, 30400000, 9, 0 

2017-12-11 13:46:56,#P#, 37, 29600000, 10, 0 

2017-12-11 13:46:56,#P#, 38, 30400000, 11, 0 

2017-12-11 13:46:56,#P#, 38, 30400000, 12, 0 

2017-12-11 13:46:56,#P#, 38, 30400000, 13, 0 

2017-12-11 13:46:56,#P#, 38, 30400000, 14, 0 

2017-12-11 13:46:56,#P#, 38, 30400000, 15, 0 

2017-12-11 13:46:56,#P#, 38, 30400000, 16, 0 

2017-12-11 13:46:56,#P#, 39, 31200000, 17, 0 

2017-12-11 13:46:56,#P#, 37, 29600000, 18, 0 

2017-12-11 13:46:56,#P#, 38, 30400000, 19, 0 

2017-12-11 13:46:56,#P#, 38, 30400000, 20, 0 

2017-12-11 13:46:56,#P#, 38, 30400000, 21, 0 

2017-12-11 13:46:56,#P#, 38, 30400000, 22, 0 

2017-12-11 13:46:56,#P#, 38, 30400000, 23, 0 

2017-12-11 13:46:56,#P#, 38, 30400000, 24, 0 

2017-12-11 13:46:56,*******DONE*******#

Exiting PsocAmPreRad
#A0E0000002B03AM_RegRW.

2017-12-11 13:46:58, 41,:e,:0,:0,:2b,:3,:3a3 @

2017-12-11 13:46:58,Value:3 was written to AMReg:43 

2017-12-11 13:46:58,*******DONE*******#

Exiting PsocAmPreRad
#O0E0000002B03AM_VDD_HV

2017-12-11 13:46:58, 4f,:e,:0,:0,:2b,:3,:3a3 @

2017-12-11 13:46:58,0,

2017-12-11 13:46:58, *******DONE*******#

Exiting PsocAmPreRad
