#P0E0000001900AM_RdFreq

2017-12-11 21:05:17, 50,:e,:0,:0,:19,:0,:a0 @

2017-12-11 21:05:17,*******Measure Period per Event & Freq in MHz*******

2017-12-11 21:05:17,****Period_cnt , Freq, SeqNo, Status,..........

2017-12-11 21:05:18,
2017-12-11 21:05:19,
2017-12-11 21:05:20,
2017-12-11 21:05:21,
2017-12-11 21:05:22,Watch Interrupt or Reset!! BGO Set:0, GAIN Set:0

2017-12-11 21:05:23,
2017-12-11 21:05:24,
2017-12-11 21:05:25,
2017-12-11 21:05:26,
2017-12-11 21:05:27,
2017-12-11 21:05:28,
2017-12-11 21:05:29,
2017-12-11 21:05:30,
2017-12-11 21:05:31,
2017-12-11 21:05:32,
2017-12-11 21:05:33,
2017-12-11 21:05:34,
2017-12-11 21:05:35,
2017-12-11 21:05:36,
2017-12-11 21:05:37,
2017-12-11 21:05:38,
2017-12-11 21:05:39,
2017-12-11 21:05:40,
2017-12-11 21:05:41,
2017-12-11 21:05:42,
2017-12-11 21:05:43,
2017-12-11 21:05:44,
2017-12-11 21:05:45,
2017-12-11 21:05:46,
2017-12-11 21:05:47,
2017-12-11 21:05:48,
2017-12-11 21:05:49,
2017-12-11 21:05:50,
2017-12-11 21:05:51,
2017-12-11 21:05:52,
2017-12-11 21:05:53,
2017-12-11 21:05:54,
2017-12-11 21:05:55,
2017-12-11 21:05:56,
2017-12-11 21:05:57,
2017-12-11 21:05:58,
2017-12-11 21:05:59,
2017-12-11 21:06:00,
2017-12-11 21:06:01,
2017-12-11 21:06:02,
2017-12-11 21:06:03,
2017-12-11 21:06:04,
2017-12-11 21:06:05,
2017-12-11 21:06:06,
2017-12-11 21:06:07,
2017-12-11 21:06:08,
2017-12-11 21:06:09,
2017-12-11 21:06:10,
2017-12-11 21:06:11,
2017-12-11 21:06:12,
2017-12-11 21:06:13,
2017-12-11 21:06:14,
2017-12-11 21:06:15,
2017-12-11 21:06:16,
2017-12-11 21:06:17,
2017-12-11 21:06:18,
2017-12-11 21:06:19,
2017-12-11 21:06:20,
2017-12-11 21:06:21,
2017-12-11 21:06:22,
2017-12-11 21:06:23,
2017-12-11 21:06:24,
2017-12-11 21:06:25,
2017-12-11 21:06:26,
2017-12-11 21:06:27,
2017-12-11 21:06:28,
2017-12-11 21:06:29,
2017-12-11 21:06:30,
2017-12-11 21:06:31,
2017-12-11 21:06:32,
2017-12-11 21:06:33,
2017-12-11 21:06:34,
2017-12-11 21:06:35,
2017-12-11 21:06:36,
2017-12-11 21:06:37,
2017-12-11 21:06:38,
2017-12-11 21:06:39,
2017-12-11 21:06:40,
2017-12-11 21:06:41,
2017-12-11 21:06:42,
2017-12-11 21:06:43,
2017-12-11 21:06:44,
2017-12-11 21:06:45,
2017-12-11 21:06:46,
2017-12-11 21:06:47,
2017-12-11 21:06:48,
2017-12-11 21:06:49,
2017-12-11 21:06:50,
2017-12-11 21:06:51,
2017-12-11 21:06:52,
2017-12-11 21:06:53,
2017-12-11 21:06:54,
2017-12-11 21:06:55,
2017-12-11 21:06:56,
2017-12-11 21:06:57,
2017-12-11 21:06:58,
2017-12-11 21:06:59,
2017-12-11 21:07:00,
2017-12-11 21:07:01,
2017-12-11 21:07:02,
2017-12-11 21:07:03,
2017-12-11 21:07:04,
2017-12-11 21:07:05,
2017-12-11 21:07:06,
2017-12-11 21:07:07,
2017-12-11 21:07:08,
2017-12-11 21:07:09,
2017-12-11 21:07:10,
2017-12-11 21:07:11,
2017-12-11 21:07:12,
2017-12-11 21:07:13,
2017-12-11 21:07:14,
2017-12-11 21:07:15,
2017-12-11 21:07:16,
2017-12-11 21:07:17,
2017-12-11 21:07:18,
2017-12-11 21:07:19,
2017-12-11 21:07:20,
2017-12-11 21:07:21,
2017-12-11 21:07:22,
2017-12-11 21:07:23,
2017-12-11 21:07:24,
2017-12-11 21:07:25,
2017-12-11 21:07:26,
2017-12-11 21:07:27,
2017-12-11 21:07:28,
2017-12-11 21:07:29,
2017-12-11 21:07:30,
2017-12-11 21:07:31,
2017-12-11 21:07:32,
2017-12-11 21:07:33,
2017-12-11 21:07:34,
2017-12-11 21:07:35,
2017-12-11 21:07:36,
2017-12-11 21:07:37,
2017-12-11 21:07:38,
2017-12-11 21:07:39,
2017-12-11 21:07:40,
2017-12-11 21:07:41,
2017-12-11 21:07:42,
2017-12-11 21:07:43,
2017-12-11 21:07:44,
2017-12-11 21:07:45,
2017-12-11 21:07:46,
2017-12-11 21:07:47,
2017-12-11 21:07:48,
2017-12-11 21:07:49,
2017-12-11 21:07:50,
2017-12-11 21:07:51,
2017-12-11 21:07:52,
Over 150 consecutive empty strings. Breaking out of infinite loop (second loop).
Exiting PsocAmPreRad
#A0E0000002B07AM_RegRW.

2017-12-11 21:07:54, 41,:e,:0,:0,:2b,:7,:7a7 @

2017-12-11 21:07:55,
2017-12-11 21:07:56,
2017-12-11 21:07:57,
2017-12-11 21:07:58,
2017-12-11 21:07:59,Watch Interrupt or Reset!! BGO Set:0, GAIN Set:0

2017-12-11 21:08:00,
2017-12-11 21:08:01,
2017-12-11 21:08:02,
2017-12-11 21:08:03,
2017-12-11 21:08:04,
2017-12-11 21:08:05,
2017-12-11 21:08:06,
2017-12-11 21:08:07,
2017-12-11 21:08:08,
2017-12-11 21:08:09,
2017-12-11 21:08:10,
2017-12-11 21:08:11,
2017-12-11 21:08:12,
2017-12-11 21:08:13,
2017-12-11 21:08:14,
2017-12-11 21:08:15,
2017-12-11 21:08:16,
2017-12-11 21:08:17,
2017-12-11 21:08:18,
2017-12-11 21:08:19,
2017-12-11 21:08:20,
2017-12-11 21:08:21,
2017-12-11 21:08:22,
2017-12-11 21:08:23,
2017-12-11 21:08:24,
2017-12-11 21:08:25,
2017-12-11 21:08:26,
2017-12-11 21:08:27,
2017-12-11 21:08:28,
2017-12-11 21:08:29,
2017-12-11 21:08:30,
2017-12-11 21:08:31,
2017-12-11 21:08:32,
2017-12-11 21:08:33,
2017-12-11 21:08:34,
2017-12-11 21:08:35,
2017-12-11 21:08:36,
2017-12-11 21:08:37,
2017-12-11 21:08:38,
2017-12-11 21:08:39,
2017-12-11 21:08:40,
2017-12-11 21:08:41,
2017-12-11 21:08:42,
2017-12-11 21:08:43,
2017-12-11 21:08:44,
2017-12-11 21:08:45,
2017-12-11 21:08:46,
2017-12-11 21:08:47,
2017-12-11 21:08:48,
2017-12-11 21:08:49,
2017-12-11 21:08:50,
2017-12-11 21:08:51,
2017-12-11 21:08:52,
2017-12-11 21:08:53,
2017-12-11 21:08:54,
2017-12-11 21:08:55,
2017-12-11 21:08:56,
2017-12-11 21:08:57,
2017-12-11 21:08:58,
2017-12-11 21:08:59,
2017-12-11 21:09:00,
2017-12-11 21:09:01,
2017-12-11 21:09:02,
2017-12-11 21:09:03,
2017-12-11 21:09:04,
2017-12-11 21:09:05,
2017-12-11 21:09:06,
2017-12-11 21:09:07,
2017-12-11 21:09:08,
2017-12-11 21:09:09,
2017-12-11 21:09:10,
2017-12-11 21:09:11,
2017-12-11 21:09:12,
2017-12-11 21:09:13,
2017-12-11 21:09:14,
2017-12-11 21:09:15,
2017-12-11 21:09:16,
2017-12-11 21:09:17,
2017-12-11 21:09:18,
2017-12-11 21:09:19,
2017-12-11 21:09:20,
2017-12-11 21:09:21,
2017-12-11 21:09:22,
2017-12-11 21:09:23,
2017-12-11 21:09:24,
2017-12-11 21:09:25,
2017-12-11 21:09:26,
2017-12-11 21:09:27,
2017-12-11 21:09:28,
2017-12-11 21:09:29,
2017-12-11 21:09:30,
2017-12-11 21:09:31,
2017-12-11 21:09:32,
2017-12-11 21:09:33,
2017-12-11 21:09:34,
2017-12-11 21:09:35,
2017-12-11 21:09:36,
2017-12-11 21:09:37,
2017-12-11 21:09:38,
2017-12-11 21:09:39,
2017-12-11 21:09:40,
2017-12-11 21:09:41,
2017-12-11 21:09:42,
2017-12-11 21:09:43,
2017-12-11 21:09:44,
2017-12-11 21:09:45,
2017-12-11 21:09:46,
2017-12-11 21:09:47,
2017-12-11 21:09:48,
2017-12-11 21:09:49,
2017-12-11 21:09:50,
2017-12-11 21:09:51,
2017-12-11 21:09:52,
2017-12-11 21:09:53,
2017-12-11 21:09:54,
2017-12-11 21:09:55,
2017-12-11 21:09:56,
2017-12-11 21:09:57,
2017-12-11 21:09:58,
2017-12-11 21:09:59,
2017-12-11 21:10:00,
2017-12-11 21:10:01,
2017-12-11 21:10:02,
2017-12-11 21:10:03,
2017-12-11 21:10:04,
2017-12-11 21:10:05,
2017-12-11 21:10:06,
2017-12-11 21:10:07,
2017-12-11 21:10:08,
2017-12-11 21:10:09,
2017-12-11 21:10:10,
2017-12-11 21:10:11,
2017-12-11 21:10:12,
2017-12-11 21:10:13,
2017-12-11 21:10:14,
2017-12-11 21:10:15,
2017-12-11 21:10:16,
2017-12-11 21:10:17,
2017-12-11 21:10:18,
2017-12-11 21:10:19,
2017-12-11 21:10:20,
2017-12-11 21:10:21,
2017-12-11 21:10:22,
2017-12-11 21:10:23,
2017-12-11 21:10:24,
2017-12-11 21:10:25,
2017-12-11 21:10:26,
2017-12-11 21:10:27,
2017-12-11 21:10:28,
2017-12-11 21:10:29,
Over 150 consecutive empty strings. Breaking out of infinite loop (second loop).
Exiting PsocAmPreRad
#O0E0000002B03AM_VDD_HV

2017-12-11 21:10:31, 4f,:e,:0,:0,:2b,:3,:3a3 @

2017-12-11 21:10:31,0,

2017-12-11 21:10:31, *******DONE*******#

Exiting PsocAmPreRad
