#P0E000000C800AM_RdFreq

2017-10-05 14:07:32, 50,:e,:0,:0,:c8,:0,:a0 @

2017-10-05 14:07:32,*******Measure Period per Event & Freq in MHz*******

2017-10-05 14:07:32,****Period_cnt , Freq, SeqNo, Status,..........

2017-10-05 14:07:32,#P#, 39, 31200000, 0, 0 

2017-10-05 14:07:32,#P#, 38, 30400000, 1, 0 

2017-10-05 14:07:32,#P#, 40, 32000000, 2, 1 

2017-10-05 14:07:32,#P#, 38, 30400000, 3, 0 

2017-10-05 14:07:32,#P#, 39, 31200000, 4, 0 

2017-10-05 14:07:32,#P#, 39, 31200000, 5, 0 

2017-10-05 14:07:32,#P#, 38, 30400000, 6, 0 

2017-10-05 14:07:32,#P#, 38, 30400000, 7, 0 

2017-10-05 14:07:32,#P#, 38, 30400000, 8, 0 

2017-10-05 14:07:32,#P#, 38, 30400000, 9, 0 

2017-10-05 14:07:32,#P#, 38, 30400000, 10, 0 

2017-10-05 14:07:32,#P#, 38, 30400000, 11, 0 

2017-10-05 14:07:32,#P#, 38, 30400000, 12, 0 

2017-10-05 14:07:32,#P#, 38, 30400000, 13, 0 

2017-10-05 14:07:32,#P#, 38, 30400000, 14, 0 

2017-10-05 14:07:32,#P#, 39, 31200000, 15, 0 

2017-10-05 14:07:32,#P#, 39, 31200000, 16, 0 

2017-10-05 14:07:32,#P#, 38, 30400000, 17, 0 

2017-10-05 14:07:32,#P#, 39, 31200000, 18, 0 

2017-10-05 14:07:32,#P#, 37, 29600000, 19, 0 

2017-10-05 14:07:32,#P#, 39, 31200000, 20, 0 

2017-10-05 14:07:32,#P#, 39, 31200000, 21, 0 

2017-10-05 14:07:32,#P#, 38, 30400000, 22, 0 

2017-10-05 14:07:32,#P#, 39, 31200000, 23, 0 

2017-10-05 14:07:32,#P#, 39, 31200000, 24, 0 

2017-10-05 14:07:32,#P#, 39, 31200000, 25, 0 

2017-10-05 14:07:32,#P#, 38, 30400000, 26, 0 

2017-10-05 14:07:32,#P#, 38, 30400000, 27, 0 

2017-10-05 14:07:32,#P#, 38, 30400000, 28, 0 

2017-10-05 14:07:32,#P#, 39, 31200000, 29, 0 

2017-10-05 14:07:32,#P#, 38, 30400000, 30, 0 

2017-10-05 14:07:32,#P#, 39, 31200000, 31, 0 

2017-10-05 14:07:32,#P#, 39, 31200000, 32, 0 

2017-10-05 14:07:32,#P#, 39, 31200000, 33, 0 

2017-10-05 14:07:32,#P#, 37, 29600000, 34, 0 

2017-10-05 14:07:32,#P#, 38, 30400000, 35, 0 

2017-10-05 14:07:32,#P#, 38, 30400000, 36, 0 

2017-10-05 14:07:32,#P#, 37, 29600000, 37, 0 

2017-10-05 14:07:32,#P#, 38, 30400000, 38, 0 

2017-10-05 14:07:32,#P#, 38, 30400000, 39, 0 

2017-10-05 14:07:32,#P#, 38, 30400000, 40, 0 

2017-10-05 14:07:32,#P#, 38, 30400000, 41, 0 

2017-10-05 14:07:32,#P#, 38, 30400000, 42, 0 

2017-10-05 14:07:32,#P#, 38, 30400000, 43, 0 

2017-10-05 14:07:32,#P#, 38, 30400000, 44, 0 

2017-10-05 14:07:32,#P#, 38, 30400000, 45, 0 

2017-10-05 14:07:32,#P#, 38, 30400000, 46, 0 

2017-10-05 14:07:32,#P#, 39, 31200000, 47, 0 

2017-10-05 14:07:32,#P#, 39, 31200000, 48, 0 

2017-10-05 14:07:32,#P#, 39, 31200000, 49, 0 

2017-10-05 14:07:32,#P#, 38, 30400000, 50, 0 

2017-10-05 14:07:32,#P#, 40, 32000000, 51, 1 

2017-10-05 14:07:32,#P#, 38, 30400000, 52, 0 

2017-10-05 14:07:32,#P#, 38, 30400000, 53, 0 

2017-10-05 14:07:32,#P#, 39, 31200000, 54, 0 

2017-10-05 14:07:32,#P#, 38, 30400000, 55, 0 

2017-10-05 14:07:32,#P#, 38, 30400000, 56, 0 

2017-10-05 14:07:32,#P#, 39, 31200000, 57, 0 

2017-10-05 14:07:32,#P#, 38, 30400000, 58, 0 

2017-10-05 14:07:32,#P#, 38, 30400000, 59, 0 

2017-10-05 14:07:32,#P#, 39, 31200000, 60, 0 

2017-10-05 14:07:32,#P#, 38, 30400000, 61, 0 

2017-10-05 14:07:32,#P#, 38, 30400000, 62, 0 

2017-10-05 14:07:32,#P#, 39, 31200000, 63, 0 

2017-10-05 14:07:32,#P#, 39, 31200000, 64, 0 

2017-10-05 14:07:32,#P#, 38, 30400000, 65, 0 

2017-10-05 14:07:32,#P#, 38, 30400000, 66, 0 

2017-10-05 14:07:32,#P#, 38, 30400000, 67, 0 

2017-10-05 14:07:32,#P#, 38, 30400000, 68, 0 

2017-10-05 14:07:32,#P#, 38, 30400000, 69, 0 

2017-10-05 14:07:32,#P#, 37, 29600000, 70, 0 

2017-10-05 14:07:32,#P#, 39, 31200000, 71, 0 

2017-10-05 14:07:32,#P#, 38, 30400000, 72, 0 

2017-10-05 14:07:32,#P#, 39, 31200000, 73, 0 

2017-10-05 14:07:32,#P#, 38, 30400000, 74, 0 

2017-10-05 14:07:32,#P#, 39, 31200000, 75, 0 

2017-10-05 14:07:32,#P#, 39, 31200000, 76, 0 

2017-10-05 14:07:32,#P#, 38, 30400000, 77, 0 

2017-10-05 14:07:32,#P#, 38, 30400000, 78, 0 

2017-10-05 14:07:32,#P#, 38, 30400000, 79, 0 

2017-10-05 14:07:32,#P#, 38, 30400000, 80, 0 

2017-10-05 14:07:32,#P#, 39, 31200000, 81, 0 

2017-10-05 14:07:32,#P#, 38, 30400000, 82, 0 

2017-10-05 14:07:32,#P#, 39, 31200000, 83, 0 

2017-10-05 14:07:33,#P#, 38, 30400000, 84, 0 

2017-10-05 14:07:33,#P#, 38, 30400000, 85, 0 

2017-10-05 14:07:33,#P#, 38, 30400000, 86, 0 

2017-10-05 14:07:33,#P#, 39, 31200000, 87, 0 

2017-10-05 14:07:33,#P#, 39, 31200000, 88, 0 

2017-10-05 14:07:33,#P#, 38, 30400000, 89, 0 

2017-10-05 14:07:33,#P#, 38, 30400000, 90, 0 

2017-10-05 14:07:33,#P#, 39, 31200000, 91, 0 

2017-10-05 14:07:33,#P#, 39, 31200000, 92, 0 

2017-10-05 14:07:33,#P#, 39, 31200000, 93, 0 

2017-10-05 14:07:33,#P#, 39, 31200000, 94, 0 

2017-10-05 14:07:33,#P#, 38, 30400000, 95, 0 

2017-10-05 14:07:33,#P#, 39, 31200000, 96, 0 

2017-10-05 14:07:33,#P#, 39, 31200000, 97, 0 

2017-10-05 14:07:33,#P#, 38, 30400000, 98, 0 

2017-10-05 14:07:33,#P#, 39, 31200000, 99, 0 

2017-10-05 14:07:33,#P#, 38, 30400000, 100, 0 

2017-10-05 14:07:33,#P#, 39, 31200000, 101, 0 

2017-10-05 14:07:33,#P#, 39, 31200000, 102, 0 

2017-10-05 14:07:33,#P#, 38, 30400000, 103, 0 

2017-10-05 14:07:33,#P#, 39, 31200000, 104, 0 

2017-10-05 14:07:33,#P#, 39, 31200000, 105, 0 

2017-10-05 14:07:33,#P#, 38, 30400000, 106, 0 

2017-10-05 14:07:33,#P#, 39, 31200000, 107, 0 

2017-10-05 14:07:33,#P#, 38, 30400000, 108, 0 

2017-10-05 14:07:33,#P#, 39, 31200000, 109, 0 

2017-10-05 14:07:33,#P#, 39, 31200000, 110, 0 

2017-10-05 14:07:33,#P#, 38, 30400000, 111, 0 

2017-10-05 14:07:33,#P#, 39, 31200000, 112, 0 

2017-10-05 14:07:33,#P#, 38, 30400000, 113, 0 

2017-10-05 14:07:33,#P#, 38, 30400000, 114, 0 

2017-10-05 14:07:33,#P#, 38, 30400000, 115, 0 

2017-10-05 14:07:33,#P#, 38, 30400000, 116, 0 

2017-10-05 14:07:33,#P#, 39, 31200000, 117, 0 

2017-10-05 14:07:33,#P#, 38, 30400000, 118, 0 

2017-10-05 14:07:33,#P#, 39, 31200000, 119, 0 

2017-10-05 14:07:33,#P#, 38, 30400000, 120, 0 

2017-10-05 14:07:33,#P#, 39, 31200000, 121, 0 

2017-10-05 14:07:33,#P#, 38, 30400000, 122, 0 

2017-10-05 14:07:33,#P#, 38, 30400000, 123, 0 

2017-10-05 14:07:33,#P#, 39, 31200000, 124, 0 

2017-10-05 14:07:33,#P#, 38, 30400000, 125, 0 

2017-10-05 14:07:33,#P#, 39, 31200000, 126, 0 

2017-10-05 14:07:33,#P#, 39, 31200000, 127, 0 

2017-10-05 14:07:33,#P#, 38, 30400000, 128, 0 

2017-10-05 14:07:33,#P#, 38, 30400000, 129, 0 

2017-10-05 14:07:33,#P#, 38, 30400000, 130, 0 

2017-10-05 14:07:33,#P#, 39, 31200000, 131, 0 

2017-10-05 14:07:33,#P#, 39, 31200000, 132, 0 

2017-10-05 14:07:33,#P#, 38, 30400000, 133, 0 

2017-10-05 14:07:33,#P#, 39, 31200000, 134, 0 

2017-10-05 14:07:33,#P#, 39, 31200000, 135, 0 

2017-10-05 14:07:33,#P#, 39, 31200000, 136, 0 

2017-10-05 14:07:33,#P#, 38, 30400000, 137, 0 

2017-10-05 14:07:33,#P#, 39, 31200000, 138, 0 

2017-10-05 14:07:33,#P#, 38, 30400000, 139, 0 

2017-10-05 14:07:33,#P#, 39, 31200000, 140, 0 

2017-10-05 14:07:33,#P#, 39, 31200000, 141, 0 

2017-10-05 14:07:33,#P#, 39, 31200000, 142, 0 

2017-10-05 14:07:33,#P#, 38, 30400000, 143, 0 

2017-10-05 14:07:33,#P#, 39, 31200000, 144, 0 

2017-10-05 14:07:33,#P#, 38, 30400000, 145, 0 

2017-10-05 14:07:33,#P#, 37, 29600000, 146, 0 

2017-10-05 14:07:33,#P#, 38, 30400000, 147, 0 

2017-10-05 14:07:33,#P#, 38, 30400000, 148, 0 

2017-10-05 14:07:33,#P#, 38, 30400000, 149, 0 

2017-10-05 14:07:33,#P#, 38, 30400000, 150, 0 

2017-10-05 14:07:33,#P#, 38, 30400000, 151, 0 

2017-10-05 14:07:33,#P#, 39, 31200000, 152, 0 

2017-10-05 14:07:33,#P#, 39, 31200000, 153, 0 

2017-10-05 14:07:33,#P#, 39, 31200000, 154, 0 

2017-10-05 14:07:33,#P#, 39, 31200000, 155, 0 

2017-10-05 14:07:33,#P#, 38, 30400000, 156, 0 

2017-10-05 14:07:33,#P#, 38, 30400000, 157, 0 

2017-10-05 14:07:33,#P#, 38, 30400000, 158, 0 

2017-10-05 14:07:33,#P#, 38, 30400000, 159, 0 

2017-10-05 14:07:33,#P#, 38, 30400000, 160, 0 

2017-10-05 14:07:33,#P#, 39, 31200000, 161, 0 

2017-10-05 14:07:33,#P#, 38, 30400000, 162, 0 

2017-10-05 14:07:33,#P#, 40, 32000000, 163, 1 

2017-10-05 14:07:33,#P#, 39, 31200000, 164, 0 

2017-10-05 14:07:33,#P#, 39, 31200000, 165, 0 

2017-10-05 14:07:33,#P#, 39, 31200000, 166, 0 

2017-10-05 14:07:33,#P#, 38, 30400000, 167, 0 

2017-10-05 14:07:33,#P#, 38, 30400000, 168, 0 

2017-10-05 14:07:33,#P#, 38, 30400000, 169, 0 

2017-10-05 14:07:33,#P#, 38, 30400000, 170, 0 

2017-10-05 14:07:33,#P#, 38, 30400000, 171, 0 

2017-10-05 14:07:33,#P#, 39, 31200000, 172, 0 

2017-10-05 14:07:33,#P#, 39, 31200000, 173, 0 

2017-10-05 14:07:33,#P#, 39, 31200000, 174, 0 

2017-10-05 14:07:33,#P#, 39, 31200000, 175, 0 

2017-10-05 14:07:33,#P#, 39, 31200000, 176, 0 

2017-10-05 14:07:33,#P#, 39, 31200000, 177, 0 

2017-10-05 14:07:33,#P#, 38, 30400000, 178, 0 

2017-10-05 14:07:33,#P#, 39, 31200000, 179, 0 

2017-10-05 14:07:33,#P#, 38, 30400000, 180, 0 

2017-10-05 14:07:33,#P#, 39, 31200000, 181, 0 

2017-10-05 14:07:33,#P#, 38, 30400000, 182, 0 

2017-10-05 14:07:33,#P#, 39, 31200000, 183, 0 

2017-10-05 14:07:33,#P#, 38, 30400000, 184, 0 

2017-10-05 14:07:33,#P#, 39, 31200000, 185, 0 

2017-10-05 14:07:33,#P#, 38, 30400000, 186, 0 

2017-10-05 14:07:33,#P#, 38, 30400000, 187, 0 

2017-10-05 14:07:33,#P#, 38, 30400000, 188, 0 

2017-10-05 14:07:33,#P#, 39, 31200000, 189, 0 

2017-10-05 14:07:33,#P#, 39, 31200000, 190, 0 

2017-10-05 14:07:33,#P#, 39, 31200000, 191, 0 

2017-10-05 14:07:33,#P#, 38, 30400000, 192, 0 

2017-10-05 14:07:33,#P#, 37, 29600000, 193, 0 

2017-10-05 14:07:33,#P#, 39, 31200000, 194, 0 

2017-10-05 14:07:33,#P#, 39, 31200000, 195, 0 

2017-10-05 14:07:33,#P#, 39, 31200000, 196, 0 

2017-10-05 14:07:33,#P#, 38, 30400000, 197, 0 

2017-10-05 14:07:33,#P#, 39, 31200000, 198, 0 

2017-10-05 14:07:33,#P#, 39, 31200000, 199, 0 

2017-10-05 14:07:33,*******DONE*******#

Exiting PsocAmPreRad
#D0E01FFFF0A001AAM Ramp

2017-10-05 14:07:35, 44,:e,:1,:ffff,:a,:0,:1a @

2017-10-05 14:07:35,*SeqNo,Samples,DAC_Cnt,BGapReg,GainReg,AM_VCal,BGO,Isense0,Isense1

2017-10-05 14:07:35,Vsense,AM_LCh0,AM_RCh0,AM_Rch1,AM_RCh2,AM_LCh3,AM_RCh3

2017-10-05 14:07:36,
2017-10-05 14:07:37,
2017-10-05 14:07:38,
2017-10-05 14:07:39,
2017-10-05 14:07:40,
2017-10-05 14:07:41,
2017-10-05 14:07:42,
2017-10-05 14:07:42,#D#,0,0,825,37,13,13,4,0,1157,1493,27,2,281,534,613,515,67,68,844,883,9,29,22,26,30,28,21

2017-10-05 14:07:42,#D#,0,1,825,37,13,13,4,0,1157,1493,27,2,281,534,613,515,67,68,849,884,9,29,22,26,30,28,21

2017-10-05 14:07:42,#D#,0,2,825,37,13,13,4,0,1157,1493,27,2,281,534,613,515,67,68,834,885,9,29,22,26,30,28,21

2017-10-05 14:07:42,#D#,0,3,825,37,13,13,4,0,1157,1493,27,2,281,534,613,515,67,68,850,883,9,29,22,26,30,28,21

2017-10-05 14:07:42,#D#,0,4,825,37,13,13,4,0,1157,1493,27,2,281,534,613,515,67,68,852,884,9,29,22,26,30,28,21

2017-10-05 14:07:42,#D#,0,5,825,37,13,13,4,0,1157,1493,27,2,281,534,613,515,67,68,850,887,9,29,22,26,30,28,21

2017-10-05 14:07:42,#D#,0,6,825,37,13,13,4,0,1157,1493,27,2,281,534,613,515,67,68,847,884,9,29,22,26,30,28,21

2017-10-05 14:07:42,#D#,0,7,825,37,13,13,4,0,1157,1493,27,2,281,534,613,515,67,68,854,886,9,29,22,26,30,28,21

2017-10-05 14:07:42,#D#,0,8,825,37,13,13,4,0,1157,1493,27,2,281,534,613,515,67,68,857,893,9,29,22,26,30,28,21

2017-10-05 14:07:42,#D#,0,9,825,37,13,13,4,0,1157,1493,27,2,281,534,613,515,67,68,842,891,9,29,22,26,30,28,21

2017-10-05 14:07:43,
2017-10-05 14:07:44,#D#,1,0,825,37,13,13,4,0,1157,1493,27,2,281,534,613,516,67,68,848,885,9,29,22,26,30,28,21

2017-10-05 14:07:44,#D#,1,1,825,37,13,13,4,0,1157,1493,27,2,281,534,613,516,67,68,834,888,9,29,22,26,30,28,21

2017-10-05 14:07:44,#D#,1,2,825,37,13,13,4,0,1157,1493,27,2,281,534,613,515,67,68,846,885,9,29,22,25,30,28,21

2017-10-05 14:07:44,#D#,1,3,825,37,13,13,4,0,1157,1493,27,2,281,534,613,515,67,68,848,887,9,29,22,26,30,28,21

2017-10-05 14:07:44,#D#,1,4,825,37,13,13,4,0,1157,1493,27,2,281,534,613,515,67,68,847,887,9,29,22,26,30,28,21

2017-10-05 14:07:44,#D#,1,5,825,37,13,13,4,0,1157,1493,27,2,281,534,613,516,67,68,835,885,9,29,22,26,30,28,21

2017-10-05 14:07:44,#D#,1,6,825,37,13,13,4,0,1157,1493,27,2,281,534,613,515,67,68,861,885,9,29,22,26,30,28,21

2017-10-05 14:07:44,#D#,1,7,825,37,13,13,4,0,1157,1493,27,2,281,534,613,515,67,68,849,884,9,29,22,25,30,28,21

2017-10-05 14:07:44,#D#,1,8,825,37,13,13,4,0,1157,1493,27,2,281,534,613,515,67,68,849,885,9,29,22,25,30,28,21

2017-10-05 14:07:44,#D#,1,9,825,37,13,13,4,0,1157,1493,27,2,281,534,613,515,67,68,851,886,9,29,22,25,30,28,21

2017-10-05 14:07:45,
2017-10-05 14:07:45,#D#,2,0,825,37,13,13,4,0,1157,1493,27,2,281,534,613,515,67,68,849,884,9,29,22,26,30,28,21

2017-10-05 14:07:45,#D#,2,1,825,37,13,13,4,0,1157,1493,27,2,281,533,613,515,67,68,850,884,9,29,22,26,30,28,21

2017-10-05 14:07:45,#D#,2,2,825,37,13,13,4,0,1157,1493,27,2,281,534,613,515,67,68,849,886,9,29,22,26,30,28,21

2017-10-05 14:07:45,#D#,2,3,825,37,13,13,4,0,1157,1493,27,2,281,534,613,515,67,68,863,888,9,29,22,26,30,28,21

2017-10-05 14:07:45,#D#,2,4,825,37,13,13,4,0,1157,1493,27,2,281,534,613,515,67,68,849,889,9,29,22,25,30,28,21

2017-10-05 14:07:45,#D#,2,5,825,37,13,13,4,0,1157,1493,27,2,281,534,613,514,67,68,849,886,9,29,22,26,30,28,21

2017-10-05 14:07:45,#D#,2,6,825,37,13,13,4,0,1157,1493,27,2,281,534,613,515,67,68,849,887,9,29,22,26,30,28,21

2017-10-05 14:07:45,#D#,2,7,825,37,13,13,4,0,1157,1493,27,2,281,534,613,515,67,68,848,883,9,29,22,26,30,28,21

2017-10-05 14:07:45,#D#,2,8,825,37,13,13,4,0,1157,1493,27,2,281,534,613,515,67,68,853,885,9,29,22,26,30,28,21

2017-10-05 14:07:45,#D#,2,9,825,37,13,13,4,0,1157,1493,27,2,281,534,613,515,67,68,857,885,9,29,22,25,30,28,21

2017-10-05 14:07:46,
2017-10-05 14:07:46,#D#,3,0,825,37,13,13,4,0,1157,1493,27,2,281,534,613,515,67,68,846,886,9,29,22,26,30,28,21

2017-10-05 14:07:46,#D#,3,1,825,37,13,13,4,0,1157,1493,27,2,281,534,613,515,67,68,862,885,9,29,22,25,30,28,21

2017-10-05 14:07:46,#D#,3,2,825,37,13,13,4,0,1157,1493,27,2,281,534,613,515,67,68,846,882,9,29,22,26,30,28,21

2017-10-05 14:07:46,#D#,3,3,825,37,13,13,4,0,1157,1493,27,2,281,534,613,515,67,68,845,886,9,29,22,26,30,28,21

2017-10-05 14:07:46,#D#,3,4,825,37,13,13,4,0,1157,1493,27,2,281,534,613,515,67,68,842,882,9,29,22,26,30,28,21

2017-10-05 14:07:46,#D#,3,5,825,37,13,13,4,0,1157,1493,27,2,281,534,613,515,67,68,849,886,9,29,22,26,30,28,21

2017-10-05 14:07:46,#D#,3,6,825,37,13,13,4,0,1157,1493,27,2,281,534,613,515,67,68,850,889,9,29,22,25,30,28,21

2017-10-05 14:07:47,#D#,3,7,825,37,13,13,4,0,1157,1493,27,2,281,534,613,515,67,68,847,887,9,29,22,26,30,28,21

2017-10-05 14:07:47,#D#,3,8,825,37,13,13,4,0,1157,1493,27,2,281,534,613,515,67,68,850,889,9,29,22,26,30,28,21

2017-10-05 14:07:47,#D#,3,9,825,37,13,13,4,0,1157,1493,27,2,281,534,613,515,67,68,849,888,9,29,22,26,30,28,21

2017-10-05 14:07:48,
2017-10-05 14:07:48,#D#,4,0,825,37,13,13,4,0,1157,1493,27,2,281,534,613,515,67,68,850,881,9,29,22,25,30,28,21

2017-10-05 14:07:48,#D#,4,1,825,37,13,13,4,0,1157,1493,27,2,281,534,613,515,67,68,857,892,9,29,22,26,30,28,21

2017-10-05 14:07:48,#D#,4,2,825,37,13,13,4,0,1157,1493,27,2,281,534,613,515,67,68,851,883,9,29,22,26,30,28,21

2017-10-05 14:07:48,#D#,4,3,825,37,13,13,4,0,1157,1493,27,2,281,533,613,514,67,68,856,888,9,29,22,26,30,28,21

2017-10-05 14:07:48,#D#,4,4,825,37,13,13,4,0,1157,1493,27,2,281,534,613,515,67,68,845,886,9,29,22,25,30,28,21

2017-10-05 14:07:48,#D#,4,5,825,37,13,13,4,0,1157,1493,27,2,281,534,613,515,67,68,848,892,9,29,22,26,30,28,21

2017-10-05 14:07:48,#D#,4,6,825,37,13,13,4,0,1157,1493,27,2,281,534,613,515,67,68,834,884,9,29,22,26,30,28,21

2017-10-05 14:07:48,#D#,4,7,825,37,13,13,4,0,1157,1493,27,2,281,534,613,515,67,68,843,889,9,29,22,25,30,28,21

2017-10-05 14:07:48,#D#,4,8,825,37,13,13,4,0,1157,1493,27,2,281,534,613,515,67,68,841,889,9,29,22,26,30,28,21

2017-10-05 14:07:48,#D#,4,9,825,37,13,13,4,0,1157,1493,27,2,281,533,613,515,67,68,850,884,9,29,22,25,30,28,21

2017-10-05 14:07:49,
2017-10-05 14:07:49,#D#,5,0,825,37,13,13,4,0,1157,1493,27,2,281,534,613,515,66,67,820,869,9,29,22,25,30,28,21

2017-10-05 14:07:49,#D#,5,1,825,37,13,13,4,0,1157,1493,27,2,281,534,613,515,66,67,842,881,9,29,22,25,30,28,21

2017-10-05 14:07:49,#D#,5,2,825,37,13,13,4,0,1157,1493,27,2,281,534,613,515,66,67,836,870,9,29,22,26,30,28,21

2017-10-05 14:07:49,#D#,5,3,825,37,13,13,4,0,1157,1493,27,2,281,535,613,515,66,67,843,874,9,29,22,26,30,28,21

2017-10-05 14:07:49,#D#,5,4,825,37,13,13,4,0,1157,1493,27,2,281,534,613,515,66,67,840,873,9,29,22,26,30,28,21

2017-10-05 14:07:49,#D#,5,5,825,37,13,13,4,0,1157,1493,27,2,281,534,613,515,66,67,839,874,9,29,22,26,30,28,21

2017-10-05 14:07:49,#D#,5,6,825,37,13,13,4,0,1157,1493,27,2,281,534,613,515,66,67,839,872,9,29,22,25,30,28,21

2017-10-05 14:07:49,#D#,5,7,825,37,13,13,4,0,1157,1493,27,2,281,534,613,515,66,67,838,873,9,29,22,25,30,28,21

2017-10-05 14:07:49,#D#,5,8,825,37,13,13,4,0,1157,1493,27,2,281,534,613,515,66,67,840,870,9,29,22,26,30,28,21

2017-10-05 14:07:49,#D#,5,9,825,37,13,13,4,0,1157,1493,27,2,281,534,613,515,66,67,840,871,9,29,22,26,30,28,21

2017-10-05 14:07:50,
2017-10-05 14:07:51,#D#,6,0,825,37,13,13,4,0,1157,1493,27,2,281,534,613,515,67,67,841,876,9,29,22,25,30,28,21

2017-10-05 14:07:51,#D#,6,1,825,37,13,13,4,0,1157,1493,27,2,281,534,613,515,67,67,842,874,9,29,22,25,30,28,21

2017-10-05 14:07:51,#D#,6,2,825,37,13,13,4,0,1157,1493,27,2,281,534,613,515,67,67,831,875,9,29,22,25,30,28,21

2017-10-05 14:07:51,#D#,6,3,825,37,13,13,4,0,1157,1493,27,2,281,534,613,515,67,67,840,874,9,29,22,26,30,28,21

2017-10-05 14:07:51,#D#,6,4,825,37,13,13,4,0,1157,1493,27,2,281,534,613,515,67,67,846,874,9,29,22,25,30,28,21

2017-10-05 14:07:51,#D#,6,5,825,37,13,13,4,0,1157,1493,27,2,281,534,613,515,67,67,832,874,9,29,22,25,30,28,21

2017-10-05 14:07:51,#D#,6,6,825,37,13,13,4,0,1157,1493,27,2,281,534,613,515,67,67,841,876,9,29,22,26,30,28,21

2017-10-05 14:07:51,#D#,6,7,825,37,13,13,4,0,1157,1493,27,2,281,534,613,515,67,67,832,875,9,29,22,26,30,28,21

2017-10-05 14:07:51,#D#,6,8,825,37,13,13,4,0,1157,1493,27,2,281,534,613,515,67,67,839,865,9,29,22,25,30,28,21

2017-10-05 14:07:51,#D#,6,9,825,37,13,13,4,0,1157,1493,27,2,281,534,613,515,67,67,835,870,9,29,22,26,30,28,21

2017-10-05 14:07:52,
2017-10-05 14:07:52,#D#,7,0,825,37,13,13,4,0,1157,1493,27,2,281,534,613,515,67,67,843,873,9,29,22,26,30,28,21

2017-10-05 14:07:52,#D#,7,1,825,37,13,13,4,0,1157,1493,27,2,281,534,613,515,67,67,836,873,9,29,22,25,30,28,21

2017-10-05 14:07:52,#D#,7,2,825,37,13,13,4,0,1157,1493,27,2,281,534,613,515,67,67,836,872,9,29,22,25,30,28,21

2017-10-05 14:07:52,#D#,7,3,825,37,13,13,4,0,1157,1493,27,2,281,534,613,515,67,67,842,877,9,29,22,25,30,28,21

2017-10-05 14:07:52,#D#,7,4,825,37,13,13,4,0,1157,1493,27,2,281,534,613,515,67,67,838,873,9,29,22,26,30,28,21

2017-10-05 14:07:52,#D#,7,5,825,37,13,13,4,0,1157,1493,27,2,281,534,613,515,67,67,840,877,9,29,22,25,29,28,21

2017-10-05 14:07:52,#D#,7,6,825,37,13,13,4,0,1157,1493,27,2,281,534,613,515,67,67,833,877,9,29,22,25,30,28,21

2017-10-05 14:07:52,#D#,7,7,825,37,13,13,4,0,1157,1493,27,2,281,534,613,515,67,67,843,874,9,29,22,25,30,28,21

2017-10-05 14:07:52,#D#,7,8,825,37,13,13,4,0,1157,1493,27,2,281,534,613,515,67,67,817,875,9,29,22,25,30,28,21

2017-10-05 14:07:52,#D#,7,9,825,37,13,13,4,0,1157,1493,27,2,281,534,613,515,67,67,832,874,9,29,22,26,30,28,21

2017-10-05 14:07:53,
2017-10-05 14:07:53,#D#,8,0,825,37,13,13,4,0,1157,1493,27,2,281,534,613,515,67,67,841,870,9,29,22,26,30,28,21

2017-10-05 14:07:53,#D#,8,1,825,37,13,13,4,0,1157,1493,27,2,281,534,613,515,67,67,841,871,9,29,22,26,30,28,21

2017-10-05 14:07:53,#D#,8,2,825,37,13,13,4,0,1157,1493,27,2,281,534,613,515,67,67,844,874,9,29,22,26,30,28,21

2017-10-05 14:07:53,#D#,8,3,825,37,13,13,4,0,1157,1493,27,2,281,534,613,515,67,67,841,875,9,29,22,25,29,28,21

2017-10-05 14:07:54,#D#,8,4,825,37,13,13,4,0,1157,1493,27,2,281,534,613,515,67,67,837,870,9,29,22,26,30,28,21

2017-10-05 14:07:54,#D#,8,5,825,37,13,13,4,0,1157,1493,27,2,281,534,613,515,67,67,841,877,9,29,22,26,30,28,21

2017-10-05 14:07:54,#D#,8,6,825,37,13,13,4,0,1157,1493,27,2,281,534,613,515,67,67,842,875,9,29,22,26,30,28,21

2017-10-05 14:07:54,#D#,8,7,825,37,13,13,4,0,1157,1493,27,2,281,533,613,515,67,67,840,876,9,29,22,25,30,28,21

2017-10-05 14:07:54,#D#,8,8,825,37,13,13,4,0,1157,1493,27,2,281,533,613,515,67,67,842,876,9,29,22,26,30,28,21

2017-10-05 14:07:54,#D#,8,9,825,37,13,13,4,0,1157,1493,27,2,281,534,613,515,67,67,841,877,9,29,22,25,30,28,21

2017-10-05 14:07:55,
2017-10-05 14:07:55,#D#,9,0,825,37,13,13,4,0,1157,1493,27,2,281,534,613,515,67,67,841,875,9,29,22,25,30,28,21

2017-10-05 14:07:55,#D#,9,1,825,37,13,13,4,0,1157,1493,27,2,281,534,613,515,67,67,841,873,9,29,22,25,30,28,21

2017-10-05 14:07:55,#D#,9,2,825,37,13,13,4,0,1157,1493,27,2,281,534,613,515,67,67,837,877,9,29,22,25,30,28,21

2017-10-05 14:07:55,#D#,9,3,825,37,13,13,4,0,1157,1493,27,2,281,534,613,515,67,67,839,872,9,29,22,25,30,28,21

2017-10-05 14:07:55,#D#,9,4,825,37,13,13,4,0,1157,1493,27,2,281,534,613,514,67,67,842,869,9,29,22,25,30,28,21

2017-10-05 14:07:55,#D#,9,5,825,37,13,13,4,0,1157,1493,27,2,281,534,613,515,67,67,832,872,9,29,22,25,30,28,21

2017-10-05 14:07:55,#D#,9,6,825,37,13,13,4,0,1157,1493,27,2,281,534,613,515,67,67,841,872,9,29,22,25,30,28,21

2017-10-05 14:07:55,#D#,9,7,825,37,13,13,4,0,1157,1493,27,2,281,534,613,515,67,67,841,876,9,29,22,25,30,28,21

2017-10-05 14:07:55,#D#,9,8,825,37,13,13,4,0,1157,1493,27,2,281,534,613,515,67,67,839,870,9,29,22,25,30,28,21

2017-10-05 14:07:55,#D#,9,9,825,37,13,13,4,0,1157,1493,27,2,281,534,613,515,67,67,840,874,9,29,22,25,30,28,21

2017-10-05 14:07:56,
2017-10-05 14:07:57,#D#,10,0,825,37,13,13,4,0,1157,1493,27,2,282,534,613,515,67,68,849,885,9,29,22,25,30,28,21

2017-10-05 14:07:57,#D#,10,1,825,37,13,13,4,0,1157,1493,27,2,282,534,613,515,67,68,853,887,9,29,22,25,30,28,21

2017-10-05 14:07:57,#D#,10,2,825,37,13,13,4,0,1157,1493,27,2,282,534,613,515,67,68,849,888,9,29,22,25,30,28,21

2017-10-05 14:07:57,#D#,10,3,825,37,13,13,4,0,1157,1493,27,2,282,534,613,514,67,68,845,883,9,29,22,25,30,28,21

2017-10-05 14:07:57,#D#,10,4,825,37,13,13,4,0,1157,1493,27,2,282,534,613,515,67,68,844,884,9,29,22,26,30,28,21

2017-10-05 14:07:57,#D#,10,5,825,37,13,13,4,0,1157,1493,27,2,282,534,613,515,67,68,847,892,9,29,22,26,30,28,21

2017-10-05 14:07:57,#D#,10,6,825,37,13,13,4,0,1157,1493,27,2,282,534,613,515,67,68,861,886,9,29,22,26,30,28,21

2017-10-05 14:07:57,#D#,10,7,825,37,13,13,4,0,1157,1493,27,2,282,534,613,514,67,68,849,889,9,29,22,26,30,28,21

2017-10-05 14:07:57,#D#,10,8,825,37,13,13,4,0,1157,1493,27,2,282,534,613,515,67,68,850,884,9,29,22,25,30,28,21

2017-10-05 14:07:57,#D#,10,9,825,37,13,13,4,0,1157,1493,27,2,282,534,613,515,67,68,848,886,9,29,22,25,30,28,21

2017-10-05 14:07:58,
2017-10-05 14:07:58,#D#,11,0,825,37,13,13,4,0,1157,1493,27,2,282,534,613,515,67,68,850,884,9,29,22,25,30,28,21

2017-10-05 14:07:58,#D#,11,1,825,37,13,13,4,0,1157,1493,27,2,282,534,613,515,67,68,848,884,9,29,22,25,30,28,21

2017-10-05 14:07:58,#D#,11,2,825,37,13,13,4,0,1157,1493,27,2,282,534,613,515,67,68,846,885,9,29,22,25,30,28,21

2017-10-05 14:07:58,#D#,11,3,825,37,13,13,4,0,1157,1493,27,2,282,534,613,515,67,68,849,891,9,29,22,25,30,28,21

2017-10-05 14:07:58,#D#,11,4,825,37,13,13,4,0,1157,1493,27,2,282,534,613,515,67,68,835,888,9,29,22,26,30,28,21

2017-10-05 14:07:58,#D#,11,5,825,37,13,13,4,0,1157,1493,27,2,282,534,613,515,67,68,846,888,9,29,22,25,30,28,21

2017-10-05 14:07:58,#D#,11,6,825,37,13,13,4,0,1157,1493,27,2,282,534,613,514,67,68,849,886,9,29,22,25,30,28,21

2017-10-05 14:07:58,#D#,11,7,825,37,13,13,4,0,1157,1493,27,2,282,534,613,515,67,68,844,884,9,29,22,26,30,28,21

2017-10-05 14:07:58,#D#,11,8,825,37,13,13,4,0,1157,1493,27,2,282,534,613,515,67,68,836,884,9,29,22,26,30,28,21

2017-10-05 14:07:58,#D#,11,9,825,37,13,13,4,0,1157,1493,27,2,282,534,613,514,67,68,849,884,9,29,22,25,30,28,21

2017-10-05 14:07:59,
2017-10-05 14:08:00,#D#,12,0,825,37,13,13,4,0,1157,1493,27,2,282,534,613,515,67,68,848,883,9,29,22,26,30,28,25

2017-10-05 14:08:00,#D#,12,1,825,37,13,13,4,0,1157,1493,27,2,282,534,613,515,67,68,862,887,9,29,22,26,30,28,25

2017-10-05 14:08:00,#D#,12,2,825,37,13,13,4,0,1157,1493,27,2,282,534,613,515,67,68,845,894,9,29,22,26,30,28,25

2017-10-05 14:08:00,#D#,12,3,825,37,13,13,4,0,1157,1493,27,2,282,534,613,515,67,68,841,890,9,29,22,26,30,28,21

2017-10-05 14:08:00,#D#,12,4,825,37,13,13,4,0,1157,1493,27,2,282,534,613,515,67,68,848,888,9,29,22,26,30,28,25

2017-10-05 14:08:00,#D#,12,5,825,37,13,13,4,0,1157,1493,27,2,282,534,613,515,67,68,851,885,9,29,22,26,30,28,25

2017-10-05 14:08:00,#D#,12,6,825,37,13,13,4,0,1157,1493,27,2,282,534,613,515,67,68,850,882,9,29,22,26,30,28,21

2017-10-05 14:08:00,#D#,12,7,825,37,13,13,4,0,1157,1493,27,2,282,534,613,515,67,68,832,885,9,29,22,26,30,28,25

2017-10-05 14:08:00,#D#,12,8,825,37,13,13,4,0,1157,1493,27,2,282,534,613,515,67,68,863,883,9,29,22,26,30,28,25

2017-10-05 14:08:00,#D#,12,9,825,37,13,13,4,0,1157,1493,27,2,282,534,613,515,67,68,849,887,9,29,22,26,30,28,21

