#P0E000000C800AM_RdFreq

2017-10-05 12:54:22, 50,:e,:0,:0,:c8,:0,:a0 @

2017-10-05 12:54:22,*******Measure Period per Event & Freq in MHz*******

2017-10-05 12:54:22,****Period_cnt , Freq, SeqNo, Status,..........

2017-10-05 12:54:23,
2017-10-05 12:54:24,
2017-10-05 12:54:25,
2017-10-05 12:54:26,
2017-10-05 12:54:27,Watch Interrupt or Reset!! BGO Set:0, GAIN Set:0

2017-10-05 12:54:28,
2017-10-05 12:54:29,
2017-10-05 12:54:30,
2017-10-05 12:54:31,
2017-10-05 12:54:32,
2017-10-05 12:54:33,
2017-10-05 12:54:34,
2017-10-05 12:54:35,
2017-10-05 12:54:36,
2017-10-05 12:54:37,
2017-10-05 12:54:38,
2017-10-05 12:54:39,
2017-10-05 12:54:40,
2017-10-05 12:54:41,
2017-10-05 12:54:42,
2017-10-05 12:54:43,
2017-10-05 12:54:44,
2017-10-05 12:54:45,
2017-10-05 12:54:46,
2017-10-05 12:54:47,
2017-10-05 12:54:48,
2017-10-05 12:54:49,
2017-10-05 12:54:50,
2017-10-05 12:54:51,
2017-10-05 12:54:52,
2017-10-05 12:54:53,
2017-10-05 12:54:54,
2017-10-05 12:54:55,
2017-10-05 12:54:56,
2017-10-05 12:54:57,
2017-10-05 12:54:58,
2017-10-05 12:54:59,
2017-10-05 12:55:00,
2017-10-05 12:55:01,
2017-10-05 12:55:02,
2017-10-05 12:55:03,
2017-10-05 12:55:04,
2017-10-05 12:55:05,
2017-10-05 12:55:06,
2017-10-05 12:55:07,
2017-10-05 12:55:08,
2017-10-05 12:55:09,
2017-10-05 12:55:10,
2017-10-05 12:55:11,
2017-10-05 12:55:12,
2017-10-05 12:55:13,
2017-10-05 12:55:14,
2017-10-05 12:55:15,
2017-10-05 12:55:16,
2017-10-05 12:55:17,
2017-10-05 12:55:18,
2017-10-05 12:55:19,
2017-10-05 12:55:20,
2017-10-05 12:55:21,
2017-10-05 12:55:22,
