#P0E000000C800AM_RdFreq

2017-10-05 12:08:00, 50,:e,:0,:0,:c8,:0,:a0 @

2017-10-05 12:08:00,*******Measure Period per Event & Freq in MHz*******

2017-10-05 12:08:00,****Period_cnt , Freq, SeqNo, Status,..........

2017-10-05 12:08:00,#P#, 1, 800000, 0, 1 

2017-10-05 12:08:00,#P#, 1, 800000, 1, 1 

2017-10-05 12:08:00,#P#, 1, 800000, 2, 1 

2017-10-05 12:08:00,#P#, 1, 800000, 3, 1 

2017-10-05 12:08:00,#P#, 1, 800000, 4, 1 

2017-10-05 12:08:00,#P#, 1, 800000, 5, 1 

2017-10-05 12:08:00,#P#, 1, 800000, 6, 1 

2017-10-05 12:08:00,#P#, 1, 800000, 7, 1 

2017-10-05 12:08:00,#P#, 1, 800000, 8, 1 

2017-10-05 12:08:00,#P#, 1, 800000, 9, 1 

2017-10-05 12:08:00,#P#, 1, 800000, 10, 1 

2017-10-05 12:08:00,#P#, 1, 800000, 11, 1 

2017-10-05 12:08:00,#P#, 1, 800000, 12, 1 

2017-10-05 12:08:00,#P#, 1, 800000, 13, 1 

2017-10-05 12:08:00,#P#, 1, 800000, 14, 1 

2017-10-05 12:08:00,#P#, 1, 800000, 15, 1 

2017-10-05 12:08:00,#P#, 1, 800000, 16, 1 

2017-10-05 12:08:00,#P#, 1, 800000, 17, 1 

2017-10-05 12:08:00,#P#, 1, 800000, 18, 1 

2017-10-05 12:08:00,#P#, 1, 800000, 19, 1 

2017-10-05 12:08:00,#P#, 1, 800000, 20, 1 

2017-10-05 12:08:00,#P#, 1, 800000, 21, 1 

2017-10-05 12:08:00,#P#, 1, 800000, 22, 1 

2017-10-05 12:08:00,#P#, 1, 800000, 23, 1 

2017-10-05 12:08:00,#P#, 1, 800000, 24, 1 

2017-10-05 12:08:00,#P#, 1, 800000, 25, 1 

2017-10-05 12:08:00,#P#, 1, 800000, 26, 1 

2017-10-05 12:08:00,#P#, 1, 800000, 27, 1 

2017-10-05 12:08:00,#P#, 1, 800000, 28, 1 

2017-10-05 12:08:00,#P#, 1, 800000, 29, 1 

2017-10-05 12:08:00,#P#, 1, 800000, 30, 1 

2017-10-05 12:08:00,#P#, 1, 800000, 31, 1 

2017-10-05 12:08:00,#P#, 1, 800000, 32, 1 

2017-10-05 12:08:00,#P#, 1, 800000, 33, 1 

2017-10-05 12:08:00,#P#, 1, 800000, 34, 1 

2017-10-05 12:08:00,#P#, 1, 800000, 35, 1 

2017-10-05 12:08:00,#P#, 1, 800000, 36, 1 

2017-10-05 12:08:00,#P#, 1, 800000, 37, 1 

2017-10-05 12:08:00,#P#, 1, 800000, 38, 1 

2017-10-05 12:08:00,#P#, 1, 800000, 39, 1 

2017-10-05 12:08:00,#P#, 1, 800000, 40, 1 

2017-10-05 12:08:00,#P#, 1, 800000, 41, 1 

2017-10-05 12:08:00,#P#, 1, 800000, 42, 1 

2017-10-05 12:08:00,#P#, 1, 800000, 43, 1 

2017-10-05 12:08:00,#P#, 1, 800000, 44, 1 

2017-10-05 12:08:00,#P#, 1, 800000, 45, 1 

2017-10-05 12:08:00,#P#, 1, 800000, 46, 1 

2017-10-05 12:08:00,#P#, 1, 800000, 47, 1 

2017-10-05 12:08:00,#P#, 1, 800000, 48, 1 

2017-10-05 12:08:00,#P#, 1, 800000, 49, 1 

2017-10-05 12:08:00,#P#, 1, 800000, 50, 1 

2017-10-05 12:08:00,#P#, 1, 800000, 51, 1 

2017-10-05 12:08:00,#P#, 1, 800000, 52, 1 

2017-10-05 12:08:00,#P#, 1, 800000, 53, 1 

2017-10-05 12:08:00,#P#, 1, 800000, 54, 1 

2017-10-05 12:08:00,#P#, 1, 800000, 55, 1 

2017-10-05 12:08:00,#P#, 1, 800000, 56, 1 

2017-10-05 12:08:00,#P#, 1, 800000, 57, 1 

2017-10-05 12:08:00,#P#, 1, 800000, 58, 1 

2017-10-05 12:08:00,#P#, 1, 800000, 59, 1 

2017-10-05 12:08:00,#P#, 1, 800000, 60, 1 

2017-10-05 12:08:01,#P#, 1, 800000, 61, 1 

2017-10-05 12:08:01,#P#, 1, 800000, 62, 1 

2017-10-05 12:08:01,#P#, 1, 800000, 63, 1 

2017-10-05 12:08:01,#P#, 1, 800000, 64, 1 

2017-10-05 12:08:01,#P#, 1, 800000, 65, 1 

2017-10-05 12:08:01,#P#, 1, 800000, 66, 1 

2017-10-05 12:08:01,#P#, 1, 800000, 67, 1 

2017-10-05 12:08:01,#P#, 1, 800000, 68, 1 

2017-10-05 12:08:01,#P#, 1, 800000, 69, 1 

2017-10-05 12:08:01,#P#, 1, 800000, 70, 1 

2017-10-05 12:08:01,#P#, 1, 800000, 71, 1 

2017-10-05 12:08:01,#P#, 1, 800000, 72, 1 

2017-10-05 12:08:01,#P#, 1, 800000, 73, 1 

2017-10-05 12:08:01,#P#, 1, 800000, 74, 1 

2017-10-05 12:08:01,#P#, 1, 800000, 75, 1 

2017-10-05 12:08:01,#P#, 1, 800000, 76, 1 

2017-10-05 12:08:01,#P#, 1, 800000, 77, 1 

2017-10-05 12:08:01,#P#, 1, 800000, 78, 1 

2017-10-05 12:08:01,#P#, 1, 800000, 79, 1 

2017-10-05 12:08:01,#P#, 1, 800000, 80, 1 

2017-10-05 12:08:01,#P#, 1, 800000, 81, 1 

2017-10-05 12:08:01,#P#, 1, 800000, 82, 1 

2017-10-05 12:08:01,#P#, 1, 800000, 83, 1 

2017-10-05 12:08:01,#P#, 1, 800000, 84, 1 

2017-10-05 12:08:01,#P#, 1, 800000, 85, 1 

2017-10-05 12:08:01,#P#, 1, 800000, 86, 1 

2017-10-05 12:08:01,#P#, 1, 800000, 87, 1 

2017-10-05 12:08:01,#P#, 1, 800000, 88, 1 

2017-10-05 12:08:01,#P#, 1, 800000, 89, 1 

2017-10-05 12:08:01,#P#, 1, 800000, 90, 1 

2017-10-05 12:08:01,#P#, 1, 800000, 91, 1 

2017-10-05 12:08:01,#P#, 1, 800000, 92, 1 

2017-10-05 12:08:01,#P#, 1, 800000, 93, 1 

2017-10-05 12:08:01,#P#, 1, 800000, 94, 1 

2017-10-05 12:08:01,#P#, 1, 800000, 95, 1 

2017-10-05 12:08:01,#P#, 1, 800000, 96, 1 

2017-10-05 12:08:01,#P#, 1, 800000, 97, 1 

2017-10-05 12:08:01,#P#, 1, 800000, 98, 1 

2017-10-05 12:08:01,#P#, 1, 800000, 99, 1 

2017-10-05 12:08:01,#P#, 1, 800000, 100, 1 

2017-10-05 12:08:01,#P#, 1, 800000, 101, 1 

2017-10-05 12:08:01,#P#, 1, 800000, 102, 1 

2017-10-05 12:08:01,#P#, 1, 800000, 103, 1 

2017-10-05 12:08:01,#P#, 1, 800000, 104, 1 

2017-10-05 12:08:01,#P#, 1, 800000, 105, 1 

2017-10-05 12:08:01,#P#, 1, 800000, 106, 1 

2017-10-05 12:08:01,#P#, 1, 800000, 107, 1 

2017-10-05 12:08:01,#P#, 1, 800000, 108, 1 

2017-10-05 12:08:01,#P#, 1, 800000, 109, 1 

2017-10-05 12:08:01,#P#, 1, 800000, 110, 1 

2017-10-05 12:08:01,#P#, 1, 800000, 111, 1 

2017-10-05 12:08:01,#P#, 1, 800000, 112, 1 

2017-10-05 12:08:01,#P#, 1, 800000, 113, 1 

2017-10-05 12:08:01,#P#, 1, 800000, 114, 1 

2017-10-05 12:08:01,#P#, 1, 800000, 115, 1 

2017-10-05 12:08:01,#P#, 1, 800000, 116, 1 

2017-10-05 12:08:01,#P#, 1, 800000, 117, 1 

2017-10-05 12:08:01,#P#, 1, 800000, 118, 1 

2017-10-05 12:08:01,#P#, 1, 800000, 119, 1 

2017-10-05 12:08:01,#P#, 1, 800000, 120, 1 

2017-10-05 12:08:01,#P#, 1, 800000, 121, 1 

2017-10-05 12:08:01,#P#, 1, 800000, 122, 1 

2017-10-05 12:08:01,#P#, 1, 800000, 123, 1 

2017-10-05 12:08:01,#P#, 1, 800000, 124, 1 

2017-10-05 12:08:01,#P#, 1, 800000, 125, 1 

2017-10-05 12:08:01,#P#, 1, 800000, 126, 1 

2017-10-05 12:08:01,#P#, 1, 800000, 127, 1 

2017-10-05 12:08:01,#P#, 1, 800000, 128, 1 

2017-10-05 12:08:01,#P#, 1, 800000, 129, 1 

2017-10-05 12:08:01,#P#, 1, 800000, 130, 1 

2017-10-05 12:08:01,#P#, 1, 800000, 131, 1 

2017-10-05 12:08:01,#P#, 1, 800000, 132, 1 

2017-10-05 12:08:01,#P#, 1, 800000, 133, 1 

2017-10-05 12:08:01,#P#, 1, 800000, 134, 1 

2017-10-05 12:08:01,#P#, 1, 800000, 135, 1 

2017-10-05 12:08:01,#P#, 1, 800000, 136, 1 

2017-10-05 12:08:01,#P#, 1, 800000, 137, 1 

2017-10-05 12:08:01,#P#, 1, 800000, 138, 1 

2017-10-05 12:08:01,#P#, 1, 800000, 139, 1 

2017-10-05 12:08:01,#P#, 1, 800000, 140, 1 

2017-10-05 12:08:01,#P#, 1, 800000, 141, 1 

2017-10-05 12:08:01,#P#, 1, 800000, 142, 1 

2017-10-05 12:08:01,#P#, 1, 800000, 143, 1 

2017-10-05 12:08:01,#P#, 1, 800000, 144, 1 

2017-10-05 12:08:01,#P#, 1, 800000, 145, 1 

2017-10-05 12:08:01,#P#, 1, 800000, 146, 1 

2017-10-05 12:08:01,#P#, 1, 800000, 147, 1 

2017-10-05 12:08:01,#P#, 1, 800000, 148, 1 

2017-10-05 12:08:01,#P#, 1, 800000, 149, 1 

2017-10-05 12:08:01,#P#, 1, 800000, 150, 1 

2017-10-05 12:08:01,#P#, 1, 800000, 151, 1 

2017-10-05 12:08:01,#P#, 1, 800000, 152, 1 

2017-10-05 12:08:01,#P#, 1, 800000, 153, 1 

2017-10-05 12:08:01,#P#, 1, 800000, 154, 1 

2017-10-05 12:08:01,#P#, 1, 800000, 155, 1 

2017-10-05 12:08:01,#P#, 1, 800000, 156, 1 

2017-10-05 12:08:01,#P#, 1, 800000, 157, 1 

2017-10-05 12:08:01,#P#, 1, 800000, 158, 1 

2017-10-05 12:08:01,#P#, 1, 800000, 159, 1 

2017-10-05 12:08:01,#P#, 1, 800000, 160, 1 

2017-10-05 12:08:01,#P#, 1, 800000, 161, 1 

2017-10-05 12:08:01,#P#, 1, 800000, 162, 1 

2017-10-05 12:08:01,#P#, 1, 800000, 163, 1 

2017-10-05 12:08:01,#P#, 1, 800000, 164, 1 

2017-10-05 12:08:01,#P#, 1, 800000, 165, 1 

2017-10-05 12:08:01,#P#, 1, 800000, 166, 1 

2017-10-05 12:08:01,#P#, 1, 800000, 167, 1 

2017-10-05 12:08:01,#P#, 1, 800000, 168, 1 

2017-10-05 12:08:01,#P#, 1, 800000, 169, 1 

2017-10-05 12:08:01,#P#, 1, 800000, 170, 1 

2017-10-05 12:08:01,#P#, 1, 800000, 171, 1 

2017-10-05 12:08:01,#P#, 1, 800000, 172, 1 

2017-10-05 12:08:01,#P#, 1, 800000, 173, 1 

2017-10-05 12:08:01,#P#, 1, 800000, 174, 1 

2017-10-05 12:08:01,#P#, 1, 800000, 175, 1 

2017-10-05 12:08:01,#P#, 1, 800000, 176, 1 

2017-10-05 12:08:01,#P#, 1, 800000, 177, 1 

2017-10-05 12:08:01,#P#, 1, 800000, 178, 1 

2017-10-05 12:08:01,#P#, 1, 800000, 179, 1 

2017-10-05 12:08:01,#P#, 1, 800000, 180, 1 

2017-10-05 12:08:01,#P#, 1, 800000, 181, 1 

2017-10-05 12:08:01,#P#, 1, 800000, 182, 1 

2017-10-05 12:08:01,#P#, 1, 800000, 183, 1 

2017-10-05 12:08:01,#P#, 1, 800000, 184, 1 

2017-10-05 12:08:01,#P#, 1, 800000, 185, 1 

2017-10-05 12:08:01,#P#, 1, 800000, 186, 1 

2017-10-05 12:08:01,#P#, 1, 800000, 187, 1 

2017-10-05 12:08:01,#P#, 1, 800000, 188, 1 

2017-10-05 12:08:01,#P#, 1, 800000, 189, 1 

2017-10-05 12:08:01,#P#, 1, 800000, 190, 1 

2017-10-05 12:08:01,#P#, 1, 800000, 191, 1 

2017-10-05 12:08:01,#P#, 1, 800000, 192, 1 

2017-10-05 12:08:01,#P#, 1, 800000, 193, 1 

2017-10-05 12:08:01,#P#, 1, 800000, 194, 1 

2017-10-05 12:08:01,#P#, 1, 800000, 195, 1 

2017-10-05 12:08:02,#P#, 1, 800000, 196, 1 

2017-10-05 12:08:02,#P#, 1, 800000, 197, 1 

2017-10-05 12:08:02,#P#, 1, 800000, 198, 1 

2017-10-05 12:08:02,#P#, 1, 800000, 199, 1 

2017-10-05 12:08:02,*******DONE*******#

Exiting PsocAmPreRad
#E0E0199990A020CIS_RAMP

2017-10-05 12:08:03, 45,:e,:1,:9999,:a,:2,:20c @

2017-10-05 12:08:03,*SeqNo,Samples,DAC_Cnt,BGapReg,GainReg,AM_VCal,BGO,Isense0,Isense1

2017-10-05 12:08:04,#E#,0,0,12,102,524,0,75,613,518,0,-28,-28,0,0

2017-10-05 12:08:04,#E#,0,1,12,102,524,0,75,613,519,0,-28,-28,0,0

2017-10-05 12:08:04,#E#,0,2,12,102,524,0,75,613,519,0,-28,-28,0,0

2017-10-05 12:08:04,#E#,0,3,12,102,524,0,75,613,518,0,-28,-28,0,0

2017-10-05 12:08:04,#E#,0,4,12,102,524,0,75,613,518,0,-28,-28,0,0

2017-10-05 12:08:04,#E#,0,5,12,102,524,0,75,613,519,0,-28,-28,0,0

2017-10-05 12:08:04,#E#,0,6,12,102,524,0,75,613,519,0,-28,-28,0,0

2017-10-05 12:08:04,#E#,0,7,12,102,524,0,75,613,518,0,-28,-28,0,0

2017-10-05 12:08:04,#E#,0,8,12,102,524,0,75,613,519,0,-28,-28,0,0

2017-10-05 12:08:04,#E#,0,9,12,102,524,0,75,613,518,0,-28,-28,0,0

2017-10-05 12:08:05,#E#,1,0,12,102,524,524,75,613,518,0,-28,-28,0,0

2017-10-05 12:08:05,#E#,1,1,12,102,524,524,75,613,518,0,-28,-28,0,0

2017-10-05 12:08:05,#E#,1,2,12,102,524,524,75,613,518,0,-28,-28,0,0

2017-10-05 12:08:05,#E#,1,3,12,102,524,524,75,613,518,0,-28,-28,0,0

2017-10-05 12:08:05,#E#,1,4,12,102,524,524,75,613,519,0,-28,-28,0,0

2017-10-05 12:08:05,#E#,1,5,12,102,524,524,75,613,518,0,-28,-28,0,0

2017-10-05 12:08:05,#E#,1,6,12,102,524,524,75,613,519,0,-28,-28,0,0

2017-10-05 12:08:05,#E#,1,7,12,102,524,524,75,613,519,0,-28,-28,0,0

2017-10-05 12:08:05,#E#,1,8,12,102,524,524,75,613,518,0,-28,-28,0,0

2017-10-05 12:08:05,#E#,1,9,12,102,524,524,75,613,519,0,-28,-28,0,0

2017-10-05 12:08:06,#E#,2,0,12,102,524,1048,75,613,518,0,-28,-28,0,0

2017-10-05 12:08:06,#E#,2,1,12,102,524,1048,75,613,519,0,-28,-28,0,0

2017-10-05 12:08:06,#E#,2,2,12,102,524,1048,75,613,519,0,-28,-28,0,0

2017-10-05 12:08:06,#E#,2,3,12,102,524,1048,75,613,518,0,-28,-28,0,0

2017-10-05 12:08:06,#E#,2,4,12,102,524,1048,75,613,518,0,-28,-28,0,0

2017-10-05 12:08:06,#E#,2,5,12,102,524,1048,75,613,518,0,-28,-28,0,0

2017-10-05 12:08:06,#E#,2,6,12,102,524,1048,75,613,518,0,-28,-28,0,0

2017-10-05 12:08:06,#E#,2,7,12,102,524,1048,75,613,518,0,-28,-28,0,0

2017-10-05 12:08:06,#E#,2,8,12,102,524,1048,75,613,518,0,-28,-28,0,0

2017-10-05 12:08:06,#E#,2,9,12,102,524,1048,75,613,519,0,-28,-28,0,0

2017-10-05 12:08:07,#E#,3,0,12,102,524,1572,75,613,518,0,-28,-28,0,0

2017-10-05 12:08:07,#E#,3,1,12,102,524,1572,75,613,518,0,-28,-28,0,0

2017-10-05 12:08:07,#E#,3,2,12,102,524,1572,75,613,519,0,-28,-28,0,0

2017-10-05 12:08:07,#E#,3,3,12,102,524,1572,75,613,518,0,-28,-28,0,0

2017-10-05 12:08:07,#E#,3,4,12,102,524,1572,75,613,518,0,-28,-28,0,0

2017-10-05 12:08:07,#E#,3,5,12,102,524,1572,75,613,518,0,-28,-28,0,0

2017-10-05 12:08:07,#E#,3,6,12,102,524,1572,75,613,518,0,-28,-28,0,0

2017-10-05 12:08:07,#E#,3,7,12,102,524,1572,75,613,518,0,-28,-28,0,0

2017-10-05 12:08:07,#E#,3,8,12,102,524,1572,75,613,518,0,-28,-28,0,0

2017-10-05 12:08:07,#E#,3,9,12,102,524,1572,75,613,518,0,-28,-28,0,0

2017-10-05 12:08:08,#E#,4,0,12,102,524,2096,75,613,518,0,-28,-28,0,0

2017-10-05 12:08:08,#E#,4,1,12,102,524,2096,75,613,518,0,-28,-28,0,0

2017-10-05 12:08:08,#E#,4,2,12,102,524,2096,75,613,518,0,-28,-28,0,0

2017-10-05 12:08:08,#E#,4,3,12,102,524,2096,75,613,518,0,-28,-28,0,0

2017-10-05 12:08:08,#E#,4,4,12,102,524,2096,75,613,518,0,-28,-28,0,0

2017-10-05 12:08:08,#E#,4,5,12,102,524,2096,75,613,518,0,-28,-28,0,0

2017-10-05 12:08:08,#E#,4,6,12,102,524,2096,75,613,518,0,-28,-28,0,0

2017-10-05 12:08:08,#E#,4,7,12,102,524,2096,75,613,519,0,-28,-28,0,0

2017-10-05 12:08:08,#E#,4,8,12,102,524,2096,75,613,518,0,-28,-28,0,0

2017-10-05 12:08:08,#E#,4,9,12,102,524,2096,75,613,518,0,-28,-28,0,0

2017-10-05 12:08:09,#E#,5,0,12,102,524,2620,75,613,519,0,-27,-27,0,0

2017-10-05 12:08:09,#E#,5,1,12,102,524,2620,75,613,518,0,-27,-27,0,0

2017-10-05 12:08:09,#E#,5,2,12,102,524,2620,75,613,518,0,-27,-27,0,0

2017-10-05 12:08:09,#E#,5,3,12,102,524,2620,75,613,518,0,-27,-27,0,0

2017-10-05 12:08:09,#E#,5,4,12,102,524,2620,75,613,518,0,-27,-27,0,0

2017-10-05 12:08:09,#E#,5,5,12,102,524,2620,75,613,518,0,-27,-27,0,0

2017-10-05 12:08:09,#E#,5,6,12,102,524,2620,75,613,518,0,-27,-27,0,0

2017-10-05 12:08:09,#E#,5,7,12,102,524,2620,75,613,519,0,-27,-27,0,0

2017-10-05 12:08:09,#E#,5,8,12,102,524,2620,75,613,518,0,-27,-27,0,0

2017-10-05 12:08:10,#E#,5,9,12,102,524,2620,75,613,519,0,-27,-27,0,0

2017-10-05 12:08:10,#E#,6,0,12,102,524,3144,75,613,518,0,-27,-27,926,0

2017-10-05 12:08:10,#E#,6,1,12,102,524,3144,75,613,518,0,-27,-27,926,0

2017-10-05 12:08:10,#E#,6,2,12,102,524,3144,75,613,518,0,-27,-27,926,0

2017-10-05 12:08:10,#E#,6,3,12,102,524,3144,75,613,518,0,-27,-27,926,0

2017-10-05 12:08:10,#E#,6,4,12,102,524,3144,75,613,519,0,-27,-27,926,0

2017-10-05 12:08:11,#E#,6,5,12,102,524,3144,75,613,518,0,-27,-27,926,0

2017-10-05 12:08:11,#E#,6,6,12,102,524,3144,75,613,519,0,-27,-27,926,0

2017-10-05 12:08:11,#E#,6,7,12,102,524,3144,75,613,518,0,-27,-27,926,0

2017-10-05 12:08:11,#E#,6,8,12,102,524,3144,75,613,518,0,-27,-27,926,0

2017-10-05 12:08:11,#E#,6,9,12,102,524,3144,75,613,519,0,-27,-27,926,0

2017-10-05 12:08:12,#E#,7,0,12,102,524,3668,75,613,518,0,-20,-20,750,773

2017-10-05 12:08:12,#E#,7,1,12,102,524,3668,75,613,518,0,-20,-20,731,794

2017-10-05 12:08:12,#E#,7,2,12,102,524,3668,75,613,518,0,-20,-20,697,790

2017-10-05 12:08:12,#E#,7,3,12,102,524,3668,75,613,518,0,-20,-20,767,779

2017-10-05 12:08:12,#E#,7,4,12,102,524,3668,75,613,518,0,-20,-20,746,775

2017-10-05 12:08:12,#E#,7,5,12,102,524,3668,75,613,518,0,-20,-20,740,770

2017-10-05 12:08:12,#E#,7,6,12,102,524,3668,75,613,518,0,-20,-20,748,781

2017-10-05 12:08:12,#E#,7,7,12,102,524,3668,75,613,518,0,-20,-20,733,784

2017-10-05 12:08:12,#E#,7,8,12,102,524,3668,75,613,518,0,-20,-20,756,802

2017-10-05 12:08:12,#E#,7,9,12,102,524,3668,75,613,518,0,-20,-20,745,785

2017-10-05 12:08:13,#E#,8,0,12,102,524,4192,75,613,518,0,-12,-12,492,515

2017-10-05 12:08:13,#E#,8,1,12,102,524,4192,75,613,518,0,-12,-12,460,526

2017-10-05 12:08:13,#E#,8,2,12,102,524,4192,75,613,518,0,-12,-12,492,500

2017-10-05 12:08:13,#E#,8,3,12,102,524,4192,75,613,518,0,-12,-12,478,513

2017-10-05 12:08:13,#E#,8,4,12,102,524,4192,75,613,518,0,-12,-12,484,516

2017-10-05 12:08:13,#E#,8,5,12,102,524,4192,75,613,518,0,-12,-12,480,516

2017-10-05 12:08:13,#E#,8,6,12,102,524,4192,75,613,518,0,-12,-12,495,498

2017-10-05 12:08:13,#E#,8,7,12,102,524,4192,75,613,518,0,-12,-12,494,503

2017-10-05 12:08:13,#E#,8,8,12,102,524,4192,75,613,518,0,-12,-12,487,512

2017-10-05 12:08:13,#E#,8,9,12,102,524,4192,75,613,518,0,-12,-12,490,510

2017-10-05 12:08:14,#E#,9,0,12,102,524,4716,75,613,518,0,-5,-5,240,256

2017-10-05 12:08:14,#E#,9,1,12,102,524,4716,75,613,518,0,-5,-5,228,253

2017-10-05 12:08:14,#E#,9,2,12,102,524,4716,75,613,518,0,-5,-5,150,249

2017-10-05 12:08:14,#E#,9,3,12,102,524,4716,75,613,518,0,-5,-5,180,247

2017-10-05 12:08:14,#E#,9,4,12,102,524,4716,75,613,518,0,-5,-5,232,252

2017-10-05 12:08:14,#E#,9,5,12,102,524,4716,75,613,518,0,-5,-5,235,255

2017-10-05 12:08:14,#E#,9,6,12,102,524,4716,75,613,518,0,-5,-5,236,242

2017-10-05 12:08:14,#E#,9,7,12,102,524,4716,75,613,518,0,-5,-5,144,249

2017-10-05 12:08:14,#E#,9,8,12,102,524,4716,75,613,518,0,-5,-5,209,248

2017-10-05 12:08:14,#E#,9,9,12,102,524,4716,75,613,518,0,-5,-5,234,262

2017-10-05 12:08:15,#E#,10,0,12,102,524,5240,75,613,518,0,1,1,21,15

2017-10-05 12:08:15,#E#,10,1,12,102,524,5240,75,613,518,0,1,1,20,15

2017-10-05 12:08:15,#E#,10,2,12,102,524,5240,75,613,518,0,1,1,20,0

2017-10-05 12:08:15,#E#,10,3,12,102,524,5240,75,613,518,0,1,1,20,15

2017-10-05 12:08:15,#E#,10,4,12,102,524,5240,75,613,518,0,1,1,20,15

2017-10-05 12:08:15,#E#,10,5,12,102,524,5240,75,613,518,0,1,1,20,15

2017-10-05 12:08:15,#E#,10,6,12,102,524,5240,75,613,518,0,1,1,20,15

2017-10-05 12:08:15,#E#,10,7,12,102,524,5240,75,613,518,0,1,1,20,15

2017-10-05 12:08:15,#E#,10,8,12,102,524,5240,75,613,518,0,1,1,20,15

2017-10-05 12:08:15,#E#,10,9,12,102,524,5240,75,613,518,0,1,1,21,15

2017-10-05 12:08:16,#E#,11,0,12,102,524,5764,75,613,518,0,1,1,20,14

2017-10-05 12:08:16,#E#,11,1,12,102,524,5764,75,613,518,0,1,1,20,14

2017-10-05 12:08:16,#E#,11,2,12,102,524,5764,75,613,518,0,1,1,20,14

2017-10-05 12:08:16,#E#,11,3,12,102,524,5764,75,613,518,0,1,1,20,14

2017-10-05 12:08:16,#E#,11,4,12,102,524,5764,75,613,518,0,1,1,20,14

2017-10-05 12:08:16,#E#,11,5,12,102,524,5764,75,613,518,0,1,1,20,14

2017-10-05 12:08:16,#E#,11,6,12,102,524,5764,75,613,518,0,1,1,20,14

2017-10-05 12:08:16,#E#,11,7,12,102,524,5764,75,613,518,0,1,1,20,14

2017-10-05 12:08:16,#E#,11,8,12,102,524,5764,75,613,518,0,1,1,20,14

2017-10-05 12:08:16,#E#,11,9,12,102,524,5764,75,613,518,0,1,1,20,14

2017-10-05 12:08:17,#E#,12,0,12,102,524,6288,75,613,518,0,1,1,20,14

2017-10-05 12:08:17,#E#,12,1,12,102,524,6288,75,613,518,0,1,1,20,14

2017-10-05 12:08:17,#E#,12,2,12,102,524,6288,75,613,518,0,1,1,20,14

2017-10-05 12:08:17,#E#,12,3,12,102,524,6288,75,613,518,0,1,1,20,14

2017-10-05 12:08:17,#E#,12,4,12,102,524,6288,75,613,518,0,1,1,20,14

2017-10-05 12:08:17,#E#,12,5,12,102,524,6288,75,613,518,0,1,1,20,14

2017-10-05 12:08:17,#E#,12,6,12,102,524,6288,75,613,518,0,1,1,20,14

2017-10-05 12:08:17,#E#,12,7,12,102,524,6288,75,613,518,0,1,1,20,14

2017-10-05 12:08:17,#E#,12,8,12,102,524,6288,75,613,518,0,1,1,20,14

2017-10-05 12:08:17,#E#,12,9,12,102,524,6288,75,613,518,0,1,1,20,14

2017-10-05 12:08:18,#E#,13,0,12,102,524,6812,75,613,518,0,1,1,20,14

2017-10-05 12:08:18,#E#,13,1,12,102,524,6812,75,613,518,0,1,1,20,14

2017-10-05 12:08:18,#E#,13,2,12,102,524,6812,75,613,518,0,1,1,20,14

2017-10-05 12:08:18,#E#,13,3,12,102,524,6812,75,613,518,0,1,1,20,14

2017-10-05 12:08:18,#E#,13,4,12,102,524,6812,75,613,518,0,1,1,20,14

2017-10-05 12:08:18,#E#,13,5,12,102,524,6812,75,613,518,0,1,1,20,14

2017-10-05 12:08:18,#E#,13,6,12,102,524,6812,75,613,518,0,1,1,20,14

2017-10-05 12:08:18,#E#,13,7,12,102,524,6812,75,613,518,0,1,1,20,14

2017-10-05 12:08:18,#E#,13,8,12,102,524,6812,75,613,518,0,1,1,20,14

2017-10-05 12:08:18,#E#,13,9,12,102,524,6812,75,613,518,0,1,1,20,14

2017-10-05 12:08:19,#E#,14,0,12,102,524,7336,75,613,518,0,2,2,20,14

2017-10-05 12:08:19,#E#,14,1,12,102,524,7336,75,613,518,0,2,2,20,14

2017-10-05 12:08:19,#E#,14,2,12,102,524,7336,75,613,518,0,2,2,20,14

2017-10-05 12:08:19,#E#,14,3,12,102,524,7336,75,613,519,0,2,2,20,14

2017-10-05 12:08:19,#E#,14,4,12,102,524,7336,75,613,518,0,2,2,20,14

2017-10-05 12:08:19,#E#,14,5,12,102,524,7336,75,613,518,0,2,2,20,14

2017-10-05 12:08:19,#E#,14,6,12,102,524,7336,75,613,518,0,2,2,20,14

2017-10-05 12:08:19,#E#,14,7,12,102,524,7336,75,613,518,0,2,2,20,14

2017-10-05 12:08:19,#E#,14,8,12,102,524,7336,75,613,518,0,2,2,20,14

2017-10-05 12:08:19,#E#,14,9,12,102,524,7336,75,613,518,0,2,2,20,14

2017-10-05 12:08:20,#E#,15,0,12,102,524,7860,75,613,518,0,2,2,20,14

2017-10-05 12:08:20,#E#,15,1,12,102,524,7860,75,613,518,0,2,2,20,14

2017-10-05 12:08:20,#E#,15,2,12,102,524,7860,75,613,518,0,2,2,20,14

2017-10-05 12:08:20,#E#,15,3,12,102,524,7860,75,613,518,0,2,2,20,14

2017-10-05 12:08:20,#E#,15,4,12,102,524,7860,75,613,518,0,2,2,20,14

2017-10-05 12:08:20,#E#,15,5,12,102,524,7860,75,613,518,0,2,2,20,14

2017-10-05 12:08:20,#E#,15,6,12,102,524,7860,75,613,518,0,2,2,20,14

2017-10-05 12:08:20,#E#,15,7,12,102,524,7860,75,613,518,0,2,2,20,14

2017-10-05 12:08:20,#E#,15,8,12,102,524,7860,75,613,518,0,2,2,20,14

2017-10-05 12:08:20,#E#,15,9,12,102,524,7860,75,613,518,0,2,2,20,14

2017-10-05 12:08:21,#E#,16,0,12,102,524,8384,75,613,518,0,2,2,20,15

2017-10-05 12:08:21,#E#,16,1,12,102,524,8384,75,613,518,0,2,2,20,14

2017-10-05 12:08:21,#E#,16,2,12,102,524,8384,75,613,518,0,2,2,20,14

2017-10-05 12:08:21,#E#,16,3,12,102,524,8384,75,613,518,0,2,2,20,14

2017-10-05 12:08:21,#E#,16,4,12,102,524,8384,75,613,518,0,2,2,20,15

2017-10-05 12:08:21,#E#,16,5,12,102,524,8384,75,613,518,0,2,2,20,14

2017-10-05 12:08:21,#E#,16,6,12,102,524,8384,75,613,518,0,2,2,20,14

2017-10-05 12:08:21,#E#,16,7,12,102,524,8384,75,613,519,0,2,2,20,14

2017-10-05 12:08:21,#E#,16,8,12,102,524,8384,75,613,518,0,2,2,20,14

2017-10-05 12:08:21,#E#,16,9,12,102,524,8384,75,613,518,0,2,2,20,15

2017-10-05 12:08:22,#E#,17,0,12,102,524,8908,75,613,518,0,2,2,20,15

2017-10-05 12:08:22,#E#,17,1,12,102,524,8908,75,613,518,0,2,2,20,15

2017-10-05 12:08:22,#E#,17,2,12,102,524,8908,75,613,518,0,2,2,20,14

2017-10-05 12:08:22,#E#,17,3,12,102,524,8908,75,613,519,0,2,2,20,14

2017-10-05 12:08:22,#E#,17,4,12,102,524,8908,75,613,518,0,2,2,20,14

2017-10-05 12:08:22,#E#,17,5,12,102,524,8908,75,613,518,0,2,2,20,14

2017-10-05 12:08:22,#E#,17,6,12,102,524,8908,75,613,518,0,2,2,20,14

2017-10-05 12:08:22,#E#,17,7,12,102,524,8908,75,613,518,0,2,2,20,14

2017-10-05 12:08:22,#E#,17,8,12,102,524,8908,75,613,518,0,2,2,20,14

2017-10-05 12:08:22,#E#,17,9,12,102,524,8908,75,613,518,0,2,2,20,14

2017-10-05 12:08:23,#E#,18,0,12,102,524,9432,75,613,518,0,3,3,20,14

2017-10-05 12:08:23,#E#,18,1,12,102,524,9432,75,613,518,0,3,3,20,14

2017-10-05 12:08:23,#E#,18,2,12,102,524,9432,75,613,518,0,3,3,20,14

2017-10-05 12:08:23,#E#,18,3,12,102,524,9432,75,613,518,0,3,3,20,14

2017-10-05 12:08:23,#E#,18,4,12,102,524,9432,75,613,518,0,3,3,20,14

2017-10-05 12:08:23,#E#,18,5,12,102,524,9432,75,613,518,0,3,3,20,14

2017-10-05 12:08:23,#E#,18,6,12,102,524,9432,75,613,518,0,3,3,20,14

2017-10-05 12:08:23,#E#,18,7,12,102,524,9432,75,613,518,0,3,3,20,14

2017-10-05 12:08:23,#E#,18,8,12,102,524,9432,75,613,518,0,3,3,20,14

2017-10-05 12:08:24,#E#,18,9,12,102,524,9432,75,613,518,0,3,3,20,14

