#P0E000000C800AM_RdFreq

2017-10-05 13:30:06, 50,:e,:0,:0,:c8,:0,:a0 @

2017-10-05 13:30:06,*******Measure Period per Event & Freq in MHz*******

2017-10-05 13:30:06,****Period_cnt , Freq, SeqNo, Status,..........

2017-10-05 13:30:06,#P#, 1, 800000, 0, 1 

2017-10-05 13:30:06,#P#, 1, 800000, 1, 1 

2017-10-05 13:30:06,#P#, 1, 800000, 2, 1 

2017-10-05 13:30:06,#P#, 1, 800000, 3, 1 

2017-10-05 13:30:06,#P#, 1, 800000, 4, 1 

2017-10-05 13:30:06,#P#, 1, 800000, 5, 1 

2017-10-05 13:30:06,#P#, 1, 800000, 6, 1 

2017-10-05 13:30:06,#P#, 1, 800000, 7, 1 

2017-10-05 13:30:06,#P#, 1, 800000, 8, 1 

2017-10-05 13:30:06,#P#, 1, 800000, 9, 1 

2017-10-05 13:30:06,#P#, 1, 800000, 10, 1 

2017-10-05 13:30:06,#P#, 1, 800000, 11, 1 

2017-10-05 13:30:06,#P#, 1, 800000, 12, 1 

2017-10-05 13:30:06,#P#, 1, 800000, 13, 1 

2017-10-05 13:30:06,#P#, 1, 800000, 14, 1 

2017-10-05 13:30:06,#P#, 1, 800000, 15, 1 

2017-10-05 13:30:06,#P#, 1, 800000, 16, 1 

2017-10-05 13:30:06,#P#, 1, 800000, 17, 1 

2017-10-05 13:30:06,#P#, 1, 800000, 18, 1 

2017-10-05 13:30:06,#P#, 1, 800000, 19, 1 

2017-10-05 13:30:06,#P#, 1, 800000, 20, 1 

2017-10-05 13:30:06,#P#, 1, 800000, 21, 1 

2017-10-05 13:30:06,#P#, 1, 800000, 22, 1 

2017-10-05 13:30:06,#P#, 1, 800000, 23, 1 

2017-10-05 13:30:06,#P#, 1, 800000, 24, 1 

2017-10-05 13:30:06,#P#, 1, 800000, 25, 1 

2017-10-05 13:30:06,#P#, 1, 800000, 26, 1 

2017-10-05 13:30:06,#P#, 1, 800000, 27, 1 

2017-10-05 13:30:06,#P#, 1, 800000, 28, 1 

2017-10-05 13:30:06,#P#, 1, 800000, 29, 1 

2017-10-05 13:30:06,#P#, 1, 800000, 30, 1 

2017-10-05 13:30:06,#P#, 1, 800000, 31, 1 

2017-10-05 13:30:06,#P#, 1, 800000, 32, 1 

2017-10-05 13:30:06,#P#, 1, 800000, 33, 1 

2017-10-05 13:30:06,#P#, 1, 800000, 34, 1 

2017-10-05 13:30:06,#P#, 1, 800000, 35, 1 

2017-10-05 13:30:06,#P#, 1, 800000, 36, 1 

2017-10-05 13:30:06,#P#, 1, 800000, 37, 1 

2017-10-05 13:30:06,#P#, 1, 800000, 38, 1 

2017-10-05 13:30:06,#P#, 1, 800000, 39, 1 

2017-10-05 13:30:06,#P#, 1, 800000, 40, 1 

2017-10-05 13:30:06,#P#, 1, 800000, 41, 1 

2017-10-05 13:30:06,#P#, 1, 800000, 42, 1 

2017-10-05 13:30:06,#P#, 1, 800000, 43, 1 

2017-10-05 13:30:06,#P#, 1, 800000, 44, 1 

2017-10-05 13:30:06,#P#, 1, 800000, 45, 1 

2017-10-05 13:30:07,#P#, 1, 800000, 46, 1 

2017-10-05 13:30:07,#P#, 1, 800000, 47, 1 

2017-10-05 13:30:07,#P#, 1, 800000, 48, 1 

2017-10-05 13:30:07,#P#, 1, 800000, 49, 1 

2017-10-05 13:30:07,#P#, 1, 800000, 50, 1 

2017-10-05 13:30:07,#P#, 1, 800000, 51, 1 

2017-10-05 13:30:07,#P#, 1, 800000, 52, 1 

2017-10-05 13:30:07,#P#, 1, 800000, 53, 1 

2017-10-05 13:30:07,#P#, 1, 800000, 54, 1 

2017-10-05 13:30:07,#P#, 1, 800000, 55, 1 

2017-10-05 13:30:07,#P#, 1, 800000, 56, 1 

2017-10-05 13:30:07,#P#, 1, 800000, 57, 1 

2017-10-05 13:30:07,#P#, 1, 800000, 58, 1 

2017-10-05 13:30:07,#P#, 1, 800000, 59, 1 

2017-10-05 13:30:07,#P#, 1, 800000, 60, 1 

2017-10-05 13:30:07,#P#, 1, 800000, 61, 1 

2017-10-05 13:30:07,#P#, 1, 800000, 62, 1 

2017-10-05 13:30:07,#P#, 1, 800000, 63, 1 

2017-10-05 13:30:07,#P#, 1, 800000, 64, 1 

2017-10-05 13:30:07,#P#, 1, 800000, 65, 1 

2017-10-05 13:30:07,#P#, 1, 800000, 66, 1 

2017-10-05 13:30:07,#P#, 1, 800000, 67, 1 

2017-10-05 13:30:07,#P#, 1, 800000, 68, 1 

2017-10-05 13:30:07,#P#, 1, 800000, 69, 1 

2017-10-05 13:30:07,#P#, 1, 800000, 70, 1 

2017-10-05 13:30:07,#P#, 1, 800000, 71, 1 

2017-10-05 13:30:07,#P#, 1, 800000, 72, 1 

2017-10-05 13:30:07,#P#, 1, 800000, 73, 1 

2017-10-05 13:30:07,#P#, 1, 800000, 74, 1 

2017-10-05 13:30:07,#P#, 1, 800000, 75, 1 

2017-10-05 13:30:07,#P#, 1, 800000, 76, 1 

2017-10-05 13:30:07,#P#, 1, 800000, 77, 1 

2017-10-05 13:30:07,#P#, 1, 800000, 78, 1 

2017-10-05 13:30:07,#P#, 1, 800000, 79, 1 

2017-10-05 13:30:07,#P#, 1, 800000, 80, 1 

2017-10-05 13:30:07,#P#, 1, 800000, 81, 1 

2017-10-05 13:30:07,#P#, 1, 800000, 82, 1 

2017-10-05 13:30:07,#P#, 1, 800000, 83, 1 

2017-10-05 13:30:07,#P#, 1, 800000, 84, 1 

2017-10-05 13:30:07,#P#, 1, 800000, 85, 1 

2017-10-05 13:30:07,#P#, 1, 800000, 86, 1 

2017-10-05 13:30:07,#P#, 1, 800000, 87, 1 

2017-10-05 13:30:07,#P#, 1, 800000, 88, 1 

2017-10-05 13:30:07,#P#, 1, 800000, 89, 1 

2017-10-05 13:30:07,#P#, 1, 800000, 90, 1 

2017-10-05 13:30:07,#P#, 1, 800000, 91, 1 

2017-10-05 13:30:07,#P#, 1, 800000, 92, 1 

2017-10-05 13:30:07,#P#, 1, 800000, 93, 1 

2017-10-05 13:30:07,#P#, 1, 800000, 94, 1 

2017-10-05 13:30:07,#P#, 1, 800000, 95, 1 

2017-10-05 13:30:07,#P#, 1, 800000, 96, 1 

2017-10-05 13:30:07,#P#, 1, 800000, 97, 1 

2017-10-05 13:30:07,#P#, 1, 800000, 98, 1 

2017-10-05 13:30:07,#P#, 1, 800000, 99, 1 

2017-10-05 13:30:07,#P#, 1, 800000, 100, 1 

2017-10-05 13:30:07,#P#, 1, 800000, 101, 1 

2017-10-05 13:30:07,#P#, 1, 800000, 102, 1 

2017-10-05 13:30:07,#P#, 1, 800000, 103, 1 

2017-10-05 13:30:07,#P#, 1, 800000, 104, 1 

2017-10-05 13:30:07,#P#, 1, 800000, 105, 1 

2017-10-05 13:30:07,#P#, 1, 800000, 106, 1 

2017-10-05 13:30:07,#P#, 1, 800000, 107, 1 

2017-10-05 13:30:07,#P#, 1, 800000, 108, 1 

2017-10-05 13:30:07,#P#, 1, 800000, 109, 1 

2017-10-05 13:30:07,#P#, 1, 800000, 110, 1 

2017-10-05 13:30:07,#P#, 1, 800000, 111, 1 

2017-10-05 13:30:07,#P#, 1, 800000, 112, 1 

2017-10-05 13:30:07,#P#, 1, 800000, 113, 1 

2017-10-05 13:30:07,#P#, 1, 800000, 114, 1 

2017-10-05 13:30:07,#P#, 1, 800000, 115, 1 

2017-10-05 13:30:07,#P#, 1, 800000, 116, 1 

2017-10-05 13:30:07,#P#, 1, 800000, 117, 1 

2017-10-05 13:30:07,#P#, 1, 800000, 118, 1 

2017-10-05 13:30:07,#P#, 1, 800000, 119, 1 

2017-10-05 13:30:07,#P#, 1, 800000, 120, 1 

2017-10-05 13:30:07,#P#, 1, 800000, 121, 1 

2017-10-05 13:30:07,#P#, 1, 800000, 122, 1 

2017-10-05 13:30:07,#P#, 1, 800000, 123, 1 

2017-10-05 13:30:07,#P#, 1, 800000, 124, 1 

2017-10-05 13:30:07,#P#, 1, 800000, 125, 1 

2017-10-05 13:30:07,#P#, 1, 800000, 126, 1 

2017-10-05 13:30:07,#P#, 1, 800000, 127, 1 

2017-10-05 13:30:07,#P#, 1, 800000, 128, 1 

2017-10-05 13:30:07,#P#, 1, 800000, 129, 1 

2017-10-05 13:30:07,#P#, 1, 800000, 130, 1 

2017-10-05 13:30:07,#P#, 1, 800000, 131, 1 

2017-10-05 13:30:07,#P#, 1, 800000, 132, 1 

2017-10-05 13:30:07,#P#, 1, 800000, 133, 1 

2017-10-05 13:30:07,#P#, 1, 800000, 134, 1 

2017-10-05 13:30:07,#P#, 1, 800000, 135, 1 

2017-10-05 13:30:07,#P#, 1, 800000, 136, 1 

2017-10-05 13:30:07,#P#, 1, 800000, 137, 1 

2017-10-05 13:30:07,#P#, 1, 800000, 138, 1 

2017-10-05 13:30:07,#P#, 1, 800000, 139, 1 

2017-10-05 13:30:07,#P#, 1, 800000, 140, 1 

2017-10-05 13:30:07,#P#, 1, 800000, 141, 1 

2017-10-05 13:30:07,#P#, 1, 800000, 142, 1 

2017-10-05 13:30:07,#P#, 1, 800000, 143, 1 

2017-10-05 13:30:07,#P#, 1, 800000, 144, 1 

2017-10-05 13:30:07,#P#, 1, 800000, 145, 1 

2017-10-05 13:30:07,#P#, 1, 800000, 146, 1 

2017-10-05 13:30:07,#P#, 1, 800000, 147, 1 

2017-10-05 13:30:07,#P#, 1, 800000, 148, 1 

2017-10-05 13:30:07,#P#, 1, 800000, 149, 1 

2017-10-05 13:30:07,#P#, 1, 800000, 150, 1 

2017-10-05 13:30:07,#P#, 1, 800000, 151, 1 

2017-10-05 13:30:07,#P#, 1, 800000, 152, 1 

2017-10-05 13:30:07,#P#, 1, 800000, 153, 1 

2017-10-05 13:30:07,#P#, 1, 800000, 154, 1 

2017-10-05 13:30:07,#P#, 1, 800000, 155, 1 

2017-10-05 13:30:07,#P#, 1, 800000, 156, 1 

2017-10-05 13:30:07,#P#, 1, 800000, 157, 1 

2017-10-05 13:30:07,#P#, 1, 800000, 158, 1 

2017-10-05 13:30:07,#P#, 1, 800000, 159, 1 

2017-10-05 13:30:07,#P#, 1, 800000, 160, 1 

2017-10-05 13:30:07,#P#, 1, 800000, 161, 1 

2017-10-05 13:30:07,#P#, 1, 800000, 162, 1 

2017-10-05 13:30:07,#P#, 1, 800000, 163, 1 

2017-10-05 13:30:07,#P#, 1, 800000, 164, 1 

2017-10-05 13:30:07,#P#, 1, 800000, 165, 1 

2017-10-05 13:30:07,#P#, 1, 800000, 166, 1 

2017-10-05 13:30:07,#P#, 1, 800000, 167, 1 

2017-10-05 13:30:07,#P#, 1, 800000, 168, 1 

2017-10-05 13:30:07,#P#, 1, 800000, 169, 1 

2017-10-05 13:30:07,#P#, 1, 800000, 170, 1 

2017-10-05 13:30:07,#P#, 1, 800000, 171, 1 

2017-10-05 13:30:08,#P#, 1, 800000, 172, 1 

2017-10-05 13:30:08,#P#, 1, 800000, 173, 1 

2017-10-05 13:30:08,#P#, 1, 800000, 174, 1 

2017-10-05 13:30:08,#P#, 1, 800000, 175, 1 

2017-10-05 13:30:08,#P#, 1, 800000, 176, 1 

2017-10-05 13:30:08,#P#, 1, 800000, 177, 1 

2017-10-05 13:30:08,#P#, 1, 800000, 178, 1 

2017-10-05 13:30:08,#P#, 1, 800000, 179, 1 

2017-10-05 13:30:08,#P#, 1, 800000, 180, 1 

2017-10-05 13:30:08,#P#, 1, 800000, 181, 1 

2017-10-05 13:30:08,#P#, 1, 800000, 182, 1 

2017-10-05 13:30:08,#P#, 1, 800000, 183, 1 

2017-10-05 13:30:08,#P#, 1, 800000, 184, 1 

2017-10-05 13:30:08,#P#, 1, 800000, 185, 1 

2017-10-05 13:30:08,#P#, 1, 800000, 186, 1 

2017-10-05 13:30:08,#P#, 1, 800000, 187, 1 

2017-10-05 13:30:08,#P#, 1, 800000, 188, 1 

2017-10-05 13:30:08,#P#, 1, 800000, 189, 1 

2017-10-05 13:30:08,#P#, 1, 800000, 190, 1 

2017-10-05 13:30:08,#P#, 1, 800000, 191, 1 

2017-10-05 13:30:08,#P#, 1, 800000, 192, 1 

2017-10-05 13:30:08,#P#, 1, 800000, 193, 1 

2017-10-05 13:30:08,#P#, 1, 800000, 194, 1 

2017-10-05 13:30:08,#P#, 1, 800000, 195, 1 

2017-10-05 13:30:08,#P#, 1, 800000, 196, 1 

2017-10-05 13:30:08,#P#, 1, 800000, 197, 1 

2017-10-05 13:30:08,#P#, 1, 800000, 198, 1 

2017-10-05 13:30:08,#P#, 1, 800000, 199, 1 

2017-10-05 13:30:08,*******DONE*******#

Exiting PsocAmPreRad
#D0E01FFFF0A001AAM Ramp

2017-10-05 13:30:09, 44,:e,:1,:ffff,:a,:0,:1a @

2017-10-05 13:30:09,*SeqNo,Samples,DAC_Cnt,BGapReg,GainReg,AM_VCal,BGO,Isense0,Isense1

2017-10-05 13:30:09,Vsense,AM_LCh0,AM_RCh0,AM_Rch1,AM_RCh2,AM_LCh3,AM_RCh3

2017-10-05 13:30:10,
2017-10-05 13:30:11,
