#P0E000000C800AM_RdFreq

2017-10-05 14:31:50, 50,:e,:0,:0,:c8,:0,:a0 @

2017-10-05 14:31:50,*******Measure Period per Event & Freq in MHz*******

2017-10-05 14:31:50,****Period_cnt , Freq, SeqNo, Status,..........

2017-10-05 14:31:50,#P#, 38, 30400000, 0, 0 

2017-10-05 14:31:50,#P#, 38, 30400000, 1, 0 

2017-10-05 14:31:50,#P#, 39, 31200000, 2, 0 

2017-10-05 14:31:50,#P#, 38, 30400000, 3, 0 

2017-10-05 14:31:50,#P#, 38, 30400000, 4, 0 

2017-10-05 14:31:50,#P#, 38, 30400000, 5, 0 

2017-10-05 14:31:50,#P#, 38, 30400000, 6, 0 

2017-10-05 14:31:50,#P#, 39, 31200000, 7, 0 

2017-10-05 14:31:50,#P#, 38, 30400000, 8, 0 

2017-10-05 14:31:50,#P#, 38, 30400000, 9, 0 

2017-10-05 14:31:50,#P#, 39, 31200000, 10, 0 

2017-10-05 14:31:50,#P#, 39, 31200000, 11, 0 

2017-10-05 14:31:50,#P#, 37, 29600000, 12, 0 

2017-10-05 14:31:50,#P#, 38, 30400000, 13, 0 

2017-10-05 14:31:50,#P#, 39, 31200000, 14, 0 

2017-10-05 14:31:50,#P#, 38, 30400000, 15, 0 

2017-10-05 14:31:50,#P#, 38, 30400000, 16, 0 

2017-10-05 14:31:50,#P#, 38, 30400000, 17, 0 

2017-10-05 14:31:50,#P#, 39, 31200000, 18, 0 

2017-10-05 14:31:50,#P#, 39, 31200000, 19, 0 

2017-10-05 14:31:50,#P#, 39, 31200000, 20, 0 

2017-10-05 14:31:50,#P#, 39, 31200000, 21, 0 

2017-10-05 14:31:50,#P#, 38, 30400000, 22, 0 

2017-10-05 14:31:50,#P#, 39, 31200000, 23, 0 

2017-10-05 14:31:50,#P#, 38, 30400000, 24, 0 

2017-10-05 14:31:50,#P#, 39, 31200000, 25, 0 

2017-10-05 14:31:50,#P#, 38, 30400000, 26, 0 

2017-10-05 14:31:50,#P#, 38, 30400000, 27, 0 

2017-10-05 14:31:50,#P#, 39, 31200000, 28, 0 

2017-10-05 14:31:50,#P#, 39, 31200000, 29, 0 

2017-10-05 14:31:50,#P#, 38, 30400000, 30, 0 

2017-10-05 14:31:50,#P#, 38, 30400000, 31, 0 

2017-10-05 14:31:50,#P#, 39, 31200000, 32, 0 

2017-10-05 14:31:50,#P#, 38, 30400000, 33, 0 

2017-10-05 14:31:50,#P#, 38, 30400000, 34, 0 

2017-10-05 14:31:50,#P#, 38, 30400000, 35, 0 

2017-10-05 14:31:50,#P#, 39, 31200000, 36, 0 

2017-10-05 14:31:50,#P#, 38, 30400000, 37, 0 

2017-10-05 14:31:50,#P#, 39, 31200000, 38, 0 

2017-10-05 14:31:50,#P#, 38, 30400000, 39, 0 

2017-10-05 14:31:50,#P#, 39, 31200000, 40, 0 

2017-10-05 14:31:50,#P#, 38, 30400000, 41, 0 

2017-10-05 14:31:50,#P#, 39, 31200000, 42, 0 

2017-10-05 14:31:50,#P#, 37, 29600000, 43, 0 

2017-10-05 14:31:50,#P#, 39, 31200000, 44, 0 

2017-10-05 14:31:50,#P#, 39, 31200000, 45, 0 

2017-10-05 14:31:50,#P#, 39, 31200000, 46, 0 

2017-10-05 14:31:50,#P#, 38, 30400000, 47, 0 

2017-10-05 14:31:50,#P#, 39, 31200000, 48, 0 

2017-10-05 14:31:50,#P#, 39, 31200000, 49, 0 

2017-10-05 14:31:50,#P#, 38, 30400000, 50, 0 

2017-10-05 14:31:50,#P#, 39, 31200000, 51, 0 

2017-10-05 14:31:50,#P#, 38, 30400000, 52, 0 

2017-10-05 14:31:50,#P#, 38, 30400000, 53, 0 

2017-10-05 14:31:50,#P#, 38, 30400000, 54, 0 

2017-10-05 14:31:50,#P#, 38, 30400000, 55, 0 

2017-10-05 14:31:50,#P#, 38, 30400000, 56, 0 

2017-10-05 14:31:50,#P#, 39, 31200000, 57, 0 

2017-10-05 14:31:50,#P#, 38, 30400000, 58, 0 

2017-10-05 14:31:50,#P#, 39, 31200000, 59, 0 

2017-10-05 14:31:50,#P#, 38, 30400000, 60, 0 

2017-10-05 14:31:50,#P#, 39, 31200000, 61, 0 

2017-10-05 14:31:50,#P#, 37, 29600000, 62, 0 

2017-10-05 14:31:50,#P#, 39, 31200000, 63, 0 

2017-10-05 14:31:50,#P#, 38, 30400000, 64, 0 

2017-10-05 14:31:50,#P#, 39, 31200000, 65, 0 

2017-10-05 14:31:50,#P#, 38, 30400000, 66, 0 

2017-10-05 14:31:50,#P#, 38, 30400000, 67, 0 

2017-10-05 14:31:50,#P#, 39, 31200000, 68, 0 

2017-10-05 14:31:50,#P#, 39, 31200000, 69, 0 

2017-10-05 14:31:50,#P#, 38, 30400000, 70, 0 

2017-10-05 14:31:50,#P#, 38, 30400000, 71, 0 

2017-10-05 14:31:50,#P#, 38, 30400000, 72, 0 

2017-10-05 14:31:50,#P#, 39, 31200000, 73, 0 

2017-10-05 14:31:50,#P#, 39, 31200000, 74, 0 

2017-10-05 14:31:50,#P#, 38, 30400000, 75, 0 

2017-10-05 14:31:50,#P#, 37, 29600000, 76, 0 

2017-10-05 14:31:50,#P#, 38, 30400000, 77, 0 

2017-10-05 14:31:50,#P#, 38, 30400000, 78, 0 

2017-10-05 14:31:50,#P#, 39, 31200000, 79, 0 

2017-10-05 14:31:50,#P#, 38, 30400000, 80, 0 

2017-10-05 14:31:50,#P#, 38, 30400000, 81, 0 

2017-10-05 14:31:50,#P#, 39, 31200000, 82, 0 

2017-10-05 14:31:50,#P#, 38, 30400000, 83, 0 

2017-10-05 14:31:50,#P#, 39, 31200000, 84, 0 

2017-10-05 14:31:51,#P#, 38, 30400000, 85, 0 

2017-10-05 14:31:51,#P#, 39, 31200000, 86, 0 

2017-10-05 14:31:51,#P#, 38, 30400000, 87, 0 

2017-10-05 14:31:51,#P#, 39, 31200000, 88, 0 

2017-10-05 14:31:51,#P#, 38, 30400000, 89, 0 

2017-10-05 14:31:51,#P#, 38, 30400000, 90, 0 

2017-10-05 14:31:51,#P#, 39, 31200000, 91, 0 

2017-10-05 14:31:51,#P#, 39, 31200000, 92, 0 

2017-10-05 14:31:51,#P#, 38, 30400000, 93, 0 

2017-10-05 14:31:51,#P#, 38, 30400000, 94, 0 

2017-10-05 14:31:51,#P#, 38, 30400000, 95, 0 

2017-10-05 14:31:51,#P#, 38, 30400000, 96, 0 

2017-10-05 14:31:51,#P#, 39, 31200000, 97, 0 

2017-10-05 14:31:51,#P#, 38, 30400000, 98, 0 

2017-10-05 14:31:51,#P#, 38, 30400000, 99, 0 

2017-10-05 14:31:51,#P#, 38, 30400000, 100, 0 

2017-10-05 14:31:51,#P#, 38, 30400000, 101, 0 

2017-10-05 14:31:51,#P#, 39, 31200000, 102, 0 

2017-10-05 14:31:51,#P#, 38, 30400000, 103, 0 

2017-10-05 14:31:51,#P#, 38, 30400000, 104, 0 

2017-10-05 14:31:51,#P#, 38, 30400000, 105, 0 

2017-10-05 14:31:51,#P#, 39, 31200000, 106, 0 

2017-10-05 14:31:51,#P#, 38, 30400000, 107, 0 

2017-10-05 14:31:51,#P#, 38, 30400000, 108, 0 

2017-10-05 14:31:51,#P#, 38, 30400000, 109, 0 

2017-10-05 14:31:51,#P#, 39, 31200000, 110, 0 

2017-10-05 14:31:51,#P#, 39, 31200000, 111, 0 

2017-10-05 14:31:51,#P#, 38, 30400000, 112, 0 

2017-10-05 14:31:51,#P#, 39, 31200000, 113, 0 

2017-10-05 14:31:51,#P#, 38, 30400000, 114, 0 

2017-10-05 14:31:51,#P#, 39, 31200000, 115, 0 

2017-10-05 14:31:51,#P#, 39, 31200000, 116, 0 

2017-10-05 14:31:51,#P#, 39, 31200000, 117, 0 

2017-10-05 14:31:51,#P#, 38, 30400000, 118, 0 

2017-10-05 14:31:51,#P#, 38, 30400000, 119, 0 

2017-10-05 14:31:51,#P#, 38, 30400000, 120, 0 

2017-10-05 14:31:51,#P#, 38, 30400000, 121, 0 

2017-10-05 14:31:51,#P#, 39, 31200000, 122, 0 

2017-10-05 14:31:51,#P#, 37, 29600000, 123, 0 

2017-10-05 14:31:51,#P#, 39, 31200000, 124, 0 

2017-10-05 14:31:51,#P#, 39, 31200000, 125, 0 

2017-10-05 14:31:51,#P#, 38, 30400000, 126, 0 

2017-10-05 14:31:51,#P#, 38, 30400000, 127, 0 

2017-10-05 14:31:51,#P#, 39, 31200000, 128, 0 

2017-10-05 14:31:51,#P#, 39, 31200000, 129, 0 

2017-10-05 14:31:51,#P#, 39, 31200000, 130, 0 

2017-10-05 14:31:51,#P#, 39, 31200000, 131, 0 

2017-10-05 14:31:51,#P#, 40, 32000000, 132, 1 

2017-10-05 14:31:51,#P#, 38, 30400000, 133, 0 

2017-10-05 14:31:51,#P#, 39, 31200000, 134, 0 

2017-10-05 14:31:51,#P#, 38, 30400000, 135, 0 

2017-10-05 14:31:51,#P#, 38, 30400000, 136, 0 

2017-10-05 14:31:51,#P#, 39, 31200000, 137, 0 

2017-10-05 14:31:51,#P#, 40, 32000000, 138, 1 

2017-10-05 14:31:51,#P#, 39, 31200000, 139, 0 

2017-10-05 14:31:51,#P#, 39, 31200000, 140, 0 

2017-10-05 14:31:51,#P#, 39, 31200000, 141, 0 

2017-10-05 14:31:51,#P#, 39, 31200000, 142, 0 

2017-10-05 14:31:51,#P#, 39, 31200000, 143, 0 

2017-10-05 14:31:51,#P#, 39, 31200000, 144, 0 

2017-10-05 14:31:51,#P#, 39, 31200000, 145, 0 

2017-10-05 14:31:51,#P#, 38, 30400000, 146, 0 

2017-10-05 14:31:51,#P#, 39, 31200000, 147, 0 

2017-10-05 14:31:51,#P#, 39, 31200000, 148, 0 

2017-10-05 14:31:51,#P#, 38, 30400000, 149, 0 

2017-10-05 14:31:51,#P#, 39, 31200000, 150, 0 

2017-10-05 14:31:51,#P#, 38, 30400000, 151, 0 

2017-10-05 14:31:51,#P#, 38, 30400000, 152, 0 

2017-10-05 14:31:51,#P#, 39, 31200000, 153, 0 

2017-10-05 14:31:51,#P#, 38, 30400000, 154, 0 

2017-10-05 14:31:51,#P#, 38, 30400000, 155, 0 

2017-10-05 14:31:51,#P#, 39, 31200000, 156, 0 

2017-10-05 14:31:51,#P#, 38, 30400000, 157, 0 

2017-10-05 14:31:51,#P#, 38, 30400000, 158, 0 

2017-10-05 14:31:51,#P#, 38, 30400000, 159, 0 

2017-10-05 14:31:51,#P#, 39, 31200000, 160, 0 

2017-10-05 14:31:51,#P#, 39, 31200000, 161, 0 

2017-10-05 14:31:51,#P#, 38, 30400000, 162, 0 

2017-10-05 14:31:51,#P#, 39, 31200000, 163, 0 

2017-10-05 14:31:51,#P#, 38, 30400000, 164, 0 

2017-10-05 14:31:51,#P#, 38, 30400000, 165, 0 

2017-10-05 14:31:51,#P#, 38, 30400000, 166, 0 

2017-10-05 14:31:51,#P#, 39, 31200000, 167, 0 

2017-10-05 14:31:51,#P#, 39, 31200000, 168, 0 

2017-10-05 14:31:51,#P#, 39, 31200000, 169, 0 

2017-10-05 14:31:51,#P#, 39, 31200000, 170, 0 

2017-10-05 14:31:51,#P#, 38, 30400000, 171, 0 

2017-10-05 14:31:51,#P#, 39, 31200000, 172, 0 

2017-10-05 14:31:51,#P#, 38, 30400000, 173, 0 

2017-10-05 14:31:51,#P#, 38, 30400000, 174, 0 

2017-10-05 14:31:51,#P#, 39, 31200000, 175, 0 

2017-10-05 14:31:51,#P#, 38, 30400000, 176, 0 

2017-10-05 14:31:51,#P#, 38, 30400000, 177, 0 

2017-10-05 14:31:51,#P#, 40, 32000000, 178, 1 

2017-10-05 14:31:51,#P#, 38, 30400000, 179, 0 

2017-10-05 14:31:51,#P#, 38, 30400000, 180, 0 

2017-10-05 14:31:51,#P#, 39, 31200000, 181, 0 

2017-10-05 14:31:51,#P#, 39, 31200000, 182, 0 

2017-10-05 14:31:51,#P#, 39, 31200000, 183, 0 

2017-10-05 14:31:51,#P#, 38, 30400000, 184, 0 

2017-10-05 14:31:51,#P#, 38, 30400000, 185, 0 

2017-10-05 14:31:51,#P#, 38, 30400000, 186, 0 

2017-10-05 14:31:51,#P#, 39, 31200000, 187, 0 

2017-10-05 14:31:51,#P#, 38, 30400000, 188, 0 

2017-10-05 14:31:51,#P#, 39, 31200000, 189, 0 

2017-10-05 14:31:51,#P#, 38, 30400000, 190, 0 

2017-10-05 14:31:51,#P#, 38, 30400000, 191, 0 

2017-10-05 14:31:51,#P#, 39, 31200000, 192, 0 

2017-10-05 14:31:51,#P#, 39, 31200000, 193, 0 

2017-10-05 14:31:51,#P#, 38, 30400000, 194, 0 

2017-10-05 14:31:51,#P#, 38, 30400000, 195, 0 

2017-10-05 14:31:51,#P#, 39, 31200000, 196, 0 

2017-10-05 14:31:51,#P#, 39, 31200000, 197, 0 

2017-10-05 14:31:51,#P#, 38, 30400000, 198, 0 

2017-10-05 14:31:51,#P#, 38, 30400000, 199, 0 

2017-10-05 14:31:51,*******DONE*******#

Exiting PsocAmPreRad
#E0E0199990A020CIS_RAMP

2017-10-05 14:31:53, 45,:e,:1,:9999,:a,:2,:20c @

2017-10-05 14:31:53,*SeqNo,Samples,DAC_Cnt,BGapReg,GainReg,AM_VCal,BGO,Isense0,Isense1

2017-10-05 14:31:54,#E#,0,0,12,102,524,0,75,0,515,265,0,-28,-28,234,260

2017-10-05 14:31:54,#E#,0,1,12,102,524,0,75,0,515,265,0,-28,-28,234,260

2017-10-05 14:31:54,#E#,0,2,12,102,524,0,75,0,515,265,0,-28,-28,234,260

2017-10-05 14:31:54,#E#,0,3,12,102,524,0,75,0,515,265,0,-28,-28,234,260

2017-10-05 14:31:54,#E#,0,4,12,102,524,0,75,0,515,265,0,-28,-28,234,260

2017-10-05 14:31:54,#E#,0,5,12,102,524,0,75,0,514,265,0,-28,-28,234,260

2017-10-05 14:31:54,#E#,0,6,12,102,524,0,75,0,515,265,0,-28,-28,234,260

2017-10-05 14:31:54,#E#,0,7,12,102,524,0,75,0,515,265,0,-28,-28,234,260

2017-10-05 14:31:54,#E#,0,8,12,102,524,0,75,0,514,265,0,-28,-28,234,260

2017-10-05 14:31:54,#E#,0,9,12,102,524,0,75,0,515,265,0,-28,-28,234,260

2017-10-05 14:31:55,#E#,1,0,12,102,524,524,75,0,515,265,0,-28,-28,234,260

2017-10-05 14:31:55,#E#,1,1,12,102,524,524,75,0,514,265,0,-28,-28,234,260

2017-10-05 14:31:55,#E#,1,2,12,102,524,524,75,0,515,265,0,-28,-28,234,260

2017-10-05 14:31:55,#E#,1,3,12,102,524,524,75,0,515,265,0,-28,-28,234,260

2017-10-05 14:31:55,#E#,1,4,12,102,524,524,75,0,515,265,0,-28,-28,234,260

2017-10-05 14:31:55,#E#,1,5,12,102,524,524,75,0,515,265,0,-28,-28,234,260

2017-10-05 14:31:55,#E#,1,6,12,102,524,524,75,0,515,265,0,-28,-28,234,260

2017-10-05 14:31:55,#E#,1,7,12,102,524,524,75,0,515,265,0,-28,-28,234,260

2017-10-05 14:31:55,#E#,1,8,12,102,524,524,75,0,515,265,0,-28,-28,234,260

2017-10-05 14:31:55,#E#,1,9,12,102,524,524,75,0,515,265,0,-28,-28,234,260

2017-10-05 14:31:56,#E#,2,0,12,102,524,1048,75,0,515,265,0,-28,-28,234,260

2017-10-05 14:31:56,#E#,2,1,12,102,524,1048,75,0,515,265,0,-28,-28,234,260

2017-10-05 14:31:56,#E#,2,2,12,102,524,1048,75,0,515,265,0,-28,-28,234,260

2017-10-05 14:31:56,#E#,2,3,12,102,524,1048,75,0,515,265,0,-28,-28,234,260

2017-10-05 14:31:56,#E#,2,4,12,102,524,1048,75,0,515,265,0,-28,-28,234,260

2017-10-05 14:31:56,#E#,2,5,12,102,524,1048,75,0,515,265,0,-28,-28,234,260

2017-10-05 14:31:56,#E#,2,6,12,102,524,1048,75,0,515,265,0,-28,-28,234,260

2017-10-05 14:31:56,#E#,2,7,12,102,524,1048,75,0,515,265,0,-28,-28,234,260

2017-10-05 14:31:56,#E#,2,8,12,102,524,1048,75,0,515,265,0,-28,-28,234,260

2017-10-05 14:31:56,#E#,2,9,12,102,524,1048,75,0,515,265,0,-28,-28,234,260

2017-10-05 14:31:57,#E#,3,0,12,102,524,1572,75,0,515,265,0,-28,-28,234,260

2017-10-05 14:31:57,#E#,3,1,12,102,524,1572,75,0,515,265,0,-28,-28,234,260

2017-10-05 14:31:57,#E#,3,2,12,102,524,1572,75,0,515,265,0,-28,-28,234,260

2017-10-05 14:31:57,#E#,3,3,12,102,524,1572,75,0,515,265,0,-28,-28,234,260

2017-10-05 14:31:57,#E#,3,4,12,102,524,1572,75,0,515,265,0,-28,-28,234,260

2017-10-05 14:31:57,#E#,3,5,12,102,524,1572,75,0,515,265,0,-28,-28,234,260

2017-10-05 14:31:57,#E#,3,6,12,102,524,1572,75,0,515,265,0,-28,-28,234,260

2017-10-05 14:31:57,#E#,3,7,12,102,524,1572,75,0,515,265,0,-28,-28,234,260

2017-10-05 14:31:57,#E#,3,8,12,102,524,1572,75,0,514,265,0,-28,-28,234,260

2017-10-05 14:31:57,#E#,3,9,12,102,524,1572,75,0,515,265,0,-28,-28,234,260

2017-10-05 14:31:58,#E#,4,0,12,102,524,2096,75,0,515,265,0,-28,-28,234,260

2017-10-05 14:31:58,#E#,4,1,12,102,524,2096,75,0,515,265,0,-28,-28,234,260

2017-10-05 14:31:58,#E#,4,2,12,102,524,2096,75,0,515,265,0,-28,-28,234,260

2017-10-05 14:31:58,#E#,4,3,12,102,524,2096,75,0,515,265,0,-28,-28,234,260

2017-10-05 14:31:58,#E#,4,4,12,102,524,2096,75,0,515,265,0,-28,-28,234,260

2017-10-05 14:31:58,#E#,4,5,12,102,524,2096,75,0,515,265,0,-28,-28,234,260

2017-10-05 14:31:58,#E#,4,6,12,102,524,2096,75,0,515,265,0,-28,-28,234,260

2017-10-05 14:31:58,#E#,4,7,12,102,524,2096,75,0,515,265,0,-28,-28,234,260

2017-10-05 14:31:58,#E#,4,8,12,102,524,2096,75,0,515,265,0,-28,-28,234,260

2017-10-05 14:31:58,#E#,4,9,12,102,524,2096,75,0,515,265,0,-28,-28,234,260

2017-10-05 14:31:59,#E#,5,0,12,102,524,2620,75,0,515,265,0,-27,-27,234,260

2017-10-05 14:31:59,#E#,5,1,12,102,524,2620,75,0,515,265,0,-27,-27,234,260

2017-10-05 14:31:59,#E#,5,2,12,102,524,2620,75,0,515,265,0,-27,-27,234,260

2017-10-05 14:31:59,#E#,5,3,12,102,524,2620,75,0,515,265,0,-27,-27,234,260

2017-10-05 14:31:59,#E#,5,4,12,102,524,2620,75,0,515,265,0,-27,-27,234,260

2017-10-05 14:31:59,#E#,5,5,12,102,524,2620,75,0,515,265,0,-27,-27,234,260

2017-10-05 14:31:59,#E#,5,6,12,102,524,2620,75,0,515,265,0,-27,-27,234,260

2017-10-05 14:31:59,#E#,5,7,12,102,524,2620,75,0,515,265,0,-27,-27,234,260

2017-10-05 14:31:59,#E#,5,8,12,102,524,2620,75,0,515,265,0,-27,-27,234,260

2017-10-05 14:31:59,#E#,5,9,12,102,524,2620,75,0,515,265,0,-27,-27,234,260

2017-10-05 14:32:00,#E#,6,0,12,102,524,3144,75,0,515,265,0,-27,-27,954,260

2017-10-05 14:32:00,#E#,6,1,12,102,524,3144,75,0,515,265,0,-27,-27,954,260

2017-10-05 14:32:00,#E#,6,2,12,102,524,3144,75,0,515,265,0,-27,-27,954,260

2017-10-05 14:32:00,#E#,6,3,12,102,524,3144,75,0,515,265,0,-27,-27,954,260

2017-10-05 14:32:00,#E#,6,4,12,102,524,3144,75,0,515,265,0,-27,-27,954,260

2017-10-05 14:32:00,#E#,6,5,12,102,524,3144,75,0,515,265,0,-27,-27,954,260

2017-10-05 14:32:00,#E#,6,6,12,102,524,3144,75,0,515,265,0,-27,-27,954,260

2017-10-05 14:32:00,#E#,6,7,12,102,524,3144,75,0,515,265,0,-27,-27,954,260

2017-10-05 14:32:00,#E#,6,8,12,102,524,3144,75,0,515,265,0,-27,-27,954,260

2017-10-05 14:32:00,#E#,6,9,12,102,524,3144,75,0,515,265,0,-27,-27,954,260

2017-10-05 14:32:01,#E#,7,0,12,102,524,3668,75,0,514,265,0,-20,-20,746,784

2017-10-05 14:32:01,#E#,7,1,12,102,524,3668,75,0,515,265,0,-20,-20,747,787

2017-10-05 14:32:01,#E#,7,2,12,102,524,3668,75,0,514,265,0,-20,-20,748,791

2017-10-05 14:32:01,#E#,7,3,12,102,524,3668,75,0,514,265,0,-20,-20,741,782

2017-10-05 14:32:01,#E#,7,4,12,102,524,3668,75,0,514,265,0,-20,-20,742,790

2017-10-05 14:32:01,#E#,7,5,12,102,524,3668,75,0,514,265,0,-20,-20,753,774

2017-10-05 14:32:02,#E#,7,6,12,102,524,3668,75,0,515,265,0,-20,-20,742,793

2017-10-05 14:32:02,#E#,7,7,12,102,524,3668,75,0,515,265,0,-20,-20,723,788

2017-10-05 14:32:02,#E#,7,8,12,102,524,3668,75,0,515,265,0,-20,-20,747,781

2017-10-05 14:32:02,#E#,7,9,12,102,524,3668,75,0,514,265,0,-20,-20,725,773

2017-10-05 14:32:02,#E#,8,0,12,102,524,4192,75,0,515,265,0,-12,-13,478,510

2017-10-05 14:32:02,#E#,8,1,12,102,524,4192,75,0,515,265,0,-12,-13,491,522

2017-10-05 14:32:03,#E#,8,2,12,102,524,4192,75,0,515,265,0,-12,-13,487,514

2017-10-05 14:32:03,#E#,8,3,12,102,524,4192,75,0,514,265,0,-12,-13,496,521

2017-10-05 14:32:03,#E#,8,4,12,102,524,4192,75,0,514,265,0,-12,-13,486,521

2017-10-05 14:32:03,#E#,8,5,12,102,524,4192,75,0,515,265,0,-12,-13,487,511

2017-10-05 14:32:03,#E#,8,6,12,102,524,4192,75,0,514,265,0,-12,-13,493,518

2017-10-05 14:32:03,#E#,8,7,12,102,524,4192,75,0,514,265,0,-12,-13,487,523

2017-10-05 14:32:03,#E#,8,8,12,102,524,4192,75,0,515,265,0,-12,-13,486,517

2017-10-05 14:32:03,#E#,8,9,12,102,524,4192,75,0,515,265,0,-12,-13,482,511

2017-10-05 14:32:04,#E#,9,0,12,102,524,4716,75,0,514,265,0,-5,-5,227,260

2017-10-05 14:32:04,#E#,9,1,12,102,524,4716,75,0,515,265,0,-5,-5,171,262

2017-10-05 14:32:04,#E#,9,2,12,102,524,4716,75,0,515,265,0,-5,-5,226,245

2017-10-05 14:32:04,#E#,9,3,12,102,524,4716,75,0,515,265,0,-5,-5,233,245

2017-10-05 14:32:04,#E#,9,4,12,102,524,4716,75,0,514,265,0,-5,-5,234,255

2017-10-05 14:32:04,#E#,9,5,12,102,524,4716,75,0,514,265,0,-5,-5,235,252

2017-10-05 14:32:04,#E#,9,6,12,102,524,4716,75,0,514,265,0,-5,-5,155,268

2017-10-05 14:32:04,#E#,9,7,12,102,524,4716,75,0,515,265,0,-5,-5,225,250

2017-10-05 14:32:04,#E#,9,8,12,102,524,4716,75,0,514,265,0,-5,-5,243,251

2017-10-05 14:32:04,#E#,9,9,12,102,524,4716,75,0,515,265,0,-5,-5,234,254

2017-10-05 14:32:05,#E#,10,0,12,102,524,5240,75,0,514,265,0,1,1,20,31

2017-10-05 14:32:05,#E#,10,1,12,102,524,5240,75,0,515,265,0,1,1,20,15

2017-10-05 14:32:05,#E#,10,2,12,102,524,5240,75,0,514,265,0,1,1,20,15

2017-10-05 14:32:05,#E#,10,3,12,102,524,5240,75,0,514,265,0,1,1,20,15

2017-10-05 14:32:05,#E#,10,4,12,102,524,5240,75,0,515,265,0,1,1,20,15

2017-10-05 14:32:05,#E#,10,5,12,102,524,5240,75,0,515,265,0,1,1,20,15

2017-10-05 14:32:05,#E#,10,6,12,102,524,5240,75,0,514,265,0,1,1,20,31

2017-10-05 14:32:05,#E#,10,7,12,102,524,5240,75,0,515,265,0,1,1,20,15

2017-10-05 14:32:05,#E#,10,8,12,102,524,5240,75,0,514,265,0,1,1,20,15

2017-10-05 14:32:05,#E#,10,9,12,102,524,5240,75,0,515,265,0,1,1,20,15

2017-10-05 14:32:06,#E#,11,0,12,102,524,5764,75,0,515,265,0,1,1,20,14

2017-10-05 14:32:06,#E#,11,1,12,102,524,5764,75,0,514,265,0,1,1,20,14

2017-10-05 14:32:06,#E#,11,2,12,102,524,5764,75,0,514,265,0,1,1,20,14

2017-10-05 14:32:06,#E#,11,3,12,102,524,5764,75,0,515,265,0,1,1,20,14

2017-10-05 14:32:06,#E#,11,4,12,102,524,5764,75,0,515,265,0,1,1,20,14

2017-10-05 14:32:06,#E#,11,5,12,102,524,5764,75,0,514,265,0,1,1,20,14

2017-10-05 14:32:06,#E#,11,6,12,102,524,5764,75,0,515,265,0,1,1,20,14

2017-10-05 14:32:06,#E#,11,7,12,102,524,5764,75,0,514,265,0,1,1,20,14

2017-10-05 14:32:06,#E#,11,8,12,102,524,5764,75,0,514,265,0,1,1,20,14

2017-10-05 14:32:06,#E#,11,9,12,102,524,5764,75,0,514,265,0,1,1,20,14

2017-10-05 14:32:07,#E#,12,0,12,102,524,6288,75,0,514,265,0,1,1,20,14

2017-10-05 14:32:07,#E#,12,1,12,102,524,6288,75,0,514,265,0,1,1,20,14

2017-10-05 14:32:07,#E#,12,2,12,102,524,6288,75,0,514,265,0,1,1,20,14

2017-10-05 14:32:07,#E#,12,3,12,102,524,6288,75,0,514,265,0,1,1,20,14

2017-10-05 14:32:07,#E#,12,4,12,102,524,6288,75,0,514,265,0,1,1,20,14

2017-10-05 14:32:07,#E#,12,5,12,102,524,6288,75,0,514,265,0,1,1,20,14

2017-10-05 14:32:07,#E#,12,6,12,102,524,6288,75,0,514,265,0,1,1,20,14

2017-10-05 14:32:07,#E#,12,7,12,102,524,6288,75,0,514,265,0,1,1,20,14

2017-10-05 14:32:07,#E#,12,8,12,102,524,6288,75,0,514,265,0,1,1,20,14

2017-10-05 14:32:07,#E#,12,9,12,102,524,6288,75,0,514,265,0,1,1,20,14

2017-10-05 14:32:08,#E#,13,0,12,102,524,6812,75,0,515,265,0,1,1,20,14

2017-10-05 14:32:08,#E#,13,1,12,102,524,6812,75,0,515,265,0,1,1,20,14

2017-10-05 14:32:08,#E#,13,2,12,102,524,6812,75,0,514,265,0,1,1,20,14

2017-10-05 14:32:08,#E#,13,3,12,102,524,6812,75,0,515,265,0,1,1,20,14

2017-10-05 14:32:08,#E#,13,4,12,102,524,6812,75,0,515,265,0,1,1,20,14

2017-10-05 14:32:08,#E#,13,5,12,102,524,6812,75,0,515,265,0,1,1,20,14

2017-10-05 14:32:08,#E#,13,6,12,102,524,6812,75,0,514,265,0,1,1,20,14

2017-10-05 14:32:08,#E#,13,7,12,102,524,6812,75,0,514,265,0,1,1,20,14

2017-10-05 14:32:08,#E#,13,8,12,102,524,6812,75,0,515,265,0,1,1,20,14

2017-10-05 14:32:08,#E#,13,9,12,102,524,6812,75,0,515,265,0,1,1,20,14

2017-10-05 14:32:09,#E#,14,0,12,102,524,7336,75,0,515,265,0,2,2,20,14

2017-10-05 14:32:09,#E#,14,1,12,102,524,7336,75,0,515,265,0,2,2,20,14

2017-10-05 14:32:09,#E#,14,2,12,102,524,7336,75,0,515,265,0,2,2,20,14

2017-10-05 14:32:09,#E#,14,3,12,102,524,7336,75,0,514,265,0,2,2,20,14

2017-10-05 14:32:09,#E#,14,4,12,102,524,7336,75,0,514,265,0,2,2,20,14

2017-10-05 14:32:09,#E#,14,5,12,102,524,7336,75,0,514,265,0,2,2,20,14

2017-10-05 14:32:09,#E#,14,6,12,102,524,7336,75,0,514,265,0,2,2,20,14

2017-10-05 14:32:09,#E#,14,7,12,102,524,7336,75,0,515,265,0,2,2,20,14

2017-10-05 14:32:09,#E#,14,8,12,102,524,7336,75,0,515,265,0,2,2,20,14

2017-10-05 14:32:09,#E#,14,9,12,102,524,7336,75,0,515,265,0,2,2,20,14

2017-10-05 14:32:10,#E#,15,0,12,102,524,7860,75,0,514,265,0,2,2,20,14

2017-10-05 14:32:10,#E#,15,1,12,102,524,7860,75,0,515,265,0,2,2,20,14

2017-10-05 14:32:10,#E#,15,2,12,102,524,7860,75,0,514,265,0,2,2,20,14

2017-10-05 14:32:10,#E#,15,3,12,102,524,7860,75,0,514,265,0,2,2,20,14

2017-10-05 14:32:10,#E#,15,4,12,102,524,7860,75,0,515,265,0,2,2,20,15

2017-10-05 14:32:10,#E#,15,5,12,102,524,7860,75,0,515,265,0,2,2,20,14

2017-10-05 14:32:10,#E#,15,6,12,102,524,7860,75,0,515,265,0,2,2,20,14

2017-10-05 14:32:10,#E#,15,7,12,102,524,7860,75,0,515,265,0,2,2,20,14

2017-10-05 14:32:10,#E#,15,8,12,102,524,7860,75,0,515,265,0,2,2,20,14

2017-10-05 14:32:10,#E#,15,9,12,102,524,7860,75,0,515,265,0,2,2,20,14

2017-10-05 14:32:11,#E#,16,0,12,102,524,8384,75,0,515,265,0,2,2,20,14

2017-10-05 14:32:11,#E#,16,1,12,102,524,8384,75,0,514,265,0,2,2,20,14

2017-10-05 14:32:11,#E#,16,2,12,102,524,8384,75,0,514,265,0,2,2,20,15

2017-10-05 14:32:11,#E#,16,3,12,102,524,8384,75,0,515,265,0,2,2,20,14

2017-10-05 14:32:11,#E#,16,4,12,102,524,8384,75,0,514,265,0,2,2,20,14

2017-10-05 14:32:11,#E#,16,5,12,102,524,8384,75,0,514,265,0,2,2,20,14

2017-10-05 14:32:11,#E#,16,6,12,102,524,8384,75,0,514,265,0,2,2,20,14

2017-10-05 14:32:11,#E#,16,7,12,102,524,8384,75,0,514,265,0,2,2,20,14

2017-10-05 14:32:11,#E#,16,8,12,102,524,8384,75,0,515,265,0,2,2,20,14

2017-10-05 14:32:11,#E#,16,9,12,102,524,8384,75,0,515,265,0,2,2,20,14

2017-10-05 14:32:12,#E#,17,0,12,102,524,8908,75,0,515,265,0,2,2,20,14

2017-10-05 14:32:12,#E#,17,1,12,102,524,8908,75,0,515,265,0,2,2,20,14

2017-10-05 14:32:12,#E#,17,2,12,102,524,8908,75,0,515,265,0,2,2,20,14

2017-10-05 14:32:12,#E#,17,3,12,102,524,8908,75,0,514,265,0,2,2,20,14

2017-10-05 14:32:12,#E#,17,4,12,102,524,8908,75,0,515,265,0,2,2,20,15

2017-10-05 14:32:12,#E#,17,5,12,102,524,8908,75,0,515,265,0,2,2,20,15

2017-10-05 14:32:12,#E#,17,6,12,102,524,8908,75,0,515,265,0,2,2,20,14

2017-10-05 14:32:12,#E#,17,7,12,102,524,8908,75,0,515,265,0,2,2,20,14

2017-10-05 14:32:12,#E#,17,8,12,102,524,8908,75,0,515,265,0,2,2,20,14

2017-10-05 14:32:12,#E#,17,9,12,102,524,8908,75,0,514,265,0,2,2,20,14

2017-10-05 14:32:13,#E#,18,0,12,102,524,9432,75,0,515,265,0,3,3,20,15

2017-10-05 14:32:13,#E#,18,1,12,102,524,9432,75,0,515,265,0,3,3,20,14

2017-10-05 14:32:13,#E#,18,2,12,102,524,9432,75,0,515,265,0,3,3,20,14

2017-10-05 14:32:13,#E#,18,3,12,102,524,9432,75,0,515,265,0,3,3,20,14

2017-10-05 14:32:13,#E#,18,4,12,102,524,9432,75,0,514,265,0,3,3,20,14

2017-10-05 14:32:13,#E#,18,5,12,102,524,9432,75,0,515,265,0,3,3,20,15

2017-10-05 14:32:13,#E#,18,6,12,102,524,9432,75,0,515,265,0,3,3,20,14

2017-10-05 14:32:13,#E#,18,7,12,102,524,9432,75,0,515,265,0,3,3,20,14

2017-10-05 14:32:13,#E#,18,8,12,102,524,9432,75,0,514,265,0,3,3,20,14

2017-10-05 14:32:13,#E#,18,9,12,102,524,9432,75,0,514,265,0,3,3,20,14

2017-10-05 14:32:14,#E#,19,0,12,102,524,9956,75,0,514,265,0,3,3,20,14

2017-10-05 14:32:14,#E#,19,1,12,102,524,9956,75,0,515,265,0,3,3,20,15

2017-10-05 14:32:14,#E#,19,2,12,102,524,9956,75,0,514,265,0,3,3,20,15

2017-10-05 14:32:14,#E#,19,3,12,102,524,9956,75,0,515,265,0,3,3,20,15

2017-10-05 14:32:14,#E#,19,4,12,102,524,9956,75,0,515,265,0,3,3,20,15

2017-10-05 14:32:14,#E#,19,5,12,102,524,9956,75,0,514,265,0,3,3,20,14

2017-10-05 14:32:14,#E#,19,6,12,102,524,9956,75,0,515,265,0,3,3,20,14

2017-10-05 14:32:14,#E#,19,7,12,102,524,9956,75,0,515,265,0,3,3,20,15

2017-10-05 14:32:14,#E#,19,8,12,102,524,9956,75,0,515,265,0,3,3,20,15

2017-10-05 14:32:15,#E#,19,9,12,102,524,9956,75,0,515,265,0,3,3,20,15

2017-10-05 14:32:15,#E#,20,0,12,102,524,10480,75,0,514,265,0,3,3,20,15

2017-10-05 14:32:15,#E#,20,1,12,102,524,10480,75,0,514,265,0,3,3,20,14

2017-10-05 14:32:15,#E#,20,2,12,102,524,10480,75,0,515,265,0,3,3,20,15

2017-10-05 14:32:15,#E#,20,3,12,102,524,10480,75,0,515,265,0,3,3,20,14

2017-10-05 14:32:15,#E#,20,4,12,102,524,10480,75,0,515,265,0,3,3,20,15

2017-10-05 14:32:16,#E#,20,5,12,102,524,10480,75,0,514,265,0,3,3,20,14

2017-10-05 14:32:16,#E#,20,6,12,102,524,10480,75,0,514,265,0,3,3,20,15

2017-10-05 14:32:16,#E#,20,7,12,102,524,10480,75,0,514,265,0,3,3,20,15

2017-10-05 14:32:16,#E#,20,8,12,102,524,10480,75,0,515,265,0,3,3,20,15

2017-10-05 14:32:16,#E#,20,9,12,102,524,10480,75,0,515,265,0,3,3,20,15

2017-10-05 14:32:17,#E#,21,0,12,102,524,11004,75,0,514,265,0,3,3,20,15

2017-10-05 14:32:17,#E#,21,1,12,102,524,11004,75,0,514,265,0,3,3,20,15

2017-10-05 14:32:17,#E#,21,2,12,102,524,11004,75,0,514,265,0,3,3,20,15

2017-10-05 14:32:17,#E#,21,3,12,102,524,11004,75,0,514,265,0,3,3,20,15

2017-10-05 14:32:17,#E#,21,4,12,102,524,11004,75,0,514,265,0,3,3,20,15

2017-10-05 14:32:17,#E#,21,5,12,102,524,11004,75,0,514,265,0,3,3,20,15

2017-10-05 14:32:17,#E#,21,6,12,102,524,11004,75,0,514,265,0,3,3,20,15

2017-10-05 14:32:17,#E#,21,7,12,102,524,11004,75,0,514,265,0,3,3,20,15

2017-10-05 14:32:17,#E#,21,8,12,102,524,11004,75,0,515,265,0,3,3,20,15

2017-10-05 14:32:17,#E#,21,9,12,102,524,11004,75,0,514,265,0,3,3,20,15

2017-10-05 14:32:18,#E#,22,0,12,102,524,11528,75,0,515,265,0,4,4,20,15

2017-10-05 14:32:18,#E#,22,1,12,102,524,11528,75,0,514,265,0,4,4,20,15

2017-10-05 14:32:18,#E#,22,2,12,102,524,11528,75,0,515,265,0,4,4,20,15

2017-10-05 14:32:18,#E#,22,3,12,102,524,11528,75,0,515,265,0,4,4,20,14

2017-10-05 14:32:18,#E#,22,4,12,102,524,11528,75,0,515,265,0,4,4,20,15

2017-10-05 14:32:18,#E#,22,5,12,102,524,11528,75,0,514,265,0,4,4,20,15

2017-10-05 14:32:18,#E#,22,6,12,102,524,11528,75,0,514,265,0,4,4,20,15

2017-10-05 14:32:18,#E#,22,7,12,102,524,11528,75,0,514,265,0,4,4,20,15

2017-10-05 14:32:18,#E#,22,8,12,102,524,11528,75,0,514,265,0,4,4,20,15

2017-10-05 14:32:18,#E#,22,9,12,102,524,11528,75,0,514,265,0,4,4,20,15

2017-10-05 14:32:19,#E#,23,0,12,102,524,12052,75,0,515,265,0,4,4,20,15

2017-10-05 14:32:19,#E#,23,1,12,102,524,12052,75,0,514,265,0,4,4,20,15

2017-10-05 14:32:19,#E#,23,2,12,102,524,12052,75,0,514,265,0,4,4,20,15

2017-10-05 14:32:19,#E#,23,3,12,102,524,12052,75,0,514,265,0,4,4,20,15

2017-10-05 14:32:19,#E#,23,4,12,102,524,12052,75,0,514,265,0,4,4,20,15

2017-10-05 14:32:19,#E#,23,5,12,102,524,12052,75,0,515,265,0,4,4,20,15

2017-10-05 14:32:19,#E#,23,6,12,102,524,12052,75,0,514,265,0,4,4,20,15

2017-10-05 14:32:19,#E#,23,7,12,102,524,12052,75,0,515,265,0,4,4,20,15

2017-10-05 14:32:19,#E#,23,8,12,102,524,12052,75,0,514,265,0,4,4,20,15

2017-10-05 14:32:19,#E#,23,9,12,102,524,12052,75,0,514,265,0,4,4,20,15

2017-10-05 14:32:20,#E#,24,0,12,102,524,12576,75,0,514,265,0,4,4,20,15

2017-10-05 14:32:20,#E#,24,1,12,102,524,12576,75,0,514,265,0,4,4,20,15

2017-10-05 14:32:20,#E#,24,2,12,102,524,12576,75,0,514,265,0,4,4,20,15

2017-10-05 14:32:20,#E#,24,3,12,102,524,12576,75,0,514,265,0,4,4,20,15

2017-10-05 14:32:20,#E#,24,4,12,102,524,12576,75,0,515,265,0,4,4,20,15

2017-10-05 14:32:20,#E#,24,5,12,102,524,12576,75,0,514,265,0,4,4,20,15

2017-10-05 14:32:20,#E#,24,6,12,102,524,12576,75,0,514,265,0,4,4,20,15

2017-10-05 14:32:20,#E#,24,7,12,102,524,12576,75,0,514,265,0,4,4,20,15

2017-10-05 14:32:20,#E#,24,8,12,102,524,12576,75,0,514,265,0,4,4,20,15

2017-10-05 14:32:20,#E#,24,9,12,102,524,12576,75,0,514,265,0,4,4,20,15

2017-10-05 14:32:21,#E#,25,0,12,102,524,13100,75,0,514,265,0,4,4,20,15

2017-10-05 14:32:21,#E#,25,1,12,102,524,13100,75,0,515,265,0,4,4,20,15

2017-10-05 14:32:21,#E#,25,2,12,102,524,13100,75,0,514,265,0,4,4,20,15

2017-10-05 14:32:21,#E#,25,3,12,102,524,13100,75,0,514,265,0,4,4,20,15

2017-10-05 14:32:21,#E#,25,4,12,102,524,13100,75,0,514,265,0,4,4,20,15

2017-10-05 14:32:21,#E#,25,5,12,102,524,13100,75,0,514,265,0,4,4,21,15

2017-10-05 14:32:21,#E#,25,6,12,102,524,13100,75,0,515,265,0,4,4,20,15

2017-10-05 14:32:21,#E#,25,7,12,102,524,13100,75,0,515,265,0,4,4,20,15

2017-10-05 14:32:21,#E#,25,8,12,102,524,13100,75,0,514,265,0,4,4,20,15

2017-10-05 14:32:21,#E#,25,9,12,102,524,13100,75,0,514,265,0,4,4,20,15

2017-10-05 14:32:22,#E#,26,0,12,102,524,13624,75,0,514,265,0,4,4,20,15

2017-10-05 14:32:22,#E#,26,1,12,102,524,13624,75,0,514,265,0,4,4,20,15

2017-10-05 14:32:22,#E#,26,2,12,102,524,13624,75,0,515,265,0,4,4,20,15

2017-10-05 14:32:22,#E#,26,3,12,102,524,13624,75,0,515,265,0,4,4,20,15

2017-10-05 14:32:22,#E#,26,4,12,102,524,13624,75,0,515,265,0,4,4,20,15

2017-10-05 14:32:22,#E#,26,5,12,102,524,13624,75,0,515,265,0,4,4,20,15

2017-10-05 14:32:22,#E#,26,6,12,102,524,13624,75,0,514,265,0,4,4,20,15

2017-10-05 14:32:22,#E#,26,7,12,102,524,13624,75,0,514,265,0,4,4,20,15

2017-10-05 14:32:22,#E#,26,8,12,102,524,13624,75,0,515,265,0,4,4,20,15

2017-10-05 14:32:22,#E#,26,9,12,102,524,13624,75,0,514,265,0,4,4,20,15

2017-10-05 14:32:23,#E#,27,0,12,102,524,14148,75,0,515,265,0,5,5,20,15

2017-10-05 14:32:23,#E#,27,1,12,102,524,14148,75,0,514,265,0,5,5,20,15

2017-10-05 14:32:23,#E#,27,2,12,102,524,14148,75,0,514,265,0,5,5,21,15

2017-10-05 14:32:23,#E#,27,3,12,102,524,14148,75,0,515,265,0,5,5,20,15

2017-10-05 14:32:23,#E#,27,4,12,102,524,14148,75,0,514,265,0,5,5,20,15

2017-10-05 14:32:23,#E#,27,5,12,102,524,14148,75,0,515,265,0,5,5,20,15

2017-10-05 14:32:23,#E#,27,6,12,102,524,14148,75,0,515,265,0,5,5,21,15

2017-10-05 14:32:23,#E#,27,7,12,102,524,14148,75,0,514,265,0,5,5,21,15

2017-10-05 14:32:23,#E#,27,8,12,102,524,14148,75,0,514,265,0,5,5,21,15

2017-10-05 14:32:23,#E#,27,9,12,102,524,14148,75,0,514,265,0,5,5,20,15

2017-10-05 14:32:24,#E#,28,0,12,102,524,14672,75,0,515,265,0,5,5,21,15

2017-10-05 14:32:24,#E#,28,1,12,102,524,14672,75,0,515,265,0,5,5,21,15

2017-10-05 14:32:24,#E#,28,2,12,102,524,14672,75,0,515,265,0,5,5,20,15

2017-10-05 14:32:24,#E#,28,3,12,102,524,14672,75,0,515,265,0,5,5,20,15

2017-10-05 14:32:24,#E#,28,4,12,102,524,14672,75,0,514,265,0,5,5,21,15

2017-10-05 14:32:24,#E#,28,5,12,102,524,14672,75,0,514,265,0,5,5,21,15

2017-10-05 14:32:24,#E#,28,6,12,102,524,14672,75,0,514,265,0,5,5,21,15

2017-10-05 14:32:24,#E#,28,7,12,102,524,14672,75,0,514,265,0,5,5,20,15

2017-10-05 14:32:24,#E#,28,8,12,102,524,14672,75,0,514,265,0,5,5,20,15

2017-10-05 14:32:24,#E#,28,9,12,102,524,14672,75,0,514,265,0,5,5,20,15

2017-10-05 14:32:25,#E#,29,0,12,102,524,15196,75,0,515,265,0,5,5,20,15

2017-10-05 14:32:25,#E#,29,1,12,102,524,15196,75,0,514,265,0,5,5,20,15

2017-10-05 14:32:25,#E#,29,2,12,102,524,15196,75,0,515,265,0,5,5,21,15

2017-10-05 14:32:25,#E#,29,3,12,102,524,15196,75,0,514,265,0,5,5,21,15

2017-10-05 14:32:25,#E#,29,4,12,102,524,15196,75,0,514,265,0,5,5,20,15

2017-10-05 14:32:25,#E#,29,5,12,102,524,15196,75,0,515,265,0,5,5,21,15

2017-10-05 14:32:25,#E#,29,6,12,102,524,15196,75,0,515,265,0,5,5,20,15

2017-10-05 14:32:25,#E#,29,7,12,102,524,15196,75,0,515,265,0,5,5,20,15

2017-10-05 14:32:25,#E#,29,8,12,102,524,15196,75,0,514,265,0,5,5,21,15

2017-10-05 14:32:25,#E#,29,9,12,102,524,15196,75,0,514,265,0,5,5,20,15

2017-10-05 14:32:26,#E#,30,0,12,102,524,15720,75,0,514,265,0,5,5,20,15

2017-10-05 14:32:26,#E#,30,1,12,102,524,15720,75,0,515,265,0,5,5,21,15

2017-10-05 14:32:26,#E#,30,2,12,102,524,15720,75,0,515,265,0,5,5,21,15

2017-10-05 14:32:26,#E#,30,3,12,102,524,15720,75,0,515,265,0,5,5,21,15

2017-10-05 14:32:26,#E#,30,4,12,102,524,15720,75,0,514,265,0,5,5,20,15

2017-10-05 14:32:26,#E#,30,5,12,102,524,15720,75,0,514,265,0,5,5,21,15

2017-10-05 14:32:26,#E#,30,6,12,102,524,15720,75,0,514,265,0,5,5,21,15

2017-10-05 14:32:26,#E#,30,7,12,102,524,15720,75,0,514,265,0,5,5,20,15

2017-10-05 14:32:26,#E#,30,8,12,102,524,15720,75,0,515,265,0,5,5,20,15

2017-10-05 14:32:26,#E#,30,9,12,102,524,15720,75,0,514,265,0,5,5,20,15

2017-10-05 14:32:27,#E#,31,0,12,102,524,16244,75,0,514,265,0,6,6,21,15

2017-10-05 14:32:27,#E#,31,1,12,102,524,16244,75,0,515,265,0,6,6,21,15

2017-10-05 14:32:27,#E#,31,2,12,102,524,16244,75,0,515,265,0,6,6,21,15

2017-10-05 14:32:27,#E#,31,3,12,102,524,16244,75,0,515,265,0,6,6,21,15

2017-10-05 14:32:27,#E#,31,4,12,102,524,16244,75,0,515,265,0,6,6,21,15

2017-10-05 14:32:27,#E#,31,5,12,102,524,16244,75,0,515,265,0,6,6,21,15

2017-10-05 14:32:27,#E#,31,6,12,102,524,16244,75,0,514,265,0,6,6,21,15

2017-10-05 14:32:27,#E#,31,7,12,102,524,16244,75,0,514,265,0,6,6,20,15

2017-10-05 14:32:27,#E#,31,8,12,102,524,16244,75,0,515,265,0,6,6,21,15

2017-10-05 14:32:27,#E#,31,9,12,102,524,16244,75,0,515,265,0,6,6,21,15

2017-10-05 14:32:28,#E#,32,0,12,102,524,16768,75,0,514,265,0,6,6,21,15

2017-10-05 14:32:28,#E#,32,1,12,102,524,16768,75,0,514,265,0,6,6,21,15

2017-10-05 14:32:28,#E#,32,2,12,102,524,16768,75,0,515,265,0,6,6,21,15

2017-10-05 14:32:28,#E#,32,3,12,102,524,16768,75,0,514,265,0,6,6,21,15

2017-10-05 14:32:28,#E#,32,4,12,102,524,16768,75,0,514,265,0,6,6,21,15

2017-10-05 14:32:28,#E#,32,5,12,102,524,16768,75,0,514,265,0,6,6,21,15

2017-10-05 14:32:28,#E#,32,6,12,102,524,16768,75,0,514,265,0,6,6,21,15

2017-10-05 14:32:29,#E#,32,7,12,102,524,16768,75,0,514,265,0,6,6,21,15

2017-10-05 14:32:29,#E#,32,8,12,102,524,16768,75,0,514,265,0,6,6,21,15

2017-10-05 14:32:29,#E#,32,9,12,102,524,16768,75,0,515,265,0,6,6,21,15

2017-10-05 14:32:29,#E#,33,0,12,102,524,17292,75,0,515,265,0,6,6,21,15

2017-10-05 14:32:29,#E#,33,1,12,102,524,17292,75,0,514,265,0,6,6,21,15

2017-10-05 14:32:29,#E#,33,2,12,102,524,17292,75,0,514,265,0,6,6,21,15

2017-10-05 14:32:30,#E#,33,3,12,102,524,17292,75,0,515,265,0,6,6,21,15

2017-10-05 14:32:30,#E#,33,4,12,102,524,17292,75,0,515,265,0,6,6,21,15

2017-10-05 14:32:30,#E#,33,5,12,102,524,17292,75,0,514,265,0,6,6,21,15

2017-10-05 14:32:30,#E#,33,6,12,102,524,17292,75,0,515,265,0,6,6,21,15

2017-10-05 14:32:30,#E#,33,7,12,102,524,17292,75,0,514,265,0,6,6,21,15

2017-10-05 14:32:30,#E#,33,8,12,102,524,17292,75,0,514,265,0,6,6,21,15

2017-10-05 14:32:30,#E#,33,9,12,102,524,17292,75,0,514,265,0,6,6,21,15

2017-10-05 14:32:31,#E#,34,0,12,102,524,17816,75,0,514,265,0,6,6,21,15

2017-10-05 14:32:31,#E#,34,1,12,102,524,17816,75,0,514,265,0,6,6,21,15

2017-10-05 14:32:31,#E#,34,2,12,102,524,17816,75,0,515,265,0,6,6,21,15

2017-10-05 14:32:31,#E#,34,3,12,102,524,17816,75,0,515,265,0,6,6,21,15

2017-10-05 14:32:31,#E#,34,4,12,102,524,17816,75,0,515,265,0,6,6,21,15

2017-10-05 14:32:31,#E#,34,5,12,102,524,17816,75,0,514,265,0,6,6,21,15

2017-10-05 14:32:31,#E#,34,6,12,102,524,17816,75,0,515,265,0,6,6,21,15

2017-10-05 14:32:31,#E#,34,7,12,102,524,17816,75,0,515,265,0,6,6,21,15

2017-10-05 14:32:31,#E#,34,8,12,102,524,17816,75,0,515,265,0,6,6,21,15

2017-10-05 14:32:31,#E#,34,9,12,102,524,17816,75,0,515,265,0,6,6,21,15

2017-10-05 14:32:32,#E#,35,0,12,102,524,18340,75,0,514,265,0,7,7,21,15

2017-10-05 14:32:32,#E#,35,1,12,102,524,18340,75,0,514,265,0,7,7,21,15

2017-10-05 14:32:32,#E#,35,2,12,102,524,18340,75,0,514,265,0,7,7,21,15

2017-10-05 14:32:32,#E#,35,3,12,102,524,18340,75,0,514,265,0,7,7,21,15

2017-10-05 14:32:32,#E#,35,4,12,102,524,18340,75,0,514,265,0,7,7,21,15

2017-10-05 14:32:32,#E#,35,5,12,102,524,18340,75,0,515,265,0,7,7,21,15

2017-10-05 14:32:32,#E#,35,6,12,102,524,18340,75,0,514,265,0,7,7,21,15

2017-10-05 14:32:32,#E#,35,7,12,102,524,18340,75,0,515,265,0,7,7,21,15

2017-10-05 14:32:32,#E#,35,8,12,102,524,18340,75,0,514,265,0,7,7,21,15

2017-10-05 14:32:32,#E#,35,9,12,102,524,18340,75,0,515,265,0,7,7,21,15

2017-10-05 14:32:33,#E#,36,0,12,102,524,18864,75,0,514,265,0,7,7,21,15

2017-10-05 14:32:33,#E#,36,1,12,102,524,18864,75,0,515,265,0,7,7,21,15

2017-10-05 14:32:33,#E#,36,2,12,102,524,18864,75,0,514,265,0,7,7,21,15

2017-10-05 14:32:33,#E#,36,3,12,102,524,18864,75,0,514,265,0,7,7,21,15

2017-10-05 14:32:33,#E#,36,4,12,102,524,18864,75,0,514,265,0,7,7,21,15

2017-10-05 14:32:33,#E#,36,5,12,102,524,18864,75,0,514,265,0,7,7,21,15

2017-10-05 14:32:33,#E#,36,6,12,102,524,18864,75,0,514,265,0,7,7,21,15

2017-10-05 14:32:33,#E#,36,7,12,102,524,18864,75,0,514,265,0,7,7,21,15

2017-10-05 14:32:33,#E#,36,8,12,102,524,18864,75,0,514,265,0,7,7,21,15

2017-10-05 14:32:33,#E#,36,9,12,102,524,18864,75,0,514,265,0,7,7,21,15

2017-10-05 14:32:34,#E#,37,0,12,102,524,19388,75,0,515,265,0,7,7,21,15

2017-10-05 14:32:34,#E#,37,1,12,102,524,19388,75,0,514,265,0,7,7,21,15

2017-10-05 14:32:34,#E#,37,2,12,102,524,19388,75,0,515,265,0,7,7,21,15

2017-10-05 14:32:34,#E#,37,3,12,102,524,19388,75,0,514,265,0,7,7,21,15

2017-10-05 14:32:34,#E#,37,4,12,102,524,19388,75,0,514,265,0,7,7,21,15

2017-10-05 14:32:34,#E#,37,5,12,102,524,19388,75,0,514,265,0,7,7,21,15

2017-10-05 14:32:34,#E#,37,6,12,102,524,19388,75,0,515,265,0,7,7,21,15

2017-10-05 14:32:34,#E#,37,7,12,102,524,19388,75,0,515,265,0,7,7,21,15

2017-10-05 14:32:34,#E#,37,8,12,102,524,19388,75,0,514,265,0,7,7,21,15

2017-10-05 14:32:34,#E#,37,9,12,102,524,19388,75,0,514,265,0,7,7,21,15

2017-10-05 14:32:35,#E#,38,0,12,102,524,19912,75,0,515,265,0,7,7,21,15

2017-10-05 14:32:35,#E#,38,1,12,102,524,19912,75,0,514,265,0,7,7,21,15

2017-10-05 14:32:35,#E#,38,2,12,102,524,19912,75,0,514,265,0,7,7,21,15

2017-10-05 14:32:35,#E#,38,3,12,102,524,19912,75,0,515,265,0,7,7,21,15

2017-10-05 14:32:35,#E#,38,4,12,102,524,19912,75,0,515,265,0,7,7,21,15

2017-10-05 14:32:35,#E#,38,5,12,102,524,19912,75,0,515,265,0,7,7,21,15

2017-10-05 14:32:35,#E#,38,6,12,102,524,19912,75,0,515,265,0,7,7,21,15

2017-10-05 14:32:35,#E#,38,7,12,102,524,19912,75,0,514,265,0,7,7,21,15

2017-10-05 14:32:35,#E#,38,8,12,102,524,19912,75,0,515,265,0,7,7,21,15

2017-10-05 14:32:35,#E#,38,9,12,102,524,19912,75,0,515,265,0,7,7,21,15

2017-10-05 14:32:36,#E#,39,0,12,102,524,20436,75,0,514,265,0,8,8,21,15

2017-10-05 14:32:36,#E#,39,1,12,102,524,20436,75,0,515,265,0,8,8,21,15

2017-10-05 14:32:36,#E#,39,2,12,102,524,20436,75,0,514,265,0,8,8,21,15

2017-10-05 14:32:36,#E#,39,3,12,102,524,20436,75,0,514,265,0,8,8,21,15

2017-10-05 14:32:36,#E#,39,4,12,102,524,20436,75,0,514,265,0,8,8,21,15

2017-10-05 14:32:36,#E#,39,5,12,102,524,20436,75,0,514,265,0,8,8,21,15

2017-10-05 14:32:36,#E#,39,6,12,102,524,20436,75,0,515,265,0,8,8,21,15

2017-10-05 14:32:36,#E#,39,7,12,102,524,20436,75,0,515,265,0,8,8,21,15

2017-10-05 14:32:36,#E#,39,8,12,102,524,20436,75,0,515,265,0,8,8,21,15

2017-10-05 14:32:36,#E#,39,9,12,102,524,20436,75,0,515,265,0,8,8,21,15

2017-10-05 14:32:37,#E#,40,0,12,102,524,20960,75,0,514,265,0,8,8,21,15

2017-10-05 14:32:37,#E#,40,1,12,102,524,20960,75,0,515,265,0,8,8,21,15

2017-10-05 14:32:37,#E#,40,2,12,102,524,20960,75,0,514,265,0,8,8,21,15

2017-10-05 14:32:37,#E#,40,3,12,102,524,20960,75,0,514,265,0,8,8,21,15

2017-10-05 14:32:37,#E#,40,4,12,102,524,20960,75,0,514,265,0,8,8,21,15

2017-10-05 14:32:37,#E#,40,5,12,102,524,20960,75,0,514,265,0,8,8,21,15

2017-10-05 14:32:37,#E#,40,6,12,102,524,20960,75,0,515,265,0,8,8,21,15

2017-10-05 14:32:37,#E#,40,7,12,102,524,20960,75,0,514,265,0,8,8,21,15

2017-10-05 14:32:37,#E#,40,8,12,102,524,20960,75,0,514,265,0,8,8,21,15

2017-10-05 14:32:37,#E#,40,9,12,102,524,20960,75,0,514,265,0,8,8,21,15

2017-10-05 14:32:38,#E#,41,0,12,102,524,21484,75,0,514,265,0,8,8,21,15

2017-10-05 14:32:38,#E#,41,1,12,102,524,21484,75,0,514,265,0,8,8,21,15

2017-10-05 14:32:38,#E#,41,2,12,102,524,21484,75,0,514,265,0,8,8,21,15

2017-10-05 14:32:38,#E#,41,3,12,102,524,21484,75,0,514,265,0,8,8,21,15

2017-10-05 14:32:38,#E#,41,4,12,102,524,21484,75,0,514,265,0,8,8,21,15

2017-10-05 14:32:38,#E#,41,5,12,102,524,21484,75,0,515,265,0,8,8,21,15

2017-10-05 14:32:38,#E#,41,6,12,102,524,21484,75,0,515,265,0,8,8,21,15

2017-10-05 14:32:38,#E#,41,7,12,102,524,21484,75,0,515,265,0,8,8,21,15

2017-10-05 14:32:38,#E#,41,8,12,102,524,21484,75,0,515,265,0,8,8,21,15

2017-10-05 14:32:38,#E#,41,9,12,102,524,21484,75,0,514,265,0,8,8,21,15

2017-10-05 14:32:39,#E#,42,0,12,102,524,22008,75,0,514,265,0,8,8,21,15

2017-10-05 14:32:39,#E#,42,1,12,102,524,22008,75,0,514,265,0,8,8,21,15

2017-10-05 14:32:39,#E#,42,2,12,102,524,22008,75,0,515,265,0,8,8,21,15

2017-10-05 14:32:39,#E#,42,3,12,102,524,22008,75,0,514,265,0,8,8,21,15

2017-10-05 14:32:39,#E#,42,4,12,102,524,22008,75,0,514,265,0,8,8,21,15

2017-10-05 14:32:39,#E#,42,5,12,102,524,22008,75,0,514,265,0,8,8,21,15

2017-10-05 14:32:39,#E#,42,6,12,102,524,22008,75,0,514,265,0,8,8,21,15

2017-10-05 14:32:39,#E#,42,7,12,102,524,22008,75,0,515,265,0,8,8,21,15

2017-10-05 14:32:39,#E#,42,8,12,102,524,22008,75,0,514,265,0,8,8,21,15

2017-10-05 14:32:39,#E#,42,9,12,102,524,22008,75,0,514,265,0,8,8,21,15

2017-10-05 14:32:40,#E#,43,0,12,102,524,22532,75,0,515,265,0,9,9,21,15

2017-10-05 14:32:40,#E#,43,1,12,102,524,22532,75,0,514,265,0,9,9,21,15

2017-10-05 14:32:40,#E#,43,2,12,102,524,22532,75,0,514,265,0,9,9,21,15

2017-10-05 14:32:40,#E#,43,3,12,102,524,22532,75,0,515,265,0,9,9,21,15

2017-10-05 14:32:40,#E#,43,4,12,102,524,22532,75,0,514,265,0,9,9,21,15

2017-10-05 14:32:40,#E#,43,5,12,102,524,22532,75,0,514,265,0,9,9,21,15

2017-10-05 14:32:40,#E#,43,6,12,102,524,22532,75,0,514,265,0,9,9,21,15

2017-10-05 14:32:40,#E#,43,7,12,102,524,22532,75,0,514,265,0,9,9,21,15

2017-10-05 14:32:40,#E#,43,8,12,102,524,22532,75,0,514,265,0,9,9,21,15

2017-10-05 14:32:40,#E#,43,9,12,102,524,22532,75,0,514,265,0,9,9,21,15

2017-10-05 14:32:41,#E#,44,0,12,102,524,23056,75,0,514,265,0,9,9,21,15

2017-10-05 14:32:41,#E#,44,1,12,102,524,23056,75,0,515,265,0,9,9,21,15

2017-10-05 14:32:41,#E#,44,2,12,102,524,23056,75,0,515,265,0,9,9,21,15

2017-10-05 14:32:41,#E#,44,3,12,102,524,23056,75,0,515,265,0,9,9,21,15

2017-10-05 14:32:41,#E#,44,4,12,102,524,23056,75,0,515,265,0,9,9,21,15

2017-10-05 14:32:41,#E#,44,5,12,102,524,23056,75,0,515,265,0,9,9,21,15

2017-10-05 14:32:41,#E#,44,6,12,102,524,23056,75,0,515,265,0,9,9,21,15

2017-10-05 14:32:41,#E#,44,7,12,102,524,23056,75,0,514,265,0,9,9,21,15

2017-10-05 14:32:41,#E#,44,8,12,102,524,23056,75,0,515,265,0,9,9,21,15

2017-10-05 14:32:41,#E#,44,9,12,102,524,23056,75,0,515,265,0,9,9,21,15

2017-10-05 14:32:42,#E#,45,0,12,102,524,23580,75,0,515,265,0,9,9,21,15

2017-10-05 14:32:42,#E#,45,1,12,102,524,23580,75,0,514,265,0,9,9,21,15

2017-10-05 14:32:42,#E#,45,2,12,102,524,23580,75,0,515,265,0,9,9,21,15

2017-10-05 14:32:42,#E#,45,3,12,102,524,23580,75,0,515,265,0,9,9,21,15

2017-10-05 14:32:42,#E#,45,4,12,102,524,23580,75,0,515,265,0,9,9,21,15

2017-10-05 14:32:43,#E#,45,5,12,102,524,23580,75,0,515,265,0,9,9,21,15

2017-10-05 14:32:43,#E#,45,6,12,102,524,23580,75,0,515,265,0,9,9,21,15

2017-10-05 14:32:43,#E#,45,7,12,102,524,23580,75,0,514,265,0,9,9,21,15

2017-10-05 14:32:43,#E#,45,8,12,102,524,23580,75,0,514,265,0,9,9,21,15

2017-10-05 14:32:43,#E#,45,9,12,102,524,23580,75,0,515,265,0,9,9,21,15

2017-10-05 14:32:43,#E#,46,0,12,102,524,24104,75,0,515,265,0,9,9,21,15

2017-10-05 14:32:44,#E#,46,1,12,102,524,24104,75,0,514,265,0,9,9,21,15

2017-10-05 14:32:44,#E#,46,2,12,102,524,24104,75,0,514,265,0,9,9,21,15

2017-10-05 14:32:44,#E#,46,3,12,102,524,24104,75,0,514,265,0,9,9,21,15

2017-10-05 14:32:44,#E#,46,4,12,102,524,24104,75,0,514,265,0,9,9,21,16

2017-10-05 14:32:44,#E#,46,5,12,102,524,24104,75,0,515,265,0,9,9,21,15

2017-10-05 14:32:44,#E#,46,6,12,102,524,24104,75,0,514,265,0,9,9,21,16

2017-10-05 14:32:44,#E#,46,7,12,102,524,24104,75,0,514,265,0,9,9,21,15

2017-10-05 14:32:44,#E#,46,8,12,102,524,24104,75,0,515,265,0,9,9,21,15

2017-10-05 14:32:44,#E#,46,9,12,102,524,24104,75,0,515,265,0,9,9,21,15

2017-10-05 14:32:45,#E#,47,0,12,102,524,24628,75,0,515,265,0,10,9,21,16

2017-10-05 14:32:45,#E#,47,1,12,102,524,24628,75,0,515,265,0,10,9,21,16

2017-10-05 14:32:45,#E#,47,2,12,102,524,24628,75,0,515,265,0,10,9,21,15

2017-10-05 14:32:45,#E#,47,3,12,102,524,24628,75,0,515,265,0,10,9,21,16

2017-10-05 14:32:45,#E#,47,4,12,102,524,24628,75,0,515,265,0,10,9,21,0

2017-10-05 14:32:45,#E#,47,5,12,102,524,24628,75,0,515,265,0,10,9,21,0

2017-10-05 14:32:45,#E#,47,6,12,102,524,24628,75,0,515,265,0,10,9,21,15

2017-10-05 14:32:45,#E#,47,7,12,102,524,24628,75,0,514,265,0,10,9,21,16

2017-10-05 14:32:45,#E#,47,8,12,102,524,24628,75,0,514,265,0,10,9,21,16

2017-10-05 14:32:45,#E#,47,9,12,102,524,24628,75,0,515,265,0,10,9,21,15

2017-10-05 14:32:46,#E#,48,0,12,102,524,25152,75,0,515,265,0,10,10,21,31

2017-10-05 14:32:46,#E#,48,1,12,102,524,25152,75,0,514,265,0,10,10,21,16

2017-10-05 14:32:46,#E#,48,2,12,102,524,25152,75,0,514,265,0,10,10,21,16

2017-10-05 14:32:46,#E#,48,3,12,102,524,25152,75,0,514,265,0,10,10,21,0

2017-10-05 14:32:46,#E#,48,4,12,102,524,25152,75,0,515,265,0,10,10,21,0

2017-10-05 14:32:46,#E#,48,5,12,102,524,25152,75,0,514,265,0,10,10,21,31

2017-10-05 14:32:46,#E#,48,6,12,102,524,25152,75,0,515,265,0,10,10,21,16

2017-10-05 14:32:46,#E#,48,7,12,102,524,25152,75,0,514,265,0,10,10,21,15

2017-10-05 14:32:46,#E#,48,8,12,102,524,25152,75,0,514,265,0,10,10,21,16

2017-10-05 14:32:46,#E#,48,9,12,102,524,25152,75,0,514,265,0,10,10,21,31

2017-10-05 14:32:47,#E#,49,0,12,102,524,25676,75,0,515,265,0,10,10,21,16

2017-10-05 14:32:47,#E#,49,1,12,102,524,25676,75,0,515,265,0,10,10,21,16

2017-10-05 14:32:47,#E#,49,2,12,102,524,25676,75,0,515,265,0,10,10,21,16

2017-10-05 14:32:47,#E#,49,3,12,102,524,25676,75,0,515,265,0,10,10,21,16

2017-10-05 14:32:47,#E#,49,4,12,102,524,25676,75,0,515,265,0,10,10,21,16

2017-10-05 14:32:47,#E#,49,5,12,102,524,25676,75,0,514,265,0,10,10,21,16

2017-10-05 14:32:47,#E#,49,6,12,102,524,25676,75,0,514,265,0,10,10,21,16

2017-10-05 14:32:47,#E#,49,7,12,102,524,25676,75,0,515,265,0,10,10,21,16

2017-10-05 14:32:47,#E#,49,8,12,102,524,25676,75,0,515,265,0,10,10,21,16

2017-10-05 14:32:47,#E#,49,9,12,102,524,25676,75,0,515,265,0,10,10,21,16

2017-10-05 14:32:48,#E#,50,0,12,102,524,26200,75,0,514,265,0,10,10,21,16

2017-10-05 14:32:48,#E#,50,1,12,102,524,26200,75,0,514,265,0,10,10,21,16

2017-10-05 14:32:48,#E#,50,2,12,102,524,26200,75,0,514,265,0,10,10,21,16

2017-10-05 14:32:48,#E#,50,3,12,102,524,26200,75,0,514,265,0,10,10,21,16

2017-10-05 14:32:48,#E#,50,4,12,102,524,26200,75,0,515,265,0,10,10,21,16

2017-10-05 14:32:48,#E#,50,5,12,102,524,26200,75,0,515,265,0,10,10,21,15

2017-10-05 14:32:48,#E#,50,6,12,102,524,26200,75,0,514,265,0,10,10,21,16

2017-10-05 14:32:48,#E#,50,7,12,102,524,26200,75,0,514,265,0,10,10,21,16

2017-10-05 14:32:48,#E#,50,8,12,102,524,26200,75,0,514,265,0,10,10,21,16

2017-10-05 14:32:48,#E#,50,9,12,102,524,26200,75,0,514,265,0,10,10,21,16

2017-10-05 14:32:49,#E#,51,0,12,102,524,26724,75,0,515,265,0,10,10,21,16

2017-10-05 14:32:49,#E#,51,1,12,102,524,26724,75,0,514,265,0,10,10,21,16

2017-10-05 14:32:49,#E#,51,2,12,102,524,26724,75,0,515,265,0,10,10,21,16

2017-10-05 14:32:49,#E#,51,3,12,102,524,26724,75,0,514,265,0,10,10,21,16

2017-10-05 14:32:49,#E#,51,4,12,102,524,26724,75,0,515,265,0,10,10,21,16

2017-10-05 14:32:49,#E#,51,5,12,102,524,26724,75,0,514,265,0,10,10,21,16

2017-10-05 14:32:49,#E#,51,6,12,102,524,26724,75,0,515,265,0,10,10,21,16

2017-10-05 14:32:49,#E#,51,7,12,102,524,26724,75,0,515,265,0,10,10,21,15

2017-10-05 14:32:49,#E#,51,8,12,102,524,26724,75,0,515,265,0,10,10,21,16

2017-10-05 14:32:49,#E#,51,9,12,102,524,26724,75,0,514,265,0,10,10,21,16

2017-10-05 14:32:50,#E#,52,0,12,102,524,27248,75,0,515,265,0,11,11,21,16

2017-10-05 14:32:50,#E#,52,1,12,102,524,27248,75,0,514,265,0,11,11,21,16

2017-10-05 14:32:50,#E#,52,2,12,102,524,27248,75,0,514,265,0,11,11,21,16

2017-10-05 14:32:50,#E#,52,3,12,102,524,27248,75,0,514,265,0,11,11,21,16

2017-10-05 14:32:50,#E#,52,4,12,102,524,27248,75,0,515,265,0,11,11,21,16

2017-10-05 14:32:50,#E#,52,5,12,102,524,27248,75,0,514,265,0,11,11,21,16

2017-10-05 14:32:50,#E#,52,6,12,102,524,27248,75,0,514,265,0,11,11,21,16

2017-10-05 14:32:50,#E#,52,7,12,102,524,27248,75,0,515,265,0,11,11,21,16

2017-10-05 14:32:50,#E#,52,8,12,102,524,27248,75,0,515,265,0,11,11,21,16

2017-10-05 14:32:50,#E#,52,9,12,102,524,27248,75,0,515,265,0,11,11,21,16

2017-10-05 14:32:51,#E#,53,0,12,102,524,27772,75,0,515,265,0,11,11,21,16

2017-10-05 14:32:51,#E#,53,1,12,102,524,27772,75,0,514,265,0,11,11,21,16

2017-10-05 14:32:51,#E#,53,2,12,102,524,27772,75,0,514,265,0,11,11,21,16

2017-10-05 14:32:51,#E#,53,3,12,102,524,27772,75,0,515,265,0,11,11,21,16

2017-10-05 14:32:51,#E#,53,4,12,102,524,27772,75,0,514,265,0,11,11,21,16

2017-10-05 14:32:51,#E#,53,5,12,102,524,27772,75,0,515,265,0,11,11,21,16

2017-10-05 14:32:51,#E#,53,6,12,102,524,27772,75,0,514,265,0,11,11,21,16

2017-10-05 14:32:51,#E#,53,7,12,102,524,27772,75,0,514,265,0,11,11,21,16

2017-10-05 14:32:51,#E#,53,8,12,102,524,27772,75,0,514,265,0,11,11,21,16

2017-10-05 14:32:51,#E#,53,9,12,102,524,27772,75,0,514,265,0,11,11,21,16

2017-10-05 14:32:52,#E#,54,0,12,102,524,28296,75,0,514,265,0,11,11,21,16

2017-10-05 14:32:52,#E#,54,1,12,102,524,28296,75,0,514,265,0,11,11,21,16

2017-10-05 14:32:52,#E#,54,2,12,102,524,28296,75,0,514,265,0,11,11,21,16

2017-10-05 14:32:52,#E#,54,3,12,102,524,28296,75,0,514,265,0,11,11,21,16

2017-10-05 14:32:52,#E#,54,4,12,102,524,28296,75,0,514,265,0,11,11,21,16

2017-10-05 14:32:52,#E#,54,5,12,102,524,28296,75,0,514,265,0,11,11,21,16

2017-10-05 14:32:52,#E#,54,6,12,102,524,28296,75,0,514,265,0,11,11,21,16

2017-10-05 14:32:52,#E#,54,7,12,102,524,28296,75,0,514,265,0,11,11,21,16

2017-10-05 14:32:52,#E#,54,8,12,102,524,28296,75,0,514,265,0,11,11,21,16

2017-10-05 14:32:52,#E#,54,9,12,102,524,28296,75,0,514,265,0,11,11,21,16

2017-10-05 14:32:53,#E#,55,0,12,102,524,28820,75,0,514,265,0,11,11,21,16

2017-10-05 14:32:53,#E#,55,1,12,102,524,28820,75,0,514,265,0,11,11,21,16

2017-10-05 14:32:53,#E#,55,2,12,102,524,28820,75,0,515,265,0,11,11,21,16

2017-10-05 14:32:53,#E#,55,3,12,102,524,28820,75,0,514,265,0,11,11,21,16

2017-10-05 14:32:53,#E#,55,4,12,102,524,28820,75,0,514,265,0,11,11,21,16

2017-10-05 14:32:53,#E#,55,5,12,102,524,28820,75,0,514,265,0,11,11,21,16

2017-10-05 14:32:53,#E#,55,6,12,102,524,28820,75,0,514,265,0,11,11,21,16

2017-10-05 14:32:53,#E#,55,7,12,102,524,28820,75,0,514,265,0,11,11,21,16

2017-10-05 14:32:53,#E#,55,8,12,102,524,28820,75,0,514,265,0,11,11,21,16

2017-10-05 14:32:53,#E#,55,9,12,102,524,28820,75,0,514,265,0,11,11,21,16

2017-10-05 14:32:54,#E#,56,0,12,102,524,29344,75,0,514,265,0,12,12,21,16

2017-10-05 14:32:54,#E#,56,1,12,102,524,29344,75,0,514,265,0,12,12,21,16

2017-10-05 14:32:54,#E#,56,2,12,102,524,29344,75,0,515,265,0,12,12,21,16

2017-10-05 14:32:54,#E#,56,3,12,102,524,29344,75,0,514,265,0,12,12,21,16

2017-10-05 14:32:54,#E#,56,4,12,102,524,29344,75,0,514,265,0,12,12,21,16

2017-10-05 14:32:54,#E#,56,5,12,102,524,29344,75,0,514,265,0,12,12,21,16

2017-10-05 14:32:54,#E#,56,6,12,102,524,29344,75,0,514,265,0,12,12,21,16

2017-10-05 14:32:54,#E#,56,7,12,102,524,29344,75,0,514,265,0,12,12,21,16

2017-10-05 14:32:54,#E#,56,8,12,102,524,29344,75,0,515,265,0,12,12,21,16

2017-10-05 14:32:54,#E#,56,9,12,102,524,29344,75,0,514,265,0,12,12,21,16

2017-10-05 14:32:55,#E#,57,0,12,102,524,29868,75,0,514,265,0,12,12,21,16

2017-10-05 14:32:55,#E#,57,1,12,102,524,29868,75,0,514,265,0,12,12,21,16

2017-10-05 14:32:55,#E#,57,2,12,102,524,29868,75,0,514,265,0,12,12,21,16

2017-10-05 14:32:55,#E#,57,3,12,102,524,29868,75,0,514,265,0,12,12,21,16

2017-10-05 14:32:55,#E#,57,4,12,102,524,29868,75,0,515,265,0,12,12,21,16

2017-10-05 14:32:55,#E#,57,5,12,102,524,29868,75,0,515,265,0,12,12,21,16

2017-10-05 14:32:55,#E#,57,6,12,102,524,29868,75,0,514,265,0,12,12,21,16

2017-10-05 14:32:56,#E#,57,7,12,102,524,29868,75,0,514,265,0,12,12,22,16

2017-10-05 14:32:56,#E#,57,8,12,102,524,29868,75,0,514,265,0,12,12,22,16

2017-10-05 14:32:56,#E#,57,9,12,102,524,29868,75,0,515,265,0,12,12,21,16

2017-10-05 14:32:56,#E#,58,0,12,102,524,30392,75,0,515,265,0,12,12,21,16

2017-10-05 14:32:56,#E#,58,1,12,102,524,30392,75,0,514,265,0,12,12,21,16

2017-10-05 14:32:57,#E#,58,2,12,102,524,30392,75,0,514,265,0,12,12,21,16

2017-10-05 14:32:57,#E#,58,3,12,102,524,30392,75,0,514,265,0,12,12,22,16

2017-10-05 14:32:57,#E#,58,4,12,102,524,30392,75,0,514,265,0,12,12,21,16

2017-10-05 14:32:57,#E#,58,5,12,102,524,30392,75,0,515,265,0,12,12,22,16

2017-10-05 14:32:57,#E#,58,6,12,102,524,30392,75,0,514,265,0,12,12,21,16

2017-10-05 14:32:57,#E#,58,7,12,102,524,30392,75,0,514,265,0,12,12,21,16

2017-10-05 14:32:57,#E#,58,8,12,102,524,30392,75,0,515,265,0,12,12,22,16

2017-10-05 14:32:57,#E#,58,9,12,102,524,30392,75,0,514,265,0,12,12,21,16

2017-10-05 14:32:58,#E#,59,0,12,102,524,30916,75,0,514,265,0,12,12,22,16

2017-10-05 14:32:58,#E#,59,1,12,102,524,30916,75,0,515,265,0,12,12,21,16

2017-10-05 14:32:58,#E#,59,2,12,102,524,30916,75,0,514,265,0,12,12,22,16

2017-10-05 14:32:58,#E#,59,3,12,102,524,30916,75,0,514,265,0,12,12,21,16

2017-10-05 14:32:58,#E#,59,4,12,102,524,30916,75,0,514,265,0,12,12,21,16

2017-10-05 14:32:58,#E#,59,5,12,102,524,30916,75,0,515,265,0,12,12,22,16

2017-10-05 14:32:58,#E#,59,6,12,102,524,30916,75,0,515,265,0,12,12,22,16

2017-10-05 14:32:58,#E#,59,7,12,102,524,30916,75,0,515,265,0,12,12,22,16

2017-10-05 14:32:58,#E#,59,8,12,102,524,30916,75,0,515,265,0,12,12,22,16

2017-10-05 14:32:58,#E#,59,9,12,102,524,30916,75,0,514,265,0,12,12,21,16

2017-10-05 14:32:59,#E#,60,0,12,102,524,31440,75,0,514,265,0,13,13,22,16

2017-10-05 14:32:59,#E#,60,1,12,102,524,31440,75,0,515,265,0,13,13,22,16

2017-10-05 14:32:59,#E#,60,2,12,102,524,31440,75,0,515,265,0,13,13,21,16

2017-10-05 14:32:59,#E#,60,3,12,102,524,31440,75,0,515,265,0,13,13,22,16

2017-10-05 14:32:59,#E#,60,4,12,102,524,31440,75,0,514,265,0,13,13,22,16

2017-10-05 14:32:59,#E#,60,5,12,102,524,31440,75,0,514,265,0,13,13,22,16

2017-10-05 14:32:59,#E#,60,6,12,102,524,31440,75,0,514,265,0,13,13,22,16

2017-10-05 14:32:59,#E#,60,7,12,102,524,31440,75,0,515,265,0,13,13,21,16

2017-10-05 14:32:59,#E#,60,8,12,102,524,31440,75,0,515,265,0,13,13,21,16

2017-10-05 14:32:59,#E#,60,9,12,102,524,31440,75,0,514,265,0,13,13,22,16

2017-10-05 14:33:00,#E#,61,0,12,102,524,31964,75,0,514,265,0,13,13,22,16

2017-10-05 14:33:00,#E#,61,1,12,102,524,31964,75,0,514,265,0,13,13,22,16

2017-10-05 14:33:00,#E#,61,2,12,102,524,31964,75,0,514,265,0,13,13,22,16

2017-10-05 14:33:00,#E#,61,3,12,102,524,31964,75,0,514,265,0,13,13,22,16

2017-10-05 14:33:00,#E#,61,4,12,102,524,31964,75,0,514,265,0,13,13,22,16

2017-10-05 14:33:00,#E#,61,5,12,102,524,31964,75,0,515,265,0,13,13,22,16

2017-10-05 14:33:00,#E#,61,6,12,102,524,31964,75,0,515,265,0,13,13,22,16

2017-10-05 14:33:00,#E#,61,7,12,102,524,31964,75,0,514,265,0,13,13,22,16

2017-10-05 14:33:00,#E#,61,8,12,102,524,31964,75,0,515,265,0,13,13,22,16

2017-10-05 14:33:00,#E#,61,9,12,102,524,31964,75,0,514,265,0,13,13,22,16

2017-10-05 14:33:01,#E#,62,0,12,102,524,32488,75,0,514,265,0,13,13,22,16

2017-10-05 14:33:01,#E#,62,1,12,102,524,32488,75,0,515,265,0,13,13,22,16

2017-10-05 14:33:01,#E#,62,2,12,102,524,32488,75,0,514,265,0,13,13,22,16

2017-10-05 14:33:01,#E#,62,3,12,102,524,32488,75,0,514,265,0,13,13,22,16

2017-10-05 14:33:01,#E#,62,4,12,102,524,32488,75,0,515,265,0,13,13,22,16

2017-10-05 14:33:01,#E#,62,5,12,102,524,32488,75,0,514,265,0,13,13,22,16

2017-10-05 14:33:01,#E#,62,6,12,102,524,32488,75,0,514,265,0,13,13,22,16

2017-10-05 14:33:01,#E#,62,7,12,102,524,32488,75,0,514,265,0,13,13,22,16

2017-10-05 14:33:01,#E#,62,8,12,102,524,32488,75,0,514,265,0,13,13,22,16

2017-10-05 14:33:01,#E#,62,9,12,102,524,32488,75,0,514,265,0,13,13,22,16

2017-10-05 14:33:02,#E#,63,0,12,102,524,33012,75,0,514,265,0,13,13,22,16

2017-10-05 14:33:02,#E#,63,1,12,102,524,33012,75,0,514,265,0,13,13,22,16

2017-10-05 14:33:02,#E#,63,2,12,102,524,33012,75,0,514,265,0,13,13,22,16

2017-10-05 14:33:02,#E#,63,3,12,102,524,33012,75,0,514,265,0,13,13,22,16

2017-10-05 14:33:02,#E#,63,4,12,102,524,33012,75,0,514,265,0,13,13,22,16

2017-10-05 14:33:02,#E#,63,5,12,102,524,33012,75,0,514,265,0,13,13,22,16

2017-10-05 14:33:02,#E#,63,6,12,102,524,33012,75,0,514,265,0,13,13,22,16

2017-10-05 14:33:02,#E#,63,7,12,102,524,33012,75,0,514,265,0,13,13,22,16

2017-10-05 14:33:02,#E#,63,8,12,102,524,33012,75,0,515,265,0,13,13,22,16

2017-10-05 14:33:02,#E#,63,9,12,102,524,33012,75,0,514,265,0,13,13,22,16

2017-10-05 14:33:03,#E#,64,0,12,102,524,33536,75,0,514,265,0,14,14,22,16

2017-10-05 14:33:03,#E#,64,1,12,102,524,33536,75,0,514,265,0,14,14,22,16

2017-10-05 14:33:03,#E#,64,2,12,102,524,33536,75,0,514,265,0,14,14,22,16

2017-10-05 14:33:03,#E#,64,3,12,102,524,33536,75,0,514,265,0,14,14,22,16

2017-10-05 14:33:03,#E#,64,4,12,102,524,33536,75,0,514,265,0,14,14,22,16

2017-10-05 14:33:03,#E#,64,5,12,102,524,33536,75,0,514,265,0,14,14,22,16

2017-10-05 14:33:03,#E#,64,6,12,102,524,33536,75,0,514,265,0,14,14,21,16

2017-10-05 14:33:03,#E#,64,7,12,102,524,33536,75,0,514,265,0,14,14,22,16

2017-10-05 14:33:03,#E#,64,8,12,102,524,33536,75,0,514,265,0,14,14,22,16

2017-10-05 14:33:03,#E#,64,9,12,102,524,33536,75,0,514,265,0,14,14,22,16

2017-10-05 14:33:04,#E#,65,0,12,102,524,34060,75,0,514,265,0,14,14,22,16

2017-10-05 14:33:04,#E#,65,1,12,102,524,34060,75,0,515,265,0,14,14,22,16

2017-10-05 14:33:04,#E#,65,2,12,102,524,34060,75,0,514,265,0,14,14,22,16

2017-10-05 14:33:04,#E#,65,3,12,102,524,34060,75,0,514,265,0,14,14,22,16

2017-10-05 14:33:04,#E#,65,4,12,102,524,34060,75,0,514,265,0,14,14,22,16

2017-10-05 14:33:04,#E#,65,5,12,102,524,34060,75,0,514,265,0,14,14,22,16

2017-10-05 14:33:04,#E#,65,6,12,102,524,34060,75,0,514,265,0,14,14,22,16

2017-10-05 14:33:04,#E#,65,7,12,102,524,34060,75,0,514,265,0,14,14,22,16

2017-10-05 14:33:04,#E#,65,8,12,102,524,34060,75,0,515,265,0,14,14,22,16

2017-10-05 14:33:04,#E#,65,9,12,102,524,34060,75,0,514,265,0,14,14,22,16

2017-10-05 14:33:05,#E#,66,0,12,102,524,34584,75,0,514,265,0,14,14,22,16

2017-10-05 14:33:05,#E#,66,1,12,102,524,34584,75,0,514,265,0,14,14,22,16

2017-10-05 14:33:05,#E#,66,2,12,102,524,34584,75,0,515,265,0,14,14,22,16

2017-10-05 14:33:05,#E#,66,3,12,102,524,34584,75,0,514,265,0,14,14,22,16

2017-10-05 14:33:05,#E#,66,4,12,102,524,34584,75,0,514,265,0,14,14,22,16

2017-10-05 14:33:05,#E#,66,5,12,102,524,34584,75,0,514,265,0,14,14,22,16

2017-10-05 14:33:05,#E#,66,6,12,102,524,34584,75,0,514,265,0,14,14,22,16

2017-10-05 14:33:05,#E#,66,7,12,102,524,34584,75,0,514,265,0,14,14,22,16

2017-10-05 14:33:05,#E#,66,8,12,102,524,34584,75,0,514,265,0,14,14,22,16

2017-10-05 14:33:05,#E#,66,9,12,102,524,34584,75,0,514,265,0,14,14,22,16

2017-10-05 14:33:06,#E#,67,0,12,102,524,35108,75,0,514,265,0,14,14,22,16

2017-10-05 14:33:06,#E#,67,1,12,102,524,35108,75,0,514,265,0,14,14,22,16

2017-10-05 14:33:06,#E#,67,2,12,102,524,35108,75,0,514,265,0,14,14,22,16

2017-10-05 14:33:06,#E#,67,3,12,102,524,35108,75,0,514,265,0,14,14,22,16

2017-10-05 14:33:06,#E#,67,4,12,102,524,35108,75,0,514,265,0,14,14,22,16

2017-10-05 14:33:06,#E#,67,5,12,102,524,35108,75,0,514,265,0,14,14,22,16

2017-10-05 14:33:06,#E#,67,6,12,102,524,35108,75,0,514,265,0,14,14,22,16

2017-10-05 14:33:06,#E#,67,7,12,102,524,35108,75,0,514,265,0,14,14,22,16

2017-10-05 14:33:06,#E#,67,8,12,102,524,35108,75,0,514,265,0,14,14,22,16

2017-10-05 14:33:06,#E#,67,9,12,102,524,35108,75,0,514,265,0,14,14,22,16

2017-10-05 14:33:07,#E#,68,0,12,102,524,35632,75,0,514,265,0,15,14,22,16

2017-10-05 14:33:07,#E#,68,1,12,102,524,35632,75,0,514,265,0,15,14,22,16

2017-10-05 14:33:07,#E#,68,2,12,102,524,35632,75,0,514,265,0,15,14,22,16

2017-10-05 14:33:07,#E#,68,3,12,102,524,35632,75,0,514,265,0,15,14,22,16

2017-10-05 14:33:07,#E#,68,4,12,102,524,35632,75,0,514,265,0,15,14,22,16

2017-10-05 14:33:07,#E#,68,5,12,102,524,35632,75,0,514,265,0,15,14,22,16

2017-10-05 14:33:07,#E#,68,6,12,102,524,35632,75,0,514,265,0,15,14,22,16

2017-10-05 14:33:07,#E#,68,7,12,102,524,35632,75,0,515,265,0,15,14,22,16

2017-10-05 14:33:07,#E#,68,8,12,102,524,35632,75,0,514,265,0,15,14,22,16

2017-10-05 14:33:07,#E#,68,9,12,102,524,35632,75,0,514,265,0,15,14,22,16

2017-10-05 14:33:08,#E#,69,0,12,102,524,36156,75,0,514,265,0,15,15,22,16

2017-10-05 14:33:08,#E#,69,1,12,102,524,36156,75,0,515,265,0,15,15,22,16

2017-10-05 14:33:08,#E#,69,2,12,102,524,36156,75,0,515,265,0,15,15,22,16

2017-10-05 14:33:08,#E#,69,3,12,102,524,36156,75,0,514,265,0,15,15,22,16

2017-10-05 14:33:08,#E#,69,4,12,102,524,36156,75,0,514,265,0,15,15,22,16

2017-10-05 14:33:08,#E#,69,5,12,102,524,36156,75,0,514,265,0,15,15,22,16

2017-10-05 14:33:08,#E#,69,6,12,102,524,36156,75,0,515,265,0,15,15,22,16

2017-10-05 14:33:08,#E#,69,7,12,102,524,36156,75,0,514,265,0,15,15,22,16

2017-10-05 14:33:09,#E#,69,8,12,102,524,36156,75,0,515,265,0,15,15,22,16

2017-10-05 14:33:09,#E#,69,9,12,102,524,36156,75,0,514,265,0,15,15,22,16

2017-10-05 14:33:09,#E#,70,0,12,102,524,36680,75,0,514,265,0,15,15,22,16

2017-10-05 14:33:09,#E#,70,1,12,102,524,36680,75,0,515,265,0,15,15,22,16

2017-10-05 14:33:09,#E#,70,2,12,102,524,36680,75,0,514,265,0,15,15,22,16

2017-10-05 14:33:09,#E#,70,3,12,102,524,36680,75,0,514,265,0,15,15,22,16

2017-10-05 14:33:10,#E#,70,4,12,102,524,36680,75,0,515,265,0,15,15,22,16

2017-10-05 14:33:10,#E#,70,5,12,102,524,36680,75,0,515,265,0,15,15,22,16

2017-10-05 14:33:10,#E#,70,6,12,102,524,36680,75,0,515,265,0,15,15,22,16

2017-10-05 14:33:10,#E#,70,7,12,102,524,36680,75,0,514,265,0,15,15,22,16

2017-10-05 14:33:10,#E#,70,8,12,102,524,36680,75,0,514,265,0,15,15,22,16

2017-10-05 14:33:10,#E#,70,9,12,102,524,36680,75,0,515,265,0,15,15,22,16

2017-10-05 14:33:11,#E#,71,0,12,102,524,37204,75,0,514,265,0,15,15,22,16

2017-10-05 14:33:11,#E#,71,1,12,102,524,37204,75,0,514,265,0,15,15,22,16

2017-10-05 14:33:11,#E#,71,2,12,102,524,37204,75,0,514,265,0,15,15,22,16

2017-10-05 14:33:11,#E#,71,3,12,102,524,37204,75,0,514,265,0,15,15,22,16

2017-10-05 14:33:11,#E#,71,4,12,102,524,37204,75,0,514,265,0,15,15,22,16

2017-10-05 14:33:11,#E#,71,5,12,102,524,37204,75,0,514,265,0,15,15,22,16

2017-10-05 14:33:11,#E#,71,6,12,102,524,37204,75,0,514,265,0,15,15,22,16

2017-10-05 14:33:11,#E#,71,7,12,102,524,37204,75,0,514,265,0,15,15,22,16

2017-10-05 14:33:11,#E#,71,8,12,102,524,37204,75,0,514,265,0,15,15,22,16

2017-10-05 14:33:11,#E#,71,9,12,102,524,37204,75,0,514,265,0,15,15,22,16

2017-10-05 14:33:12,#E#,72,0,12,102,524,37728,75,0,514,265,0,16,15,22,16

2017-10-05 14:33:12,#E#,72,1,12,102,524,37728,75,0,514,265,0,16,15,22,16

2017-10-05 14:33:12,#E#,72,2,12,102,524,37728,75,0,514,265,0,16,15,22,16

2017-10-05 14:33:12,#E#,72,3,12,102,524,37728,75,0,514,265,0,16,15,22,16

2017-10-05 14:33:12,#E#,72,4,12,102,524,37728,75,0,514,265,0,16,15,22,16

2017-10-05 14:33:12,#E#,72,5,12,102,524,37728,75,0,515,265,0,16,15,22,16

2017-10-05 14:33:12,#E#,72,6,12,102,524,37728,75,0,514,265,0,16,15,22,16

2017-10-05 14:33:12,#E#,72,7,12,102,524,37728,75,0,514,265,0,16,15,22,16

2017-10-05 14:33:12,#E#,72,8,12,102,524,37728,75,0,514,265,0,16,15,22,16

2017-10-05 14:33:12,#E#,72,9,12,102,524,37728,75,0,514,265,0,16,15,22,16

2017-10-05 14:33:13,#E#,73,0,12,102,524,38252,75,0,515,265,0,16,16,22,16

2017-10-05 14:33:13,#E#,73,1,12,102,524,38252,75,0,515,265,0,16,16,22,16

2017-10-05 14:33:13,#E#,73,2,12,102,524,38252,75,0,515,265,0,16,16,22,16

2017-10-05 14:33:13,#E#,73,3,12,102,524,38252,75,0,514,265,0,16,16,22,16

2017-10-05 14:33:13,#E#,73,4,12,102,524,38252,75,0,514,265,0,16,16,22,16

2017-10-05 14:33:13,#E#,73,5,12,102,524,38252,75,0,515,265,0,16,16,22,16

2017-10-05 14:33:13,#E#,73,6,12,102,524,38252,75,0,515,265,0,16,16,22,16

2017-10-05 14:33:13,#E#,73,7,12,102,524,38252,75,0,515,265,0,16,16,22,16

2017-10-05 14:33:13,#E#,73,8,12,102,524,38252,75,0,515,265,0,16,16,22,16

2017-10-05 14:33:13,#E#,73,9,12,102,524,38252,75,0,514,265,0,16,16,22,16

2017-10-05 14:33:14,#E#,74,0,12,102,524,38776,75,0,514,265,0,16,16,22,17

2017-10-05 14:33:14,#E#,74,1,12,102,524,38776,75,0,514,265,0,16,16,22,16

2017-10-05 14:33:14,#E#,74,2,12,102,524,38776,75,0,515,265,0,16,16,22,16

2017-10-05 14:33:14,#E#,74,3,12,102,524,38776,75,0,514,265,0,16,16,22,17

2017-10-05 14:33:14,#E#,74,4,12,102,524,38776,75,0,515,265,0,16,16,22,16

2017-10-05 14:33:14,#E#,74,5,12,102,524,38776,75,0,514,265,0,16,16,22,16

2017-10-05 14:33:14,#E#,74,6,12,102,524,38776,75,0,514,265,0,16,16,22,16

2017-10-05 14:33:14,#E#,74,7,12,102,524,38776,75,0,514,265,0,16,16,22,16

2017-10-05 14:33:14,#E#,74,8,12,102,524,38776,75,0,514,265,0,16,16,22,16

2017-10-05 14:33:14,#E#,74,9,12,102,524,38776,75,0,514,265,0,16,16,22,16

2017-10-05 14:33:15,#E#,75,0,12,102,524,39300,75,0,514,265,0,16,16,22,16

2017-10-05 14:33:15,#E#,75,1,12,102,524,39300,75,0,515,265,0,16,16,22,16

2017-10-05 14:33:15,#E#,75,2,12,102,524,39300,75,0,514,265,0,16,16,22,16

2017-10-05 14:33:15,#E#,75,3,12,102,524,39300,75,0,514,265,0,16,16,22,16

2017-10-05 14:33:15,#E#,75,4,12,102,524,39300,75,0,515,265,0,16,16,22,16

2017-10-05 14:33:15,#E#,75,5,12,102,524,39300,75,0,514,265,0,16,16,22,16

2017-10-05 14:33:15,#E#,75,6,12,102,524,39300,75,0,514,265,0,16,16,22,16

2017-10-05 14:33:15,#E#,75,7,12,102,524,39300,75,0,514,265,0,16,16,22,16

2017-10-05 14:33:15,#E#,75,8,12,102,524,39300,75,0,515,265,0,16,16,22,16

2017-10-05 14:33:15,#E#,75,9,12,102,524,39300,75,0,514,265,0,16,16,22,16

2017-10-05 14:33:16,
2017-10-05 14:33:16,#E#,0,0,12,102,524,0,75,0,514,265,17,-67,-68,838,872

2017-10-05 14:33:16,#E#,0,1,12,102,524,0,75,0,514,265,17,-67,-68,841,875

2017-10-05 14:33:16,#E#,0,2,12,102,524,0,75,0,514,265,17,-67,-68,839,872

2017-10-05 14:33:16,#E#,0,3,12,102,524,0,75,0,514,265,17,-67,-68,842,874

2017-10-05 14:33:16,#E#,0,4,12,102,524,0,75,0,514,265,17,-67,-68,842,872

2017-10-05 14:33:16,#E#,0,5,12,102,524,0,75,0,514,265,17,-67,-68,836,872

2017-10-05 14:33:16,#E#,0,6,12,102,524,0,75,0,514,265,17,-67,-68,836,878

2017-10-05 14:33:16,#E#,0,7,12,102,524,0,75,0,514,265,17,-67,-68,839,874

2017-10-05 14:33:16,#E#,0,8,12,102,524,0,75,0,514,265,17,-67,-68,839,876

2017-10-05 14:33:16,#E#,0,9,12,102,524,0,75,0,514,265,17,-67,-68,839,872

2017-10-05 14:33:17,#E#,1,0,12,102,524,524,75,0,515,265,17,-66,-66,825,851

2017-10-05 14:33:17,#E#,1,1,12,102,524,524,75,0,514,265,17,-66,-66,801,856

2017-10-05 14:33:17,#E#,1,2,12,102,524,524,75,0,515,265,17,-66,-66,819,853

2017-10-05 14:33:17,#E#,1,3,12,102,524,524,75,0,514,265,17,-66,-66,821,856

2017-10-05 14:33:17,#E#,1,4,12,102,524,524,75,0,515,265,17,-66,-66,819,857

2017-10-05 14:33:17,#E#,1,5,12,102,524,524,75,0,514,265,17,-66,-66,821,854

2017-10-05 14:33:17,#E#,1,6,12,102,524,524,75,0,514,265,17,-66,-66,823,858

2017-10-05 14:33:17,#E#,1,7,12,102,524,524,75,0,514,265,17,-66,-66,821,852

2017-10-05 14:33:17,#E#,1,8,12,102,524,524,75,0,514,265,17,-66,-66,814,859

2017-10-05 14:33:17,#E#,1,9,12,102,524,524,75,0,514,265,17,-66,-66,824,857

2017-10-05 14:33:18,#E#,2,0,12,102,524,1048,75,0,515,265,17,-58,-58,735,762

2017-10-05 14:33:18,#E#,2,1,12,102,524,1048,75,0,514,265,17,-58,-58,727,764

2017-10-05 14:33:18,#E#,2,2,12,102,524,1048,75,0,514,265,17,-58,-58,736,764

2017-10-05 14:33:18,#E#,2,3,12,102,524,1048,75,0,514,265,17,-58,-58,732,762

2017-10-05 14:33:18,#E#,2,4,12,102,524,1048,75,0,514,265,17,-58,-58,724,766

2017-10-05 14:33:19,
2017-10-05 14:33:20,
2017-10-05 14:33:21,
2017-10-05 14:33:22,
2017-10-05 14:33:23,
2017-10-05 14:33:24,
2017-10-05 14:33:25,
2017-10-05 14:33:26,
2017-10-05 14:33:27, BGO Set:0, GAIN Set:0

2017-10-05 14:33:28,
2017-10-05 14:33:29,
2017-10-05 14:33:30,
2017-10-05 14:33:31,
2017-10-05 14:33:32,
2017-10-05 14:33:33,
2017-10-05 14:33:34,
2017-10-05 14:33:35,
2017-10-05 14:33:36,
2017-10-05 14:33:37,
