2017-09-25 16:33:14, 50,:e,:0,:0,:0,:c8,:0 @

2017-09-25 16:33:15,*******Measure Period per Event & Freq in MHz*******

2017-09-25 16:33:15,****Period_cnt , Freq, SeqNo, Status,..........

2017-09-25 16:33:16,
2017-09-25 16:33:17,
2017-09-25 16:33:18,
2017-09-25 16:33:19,
2017-09-25 16:33:19, BGO Set:0, GAIN Set:0

2017-09-25 16:33:20,
2017-09-25 16:33:21,
2017-09-25 16:33:22,
2017-09-25 16:33:23,
2017-09-25 16:33:24,
2017-09-25 16:33:25,
2017-09-25 16:33:26,
2017-09-25 16:33:27,
2017-09-25 16:33:28,
2017-09-25 16:33:29,
2017-09-25 16:33:30,
2017-09-25 16:33:31,
2017-09-25 16:33:32,
2017-09-25 16:33:33,
2017-09-25 16:33:34,
2017-09-25 16:33:35,
2017-09-25 16:33:36,
2017-09-25 16:33:37,
2017-09-25 16:33:38,
2017-09-25 16:33:39,
2017-09-25 16:33:40,
2017-09-25 16:33:41,
2017-09-25 16:33:42,
2017-09-25 16:33:43,
2017-09-25 16:33:44,
2017-09-25 16:33:45,
2017-09-25 16:33:46,
2017-09-25 16:33:47,
2017-09-25 16:33:48,
