#P0E0000001900AM_RdFreq

2017-10-30 13:34:25, 50,:e,:0,:0,:19,:0,:a0 @

2017-10-30 13:34:25,*******Measure Period per Event & Freq in MHz*******

2017-10-30 13:34:25,****Period_cnt , Freq, SeqNo, Status,..........

2017-10-30 13:34:26,#P#, 39, 31200000, 0, 0 

2017-10-30 13:34:26,#P#, 39, 31200000, 1, 0 

2017-10-30 13:34:26,#P#, 38, 30400000, 2, 0 

2017-10-30 13:34:26,#P#, 39, 31200000, 3, 0 

2017-10-30 13:34:26,#P#, 39, 31200000, 4, 0 

2017-10-30 13:34:26,#P#, 40, 32000000, 5, 0 

2017-10-30 13:34:26,#P#, 40, 32000000, 6, 0 

2017-10-30 13:34:26,#P#, 39, 31200000, 7, 0 

2017-10-30 13:34:26,#P#, 38, 30400000, 8, 0 

2017-10-30 13:34:26,#P#, 39, 31200000, 9, 0 

2017-10-30 13:34:26,#P#, 38, 30400000, 10, 0 

2017-10-30 13:34:26,#P#, 38, 30400000, 11, 0 

2017-10-30 13:34:26,#P#, 38, 30400000, 12, 0 

2017-10-30 13:34:26,#P#, 39, 31200000, 13, 0 

2017-10-30 13:34:26,#P#, 38, 30400000, 14, 0 

2017-10-30 13:34:26,#P#, 38, 30400000, 15, 0 

2017-10-30 13:34:26,#P#, 38, 30400000, 16, 0 

2017-10-30 13:34:26,#P#, 38, 30400000, 17, 0 

2017-10-30 13:34:26,#P#, 38, 30400000, 18, 0 

2017-10-30 13:34:26,#P#, 39, 31200000, 19, 0 

2017-10-30 13:34:26,#P#, 38, 30400000, 20, 0 

2017-10-30 13:34:26,#P#, 39, 31200000, 21, 0 

2017-10-30 13:34:26,#P#, 39, 31200000, 22, 0 

2017-10-30 13:34:26,#P#, 38, 30400000, 23, 0 

2017-10-30 13:34:26,#P#, 39, 31200000, 24, 0 

2017-10-30 13:34:26,*******DONE*******#

Exiting PsocAmPreRad
#M0E0000000A00AMAC_PWR 

2017-10-30 13:34:27, 4d,:e,:0,:0,:a,:0,:a0 @

2017-10-30 13:34:28,
2017-10-30 13:34:29,
2017-10-30 13:34:30,
2017-10-30 13:34:31,
2017-10-30 13:34:32,
2017-10-30 13:34:33,
2017-10-30 13:34:34,
2017-10-30 13:34:35,
2017-10-30 13:34:36,
2017-10-30 13:34:37,
2017-10-30 13:34:38,
2017-10-30 13:34:39,
2017-10-30 13:34:40,
2017-10-30 13:34:41,
2017-10-30 13:34:42,
2017-10-30 13:34:43,
