#P0E000000C800AM_RdFreq

2017-10-09 19:19:44, 50,:e,:0,:0,:c8,:0,:a0 @

2017-10-09 19:19:44,*******Measure Period per Event & Freq in MHz*******

2017-10-09 19:19:44,****Period_cnt , Freq, SeqNo, Status,..........

2017-10-09 19:19:44,#P#, 38, 30400000, 0, 0 

2017-10-09 19:19:44,#P#, 38, 30400000, 1, 0 

2017-10-09 19:19:44,#P#, 38, 30400000, 2, 0 

2017-10-09 19:19:44,#P#, 38, 30400000, 3, 0 

2017-10-09 19:19:44,#P#, 39, 31200000, 4, 0 

2017-10-09 19:19:44,#P#, 38, 30400000, 5, 0 

2017-10-09 19:19:44,#P#, 38, 30400000, 6, 0 

2017-10-09 19:19:44,#P#, 39, 31200000, 7, 0 

2017-10-09 19:19:44,#P#, 39, 31200000, 8, 0 

2017-10-09 19:19:44,#P#, 39, 31200000, 9, 0 

2017-10-09 19:19:44,#P#, 38, 30400000, 10, 0 

2017-10-09 19:19:44,#P#, 38, 30400000, 11, 0 

2017-10-09 19:19:44,#P#, 38, 30400000, 12, 0 

2017-10-09 19:19:44,#P#, 38, 30400000, 13, 0 

2017-10-09 19:19:44,#P#, 39, 31200000, 14, 0 

2017-10-09 19:19:44,#P#, 38, 30400000, 15, 0 

2017-10-09 19:19:44,#P#, 38, 30400000, 16, 0 

2017-10-09 19:19:44,#P#, 39, 31200000, 17, 0 

2017-10-09 19:19:44,#P#, 38, 30400000, 18, 0 

2017-10-09 19:19:44,#P#, 39, 31200000, 19, 0 

2017-10-09 19:19:44,#P#, 38, 30400000, 20, 0 

2017-10-09 19:19:44,#P#, 39, 31200000, 21, 0 

2017-10-09 19:19:44,#P#, 39, 31200000, 22, 0 

2017-10-09 19:19:44,#P#, 38, 30400000, 23, 0 

2017-10-09 19:19:44,#P#, 38, 30400000, 24, 0 

2017-10-09 19:19:44,#P#, 38, 30400000, 25, 0 

2017-10-09 19:19:44,#P#, 38, 30400000, 26, 0 

2017-10-09 19:19:44,#P#, 38, 30400000, 27, 0 

2017-10-09 19:19:44,#P#, 38, 30400000, 28, 0 

2017-10-09 19:19:44,#P#, 39, 31200000, 29, 0 

2017-10-09 19:19:44,#P#, 39, 31200000, 30, 0 

2017-10-09 19:19:44,#P#, 39, 31200000, 31, 0 

2017-10-09 19:19:44,#P#, 38, 30400000, 32, 0 

2017-10-09 19:19:44,#P#, 39, 31200000, 33, 0 

2017-10-09 19:19:44,#P#, 39, 31200000, 34, 0 

2017-10-09 19:19:44,#P#, 38, 30400000, 35, 0 

2017-10-09 19:19:44,#P#, 39, 31200000, 36, 0 

2017-10-09 19:19:44,#P#, 38, 30400000, 37, 0 

2017-10-09 19:19:44,#P#, 38, 30400000, 38, 0 

2017-10-09 19:19:45,#P#, 38, 30400000, 39, 0 

2017-10-09 19:19:45,#P#, 39, 31200000, 40, 0 

2017-10-09 19:19:45,#P#, 38, 30400000, 41, 0 

2017-10-09 19:19:45,#P#, 39, 31200000, 42, 0 

2017-10-09 19:19:45,#P#, 38, 30400000, 43, 0 

2017-10-09 19:19:45,#P#, 39, 31200000, 44, 0 

2017-10-09 19:19:45,#P#, 39, 31200000, 45, 0 

2017-10-09 19:19:45,#P#, 39, 31200000, 46, 0 

2017-10-09 19:19:45,#P#, 38, 30400000, 47, 0 

2017-10-09 19:19:45,#P#, 38, 30400000, 48, 0 

2017-10-09 19:19:45,#P#, 38, 30400000, 49, 0 

2017-10-09 19:19:45,#P#, 38, 30400000, 50, 0 

2017-10-09 19:19:45,#P#, 38, 30400000, 51, 0 

2017-10-09 19:19:45,#P#, 39, 31200000, 52, 0 

2017-10-09 19:19:45,#P#, 39, 31200000, 53, 0 

2017-10-09 19:19:45,#P#, 38, 30400000, 54, 0 

2017-10-09 19:19:45,#P#, 38, 30400000, 55, 0 

2017-10-09 19:19:45,#P#, 38, 30400000, 56, 0 

2017-10-09 19:19:45,#P#, 38, 30400000, 57, 0 

2017-10-09 19:19:45,#P#, 38, 30400000, 58, 0 

2017-10-09 19:19:45,#P#, 38, 30400000, 59, 0 

2017-10-09 19:19:45,#P#, 38, 30400000, 60, 0 

2017-10-09 19:19:45,#P#, 39, 31200000, 61, 0 

2017-10-09 19:19:45,#P#, 38, 30400000, 62, 0 

2017-10-09 19:19:45,#P#, 39, 31200000, 63, 0 

2017-10-09 19:19:45,#P#, 39, 31200000, 64, 0 

2017-10-09 19:19:45,#P#, 39, 31200000, 65, 0 

2017-10-09 19:19:45,#P#, 38, 30400000, 66, 0 

2017-10-09 19:19:45,#P#, 38, 30400000, 67, 0 

2017-10-09 19:19:45,#P#, 39, 31200000, 68, 0 

2017-10-09 19:19:45,#P#, 39, 31200000, 69, 0 

2017-10-09 19:19:45,#P#, 39, 31200000, 70, 0 

2017-10-09 19:19:45,#P#, 38, 30400000, 71, 0 

2017-10-09 19:19:45,#P#, 38, 30400000, 72, 0 

2017-10-09 19:19:45,#P#, 38, 30400000, 73, 0 

2017-10-09 19:19:45,#P#, 39, 31200000, 74, 0 

2017-10-09 19:19:45,#P#, 39, 31200000, 75, 0 

2017-10-09 19:19:45,#P#, 38, 30400000, 76, 0 

2017-10-09 19:19:45,#P#, 38, 30400000, 77, 0 

2017-10-09 19:19:45,#P#, 38, 30400000, 78, 0 

2017-10-09 19:19:45,#P#, 39, 31200000, 79, 0 

2017-10-09 19:19:45,#P#, 38, 30400000, 80, 0 

2017-10-09 19:19:45,#P#, 38, 30400000, 81, 0 

2017-10-09 19:19:45,#P#, 38, 30400000, 82, 0 

2017-10-09 19:19:45,#P#, 39, 31200000, 83, 0 

2017-10-09 19:19:45,#P#, 38, 30400000, 84, 0 

2017-10-09 19:19:45,#P#, 39, 31200000, 85, 0 

2017-10-09 19:19:45,#P#, 38, 30400000, 86, 0 

2017-10-09 19:19:45,#P#, 39, 31200000, 87, 0 

2017-10-09 19:19:45,#P#, 38, 30400000, 88, 0 

2017-10-09 19:19:45,#P#, 39, 31200000, 89, 0 

2017-10-09 19:19:45,#P#, 38, 30400000, 90, 0 

2017-10-09 19:19:45,#P#, 39, 31200000, 91, 0 

2017-10-09 19:19:45,#P#, 38, 30400000, 92, 0 

2017-10-09 19:19:45,#P#, 38, 30400000, 93, 0 

2017-10-09 19:19:45,#P#, 38, 30400000, 94, 0 

2017-10-09 19:19:45,#P#, 39, 31200000, 95, 0 

2017-10-09 19:19:45,#P#, 38, 30400000, 96, 0 

2017-10-09 19:19:45,#P#, 38, 30400000, 97, 0 

2017-10-09 19:19:46,#P#, 38, 30400000, 98, 0 

2017-10-09 19:19:46,#P#, 39, 31200000, 99, 0 

2017-10-09 19:19:46,#P#, 39, 31200000, 100, 0 

2017-10-09 19:19:46,#P#, 38, 30400000, 101, 0 

2017-10-09 19:19:46,#P#, 38, 30400000, 102, 0 

2017-10-09 19:19:46,#P#, 38, 30400000, 103, 0 

2017-10-09 19:19:46,#P#, 38, 30400000, 104, 0 

2017-10-09 19:19:46,#P#, 39, 31200000, 105, 0 

2017-10-09 19:19:46,#P#, 39, 31200000, 106, 0 

2017-10-09 19:19:46,#P#, 38, 30400000, 107, 0 

2017-10-09 19:19:46,#P#, 38, 30400000, 108, 0 

2017-10-09 19:19:46,#P#, 33, 26400000, 109, 0 

2017-10-09 19:19:46,#P#, 39, 31200000, 110, 0 

2017-10-09 19:19:46,#P#, 39, 31200000, 111, 0 

2017-10-09 19:19:46,#P#, 38, 30400000, 112, 0 

2017-10-09 19:19:46,#P#, 39, 31200000, 113, 0 

2017-10-09 19:19:46,#P#, 39, 31200000, 114, 0 

2017-10-09 19:19:46,#P#, 40, 32000000, 115, 0 

2017-10-09 19:19:46,#P#, 39, 31200000, 116, 0 

2017-10-09 19:19:46,#P#, 39, 31200000, 117, 0 

2017-10-09 19:19:46,#P#, 38, 30400000, 118, 0 

2017-10-09 19:19:46,#P#, 38, 30400000, 119, 0 

2017-10-09 19:19:46,#P#, 39, 31200000, 120, 0 

2017-10-09 19:19:46,#P#, 38, 30400000, 121, 0 

2017-10-09 19:19:46,#P#, 39, 31200000, 122, 0 

2017-10-09 19:19:46,#P#, 39, 31200000, 123, 0 

2017-10-09 19:19:46,#P#, 38, 30400000, 124, 0 

2017-10-09 19:19:46,#P#, 39, 31200000, 125, 0 

2017-10-09 19:19:46,#P#, 39, 31200000, 126, 0 

2017-10-09 19:19:46,#P#, 38, 30400000, 127, 0 

2017-10-09 19:19:46,#P#, 39, 31200000, 128, 0 

2017-10-09 19:19:46,#P#, 38, 30400000, 129, 0 

2017-10-09 19:19:46,#P#, 38, 30400000, 130, 0 

2017-10-09 19:19:46,#P#, 38, 30400000, 131, 0 

2017-10-09 19:19:46,#P#, 38, 30400000, 132, 0 

2017-10-09 19:19:46,#P#, 39, 31200000, 133, 0 

2017-10-09 19:19:46,#P#, 39, 31200000, 134, 0 

2017-10-09 19:19:46,#P#, 38, 30400000, 135, 0 

2017-10-09 19:19:46,#P#, 39, 31200000, 136, 0 

2017-10-09 19:19:46,#P#, 38, 30400000, 137, 0 

2017-10-09 19:19:46,#P#, 38, 30400000, 138, 0 

2017-10-09 19:19:46,#P#, 39, 31200000, 139, 0 

2017-10-09 19:19:46,#P#, 39, 31200000, 140, 0 

2017-10-09 19:19:46,#P#, 38, 30400000, 141, 0 

2017-10-09 19:19:46,#P#, 38, 30400000, 142, 0 

2017-10-09 19:19:46,#P#, 39, 31200000, 143, 0 

2017-10-09 19:19:46,#P#, 38, 30400000, 144, 0 

2017-10-09 19:19:46,#P#, 38, 30400000, 145, 0 

2017-10-09 19:19:46,#P#, 38, 30400000, 146, 0 

2017-10-09 19:19:46,#P#, 38, 30400000, 147, 0 

2017-10-09 19:19:46,#P#, 38, 30400000, 148, 0 

2017-10-09 19:19:46,#P#, 38, 30400000, 149, 0 

2017-10-09 19:19:47,#P#, 38, 30400000, 150, 0 

2017-10-09 19:19:47,#P#, 38, 30400000, 151, 0 

2017-10-09 19:19:47,#P#, 39, 31200000, 152, 0 

2017-10-09 19:19:47,#P#, 39, 31200000, 153, 0 

2017-10-09 19:19:47,#P#, 39, 31200000, 154, 0 

2017-10-09 19:19:47,#P#, 39, 31200000, 155, 0 

2017-10-09 19:19:47,#P#, 38, 30400000, 156, 0 

2017-10-09 19:19:47,#P#, 39, 31200000, 157, 0 

2017-10-09 19:19:47,#P#, 38, 30400000, 158, 0 

2017-10-09 19:19:47,#P#, 38, 30400000, 159, 0 

2017-10-09 19:19:47,#P#, 38, 30400000, 160, 0 

2017-10-09 19:19:47,#P#, 39, 31200000, 161, 0 

2017-10-09 19:19:47,#P#, 38, 30400000, 162, 0 

2017-10-09 19:19:47,#P#, 38, 30400000, 163, 0 

2017-10-09 19:19:47,#P#, 39, 31200000, 164, 0 

2017-10-09 19:19:47,#P#, 38, 30400000, 165, 0 

2017-10-09 19:19:47,#P#, 38, 30400000, 166, 0 

2017-10-09 19:19:47,#P#, 39, 31200000, 167, 0 

2017-10-09 19:19:47,#P#, 39, 31200000, 168, 0 

2017-10-09 19:19:47,#P#, 39, 31200000, 169, 0 

2017-10-09 19:19:47,#P#, 38, 30400000, 170, 0 

2017-10-09 19:19:47,#P#, 39, 31200000, 171, 0 

2017-10-09 19:19:47,#P#, 38, 30400000, 172, 0 

2017-10-09 19:19:47,#P#, 38, 30400000, 173, 0 

2017-10-09 19:19:47,#P#, 38, 30400000, 174, 0 

2017-10-09 19:19:47,#P#, 38, 30400000, 175, 0 

2017-10-09 19:19:47,#P#, 37, 29600000, 176, 0 

2017-10-09 19:19:47,#P#, 39, 31200000, 177, 0 

2017-10-09 19:19:47,#P#, 38, 30400000, 178, 0 

2017-10-09 19:19:47,#P#, 38, 30400000, 179, 0 

2017-10-09 19:19:47,#P#, 38, 30400000, 180, 0 

2017-10-09 19:19:47,#P#, 39, 31200000, 181, 0 

2017-10-09 19:19:47,#P#, 40, 32000000, 182, 0 

2017-10-09 19:19:47,#P#, 38, 30400000, 183, 0 

2017-10-09 19:19:47,#P#, 39, 31200000, 184, 0 

2017-10-09 19:19:47,#P#, 39, 31200000, 185, 0 

2017-10-09 19:19:47,#P#, 38, 30400000, 186, 0 

2017-10-09 19:19:47,#P#, 38, 30400000, 187, 0 

2017-10-09 19:19:47,#P#, 39, 31200000, 188, 0 

2017-10-09 19:19:47,#P#, 39, 31200000, 189, 0 

2017-10-09 19:19:47,#P#, 38, 30400000, 190, 0 

2017-10-09 19:19:47,#P#, 38, 30400000, 191, 0 

2017-10-09 19:19:47,#P#, 39, 31200000, 192, 0 

2017-10-09 19:19:47,#P#, 40, 32000000, 193, 0 

2017-10-09 19:19:47,#P#, 39, 31200000, 194, 0 

2017-10-09 19:19:47,#P#, 39, 31200000, 195, 0 

2017-10-09 19:19:47,#P#, 38, 30400000, 196, 0 

2017-10-09 19:19:47,#P#, 39, 31200000, 197, 0 

2017-10-09 19:19:47,#P#, 38, 30400000, 198, 0 

2017-10-09 19:19:47,#P#, 39, 31200000, 199, 0 

2017-10-09 19:19:47,*******DONE*******#

Exiting PsocAmPreRad
#V0E0000000100GetVlocal

2017-10-09 19:19:49, 56,:e,:0,:0,:1,:0,:0 @

2017-10-09 19:19:49,*******Measure local voltages in mV *******

2017-10-09 19:19:49,*******VI2C,+Vopamps,+Vopamps,Vdacs,Vadc,SeqNo, Status*********

2017-10-09 19:19:49,0,19,0,20,39

2017-10-09 19:19:49,0,0,8,0,2048

2017-10-09 19:19:49,0,0,8,0,2048

2017-10-09 19:19:49,0,0,8,0,2048

2017-10-09 19:19:49,0,0,6,103,1639

2017-10-09 19:19:49,0,0,3,18,786

2017-10-09 19:19:49,0,0,0,0,0

2017-10-09 19:19:49,0,0,0,0,0

2017-10-09 19:19:49,#V#,*******DONE*******#

Exiting PsocAmPreRad
#V0E0000000100GetVlocal

2017-10-09 19:19:49, 56,:e,:0,:0,:1,:0,:0 @

2017-10-09 19:19:49,*******Measure local voltages in mV *******

2017-10-09 19:19:49,*******VI2C,+Vopamps,+Vopamps,Vdacs,Vadc,SeqNo, Status*********

2017-10-09 19:19:49,0,0,3,18,786

2017-10-09 19:19:49,0,0,8,0,2048

2017-10-09 19:19:49,0,0,8,0,2048

2017-10-09 19:19:49,0,0,8,0,2048

2017-10-09 19:19:49,0,0,6,103,1639

2017-10-09 19:19:49,0,0,3,18,786

2017-10-09 19:19:49,0,0,0,0,0

2017-10-09 19:19:49,0,0,0,0,0

2017-10-09 19:19:49,#V#,*******DONE*******#

Exiting PsocAmPreRad
#C0E00126E0000IsOffsets

2017-10-09 19:19:51, 43,:e,:0,:126e,:0,:0,:0 @

2017-10-09 19:19:51,*******DONE*******#

Exiting PsocAmPreRad
#E0E001EB80A0083IS_RAMP

2017-10-09 19:19:51, 45,:e,:0,:1eb8,:a,:0,:83 @

2017-10-09 19:19:51,*SeqNo,Samples,DAC_Cnt,BGapReg,GainReg,AM_VCal,BGO,Isense0,Isense1

2017-10-09 19:19:52,
2017-10-09 19:19:53,#E#,0,0,12,102,131,0,60,0,0,514,88,0,0,97,94

2017-10-09 19:19:53,#E#,0,1,12,102,131,0,60,0,0,514,88,0,0,96,94

2017-10-09 19:19:53,#E#,0,2,12,102,131,0,60,0,0,514,88,0,0,96,94

2017-10-09 19:19:53,#E#,0,3,12,102,131,0,60,0,0,514,88,0,0,97,94

2017-10-09 19:19:53,#E#,0,4,12,102,131,0,60,0,0,514,88,0,0,96,94

2017-10-09 19:19:53,#E#,0,5,12,102,131,0,60,0,0,514,88,0,0,96,94

2017-10-09 19:19:53,#E#,0,6,12,102,131,0,60,0,0,514,88,0,0,111,93

2017-10-09 19:19:53,#E#,0,7,12,102,131,0,60,0,0,514,88,0,0,96,94

2017-10-09 19:19:53,#E#,0,8,12,102,131,0,60,0,0,514,88,0,0,96,93

2017-10-09 19:19:53,#E#,0,9,12,102,131,0,60,0,0,514,88,0,0,96,94

2017-10-09 19:19:54,
2017-10-09 19:19:54,#E#,1,0,12,102,131,131,60,102,606,514,88,5,5,97,95

2017-10-09 19:19:54,#E#,1,1,12,102,131,131,60,102,606,514,88,5,5,96,94

2017-10-09 19:19:54,#E#,1,2,12,102,131,131,60,102,606,514,88,5,5,97,94

2017-10-09 19:19:54,#E#,1,3,12,102,131,131,60,102,606,513,88,5,5,96,94

2017-10-09 19:19:54,#E#,1,4,12,102,131,131,60,102,606,514,88,5,5,97,95

2017-10-09 19:19:54,#E#,1,5,12,102,131,131,60,102,606,513,88,5,5,96,94

2017-10-09 19:19:54,#E#,1,6,12,102,131,131,60,102,606,514,88,5,5,96,94

2017-10-09 19:19:54,#E#,1,7,12,102,131,131,60,102,606,514,88,5,5,96,95

2017-10-09 19:19:54,#E#,1,8,12,102,131,131,60,102,606,514,88,5,5,98,94

2017-10-09 19:19:54,#E#,1,9,12,102,131,131,60,102,606,514,88,5,5,97,94

