#P0E0000001400AM_RdFreq

2017-10-09 17:51:42, 50,:e,:0,:0,:14,:0,:a0 @

2017-10-09 17:51:42,*******Measure Period per Event & Freq in MHz*******

2017-10-09 17:51:42,****Period_cnt , Freq, SeqNo, Status,..........

2017-10-09 17:51:42,#P#, 60023, 773759744, 0, 1 

2017-10-09 17:51:42,#P#, 60023, 773759744, 1, 1 

2017-10-09 17:51:42,#P#, 60023, 773759744, 2, 1 

2017-10-09 17:51:42,#P#, 60023, 773759744, 3, 1 

2017-10-09 17:51:42,#P#, 60023, 773759744, 4, 1 

2017-10-09 17:51:42,#P#, 60023, 773759744, 5, 1 

2017-10-09 17:51:42,#P#, 60023, 773759744, 6, 1 

2017-10-09 17:51:42,#P#, 60023, 773759744, 7, 1 

2017-10-09 17:51:42,#P#, 60023, 773759744, 8, 1 

2017-10-09 17:51:42,#P#, 60023, 773759744, 9, 1 

2017-10-09 17:51:42,#P#, 60023, 773759744, 10, 1 

2017-10-09 17:51:42,#P#, 60023, 773759744, 11, 1 

2017-10-09 17:51:42,#P#, 60023, 773759744, 12, 1 

2017-10-09 17:51:42,#P#, 60023, 773759744, 13, 1 

2017-10-09 17:51:42,#P#, 60023, 773759744, 14, 1 

2017-10-09 17:51:42,#P#, 60023, 773759744, 15, 1 

2017-10-09 17:51:42,#P#, 60023, 773759744, 16, 1 

2017-10-09 17:51:42,#P#, 60023, 773759744, 17, 1 

2017-10-09 17:51:42,#P#, 60023, 773759744, 18, 1 

2017-10-09 17:51:42,#P#, 60023, 773759744, 19, 1 

2017-10-09 17:51:42,*******DONE*******#

Exiting PsocAmPreRad
#V0E0000000100GetVlocal

2017-10-09 17:51:44, 56,:e,:0,:0,:1,:0,:0 @

2017-10-09 17:51:44,*******Measure local voltages in mV *******

2017-10-09 17:51:44,*******VI2C,+Vopamps,+Vopamps,Vdacs,Vadc,SeqNo, Status*********

2017-10-09 17:51:44,aa,22,40,55

2017-10-09 17:51:44,aa,22,41,55

2017-10-09 17:51:44,aa,22,42,55

2017-10-09 17:51:44,aa,22,43,55

2017-10-09 17:51:44,aa,22,44,0

2017-10-09 17:51:44,0,0,0,0

2017-10-09 17:51:44,#V#,ea77,eb77,ec77,ed77,ee22*******DONE*******#

Exiting PsocAmPreRad
