#P0E0000001400AM_RdFreq

2017-10-09 19:00:19, 50,:e,:0,:0,:14,:0,:a0 @

2017-10-09 19:00:19,*******Measure Period per Event & Freq in MHz*******

2017-10-09 19:00:19,****Period_cnt , Freq, SeqNo, Status,..........

2017-10-09 19:00:19,#P#, 21, 16800000, 0, 1 

2017-10-09 19:00:19,#P#, 39, 31200000, 1, 0 

2017-10-09 19:00:19,#P#, 38, 30400000, 2, 0 

2017-10-09 19:00:19,#P#, 39, 31200000, 3, 0 

2017-10-09 19:00:19,#P#, 38, 30400000, 4, 0 

2017-10-09 19:00:19,#P#, 39, 31200000, 5, 0 

2017-10-09 19:00:19,#P#, 39, 31200000, 6, 0 

2017-10-09 19:00:19,#P#, 38, 30400000, 7, 0 

2017-10-09 19:00:19,#P#, 38, 30400000, 8, 0 

2017-10-09 19:00:19,#P#, 39, 31200000, 9, 0 

2017-10-09 19:00:19,#P#, 38, 30400000, 10, 0 

2017-10-09 19:00:19,#P#, 39, 31200000, 11, 0 

2017-10-09 19:00:19,#P#, 37, 29600000, 12, 0 

2017-10-09 19:00:19,#P#, 38, 30400000, 13, 0 

2017-10-09 19:00:19,#P#, 38, 30400000, 14, 0 

2017-10-09 19:00:19,#P#, 39, 31200000, 15, 0 

2017-10-09 19:00:19,#P#, 39, 31200000, 16, 0 

2017-10-09 19:00:19,#P#, 38, 30400000, 17, 0 

2017-10-09 19:00:19,#P#, 38, 30400000, 18, 0 

2017-10-09 19:00:19,#P#, 38, 30400000, 19, 0 

2017-10-09 19:00:19,*******DONE*******#

Exiting PsocAmPreRad
#V0E0000000100GetVlocal

2017-10-09 19:00:21, 56,:e,:0,:0,:1,:0,:0 @

2017-10-09 19:00:21,*******Measure local voltages in mV *******

2017-10-09 19:00:21,*******VI2C,+Vopamps,+Vopamps,Vdacs,Vadc,SeqNo, Status*********

2017-10-09 19:00:21,0,19,0,19,38

2017-10-09 19:00:21,0,0,0,0,0

2017-10-09 19:00:21,0,0,0,0,0

2017-10-09 19:00:21,0,0,0,0,0

2017-10-09 19:00:21,0,0,0,0,0

2017-10-09 19:00:21,0,0,0,0,0

2017-10-09 19:00:21,0,0,0,0,0

2017-10-09 19:00:21,0,0,0,0,0

2017-10-09 19:00:21,#V#,*******DONE*******#

Exiting PsocAmPreRad
