#P0E000000C800AM_RdFreq

2017-10-09 14:29:20, 50,:e,:0,:0,:c8,:0,:a0 @

2017-10-09 14:29:20,*******Measure Period per Event & Freq in MHz*******

2017-10-09 14:29:20,****Period_cnt , Freq, SeqNo, Status,..........

2017-10-09 14:29:20,#P#, 61047, 1592959744, 0, 1 

2017-10-09 14:29:20,#P#, 61047, 1592959744, 1, 1 

2017-10-09 14:29:20,#P#, 61047, 1592959744, 2, 1 

2017-10-09 14:29:20,#P#, 61047, 1592959744, 3, 1 

2017-10-09 14:29:20,#P#, 61047, 1592959744, 4, 1 

2017-10-09 14:29:20,#P#, 61047, 1592959744, 5, 1 

2017-10-09 14:29:20,#P#, 61047, 1592959744, 6, 1 

2017-10-09 14:29:20,#P#, 61047, 1592959744, 7, 1 

2017-10-09 14:29:20,#P#, 61047, 1592959744, 8, 1 

2017-10-09 14:29:20,#P#, 61047, 1592959744, 9, 1 

2017-10-09 14:29:20,#P#, 61047, 1592959744, 10, 1 

2017-10-09 14:29:20,#P#, 61047, 1592959744, 11, 1 

2017-10-09 14:29:20,#P#, 61047, 1592959744, 12, 1 

2017-10-09 14:29:20,#P#, 61047, 1592959744, 13, 1 

2017-10-09 14:29:20,#P#, 61047, 1592959744, 14, 1 

2017-10-09 14:29:20,#P#, 61047, 1592959744, 15, 1 

2017-10-09 14:29:20,#P#, 61047, 1592959744, 16, 1 

2017-10-09 14:29:20,#P#, 61047, 1592959744, 17, 1 

2017-10-09 14:29:20,#P#, 61047, 1592959744, 18, 1 

2017-10-09 14:29:20,#P#, 61047, 1592959744, 19, 1 

2017-10-09 14:29:20,#P#, 61047, 1592959744, 20, 1 

2017-10-09 14:29:20,#P#, 61047, 1592959744, 21, 1 

2017-10-09 14:29:20,#P#, 61047, 1592959744, 22, 1 

2017-10-09 14:29:20,#P#, 61047, 1592959744, 23, 1 

2017-10-09 14:29:20,#P#, 61047, 1592959744, 24, 1 

2017-10-09 14:29:20,#P#, 61047, 1592959744, 25, 1 

2017-10-09 14:29:20,#P#, 61047, 1592959744, 26, 1 

2017-10-09 14:29:20,#P#, 61047, 1592959744, 27, 1 

2017-10-09 14:29:20,#P#, 61047, 1592959744, 28, 1 

2017-10-09 14:29:20,#P#, 61047, 1592959744, 29, 1 

2017-10-09 14:29:20,#P#, 61047, 1592959744, 30, 1 

2017-10-09 14:29:20,#P#, 61047, 1592959744, 31, 1 

2017-10-09 14:29:20,#P#, 61047, 1592959744, 32, 1 

2017-10-09 14:29:20,#P#, 61047, 1592959744, 33, 1 

2017-10-09 14:29:20,#P#, 61047, 1592959744, 34, 1 

2017-10-09 14:29:20,#P#, 61047, 1592959744, 35, 1 

2017-10-09 14:29:20,#P#, 61047, 1592959744, 36, 1 

2017-10-09 14:29:20,#P#, 61047, 1592959744, 37, 1 

2017-10-09 14:29:20,#P#, 61047, 1592959744, 38, 1 

2017-10-09 14:29:20,#P#, 61047, 1592959744, 39, 1 

2017-10-09 14:29:20,#P#, 61047, 1592959744, 40, 1 

2017-10-09 14:29:20,#P#, 61047, 1592959744, 41, 1 

2017-10-09 14:29:20,#P#, 61047, 1592959744, 42, 1 

2017-10-09 14:29:20,#P#, 61047, 1592959744, 43, 1 

2017-10-09 14:29:20,#P#, 61047, 1592959744, 44, 1 

2017-10-09 14:29:20,#P#, 61047, 1592959744, 45, 1 

2017-10-09 14:29:20,#P#, 61047, 1592959744, 46, 1 

2017-10-09 14:29:20,#P#, 61047, 1592959744, 47, 1 

2017-10-09 14:29:20,#P#, 61047, 1592959744, 48, 1 

2017-10-09 14:29:20,#P#, 61047, 1592959744, 49, 1 

2017-10-09 14:29:20,#P#, 61047, 1592959744, 50, 1 

2017-10-09 14:29:20,#P#, 61047, 1592959744, 51, 1 

2017-10-09 14:29:20,#P#, 61047, 1592959744, 52, 1 

2017-10-09 14:29:20,#P#, 61047, 1592959744, 53, 1 

2017-10-09 14:29:20,#P#, 61047, 1592959744, 54, 1 

2017-10-09 14:29:20,#P#, 61047, 1592959744, 55, 1 

2017-10-09 14:29:20,#P#, 61047, 1592959744, 56, 1 

2017-10-09 14:29:20,#P#, 61047, 1592959744, 57, 1 

2017-10-09 14:29:20,#P#, 61047, 1592959744, 58, 1 

2017-10-09 14:29:20,#P#, 61047, 1592959744, 59, 1 

2017-10-09 14:29:20,#P#, 61047, 1592959744, 60, 1 

2017-10-09 14:29:20,#P#, 61047, 1592959744, 61, 1 

2017-10-09 14:29:20,#P#, 61047, 1592959744, 62, 1 

2017-10-09 14:29:20,#P#, 61047, 1592959744, 63, 1 

2017-10-09 14:29:20,#P#, 61047, 1592959744, 64, 1 

2017-10-09 14:29:20,#P#, 61047, 1592959744, 65, 1 

2017-10-09 14:29:20,#P#, 61047, 1592959744, 66, 1 

2017-10-09 14:29:20,#P#, 61047, 1592959744, 67, 1 

2017-10-09 14:29:20,#P#, 61047, 1592959744, 68, 1 

2017-10-09 14:29:21,#P#, 61047, 1592959744, 69, 1 

2017-10-09 14:29:21,#P#, 61047, 1592959744, 70, 1 

2017-10-09 14:29:21,#P#, 61047, 1592959744, 71, 1 

2017-10-09 14:29:21,#P#, 61047, 1592959744, 72, 1 

2017-10-09 14:29:21,#P#, 61047, 1592959744, 73, 1 

2017-10-09 14:29:21,#P#, 61047, 1592959744, 74, 1 

2017-10-09 14:29:21,#P#, 61047, 1592959744, 75, 1 

2017-10-09 14:29:21,#P#, 61047, 1592959744, 76, 1 

2017-10-09 14:29:21,#P#, 61047, 1592959744, 77, 1 

2017-10-09 14:29:21,#P#, 61047, 1592959744, 78, 1 

2017-10-09 14:29:21,#P#, 61047, 1592959744, 79, 1 

2017-10-09 14:29:21,#P#, 61047, 1592959744, 80, 1 

2017-10-09 14:29:21,#P#, 61047, 1592959744, 81, 1 

2017-10-09 14:29:21,#P#, 61047, 1592959744, 82, 1 

2017-10-09 14:29:21,#P#, 61047, 1592959744, 83, 1 

2017-10-09 14:29:21,#P#, 61047, 1592959744, 84, 1 

2017-10-09 14:29:21,#P#, 61047, 1592959744, 85, 1 

2017-10-09 14:29:21,#P#, 61047, 1592959744, 86, 1 

2017-10-09 14:29:21,#P#, 61047, 1592959744, 87, 1 

2017-10-09 14:29:21,#P#, 61047, 1592959744, 88, 1 

2017-10-09 14:29:21,#P#, 61047, 1592959744, 89, 1 

2017-10-09 14:29:21,#P#, 61047, 1592959744, 90, 1 

2017-10-09 14:29:21,#P#, 61047, 1592959744, 91, 1 

2017-10-09 14:29:21,#P#, 61047, 1592959744, 92, 1 

2017-10-09 14:29:21,#P#, 61047, 1592959744, 93, 1 

2017-10-09 14:29:21,#P#, 61047, 1592959744, 94, 1 

2017-10-09 14:29:21,#P#, 61047, 1592959744, 95, 1 

2017-10-09 14:29:21,#P#, 61047, 1592959744, 96, 1 

2017-10-09 14:29:21,#P#, 61047, 1592959744, 97, 1 

2017-10-09 14:29:21,#P#, 61047, 1592959744, 98, 1 

2017-10-09 14:29:21,#P#, 61047, 1592959744, 99, 1 

2017-10-09 14:29:21,#P#, 61047, 1592959744, 100, 1 

2017-10-09 14:29:21,#P#, 61047, 1592959744, 101, 1 

2017-10-09 14:29:21,#P#, 61047, 1592959744, 102, 1 

2017-10-09 14:29:21,#P#, 61047, 1592959744, 103, 1 

2017-10-09 14:29:21,#P#, 61047, 1592959744, 104, 1 

2017-10-09 14:29:21,#P#, 61047, 1592959744, 105, 1 

2017-10-09 14:29:21,#P#, 61047, 1592959744, 106, 1 

2017-10-09 14:29:21,#P#, 61047, 1592959744, 107, 1 

2017-10-09 14:29:21,#P#, 61047, 1592959744, 108, 1 

2017-10-09 14:29:21,#P#, 61047, 1592959744, 109, 1 

2017-10-09 14:29:21,#P#, 61047, 1592959744, 110, 1 

2017-10-09 14:29:21,#P#, 61047, 1592959744, 111, 1 

2017-10-09 14:29:21,#P#, 61047, 1592959744, 112, 1 

2017-10-09 14:29:21,#P#, 61047, 1592959744, 113, 1 

2017-10-09 14:29:21,#P#, 61047, 1592959744, 114, 1 

2017-10-09 14:29:21,#P#, 61047, 1592959744, 115, 1 

2017-10-09 14:29:21,#P#, 61047, 1592959744, 116, 1 

2017-10-09 14:29:21,#P#, 61047, 1592959744, 117, 1 

2017-10-09 14:29:21,#P#, 61047, 1592959744, 118, 1 

2017-10-09 14:29:21,#P#, 61047, 1592959744, 119, 1 

2017-10-09 14:29:21,#P#, 61047, 1592959744, 120, 1 

2017-10-09 14:29:21,#P#, 61047, 1592959744, 121, 1 

2017-10-09 14:29:21,#P#, 61047, 1592959744, 122, 1 

2017-10-09 14:29:21,#P#, 61047, 1592959744, 123, 1 

2017-10-09 14:29:21,#P#, 61047, 1592959744, 124, 1 

2017-10-09 14:29:21,#P#, 61047, 1592959744, 125, 1 

2017-10-09 14:29:21,#P#, 61047, 1592959744, 126, 1 

2017-10-09 14:29:21,#P#, 61047, 1592959744, 127, 1 

2017-10-09 14:29:21,#P#, 61047, 1592959744, 128, 1 

2017-10-09 14:29:21,#P#, 61047, 1592959744, 129, 1 

2017-10-09 14:29:21,#P#, 61047, 1592959744, 130, 1 

2017-10-09 14:29:21,#P#, 61047, 1592959744, 131, 1 

2017-10-09 14:29:21,#P#, 61047, 1592959744, 132, 1 

2017-10-09 14:29:21,#P#, 61047, 1592959744, 133, 1 

2017-10-09 14:29:21,#P#, 61047, 1592959744, 134, 1 

2017-10-09 14:29:21,#P#, 61047, 1592959744, 135, 1 

2017-10-09 14:29:21,#P#, 61047, 1592959744, 136, 1 

2017-10-09 14:29:21,#P#, 61047, 1592959744, 137, 1 

2017-10-09 14:29:21,#P#, 61047, 1592959744, 138, 1 

2017-10-09 14:29:21,#P#, 61047, 1592959744, 139, 1 

2017-10-09 14:29:21,#P#, 61047, 1592959744, 140, 1 

2017-10-09 14:29:21,#P#, 61047, 1592959744, 141, 1 

2017-10-09 14:29:21,#P#, 61047, 1592959744, 142, 1 

2017-10-09 14:29:21,#P#, 61047, 1592959744, 143, 1 

2017-10-09 14:29:21,#P#, 61047, 1592959744, 144, 1 

2017-10-09 14:29:21,#P#, 61047, 1592959744, 145, 1 

2017-10-09 14:29:21,#P#, 61047, 1592959744, 146, 1 

2017-10-09 14:29:21,#P#, 61047, 1592959744, 147, 1 

2017-10-09 14:29:21,#P#, 61047, 1592959744, 148, 1 

2017-10-09 14:29:21,#P#, 61047, 1592959744, 149, 1 

2017-10-09 14:29:21,#P#, 61047, 1592959744, 150, 1 

2017-10-09 14:29:21,#P#, 61047, 1592959744, 151, 1 

2017-10-09 14:29:21,#P#, 61047, 1592959744, 152, 1 

2017-10-09 14:29:21,#P#, 61047, 1592959744, 153, 1 

2017-10-09 14:29:21,#P#, 61047, 1592959744, 154, 1 

2017-10-09 14:29:21,#P#, 61047, 1592959744, 155, 1 

2017-10-09 14:29:21,#P#, 61047, 1592959744, 156, 1 

2017-10-09 14:29:21,#P#, 61047, 1592959744, 157, 1 

2017-10-09 14:29:21,#P#, 61047, 1592959744, 158, 1 

2017-10-09 14:29:21,#P#, 61047, 1592959744, 159, 1 

2017-10-09 14:29:21,#P#, 61047, 1592959744, 160, 1 

2017-10-09 14:29:21,#P#, 61047, 1592959744, 161, 1 

2017-10-09 14:29:21,#P#, 61047, 1592959744, 162, 1 

2017-10-09 14:29:21,#P#, 61047, 1592959744, 163, 1 

2017-10-09 14:29:21,#P#, 61047, 1592959744, 164, 1 

2017-10-09 14:29:21,#P#, 61047, 1592959744, 165, 1 

2017-10-09 14:29:21,#P#, 61047, 1592959744, 166, 1 

2017-10-09 14:29:21,#P#, 61047, 1592959744, 167, 1 

2017-10-09 14:29:21,#P#, 61047, 1592959744, 168, 1 

2017-10-09 14:29:21,#P#, 61047, 1592959744, 169, 1 

2017-10-09 14:29:21,#P#, 61047, 1592959744, 170, 1 

2017-10-09 14:29:21,#P#, 61047, 1592959744, 171, 1 

2017-10-09 14:29:21,#P#, 61047, 1592959744, 172, 1 

2017-10-09 14:29:21,#P#, 61047, 1592959744, 173, 1 

2017-10-09 14:29:21,#P#, 61047, 1592959744, 174, 1 

2017-10-09 14:29:21,#P#, 61047, 1592959744, 175, 1 

2017-10-09 14:29:21,#P#, 61047, 1592959744, 176, 1 

2017-10-09 14:29:21,#P#, 61047, 1592959744, 177, 1 

2017-10-09 14:29:21,#P#, 61047, 1592959744, 178, 1 

2017-10-09 14:29:22,#P#, 61047, 1592959744, 179, 1 

2017-10-09 14:29:22,#P#, 61047, 1592959744, 180, 1 

2017-10-09 14:29:22,#P#, 61047, 1592959744, 181, 1 

2017-10-09 14:29:22,#P#, 61047, 1592959744, 182, 1 

2017-10-09 14:29:22,#P#, 61047, 1592959744, 183, 1 

2017-10-09 14:29:22,#P#, 61047, 1592959744, 184, 1 

2017-10-09 14:29:22,#P#, 61047, 1592959744, 185, 1 

2017-10-09 14:29:22,#P#, 61047, 1592959744, 186, 1 

2017-10-09 14:29:22,#P#, 61047, 1592959744, 187, 1 

2017-10-09 14:29:22,#P#, 61047, 1592959744, 188, 1 

2017-10-09 14:29:22,#P#, 61047, 1592959744, 189, 1 

2017-10-09 14:29:22,#P#, 61047, 1592959744, 190, 1 

2017-10-09 14:29:22,#P#, 61047, 1592959744, 191, 1 

2017-10-09 14:29:22,#P#, 61047, 1592959744, 192, 1 

2017-10-09 14:29:22,#P#, 61047, 1592959744, 193, 1 

2017-10-09 14:29:22,#P#, 61047, 1592959744, 194, 1 

2017-10-09 14:29:22,#P#, 61047, 1592959744, 195, 1 

2017-10-09 14:29:22,#P#, 61047, 1592959744, 196, 1 

2017-10-09 14:29:22,#P#, 61047, 1592959744, 197, 1 

2017-10-09 14:29:22,#P#, 61047, 1592959744, 198, 1 

2017-10-09 14:29:22,#P#, 61047, 1592959744, 199, 1 

2017-10-09 14:29:22,*******DONE*******#

Exiting PsocAmPreRad
