#P0E000000C800AM_RdFreq

2017-10-09 16:23:08, 50,:e,:0,:0,:c8,:0,:a0 @

2017-10-09 16:23:08,*******Measure Period per Event & Freq in MHz*******

2017-10-09 16:23:08,****Period_cnt , Freq, SeqNo, Status,..........

2017-10-09 16:23:09,System Error 

2017-10-09 16:23:09,System Error 

2017-10-09 16:23:10,System Error 

2017-10-09 16:23:10,System Error 

2017-10-09 16:23:11,System Error 

2017-10-09 16:23:11,System Error 

2017-10-09 16:23:12,System Error 

2017-10-09 16:23:12,System Error 

2017-10-09 16:23:13,System Error 

2017-10-09 16:23:13,System Error 

2017-10-09 16:23:14,System Error 

2017-10-09 16:23:14,System Error 

2017-10-09 16:23:15,System Error 

2017-10-09 16:23:15,System Error 

2017-10-09 16:23:16,System Error 

2017-10-09 16:23:16,System Error 

2017-10-09 16:23:17,System Error 

2017-10-09 16:23:17,System Error 

2017-10-09 16:23:18,System Error 

2017-10-09 16:23:18,System Error 

2017-10-09 16:23:19,System Error 

2017-10-09 16:23:19,System Error 

