#P0E000000C800AM_RdFreq

2017-10-09 14:10:09, 50,:e,:0,:0,:c8,:0,:a0 @

2017-10-09 14:10:10,*******Measure Period per Event & Freq in MHz*******

2017-10-09 14:10:10,****Period_cnt , Freq, SeqNo, Status,..........

2017-10-09 14:10:10,#P#, 39, 31200000, 0, 0 

2017-10-09 14:10:10,#P#, 38, 30400000, 1, 0 

2017-10-09 14:10:10,#P#, 39, 31200000, 2, 0 

2017-10-09 14:10:10,#P#, 38, 30400000, 3, 0 

2017-10-09 14:10:10,#P#, 39, 31200000, 4, 0 

2017-10-09 14:10:10,#P#, 38, 30400000, 5, 0 

2017-10-09 14:10:10,#P#, 38, 30400000, 6, 0 

2017-10-09 14:10:10,#P#, 39, 31200000, 7, 0 

2017-10-09 14:10:10,#P#, 39, 31200000, 8, 0 

2017-10-09 14:10:10,#P#, 38, 30400000, 9, 0 

2017-10-09 14:10:10,#P#, 39, 31200000, 10, 0 

2017-10-09 14:10:10,#P#, 38, 30400000, 11, 0 

2017-10-09 14:10:10,#P#, 38, 30400000, 12, 0 

2017-10-09 14:10:10,#P#, 39, 31200000, 13, 0 

2017-10-09 14:10:10,#P#, 38, 30400000, 14, 0 

2017-10-09 14:10:10,#P#, 39, 31200000, 15, 0 

2017-10-09 14:10:10,#P#, 38, 30400000, 16, 0 

2017-10-09 14:10:10,#P#, 38, 30400000, 17, 0 

2017-10-09 14:10:10,#P#, 39, 31200000, 18, 0 

2017-10-09 14:10:10,#P#, 39, 31200000, 19, 0 

2017-10-09 14:10:10,#P#, 38, 30400000, 20, 0 

2017-10-09 14:10:10,#P#, 38, 30400000, 21, 0 

2017-10-09 14:10:10,#P#, 39, 31200000, 22, 0 

2017-10-09 14:10:10,#P#, 38, 30400000, 23, 0 

2017-10-09 14:10:10,#P#, 39, 31200000, 24, 0 

2017-10-09 14:10:10,#P#, 39, 31200000, 25, 0 

2017-10-09 14:10:10,#P#, 38, 30400000, 26, 0 

2017-10-09 14:10:10,#P#, 38, 30400000, 27, 0 

2017-10-09 14:10:10,#P#, 39, 31200000, 28, 0 

2017-10-09 14:10:10,#P#, 38, 30400000, 29, 0 

2017-10-09 14:10:10,#P#, 38, 30400000, 30, 0 

2017-10-09 14:10:10,#P#, 38, 30400000, 31, 0 

2017-10-09 14:10:10,#P#, 38, 30400000, 32, 0 

2017-10-09 14:10:10,#P#, 39, 31200000, 33, 0 

2017-10-09 14:10:10,#P#, 38, 30400000, 34, 0 

2017-10-09 14:10:10,#P#, 38, 30400000, 35, 0 

2017-10-09 14:10:10,#P#, 39, 31200000, 36, 0 

2017-10-09 14:10:10,#P#, 38, 30400000, 37, 0 

2017-10-09 14:10:10,#P#, 39, 31200000, 38, 0 

2017-10-09 14:10:10,#P#, 39, 31200000, 39, 0 

2017-10-09 14:10:10,#P#, 39, 31200000, 40, 0 

2017-10-09 14:10:10,#P#, 39, 31200000, 41, 0 

2017-10-09 14:10:10,#P#, 38, 30400000, 42, 0 

2017-10-09 14:10:10,#P#, 38, 30400000, 43, 0 

2017-10-09 14:10:10,#P#, 38, 30400000, 44, 0 

2017-10-09 14:10:10,#P#, 39, 31200000, 45, 0 

2017-10-09 14:10:10,#P#, 39, 31200000, 46, 0 

2017-10-09 14:10:10,#P#, 38, 30400000, 47, 0 

2017-10-09 14:10:10,#P#, 39, 31200000, 48, 0 

2017-10-09 14:10:10,#P#, 38, 30400000, 49, 0 

2017-10-09 14:10:10,#P#, 38, 30400000, 50, 0 

2017-10-09 14:10:10,#P#, 38, 30400000, 51, 0 

2017-10-09 14:10:10,#P#, 39, 31200000, 52, 0 

2017-10-09 14:10:10,#P#, 39, 31200000, 53, 0 

2017-10-09 14:10:10,#P#, 38, 30400000, 54, 0 

2017-10-09 14:10:10,#P#, 38, 30400000, 55, 0 

2017-10-09 14:10:10,#P#, 39, 31200000, 56, 0 

2017-10-09 14:10:10,#P#, 38, 30400000, 57, 0 

2017-10-09 14:10:10,#P#, 39, 31200000, 58, 0 

2017-10-09 14:10:10,#P#, 39, 31200000, 59, 0 

2017-10-09 14:10:10,#P#, 38, 30400000, 60, 0 

2017-10-09 14:10:10,#P#, 39, 31200000, 61, 0 

2017-10-09 14:10:10,#P#, 38, 30400000, 62, 0 

2017-10-09 14:10:10,#P#, 39, 31200000, 63, 0 

2017-10-09 14:10:10,#P#, 38, 30400000, 64, 0 

2017-10-09 14:10:10,#P#, 38, 30400000, 65, 0 

2017-10-09 14:10:10,#P#, 38, 30400000, 66, 0 

2017-10-09 14:10:10,#P#, 39, 31200000, 67, 0 

2017-10-09 14:10:10,#P#, 39, 31200000, 68, 0 

2017-10-09 14:10:10,#P#, 38, 30400000, 69, 0 

2017-10-09 14:10:10,#P#, 38, 30400000, 70, 0 

2017-10-09 14:10:10,#P#, 38, 30400000, 71, 0 

2017-10-09 14:10:10,#P#, 39, 31200000, 72, 0 

2017-10-09 14:10:10,#P#, 38, 30400000, 73, 0 

2017-10-09 14:10:10,#P#, 38, 30400000, 74, 0 

2017-10-09 14:10:10,#P#, 39, 31200000, 75, 0 

2017-10-09 14:10:10,#P#, 39, 31200000, 76, 0 

2017-10-09 14:10:10,#P#, 38, 30400000, 77, 0 

2017-10-09 14:10:10,#P#, 38, 30400000, 78, 0 

2017-10-09 14:10:10,#P#, 39, 31200000, 79, 0 

2017-10-09 14:10:10,#P#, 39, 31200000, 80, 0 

2017-10-09 14:10:10,#P#, 38, 30400000, 81, 0 

2017-10-09 14:10:10,#P#, 38, 30400000, 82, 0 

2017-10-09 14:10:10,#P#, 39, 31200000, 83, 0 

2017-10-09 14:10:10,#P#, 38, 30400000, 84, 0 

2017-10-09 14:10:10,#P#, 39, 31200000, 85, 0 

2017-10-09 14:10:10,#P#, 38, 30400000, 86, 0 

2017-10-09 14:10:10,#P#, 40, 32000000, 87, 1 

2017-10-09 14:10:10,#P#, 38, 30400000, 88, 0 

2017-10-09 14:10:10,#P#, 38, 30400000, 89, 0 

2017-10-09 14:10:10,#P#, 39, 31200000, 90, 0 

2017-10-09 14:10:10,#P#, 38, 30400000, 91, 0 

2017-10-09 14:10:10,#P#, 38, 30400000, 92, 0 

2017-10-09 14:10:10,#P#, 38, 30400000, 93, 0 

2017-10-09 14:10:10,#P#, 39, 31200000, 94, 0 

2017-10-09 14:10:10,#P#, 39, 31200000, 95, 0 

2017-10-09 14:10:10,#P#, 39, 31200000, 96, 0 

2017-10-09 14:10:10,#P#, 40, 32000000, 97, 1 

2017-10-09 14:10:10,#P#, 38, 30400000, 98, 0 

2017-10-09 14:10:10,#P#, 39, 31200000, 99, 0 

2017-10-09 14:10:10,#P#, 39, 31200000, 100, 0 

2017-10-09 14:10:10,#P#, 37, 29600000, 101, 0 

2017-10-09 14:10:10,#P#, 39, 31200000, 102, 0 

2017-10-09 14:10:10,#P#, 38, 30400000, 103, 0 

2017-10-09 14:10:10,#P#, 38, 30400000, 104, 0 

2017-10-09 14:10:11,#P#, 38, 30400000, 105, 0 

2017-10-09 14:10:11,#P#, 38, 30400000, 106, 0 

2017-10-09 14:10:11,#P#, 39, 31200000, 107, 0 

2017-10-09 14:10:11,#P#, 39, 31200000, 108, 0 

2017-10-09 14:10:11,#P#, 39, 31200000, 109, 0 

2017-10-09 14:10:11,#P#, 39, 31200000, 110, 0 

2017-10-09 14:10:11,#P#, 38, 30400000, 111, 0 

2017-10-09 14:10:11,#P#, 38, 30400000, 112, 0 

2017-10-09 14:10:11,#P#, 39, 31200000, 113, 0 

2017-10-09 14:10:11,#P#, 39, 31200000, 114, 0 

2017-10-09 14:10:11,#P#, 38, 30400000, 115, 0 

2017-10-09 14:10:11,#P#, 38, 30400000, 116, 0 

2017-10-09 14:10:11,#P#, 38, 30400000, 117, 0 

2017-10-09 14:10:11,#P#, 38, 30400000, 118, 0 

2017-10-09 14:10:11,#P#, 39, 31200000, 119, 0 

2017-10-09 14:10:11,#P#, 39, 31200000, 120, 0 

2017-10-09 14:10:11,#P#, 38, 30400000, 121, 0 

2017-10-09 14:10:11,#P#, 38, 30400000, 122, 0 

2017-10-09 14:10:11,#P#, 39, 31200000, 123, 0 

2017-10-09 14:10:11,#P#, 39, 31200000, 124, 0 

2017-10-09 14:10:11,#P#, 38, 30400000, 125, 0 

2017-10-09 14:10:11,#P#, 38, 30400000, 126, 0 

2017-10-09 14:10:11,#P#, 39, 31200000, 127, 0 

2017-10-09 14:10:11,#P#, 38, 30400000, 128, 0 

2017-10-09 14:10:11,#P#, 39, 31200000, 129, 0 

2017-10-09 14:10:11,#P#, 38, 30400000, 130, 0 

2017-10-09 14:10:11,#P#, 39, 31200000, 131, 0 

2017-10-09 14:10:11,#P#, 38, 30400000, 132, 0 

2017-10-09 14:10:11,#P#, 38, 30400000, 133, 0 

2017-10-09 14:10:11,#P#, 39, 31200000, 134, 0 

2017-10-09 14:10:11,#P#, 39, 31200000, 135, 0 

2017-10-09 14:10:11,#P#, 38, 30400000, 136, 0 

2017-10-09 14:10:11,#P#, 39, 31200000, 137, 0 

2017-10-09 14:10:11,#P#, 39, 31200000, 138, 0 

2017-10-09 14:10:11,#P#, 38, 30400000, 139, 0 

2017-10-09 14:10:11,#P#, 39, 31200000, 140, 0 

2017-10-09 14:10:11,#P#, 39, 31200000, 141, 0 

2017-10-09 14:10:11,#P#, 38, 30400000, 142, 0 

2017-10-09 14:10:11,#P#, 39, 31200000, 143, 0 

2017-10-09 14:10:11,#P#, 39, 31200000, 144, 0 

2017-10-09 14:10:11,#P#, 39, 31200000, 145, 0 

2017-10-09 14:10:11,#P#, 38, 30400000, 146, 0 

2017-10-09 14:10:11,#P#, 39, 31200000, 147, 0 

2017-10-09 14:10:11,#P#, 39, 31200000, 148, 0 

2017-10-09 14:10:11,#P#, 38, 30400000, 149, 0 

2017-10-09 14:10:11,#P#, 38, 30400000, 150, 0 

2017-10-09 14:10:11,#P#, 39, 31200000, 151, 0 

2017-10-09 14:10:11,#P#, 39, 31200000, 152, 0 

2017-10-09 14:10:11,#P#, 39, 31200000, 153, 0 

2017-10-09 14:10:11,#P#, 38, 30400000, 154, 0 

2017-10-09 14:10:11,#P#, 38, 30400000, 155, 0 

2017-10-09 14:10:11,#P#, 38, 30400000, 156, 0 

2017-10-09 14:10:11,#P#, 39, 31200000, 157, 0 

2017-10-09 14:10:11,#P#, 39, 31200000, 158, 0 

2017-10-09 14:10:11,#P#, 39, 31200000, 159, 0 

2017-10-09 14:10:11,#P#, 38, 30400000, 160, 0 

2017-10-09 14:10:11,#P#, 39, 31200000, 161, 0 

2017-10-09 14:10:11,#P#, 38, 30400000, 162, 0 

2017-10-09 14:10:11,#P#, 39, 31200000, 163, 0 

2017-10-09 14:10:11,#P#, 39, 31200000, 164, 0 

2017-10-09 14:10:11,#P#, 39, 31200000, 165, 0 

2017-10-09 14:10:11,#P#, 38, 30400000, 166, 0 

2017-10-09 14:10:11,#P#, 39, 31200000, 167, 0 

2017-10-09 14:10:11,#P#, 39, 31200000, 168, 0 

2017-10-09 14:10:11,#P#, 39, 31200000, 169, 0 

2017-10-09 14:10:11,#P#, 38, 30400000, 170, 0 

2017-10-09 14:10:11,#P#, 38, 30400000, 171, 0 

2017-10-09 14:10:11,#P#, 37, 29600000, 172, 0 

2017-10-09 14:10:11,#P#, 38, 30400000, 173, 0 

2017-10-09 14:10:11,#P#, 39, 31200000, 174, 0 

2017-10-09 14:10:11,#P#, 38, 30400000, 175, 0 

2017-10-09 14:10:11,#P#, 38, 30400000, 176, 0 

2017-10-09 14:10:11,#P#, 39, 31200000, 177, 0 

2017-10-09 14:10:11,#P#, 38, 30400000, 178, 0 

2017-10-09 14:10:11,#P#, 39, 31200000, 179, 0 

2017-10-09 14:10:11,#P#, 39, 31200000, 180, 0 

2017-10-09 14:10:11,#P#, 38, 30400000, 181, 0 

2017-10-09 14:10:11,#P#, 38, 30400000, 182, 0 

2017-10-09 14:10:11,#P#, 39, 31200000, 183, 0 

2017-10-09 14:10:11,#P#, 39, 31200000, 184, 0 

2017-10-09 14:10:11,#P#, 39, 31200000, 185, 0 

2017-10-09 14:10:11,#P#, 39, 31200000, 186, 0 

2017-10-09 14:10:11,#P#, 38, 30400000, 187, 0 

2017-10-09 14:10:11,#P#, 38, 30400000, 188, 0 

2017-10-09 14:10:11,#P#, 39, 31200000, 189, 0 

2017-10-09 14:10:11,#P#, 39, 31200000, 190, 0 

2017-10-09 14:10:11,#P#, 39, 31200000, 191, 0 

2017-10-09 14:10:11,#P#, 39, 31200000, 192, 0 

2017-10-09 14:10:11,#P#, 38, 30400000, 193, 0 

2017-10-09 14:10:11,#P#, 38, 30400000, 194, 0 

2017-10-09 14:10:11,#P#, 39, 31200000, 195, 0 

2017-10-09 14:10:11,#P#, 38, 30400000, 196, 0 

2017-10-09 14:10:11,#P#, 39, 31200000, 197, 0 

2017-10-09 14:10:11,#P#, 39, 31200000, 198, 0 

2017-10-09 14:10:11,#P#, 39, 31200000, 199, 0 

2017-10-09 14:10:11,*******DONE*******#

Exiting PsocAmPreRad
#C0E00126E0000IsOffsets

2017-10-09 14:10:13, 43,:e,:0,:126e,:0,:0,:0 @

2017-10-09 14:10:13,*******DONE*******#

Exiting PsocAmPreRad
#E0E001EB80A0083IS_RAMP

2017-10-09 14:10:13, 45,:e,:0,:1eb8,:a,:0,:83 @

2017-10-09 14:10:13,*SeqNo,Samples,DAC_Cnt,BGapReg,GainReg,AM_VCal,BGO,Isense0,Isense1

2017-10-09 14:10:14,
2017-10-09 14:10:14,#E#,0,0,12,102,131,0,60,0,0,559,88,0,0,109,98

2017-10-09 14:10:14,#E#,0,1,12,102,131,0,60,0,0,559,88,0,0,109,98

2017-10-09 14:10:14,#E#,0,2,12,102,131,0,60,0,0,559,88,0,0,110,98

2017-10-09 14:10:15,#E#,0,3,12,102,131,0,60,0,0,559,88,0,0,109,98

2017-10-09 14:10:15,#E#,0,4,12,102,131,0,60,0,0,575,88,0,0,109,98

2017-10-09 14:10:15,#E#,0,5,12,102,131,0,60,0,0,559,88,0,0,109,98

2017-10-09 14:10:15,#E#,0,6,12,102,131,0,60,0,0,559,88,0,0,109,98

2017-10-09 14:10:15,#E#,0,7,12,102,131,0,60,0,0,559,88,0,0,109,98

2017-10-09 14:10:15,#E#,0,8,12,102,131,0,60,0,0,559,88,0,0,109,98

2017-10-09 14:10:15,#E#,0,9,12,102,131,0,60,0,0,559,88,0,0,110,98

2017-10-09 14:10:16,
2017-10-09 14:10:16,#E#,1,0,12,102,131,131,60,102,603,559,88,7,7,110,99

2017-10-09 14:10:16,#E#,1,1,12,102,131,131,60,102,603,559,88,7,7,110,99

2017-10-09 14:10:16,#E#,1,2,12,102,131,131,60,102,603,559,88,7,7,110,98

2017-10-09 14:10:16,#E#,1,3,12,102,131,131,60,102,603,559,88,7,7,110,100

2017-10-09 14:10:16,#E#,1,4,12,102,131,131,60,102,603,559,88,7,7,110,100

2017-10-09 14:10:16,#E#,1,5,12,102,131,131,60,102,603,559,88,7,7,110,98

2017-10-09 14:10:16,#E#,1,6,12,102,131,131,60,102,603,559,88,7,7,110,99

2017-10-09 14:10:16,#E#,1,7,12,102,131,131,60,102,603,559,88,7,7,110,99

2017-10-09 14:10:16,#E#,1,8,12,102,131,131,60,102,603,559,88,7,7,110,98

2017-10-09 14:10:16,#E#,1,9,12,102,131,131,60,102,603,559,88,7,7,110,98

2017-10-09 14:10:17,
2017-10-09 14:10:17,#E#,2,0,12,102,131,262,60,102,603,559,88,10,10,111,101

2017-10-09 14:10:17,#E#,2,1,12,102,131,262,60,102,603,559,88,10,10,110,99

2017-10-09 14:10:17,#E#,2,2,12,102,131,262,60,102,603,559,88,10,10,111,99

2017-10-09 14:10:17,#E#,2,3,12,102,131,262,60,102,603,559,88,10,10,110,99

2017-10-09 14:10:17,#E#,2,4,12,102,131,262,60,102,603,559,88,10,10,111,99

2017-10-09 14:10:17,#E#,2,5,12,102,131,262,60,102,603,559,88,10,10,111,100

2017-10-09 14:10:17,#E#,2,6,12,102,131,262,60,102,603,559,88,10,10,111,100

2017-10-09 14:10:17,#E#,2,7,12,102,131,262,60,102,603,558,88,10,10,110,99

2017-10-09 14:10:17,#E#,2,8,12,102,131,262,60,102,603,559,88,10,10,111,99

2017-10-09 14:10:17,#E#,2,9,12,102,131,262,60,102,603,560,88,10,10,111,99

2017-10-09 14:10:18,
2017-10-09 14:10:19,#E#,3,0,12,102,131,393,60,102,603,559,88,14,14,111,101

2017-10-09 14:10:19,#E#,3,1,12,102,131,393,60,102,603,559,88,14,14,111,99

2017-10-09 14:10:19,#E#,3,2,12,102,131,393,60,102,603,559,88,14,14,111,99

2017-10-09 14:10:19,#E#,3,3,12,102,131,393,60,102,603,559,88,14,14,127,100

2017-10-09 14:10:19,#E#,3,4,12,102,131,393,60,102,603,558,88,14,14,111,100

2017-10-09 14:10:19,#E#,3,5,12,102,131,393,60,102,603,559,88,14,14,111,100

2017-10-09 14:10:19,#E#,3,6,12,102,131,393,60,102,603,559,88,14,14,111,100

2017-10-09 14:10:19,#E#,3,7,12,102,131,393,60,102,603,559,88,14,14,111,100

2017-10-09 14:10:19,#E#,3,8,12,102,131,393,60,102,603,559,88,14,14,127,100

2017-10-09 14:10:19,#E#,3,9,12,102,131,393,60,102,603,558,88,14,14,111,101

2017-10-09 14:10:20,
2017-10-09 14:10:20,#E#,4,0,12,102,131,524,60,102,603,559,88,18,18,112,101

2017-10-09 14:10:20,#E#,4,1,12,102,131,524,60,102,603,559,88,18,18,112,101

2017-10-09 14:10:20,#E#,4,2,12,102,131,524,60,102,603,559,88,18,18,112,101

2017-10-09 14:10:20,#E#,4,3,12,102,131,524,60,102,603,559,88,18,18,112,101

2017-10-09 14:10:20,#E#,4,4,12,102,131,524,60,102,603,559,88,18,18,112,100

2017-10-09 14:10:20,#E#,4,5,12,102,131,524,60,102,603,559,88,18,18,96,100

2017-10-09 14:10:20,#E#,4,6,12,102,131,524,60,102,603,559,88,18,18,112,100

2017-10-09 14:10:20,#E#,4,7,12,102,131,524,60,102,603,559,88,18,18,112,100

2017-10-09 14:10:20,#E#,4,8,12,102,131,524,60,102,603,559,88,18,18,112,100

2017-10-09 14:10:20,#E#,4,9,12,102,131,524,60,102,603,559,88,18,18,112,100

2017-10-09 14:10:21,
2017-10-09 14:10:21,#E#,5,0,12,102,131,655,60,102,603,559,88,22,22,113,101

2017-10-09 14:10:21,#E#,5,1,12,102,131,655,60,102,603,559,88,22,22,113,101

2017-10-09 14:10:21,#E#,5,2,12,102,131,655,60,102,603,559,88,22,22,112,101

2017-10-09 14:10:21,#E#,5,3,12,102,131,655,60,102,603,559,88,22,22,112,102

2017-10-09 14:10:21,#E#,5,4,12,102,131,655,60,102,603,559,88,22,22,112,101

2017-10-09 14:10:21,#E#,5,5,12,102,131,655,60,102,603,559,88,22,22,112,100

2017-10-09 14:10:21,#E#,5,6,12,102,131,655,60,102,603,559,88,22,22,112,102

2017-10-09 14:10:22,#E#,5,7,12,102,131,655,60,102,603,559,88,22,22,112,100

2017-10-09 14:10:22,#E#,5,8,12,102,131,655,60,102,603,559,88,22,22,112,102

2017-10-09 14:10:22,#E#,5,9,12,102,131,655,60,102,603,559,88,22,22,113,102

