#P0E0000001900AM_RdFreq

2017-10-24 14:55:30, 50,:e,:0,:0,:19,:0,:a0 @

2017-10-24 14:55:30,*******Measure Period per Event & Freq in MHz*******

2017-10-24 14:55:30,****Period_cnt , Freq, SeqNo, Status,..........

2017-10-24 14:55:30,#P#, 38, 30400000, 0, 0 

2017-10-24 14:55:30,#P#, 39, 31200000, 1, 0 

2017-10-24 14:55:30,#P#, 38, 30400000, 2, 0 

2017-10-24 14:55:30,#P#, 39, 31200000, 3, 0 

2017-10-24 14:55:30,#P#, 38, 30400000, 4, 0 

2017-10-24 14:55:30,#P#, 37, 29600000, 5, 0 

2017-10-24 14:55:30,#P#, 39, 31200000, 6, 0 

2017-10-24 14:55:30,#P#, 39, 31200000, 7, 0 

2017-10-24 14:55:30,#P#, 41, 32800000, 8, 1 

2017-10-24 14:55:30,#P#, 39, 31200000, 9, 0 

2017-10-24 14:55:30,#P#, 38, 30400000, 10, 0 

2017-10-24 14:55:30,#P#, 38, 30400000, 11, 0 

2017-10-24 14:55:30,#P#, 39, 31200000, 12, 0 

2017-10-24 14:55:30,#P#, 39, 31200000, 13, 0 

2017-10-24 14:55:30,#P#, 39, 31200000, 14, 0 

2017-10-24 14:55:30,#P#, 38, 30400000, 15, 0 

2017-10-24 14:55:30,#P#, 39, 31200000, 16, 0 

2017-10-24 14:55:30,#P#, 39, 31200000, 17, 0 

2017-10-24 14:55:30,#P#, 39, 31200000, 18, 0 

2017-10-24 14:55:30,#P#, 38, 30400000, 19, 0 

2017-10-24 14:55:30,#P#, 39, 31200000, 20, 0 

2017-10-24 14:55:30,#P#, 39, 31200000, 21, 0 

2017-10-24 14:55:30,#P#, 38, 30400000, 22, 0 

2017-10-24 14:55:30,#P#, 39, 31200000, 23, 0 

2017-10-24 14:55:30,#P#, 38, 30400000, 24, 0 

2017-10-24 14:55:30,*******DONE*******#

Exiting PsocAmPreRad
#A0E000000280AAM_RegRW.

2017-10-24 14:55:32, 41,:e,:0,:0,:28,:a,:aaa @

2017-10-24 14:55:32,a was written to AMReg:28 

2017-10-24 14:55:32,*******DONE*******#

Exiting PsocAmPreRad
#F0E0000000A66Set_Bg&Gn

2017-10-24 14:55:33, 46,:e,:0,:0,:a,:66,:6666 @

2017-10-24 14:55:33,*******DONE*******#

Exiting PsocAmPreRad
#B0E0000000A0000AMPT_T.

2017-10-24 14:55:34, 42,:e,:0,:0,:a,:0,:0 @

2017-10-24 14:55:35,398,358,354,2800000

2017-10-24 14:55:36,
2017-10-24 14:55:36,398,365,361,2960000

2017-10-24 14:55:37,
2017-10-24 14:55:37,398,365,361,2880000

2017-10-24 14:55:38,
2017-10-24 14:55:38,398,366,361,2960000

2017-10-24 14:55:39,
2017-10-24 14:55:39,398,365,361,2880000

2017-10-24 14:55:40,
2017-10-24 14:55:40,398,365,362,2880000

2017-10-24 14:55:41,
2017-10-24 14:55:41,398,365,362,2880000

2017-10-24 14:55:42,
2017-10-24 14:55:42,398,366,361,2880000

2017-10-24 14:55:43,
2017-10-24 14:55:43,398,365,361,2960000

2017-10-24 14:55:44,
2017-10-24 14:55:44,398,365,361,2880000

2017-10-24 14:55:45,
2017-10-24 14:55:45,398,365,362,2880000

2017-10-24 14:55:45,*******DONE*******#

Exiting PsocAmPreRad
