#P0E0000001900AM_RdFreq

2017-10-24 15:36:59, 50,:e,:0,:0,:19,:0,:a0 @

2017-10-24 15:37:00,*******Measure Period per Event & Freq in MHz*******

2017-10-24 15:37:00,****Period_cnt , Freq, SeqNo, Status,..........

2017-10-24 15:37:00,#P#, 38, 30400000, 0, 0 

2017-10-24 15:37:00,#P#, 39, 31200000, 1, 0 

2017-10-24 15:37:00,#P#, 39, 31200000, 2, 0 

2017-10-24 15:37:00,#P#, 39, 31200000, 3, 0 

2017-10-24 15:37:00,#P#, 39, 31200000, 4, 0 

2017-10-24 15:37:00,#P#, 39, 31200000, 5, 0 

2017-10-24 15:37:00,#P#, 38, 30400000, 6, 0 

2017-10-24 15:37:00,#P#, 38, 30400000, 7, 0 

2017-10-24 15:37:00,#P#, 39, 31200000, 8, 0 

2017-10-24 15:37:00,#P#, 38, 30400000, 9, 0 

2017-10-24 15:37:00,#P#, 39, 31200000, 10, 0 

2017-10-24 15:37:00,#P#, 38, 30400000, 11, 0 

2017-10-24 15:37:00,#P#, 39, 31200000, 12, 0 

2017-10-24 15:37:00,#P#, 38, 30400000, 13, 0 

2017-10-24 15:37:00,#P#, 39, 31200000, 14, 0 

2017-10-24 15:37:00,#P#, 38, 30400000, 15, 0 

2017-10-24 15:37:00,#P#, 38, 30400000, 16, 0 

2017-10-24 15:37:00,#P#, 38, 30400000, 17, 0 

2017-10-24 15:37:00,#P#, 38, 30400000, 18, 0 

2017-10-24 15:37:00,#P#, 38, 30400000, 19, 0 

2017-10-24 15:37:00,#P#, 37, 29600000, 20, 0 

2017-10-24 15:37:00,#P#, 39, 31200000, 21, 0 

2017-10-24 15:37:00,#P#, 38, 30400000, 22, 0 

2017-10-24 15:37:00,#P#, 38, 30400000, 23, 0 

2017-10-24 15:37:00,#P#, 39, 31200000, 24, 0 

2017-10-24 15:37:00,*******DONE*******#

Exiting PsocAmPreRad
#A0E0000002B00AM_RegRW.

2017-10-24 15:37:01, 41,:e,:0,:0,:2b,:0,:a0 @

2017-10-24 15:37:01,Value:0 was written to AMReg:43 

2017-10-24 15:37:01,*******DONE*******#

Exiting PsocAmPreRad
#F0E0000000A66Set_Bg&Gn

2017-10-24 15:37:02, 46,:e,:0,:0,:a,:66,:6666 @

2017-10-24 15:37:02,*******DONE*******#

Exiting PsocAmPreRad
#B0E0000000A0000AMPT_T.

2017-10-24 15:37:03, 42,:e,:0,:0,:a,:0,:0 @

2017-10-24 15:37:04,326,362,356,2880000

2017-10-24 15:37:05,
2017-10-24 15:37:05,326,369,364,2880000

2017-10-24 15:37:06,
2017-10-24 15:37:06,326,369,365,2880000

2017-10-24 15:37:07,
2017-10-24 15:37:07,326,369,364,2960000

2017-10-24 15:37:08,
2017-10-24 15:37:08,326,369,365,2960000

2017-10-24 15:37:09,
2017-10-24 15:37:09,326,369,364,2880000

2017-10-24 15:37:10,
2017-10-24 15:37:10,326,369,365,2880000

2017-10-24 15:37:11,
2017-10-24 15:37:11,326,369,364,2960000

2017-10-24 15:37:12,
2017-10-24 15:37:12,326,369,365,2960000

2017-10-24 15:37:13,
2017-10-24 15:37:13,326,369,364,2960000

2017-10-24 15:37:14,
2017-10-24 15:37:14,326,369,365,2800000

2017-10-24 15:37:14,*******DONE*******#

Exiting PsocAmPreRad
