#P0E0000001900AM_RdFreq

2017-10-24 14:29:45, 50,:e,:0,:0,:19,:0,:a0 @

2017-10-24 14:29:45,*******Measure Period per Event & Freq in MHz*******

2017-10-24 14:29:45,****Period_cnt , Freq, SeqNo, Status,..........

2017-10-24 14:29:45,#P#, 38, 30400000, 0, 0 

2017-10-24 14:29:45,#P#, 38, 30400000, 1, 0 

2017-10-24 14:29:45,#P#, 39, 31200000, 2, 0 

2017-10-24 14:29:45,#P#, 39, 31200000, 3, 0 

2017-10-24 14:29:45,#P#, 38, 30400000, 4, 0 

2017-10-24 14:29:45,#P#, 38, 30400000, 5, 0 

2017-10-24 14:29:45,#P#, 39, 31200000, 6, 0 

2017-10-24 14:29:45,#P#, 39, 31200000, 7, 0 

2017-10-24 14:29:45,#P#, 39, 31200000, 8, 0 

2017-10-24 14:29:45,#P#, 39, 31200000, 9, 0 

2017-10-24 14:29:45,#P#, 39, 31200000, 10, 0 

2017-10-24 14:29:45,#P#, 39, 31200000, 11, 0 

2017-10-24 14:29:45,#P#, 38, 30400000, 12, 0 

2017-10-24 14:29:45,#P#, 38, 30400000, 13, 0 

2017-10-24 14:29:45,#P#, 39, 31200000, 14, 0 

2017-10-24 14:29:45,#P#, 37, 29600000, 15, 0 

2017-10-24 14:29:45,#P#, 39, 31200000, 16, 0 

2017-10-24 14:29:45,#P#, 38, 30400000, 17, 0 

2017-10-24 14:29:45,#P#, 37, 29600000, 18, 0 

2017-10-24 14:29:45,#P#, 38, 30400000, 19, 0 

2017-10-24 14:29:45,#P#, 38, 30400000, 20, 0 

2017-10-24 14:29:46,#P#, 39, 31200000, 21, 0 

2017-10-24 14:29:46,#P#, 38, 30400000, 22, 0 

2017-10-24 14:29:46,#P#, 38, 30400000, 23, 0 

2017-10-24 14:29:46,#P#, 39, 31200000, 24, 0 

2017-10-24 14:29:46,*******DONE*******#

Exiting PsocAmPreRad
#F0E0000000A66Set_Bg&Gn

2017-10-24 14:29:47, 46,:e,:0,:0,:a,:66,:6666 @

2017-10-24 14:29:47,*******DONE*******#

Exiting PsocAmPreRad
#B0E000000010000AMPT_T.

2017-10-24 14:29:48, 42,:e,:0,:0,:1,:0,:0 @

2017-10-24 14:29:49,396,359,355,2880000

2017-10-24 14:29:50,
2017-10-24 14:29:50,396,366,362,2880000

2017-10-24 14:29:50,*******DONE*******#

Exiting PsocAmPreRad
