#P0E000000C800AM_RdFreq

2017-10-01 17:25:49, 50,:e,:0,:0,:0,:c8,:0 @

2017-10-01 17:25:49,*******Measure Period per Event & Freq in MHz*******

2017-10-01 17:25:49,****Period_cnt , Freq, SeqNo, Status,..........

2017-10-01 17:25:50,#P#, 0, 0, 0, 1 

2017-10-01 17:25:50,#P#, 0, 0, 1, 1 

2017-10-01 17:25:50,#P#, 0, 0, 2, 1 

2017-10-01 17:25:50,#P#, 0, 0, 3, 1 

2017-10-01 17:25:50,#P#, 0, 0, 4, 1 

2017-10-01 17:25:50,#P#, 0, 0, 5, 1 

2017-10-01 17:25:50,#P#, 0, 0, 6, 1 

2017-10-01 17:25:50,#P#, 0, 0, 7, 1 

2017-10-01 17:25:50,#P#, 0, 0, 8, 1 

2017-10-01 17:25:50,#P#, 0, 0, 9, 1 

2017-10-01 17:25:50,#P#, 0, 0, 10, 1 

2017-10-01 17:25:50,#P#, 0, 0, 11, 1 

2017-10-01 17:25:50,#P#, 0, 0, 12, 1 

2017-10-01 17:25:50,#P#, 0, 0, 13, 1 

2017-10-01 17:25:50,#P#, 0, 0, 14, 1 

2017-10-01 17:25:50,#P#, 0, 0, 15, 1 

2017-10-01 17:25:50,#P#, 0, 0, 16, 1 

2017-10-01 17:25:50,#P#, 0, 0, 17, 1 

2017-10-01 17:25:50,#P#, 0, 0, 18, 1 

2017-10-01 17:25:50,#P#, 0, 0, 19, 1 

2017-10-01 17:25:50,#P#, 0, 0, 20, 1 

2017-10-01 17:25:50,#P#, 0, 0, 21, 1 

2017-10-01 17:25:50,#P#, 0, 0, 22, 1 

2017-10-01 17:25:50,#P#, 0, 0, 23, 1 

2017-10-01 17:25:50,#P#, 0, 0, 24, 1 

2017-10-01 17:25:50,#P#, 0, 0, 25, 1 

2017-10-01 17:25:50,#P#, 0, 0, 26, 1 

2017-10-01 17:25:50,#P#, 0, 0, 27, 1 

2017-10-01 17:25:50,#P#, 0, 0, 28, 1 

2017-10-01 17:25:50,#P#, 0, 0, 29, 1 

2017-10-01 17:25:50,#P#, 0, 0, 30, 1 

2017-10-01 17:25:50,#P#, 0, 0, 31, 1 

2017-10-01 17:25:50,#P#, 0, 0, 32, 1 

2017-10-01 17:25:50,#P#, 0, 0, 33, 1 

2017-10-01 17:25:50,#P#, 0, 0, 34, 1 

2017-10-01 17:25:50,#P#, 0, 0, 35, 1 

2017-10-01 17:25:50,#P#, 0, 0, 36, 1 

2017-10-01 17:25:50,#P#, 0, 0, 37, 1 

2017-10-01 17:25:50,#P#, 0, 0, 38, 1 

2017-10-01 17:25:50,#P#, 0, 0, 39, 1 

2017-10-01 17:25:50,#P#, 0, 0, 40, 1 

2017-10-01 17:25:50,#P#, 0, 0, 41, 1 

2017-10-01 17:25:50,#P#, 0, 0, 42, 1 

2017-10-01 17:25:50,#P#, 0, 0, 43, 1 

2017-10-01 17:25:50,#P#, 0, 0, 44, 1 

2017-10-01 17:25:50,#P#, 0, 0, 45, 1 

2017-10-01 17:25:50,#P#, 0, 0, 46, 1 

2017-10-01 17:25:50,#P#, 0, 0, 47, 1 

2017-10-01 17:25:50,#P#, 0, 0, 48, 1 

2017-10-01 17:25:50,#P#, 0, 0, 49, 1 

2017-10-01 17:25:50,#P#, 0, 0, 50, 1 

2017-10-01 17:25:50,#P#, 0, 0, 51, 1 

2017-10-01 17:25:50,#P#, 0, 0, 52, 1 

2017-10-01 17:25:50,#P#, 0, 0, 53, 1 

2017-10-01 17:25:50,#P#, 0, 0, 54, 1 

2017-10-01 17:25:50,#P#, 0, 0, 55, 1 

2017-10-01 17:25:50,#P#, 0, 0, 56, 1 

2017-10-01 17:25:50,#P#, 0, 0, 57, 1 

2017-10-01 17:25:50,#P#, 0, 0, 58, 1 

2017-10-01 17:25:50,#P#, 0, 0, 59, 1 

2017-10-01 17:25:50,#P#, 0, 0, 60, 1 

2017-10-01 17:25:50,#P#, 0, 0, 61, 1 

2017-10-01 17:25:50,#P#, 0, 0, 62, 1 

2017-10-01 17:25:50,#P#, 0, 0, 63, 1 

2017-10-01 17:25:50,#P#, 0, 0, 64, 1 

2017-10-01 17:25:50,#P#, 0, 0, 65, 1 

2017-10-01 17:25:50,#P#, 0, 0, 66, 1 

2017-10-01 17:25:50,#P#, 0, 0, 67, 1 

2017-10-01 17:25:50,#P#, 0, 0, 68, 1 

2017-10-01 17:25:50,#P#, 0, 0, 69, 1 

2017-10-01 17:25:50,#P#, 0, 0, 70, 1 

2017-10-01 17:25:50,#P#, 0, 0, 71, 1 

2017-10-01 17:25:50,#P#, 0, 0, 72, 1 

2017-10-01 17:25:50,#P#, 0, 0, 73, 1 

2017-10-01 17:25:50,#P#, 0, 0, 74, 1 

2017-10-01 17:25:50,#P#, 0, 0, 75, 1 

2017-10-01 17:25:50,#P#, 0, 0, 76, 1 

2017-10-01 17:25:50,#P#, 0, 0, 77, 1 

2017-10-01 17:25:50,#P#, 0, 0, 78, 1 

2017-10-01 17:25:50,#P#, 0, 0, 79, 1 

2017-10-01 17:25:50,#P#, 0, 0, 80, 1 

2017-10-01 17:25:50,#P#, 0, 0, 81, 1 

2017-10-01 17:25:50,#P#, 0, 0, 82, 1 

2017-10-01 17:25:50,#P#, 0, 0, 83, 1 

2017-10-01 17:25:50,#P#, 0, 0, 84, 1 

2017-10-01 17:25:50,#P#, 0, 0, 85, 1 

2017-10-01 17:25:50,#P#, 0, 0, 86, 1 

2017-10-01 17:25:50,#P#, 0, 0, 87, 1 

2017-10-01 17:25:50,#P#, 0, 0, 88, 1 

2017-10-01 17:25:50,#P#, 0, 0, 89, 1 

2017-10-01 17:25:50,#P#, 0, 0, 90, 1 

2017-10-01 17:25:50,#P#, 0, 0, 91, 1 

2017-10-01 17:25:50,#P#, 0, 0, 92, 1 

2017-10-01 17:25:50,#P#, 0, 0, 93, 1 

2017-10-01 17:25:50,#P#, 0, 0, 94, 1 

2017-10-01 17:25:50,#P#, 0, 0, 95, 1 

2017-10-01 17:25:50,#P#, 0, 0, 96, 1 

2017-10-01 17:25:50,#P#, 0, 0, 97, 1 

2017-10-01 17:25:50,#P#, 0, 0, 98, 1 

2017-10-01 17:25:50,#P#, 0, 0, 99, 1 

2017-10-01 17:25:50,#P#, 0, 0, 100, 1 

2017-10-01 17:25:50,#P#, 0, 0, 101, 1 

2017-10-01 17:25:50,#P#, 0, 0, 102, 1 

2017-10-01 17:25:50,#P#, 0, 0, 103, 1 

2017-10-01 17:25:50,#P#, 0, 0, 104, 1 

2017-10-01 17:25:50,#P#, 0, 0, 105, 1 

2017-10-01 17:25:50,#P#, 0, 0, 106, 1 

2017-10-01 17:25:50,#P#, 0, 0, 107, 1 

2017-10-01 17:25:50,#P#, 0, 0, 108, 1 

2017-10-01 17:25:50,#P#, 0, 0, 109, 1 

2017-10-01 17:25:50,#P#, 0, 0, 110, 1 

2017-10-01 17:25:50,#P#, 0, 0, 111, 1 

2017-10-01 17:25:50,#P#, 0, 0, 112, 1 

2017-10-01 17:25:50,#P#, 0, 0, 113, 1 

2017-10-01 17:25:50,#P#, 0, 0, 114, 1 

2017-10-01 17:25:50,#P#, 0, 0, 115, 1 

2017-10-01 17:25:50,#P#, 0, 0, 116, 1 

2017-10-01 17:25:50,#P#, 0, 0, 117, 1 

2017-10-01 17:25:50,#P#, 0, 0, 118, 1 

2017-10-01 17:25:50,#P#, 0, 0, 119, 1 

2017-10-01 17:25:50,#P#, 0, 0, 120, 1 

2017-10-01 17:25:50,#P#, 0, 0, 121, 1 

2017-10-01 17:25:50,#P#, 0, 0, 122, 1 

2017-10-01 17:25:50,#P#, 0, 0, 123, 1 

2017-10-01 17:25:50,#P#, 0, 0, 124, 1 

2017-10-01 17:25:50,#P#, 0, 0, 125, 1 

2017-10-01 17:25:50,#P#, 0, 0, 126, 1 

2017-10-01 17:25:50,#P#, 0, 0, 127, 1 

2017-10-01 17:25:50,#P#, 0, 0, 128, 1 

2017-10-01 17:25:50,#P#, 0, 0, 129, 1 

2017-10-01 17:25:50,#P#, 0, 0, 130, 1 

2017-10-01 17:25:50,#P#, 0, 0, 131, 1 

2017-10-01 17:25:50,#P#, 0, 0, 132, 1 

2017-10-01 17:25:50,#P#, 0, 0, 133, 1 

2017-10-01 17:25:50,#P#, 0, 0, 134, 1 

2017-10-01 17:25:50,#P#, 0, 0, 135, 1 

2017-10-01 17:25:50,#P#, 0, 0, 136, 1 

2017-10-01 17:25:50,#P#, 0, 0, 137, 1 

2017-10-01 17:25:50,#P#, 0, 0, 138, 1 

2017-10-01 17:25:50,#P#, 0, 0, 139, 1 

2017-10-01 17:25:50,#P#, 0, 0, 140, 1 

2017-10-01 17:25:50,#P#, 0, 0, 141, 1 

2017-10-01 17:25:50,#P#, 0, 0, 142, 1 

2017-10-01 17:25:50,#P#, 0, 0, 143, 1 

2017-10-01 17:25:50,#P#, 0, 0, 144, 1 

2017-10-01 17:25:50,#P#, 0, 0, 145, 1 

2017-10-01 17:25:50,#P#, 0, 0, 146, 1 

2017-10-01 17:25:50,#P#, 0, 0, 147, 1 

2017-10-01 17:25:50,#P#, 0, 0, 148, 1 

2017-10-01 17:25:50,#P#, 0, 0, 149, 1 

2017-10-01 17:25:50,#P#, 0, 0, 150, 1 

2017-10-01 17:25:50,#P#, 0, 0, 151, 1 

2017-10-01 17:25:50,#P#, 0, 0, 152, 1 

2017-10-01 17:25:50,#P#, 0, 0, 153, 1 

2017-10-01 17:25:50,#P#, 0, 0, 154, 1 

2017-10-01 17:25:50,#P#, 0, 0, 155, 1 

2017-10-01 17:25:50,#P#, 0, 0, 156, 1 

2017-10-01 17:25:50,#P#, 0, 0, 157, 1 

2017-10-01 17:25:50,#P#, 0, 0, 158, 1 

2017-10-01 17:25:50,#P#, 0, 0, 159, 1 

2017-10-01 17:25:50,#P#, 0, 0, 160, 1 

2017-10-01 17:25:50,#P#, 0, 0, 161, 1 

2017-10-01 17:25:50,#P#, 0, 0, 162, 1 

2017-10-01 17:25:50,#P#, 0, 0, 163, 1 

2017-10-01 17:25:50,#P#, 0, 0, 164, 1 

2017-10-01 17:25:50,#P#, 0, 0, 165, 1 

2017-10-01 17:25:50,#P#, 0, 0, 166, 1 

2017-10-01 17:25:50,#P#, 0, 0, 167, 1 

2017-10-01 17:25:50,#P#, 0, 0, 168, 1 

2017-10-01 17:25:50,#P#, 0, 0, 169, 1 

2017-10-01 17:25:50,#P#, 0, 0, 170, 1 

2017-10-01 17:25:50,#P#, 0, 0, 171, 1 

2017-10-01 17:25:51,#P#, 0, 0, 172, 1 

2017-10-01 17:25:51,#P#, 0, 0, 173, 1 

2017-10-01 17:25:51,#P#, 0, 0, 174, 1 

2017-10-01 17:25:51,#P#, 0, 0, 175, 1 

2017-10-01 17:25:51,#P#, 0, 0, 176, 1 

2017-10-01 17:25:51,#P#, 0, 0, 177, 1 

2017-10-01 17:25:51,#P#, 0, 0, 178, 1 

2017-10-01 17:25:51,#P#, 0, 0, 179, 1 

2017-10-01 17:25:51,#P#, 0, 0, 180, 1 

2017-10-01 17:25:51,#P#, 0, 0, 181, 1 

2017-10-01 17:25:51,#P#, 0, 0, 182, 1 

2017-10-01 17:25:51,#P#, 0, 0, 183, 1 

2017-10-01 17:25:51,#P#, 0, 0, 184, 1 

2017-10-01 17:25:51,#P#, 0, 0, 185, 1 

2017-10-01 17:25:51,#P#, 0, 0, 186, 1 

2017-10-01 17:25:51,#P#, 0, 0, 187, 1 

2017-10-01 17:25:51,#P#, 0, 0, 188, 1 

2017-10-01 17:25:51,#P#, 0, 0, 189, 1 

2017-10-01 17:25:51,#P#, 0, 0, 190, 1 

2017-10-01 17:25:51,#P#, 0, 0, 191, 1 

2017-10-01 17:25:51,#P#, 0, 0, 192, 1 

2017-10-01 17:25:51,#P#, 0, 0, 193, 1 

2017-10-01 17:25:51,#P#, 0, 0, 194, 1 

2017-10-01 17:25:51,#P#, 0, 0, 195, 1 

2017-10-01 17:25:51,#P#, 0, 0, 196, 1 

2017-10-01 17:25:51,#P#, 0, 0, 197, 1 

2017-10-01 17:25:51,#P#, 0, 0, 198, 1 

2017-10-01 17:25:51,#P#, 0, 0, 199, 1 

2017-10-01 17:25:51,*******DONE*******#

Exiting PsocAmPreRad
#E0E00001A0A00AM_DC_SN.

2017-10-01 17:25:52, 45,:e,:0,:0,:1a,:a,:0 @

2017-10-01 17:25:52,*SeqNo,Samples,DAC_Cnt,BGapReg,GainReg,AM_VCal,BGO,Isense0,Isense1

2017-10-01 17:25:53,#E#,0,10,0,0,0,0,0,0,0

2017-10-01 17:25:54,#E#,1,10,0,0,0,0,0,0,0

2017-10-01 17:25:55,#E#,2,10,0,0,0,0,0,0,0

2017-10-01 17:25:56,#E#,3,10,0,0,0,0,0,0,0

2017-10-01 17:25:57,#E#,4,10,0,0,0,0,0,0,0

2017-10-01 17:25:58,#E#,5,10,599,0,0,27,2472,0,0

2017-10-01 17:25:59,#E#,6,10,599,0,0,27,2472,0,0

2017-10-01 17:25:59,#E#,7,10,599,0,0,27,2472,0,0

2017-10-01 17:26:00,#E#,8,10,599,0,0,27,2472,0,0

2017-10-01 17:26:01,#E#,9,10,599,0,0,27,2472,0,0

2017-10-01 17:26:02,#E#,10,10,0,0,0,0,0,0,0

2017-10-01 17:26:03,#E#,11,10,0,0,0,0,0,0,0

2017-10-01 17:26:04,#E#,12,10,0,0,0,0,0,0,0

2017-10-01 17:26:05,#E#,13,10,0,0,0,0,0,0,0

2017-10-01 17:26:06,#E#,14,10,0,0,0,0,0,0,0

2017-10-01 17:26:07,#E#,15,10,599,0,0,27,2472,0,0

2017-10-01 17:26:08,#E#,16,10,599,0,0,27,2472,0,0

2017-10-01 17:26:09,#E#,17,10,599,0,0,27,2472,0,0

2017-10-01 17:26:09,#E#,18,10,599,0,0,27,2472,0,0

2017-10-01 17:26:10,#E#,19,10,599,0,0,27,2472,0,0

2017-10-01 17:26:11,#E#,20,10,0,0,0,0,0,0,0

2017-10-01 17:26:12,#E#,21,10,0,0,0,0,0,0,0

2017-10-01 17:26:13,#E#,22,10,0,0,0,0,0,0,0

2017-10-01 17:26:14,#E#,23,10,0,0,0,0,0,0,0

2017-10-01 17:26:15,#E#,24,10,0,0,0,0,0,0,0

2017-10-01 17:26:16,#E#,25,10,599,0,0,27,2472,0,0

2017-10-01 17:26:17,#E#,26,10,599,0,0,27,2472,0,0

2017-10-01 17:26:18,#E#,27,10,599,0,0,27,2472,0,0

2017-10-01 17:26:18,#E#,28,10,599,0,0,27,2472,0,0

2017-10-01 17:26:19,#E#,29,10,599,0,0,27,2472,0,0

2017-10-01 17:26:20,#E#,30,10,0,0,0,0,0,0,0

2017-10-01 17:26:21,#E#,31,10,0,0,0,0,0,0,0

2017-10-01 17:26:22,#E#,32,10,0,0,0,0,0,0,0

2017-10-01 17:26:23,#E#,33,10,0,0,0,0,0,0,0

2017-10-01 17:26:24,#E#,34,10,0,0,0,0,0,0,0

2017-10-01 17:26:25,#E#,35,10,599,0,0,27,2472,0,0

2017-10-01 17:26:26,#E#,36,10,599,0,0,27,2472,0,0

2017-10-01 17:26:27,#E#,37,10,599,0,0,27,2472,0,0

2017-10-01 17:26:28,#E#,38,10,599,0,0,27,2472,0,0

2017-10-01 17:26:28,#E#,39,10,599,0,0,27,2472,0,0

2017-10-01 17:26:29,#E#,40,10,0,0,0,0,0,0,0

2017-10-01 17:26:30,#E#,41,10,0,0,0,0,0,0,0

2017-10-01 17:26:31,#E#,42,10,0,0,0,0,0,0,0

2017-10-01 17:26:32,#E#,43,10,0,0,0,0,0,0,0

2017-10-01 17:26:33,#E#,44,10,0,0,0,0,0,0,0

2017-10-01 17:26:34,#E#,45,10,599,0,0,26,2473,0,0

2017-10-01 17:26:35,#E#,46,10,599,0,0,26,2473,0,0

2017-10-01 17:26:36,#E#,47,10,599,0,0,26,2473,0,0

2017-10-01 17:26:37,#E#,48,10,599,0,0,26,2473,0,0

2017-10-01 17:26:38,#E#,49,10,599,0,0,26,2473,0,0

2017-10-01 17:26:38,#E#,50,10,0,0,0,0,0,0,0

2017-10-01 17:26:39,#E#,51,10,0,0,0,0,0,0,0

2017-10-01 17:26:40,#E#,52,10,0,0,0,0,0,0,0

2017-10-01 17:26:41,#E#,53,10,0,0,0,0,0,0,0

2017-10-01 17:26:42,#E#,54,10,0,0,0,0,0,0,0

2017-10-01 17:26:43,#E#,55,10,599,0,0,26,2473,0,0

2017-10-01 17:26:44,#E#,56,10,599,0,0,26,2473,0,0

2017-10-01 17:26:45,#E#,57,10,599,0,0,26,2473,0,0

2017-10-01 17:26:46,#E#,58,10,599,0,0,26,2473,0,0

2017-10-01 17:26:47,#E#,59,10,599,0,0,26,2473,0,0

2017-10-01 17:26:48,#E#,60,10,0,0,0,0,0,0,0

2017-10-01 17:26:48,#E#,61,10,0,0,0,0,0,0,0

2017-10-01 17:26:49,#E#,62,10,0,0,0,0,0,0,0

2017-10-01 17:26:50,#E#,63,10,0,0,0,0,0,0,0

2017-10-01 17:26:51,#E#,64,10,599,0,0,26,2473,0,0

2017-10-01 17:26:52,#E#,65,10,599,0,0,26,2473,0,0

2017-10-01 17:26:53,#E#,66,10,599,0,0,26,2473,0,0

2017-10-01 17:26:54,#E#,67,10,599,0,0,26,2473,0,0

2017-10-01 17:26:55,#E#,68,10,599,0,0,26,2473,0,0

2017-10-01 17:26:56,#E#,69,10,0,0,0,0,0,0,0

2017-10-01 17:26:57,#E#,70,10,0,0,0,0,0,0,0

2017-10-01 17:26:58,#E#,71,10,0,0,0,0,0,0,0

2017-10-01 17:26:58,#E#,72,10,0,0,0,0,0,0,0

2017-10-01 17:26:59,#E#,73,10,0,0,0,0,0,0,0

2017-10-01 17:27:00,#E#,74,10,599,0,0,26,2473,0,0

2017-10-01 17:27:01,#E#,75,10,599,0,0,26,2473,0,0

2017-10-01 17:27:02,#E#,76,10,599,0,0,26,2473,0,0

2017-10-01 17:27:03,#E#,77,10,599,0,0,26,2473,0,0

2017-10-01 17:27:04,#E#,78,10,599,0,0,26,2473,0,0

2017-10-01 17:27:05,#E#,79,10,0,0,0,0,0,0,0

2017-10-01 17:27:06,#E#,80,10,0,0,0,0,0,0,0

2017-10-01 17:27:07,#E#,81,10,0,0,0,0,0,0,0

2017-10-01 17:27:08,#E#,82,10,0,0,0,0,0,0,0

2017-10-01 17:27:08,#E#,83,10,0,0,0,0,0,0,0

2017-10-01 17:27:09,#E#,84,10,599,0,0,26,2473,0,0

2017-10-01 17:27:10,#E#,85,10,599,0,0,26,2473,0,0

2017-10-01 17:27:11,#E#,86,10,599,0,0,26,2473,0,0

2017-10-01 17:27:12,#E#,87,10,599,0,0,26,2473,0,0

2017-10-01 17:27:13,#E#,88,10,599,0,0,26,2473,0,0

2017-10-01 17:27:14,#E#,89,10,0,0,0,0,0,0,0

2017-10-01 17:27:15,#E#,90,10,0,0,0,0,0,0,0

2017-10-01 17:27:16,#E#,91,10,0,0,0,0,0,0,0

2017-10-01 17:27:17,#E#,92,10,0,0,0,0,0,0,0

2017-10-01 17:27:18,#E#,93,10,0,0,0,0,0,0,0

2017-10-01 17:27:18,#E#,94,10,599,0,0,26,2473,0,0

2017-10-01 17:27:19,#E#,95,10,599,0,0,26,2473,0,0

2017-10-01 17:27:20,#E#,96,10,599,0,0,26,2473,0,0

2017-10-01 17:27:21,#E#,97,10,599,0,0,26,2473,0,0

2017-10-01 17:27:22,#E#,98,10,599,0,0,26,2473,0,0

2017-10-01 17:27:23,#E#,99,10,0,0,0,0,0,0,0

2017-10-01 17:27:24,
2017-10-01 17:27:24,#E#,0,10,0,273,17,0,0,69,69

2017-10-01 17:27:25,#E#,1,10,0,273,17,0,0,69,69

2017-10-01 17:27:26,#E#,2,10,0,273,17,0,0,69,69

2017-10-01 17:27:27,#E#,3,10,0,273,17,0,0,69,69

2017-10-01 17:27:28,#E#,4,10,599,273,17,33,2468,69,69

2017-10-01 17:27:29,#E#,5,10,599,273,17,32,2468,69,69

2017-10-01 17:27:29,#E#,6,10,599,273,17,32,2469,69,69

2017-10-01 17:27:30,#E#,7,10,599,273,17,32,2469,69,69

2017-10-01 17:27:31,#E#,8,10,599,273,17,31,2470,69,69

2017-10-01 17:27:32,#E#,9,10,0,273,17,0,0,69,69

2017-10-01 17:27:33,#E#,10,10,0,273,17,0,0,69,69

2017-10-01 17:27:34,#E#,11,10,0,273,17,0,0,69,69

2017-10-01 17:27:35,#E#,12,10,0,273,17,0,0,69,69

2017-10-01 17:27:36,#E#,13,10,0,273,17,0,0,69,69

2017-10-01 17:27:37,#E#,14,10,599,273,17,29,2472,69,69

2017-10-01 17:27:38,#E#,15,10,599,273,17,29,2472,69,69

2017-10-01 17:27:39,#E#,16,10,599,273,17,28,2473,69,69

2017-10-01 17:27:39,#E#,17,10,599,273,17,28,2473,69,69

2017-10-01 17:27:40,#E#,18,10,599,273,17,27,2473,69,69

2017-10-01 17:27:41,#E#,19,10,0,273,17,0,0,69,69

2017-10-01 17:27:42,#E#,20,10,0,273,17,0,0,69,69

2017-10-01 17:27:43,#E#,21,10,0,273,17,0,0,69,69

2017-10-01 17:27:44,#E#,22,10,0,273,17,0,0,69,69

2017-10-01 17:27:45,#E#,23,10,0,273,17,0,0,69,69

2017-10-01 17:27:46,#E#,24,10,599,273,17,25,2476,69,69

2017-10-01 17:27:47,#E#,25,10,599,273,17,25,2476,69,69

2017-10-01 17:27:48,#E#,26,10,599,273,17,24,2476,69,69

2017-10-01 17:27:49,#E#,27,10,599,273,17,24,2477,69,69

2017-10-01 17:27:49,#E#,28,10,0,273,17,0,0,69,69

2017-10-01 17:27:50,#E#,29,10,0,273,17,0,0,69,69

2017-10-01 17:27:51,#E#,30,10,0,273,17,0,0,69,69

2017-10-01 17:27:52,#E#,31,10,0,273,17,0,0,69,69

2017-10-01 17:27:53,#E#,32,10,0,273,17,0,0,69,69

2017-10-01 17:27:54,#E#,33,10,599,273,17,22,2479,69,69

2017-10-01 17:27:55,#E#,34,10,599,273,17,21,2479,69,69

2017-10-01 17:27:56,#E#,35,10,599,273,17,21,2480,69,69

2017-10-01 17:27:57,#E#,36,10,599,273,17,21,2480,69,69

2017-10-01 17:27:58,#E#,37,10,599,273,17,20,2481,69,69

2017-10-01 17:27:59,#E#,38,10,0,273,17,0,0,69,69

2017-10-01 17:27:59,#E#,39,10,0,273,17,0,0,69,69

2017-10-01 17:28:00,#E#,40,10,0,273,17,0,0,69,69

2017-10-01 17:28:01,#E#,41,10,0,273,17,0,0,69,69

2017-10-01 17:28:02,#E#,42,10,0,273,17,0,0,69,69

2017-10-01 17:28:03,#E#,43,10,599,273,17,18,2483,69,69

2017-10-01 17:28:04,#E#,44,10,599,273,17,17,2483,69,69

2017-10-01 17:28:05,#E#,45,10,599,273,17,17,2484,69,69

2017-10-01 17:28:06,#E#,46,10,599,273,17,17,2484,69,69

2017-10-01 17:28:07,#E#,47,10,599,273,17,17,2484,69,69

2017-10-01 17:28:08,#E#,48,10,0,273,17,0,0,69,69

2017-10-01 17:28:09,#E#,49,10,0,273,17,0,0,69,69

2017-10-01 17:28:09,#E#,50,10,0,273,17,0,0,69,69

2017-10-01 17:28:10,#E#,51,10,0,273,17,0,0,69,69

2017-10-01 17:28:11,#E#,52,10,0,273,17,0,0,69,69

2017-10-01 17:28:12,#E#,53,10,599,273,17,14,2487,69,69

2017-10-01 17:28:13,#E#,54,10,599,273,17,14,2487,69,69

2017-10-01 17:28:14,#E#,55,10,599,273,17,14,2487,69,69

2017-10-01 17:28:15,#E#,56,10,599,273,17,13,2488,69,69

2017-10-01 17:28:16,#E#,57,10,599,273,17,13,2488,69,69

2017-10-01 17:28:17,#E#,58,10,0,273,17,0,0,69,69

2017-10-01 17:28:18,#E#,59,10,0,273,17,0,0,69,69

2017-10-01 17:28:18,#E#,60,10,0,273,17,0,0,69,69

2017-10-01 17:28:19,#E#,61,10,0,273,17,0,0,69,69

2017-10-01 17:28:20,#E#,62,10,0,273,17,0,0,69,69

2017-10-01 17:28:21,#E#,63,10,599,273,17,10,2490,69,69

2017-10-01 17:28:22,#E#,64,10,599,273,17,10,2491,69,69

2017-10-01 17:28:23,#E#,65,10,599,273,17,9,2491,69,69

2017-10-01 17:28:24,#E#,66,10,599,273,17,9,2492,69,69

2017-10-01 17:28:25,#E#,67,10,599,273,17,9,2492,69,69

2017-10-01 17:28:26,#E#,68,10,0,273,17,0,0,69,69

2017-10-01 17:28:27,#E#,69,10,0,273,17,0,0,69,69

2017-10-01 17:28:28,#E#,70,10,0,273,17,0,0,69,69

2017-10-01 17:28:28,#E#,71,10,0,273,17,0,0,69,69

2017-10-01 17:28:29,#E#,72,10,0,273,17,0,0,69,69

2017-10-01 17:28:30,#E#,73,10,599,273,17,6,2494,69,69

2017-10-01 17:28:31,#E#,74,10,599,273,17,6,2495,69,69

2017-10-01 17:28:32,#E#,75,10,599,273,17,6,2495,69,69

2017-10-01 17:28:33,#E#,76,10,599,273,17,5,2496,69,69

2017-10-01 17:28:34,#E#,77,10,599,273,17,5,2496,69,69

2017-10-01 17:28:35,#E#,78,10,0,273,17,0,0,69,69

2017-10-01 17:28:36,#E#,79,10,0,273,17,0,0,69,69

2017-10-01 17:28:37,#E#,80,10,0,273,17,0,0,69,69

2017-10-01 17:28:38,#E#,81,10,0,273,17,0,0,69,69

2017-10-01 17:28:38,#E#,82,10,0,273,17,0,0,69,69

2017-10-01 17:28:39,#E#,83,10,599,273,17,3,2498,69,69

2017-10-01 17:28:40,#E#,84,10,599,273,17,2,2499,69,69

2017-10-01 17:28:41,#E#,85,10,599,273,17,2,2499,69,69

2017-10-01 17:28:42,#E#,86,10,599,273,17,2,2499,69,69

2017-10-01 17:28:43,#E#,87,10,599,273,17,1,0,69,69

2017-10-01 17:28:44,#E#,88,10,0,273,17,0,0,69,69

2017-10-01 17:28:45,#E#,89,10,0,273,17,0,0,69,69

2017-10-01 17:28:46,#E#,90,10,0,273,17,0,0,69,69

2017-10-01 17:28:47,#E#,91,10,0,273,17,0,0,69,69

2017-10-01 17:28:48,#E#,92,10,599,273,17,2499,2,69,69

2017-10-01 17:28:48,#E#,93,10,599,273,17,2499,2,69,69

2017-10-01 17:28:49,#E#,94,10,599,273,17,2499,2,69,69

2017-10-01 17:28:50,#E#,95,10,599,273,17,2498,3,69,69

2017-10-01 17:28:51,#E#,96,10,599,273,17,2498,3,69,69

2017-10-01 17:28:52,#E#,97,10,0,273,17,0,0,69,69

2017-10-01 17:28:53,#E#,98,10,0,273,17,0,0,69,69

2017-10-01 17:28:54,#E#,99,10,0,273,17,0,0,69,69

2017-10-01 17:28:55,
2017-10-01 17:28:55,#E#,0,10,0,546,34,0,0,138,138

2017-10-01 17:28:56,#E#,1,10,0,546,34,0,0,138,138

2017-10-01 17:28:57,#E#,2,10,599,546,34,2496,5,138,138

2017-10-01 17:28:58,#E#,3,10,599,546,34,2495,6,138,138

2017-10-01 17:28:59,#E#,4,10,599,546,34,2495,6,138,138

2017-10-01 17:28:59,#E#,5,10,599,546,34,2494,7,138,138

2017-10-01 17:29:00,#E#,6,10,599,546,34,2494,7,138,138

2017-10-01 17:29:01,#E#,7,10,0,546,34,0,0,138,138

2017-10-01 17:29:02,#E#,8,10,0,546,34,0,0,138,138

2017-10-01 17:29:03,#E#,9,10,0,546,34,0,0,138,138

2017-10-01 17:29:04,#E#,10,10,0,546,34,0,0,138,138

2017-10-01 17:29:05,#E#,11,10,0,546,34,0,0,138,138

2017-10-01 17:29:06,#E#,12,10,599,546,34,2492,9,138,138

2017-10-01 17:29:07,#E#,13,10,599,546,34,2491,10,138,138

2017-10-01 17:29:08,#E#,14,10,599,546,34,2491,10,138,138

2017-10-01 17:29:09,#E#,15,10,599,546,34,2491,10,138,138

2017-10-01 17:29:09,#E#,16,10,599,546,34,2490,11,138,138

2017-10-01 17:29:10,#E#,17,10,0,546,34,0,0,138,138

2017-10-01 17:29:11,#E#,18,10,0,546,34,0,0,138,138

2017-10-01 17:29:12,#E#,19,10,0,546,34,0,0,138,138

2017-10-01 17:29:13,#E#,20,10,0,546,34,0,0,138,138

2017-10-01 17:29:14,#E#,21,10,0,546,34,0,0,138,138

2017-10-01 17:29:15,#E#,22,10,599,546,34,2488,13,138,138

2017-10-01 17:29:16,#E#,23,10,599,546,34,2488,14,138,138

2017-10-01 17:29:17,#E#,24,10,599,546,34,2487,14,138,138

2017-10-01 17:29:18,#E#,25,10,599,546,34,2487,14,138,138

2017-10-01 17:29:19,#E#,26,10,599,546,34,2486,15,138,138

2017-10-01 17:29:19,#E#,27,10,0,546,34,0,0,138,138

2017-10-01 17:29:20,#E#,28,10,0,546,34,0,0,138,138

2017-10-01 17:29:21,#E#,29,10,0,546,34,0,0,138,138

2017-10-01 17:29:22,#E#,30,10,0,546,34,0,0,138,138

2017-10-01 17:29:23,#E#,31,10,0,546,34,0,0,138,138

2017-10-01 17:29:24,#E#,32,10,599,546,34,2484,17,138,138

2017-10-01 17:29:25,#E#,33,10,599,546,34,2484,17,138,138

2017-10-01 17:29:26,#E#,34,10,599,546,34,2483,18,138,138

2017-10-01 17:29:27,#E#,35,10,599,546,34,2483,18,138,138

2017-10-01 17:29:28,#E#,36,10,599,546,34,2483,18,138,138

2017-10-01 17:29:29,#E#,37,10,0,546,34,0,0,138,138

2017-10-01 17:29:29,#E#,38,10,0,546,34,0,0,138,138

2017-10-01 17:29:30,#E#,39,10,0,546,34,0,0,138,138

2017-10-01 17:29:31,#E#,40,10,0,546,34,0,0,138,138

2017-10-01 17:29:32,#E#,41,10,0,546,34,0,0,138,138

2017-10-01 17:29:33,#E#,42,10,599,546,34,2480,21,138,138

2017-10-01 17:29:34,#E#,43,10,599,546,34,2480,21,138,138

2017-10-01 17:29:35,#E#,44,10,599,546,34,2480,22,138,138

2017-10-01 17:29:36,#E#,45,10,599,546,34,2479,22,138,138

2017-10-01 17:29:37,#E#,46,10,599,546,34,2479,22,138,138

2017-10-01 17:29:38,#E#,47,10,0,546,34,0,0,138,138

2017-10-01 17:29:39,#E#,48,10,0,546,34,0,0,138,138

2017-10-01 17:29:39,#E#,49,10,0,546,34,0,0,138,138

2017-10-01 17:29:40,#E#,50,10,0,546,34,0,0,138,138

2017-10-01 17:29:41,#E#,51,10,0,546,34,0,0,138,138

2017-10-01 17:29:42,#E#,52,10,599,546,34,2477,25,138,138

2017-10-01 17:29:43,#E#,53,10,599,546,34,2476,25,138,138

2017-10-01 17:29:44,#E#,54,10,599,546,34,2476,25,138,138

2017-10-01 17:29:45,#E#,55,10,599,546,34,2475,26,138,138

2017-10-01 17:29:46,#E#,56,10,0,546,34,0,0,138,138

2017-10-01 17:29:47,#E#,57,10,0,546,34,0,0,138,138

2017-10-01 17:29:48,#E#,58,10,0,546,34,0,0,138,138

2017-10-01 17:29:49,#E#,59,10,0,546,34,0,0,138,138

2017-10-01 17:29:49,#E#,60,10,0,546,34,0,0,138,138

2017-10-01 17:29:50,#E#,61,10,599,546,34,2473,28,138,138

2017-10-01 17:29:51,#E#,62,10,599,546,34,2473,28,138,138

2017-10-01 17:29:52,#E#,63,10,599,546,34,2472,29,138,138

2017-10-01 17:29:53,#E#,64,10,599,546,34,2472,29,138,138

2017-10-01 17:29:54,#E#,65,10,599,546,34,2472,30,138,138

2017-10-01 17:29:55,#E#,66,10,0,546,34,0,0,138,138

2017-10-01 17:29:56,#E#,67,10,0,546,34,0,0,138,138

2017-10-01 17:29:57,#E#,68,10,0,546,34,0,0,138,138

2017-10-01 17:29:58,#E#,69,10,0,546,34,0,0,138,138

2017-10-01 17:29:59,#E#,70,10,0,546,34,0,0,138,138

2017-10-01 17:29:59,#E#,71,10,599,546,34,2469,32,138,138

2017-10-01 17:30:00,#E#,72,10,599,546,34,2469,32,138,138

2017-10-01 17:30:01,#E#,73,10,599,546,34,2469,32,138,138

2017-10-01 17:30:02,#E#,74,10,599,546,34,2468,33,138,138

2017-10-01 17:30:03,#E#,75,10,599,546,34,2468,33,138,138

2017-10-01 17:30:04,#E#,76,10,0,546,34,0,0,138,138

2017-10-01 17:30:05,#E#,77,10,0,546,34,0,0,138,138

2017-10-01 17:30:06,#E#,78,10,0,546,34,0,0,138,138

2017-10-01 17:30:07,#E#,79,10,0,546,34,0,0,138,138

2017-10-01 17:30:08,#E#,80,10,0,546,34,0,0,138,138

2017-10-01 17:30:09,#E#,81,10,599,546,34,2466,36,138,138

2017-10-01 17:30:09,#E#,82,10,599,546,34,2465,36,138,138

2017-10-01 17:30:10,#E#,83,10,599,546,34,2465,36,138,138

2017-10-01 17:30:11,#E#,84,10,599,546,34,2465,37,138,138

2017-10-01 17:30:12,#E#,85,10,599,546,34,2464,37,138,138

2017-10-01 17:30:13,#E#,86,10,0,546,34,0,0,138,138

2017-10-01 17:30:14,#E#,87,10,0,546,34,0,0,138,138

2017-10-01 17:30:15,#E#,88,10,0,546,34,0,0,138,138

2017-10-01 17:30:16,#E#,89,10,0,546,34,0,0,138,138

2017-10-01 17:30:17,#E#,90,10,0,546,34,0,0,138,138

2017-10-01 17:30:18,#E#,91,10,599,546,34,2462,39,138,138

2017-10-01 17:30:19,#E#,92,10,599,546,34,2462,40,138,138

2017-10-01 17:30:19,#E#,93,10,599,546,34,2461,40,138,138

2017-10-01 17:30:20,#E#,94,10,599,546,34,2461,40,138,138

2017-10-01 17:30:21,#E#,95,10,599,546,34,2460,41,138,138

2017-10-01 17:30:22,#E#,96,10,0,546,34,0,0,138,138

2017-10-01 17:30:23,#E#,97,10,0,546,34,0,0,138,138

2017-10-01 17:30:24,#E#,98,10,0,546,34,0,0,138,138

2017-10-01 17:30:25,#E#,99,10,0,546,34,0,0,138,138

2017-10-01 17:30:26,
2017-10-01 17:30:26,#E#,0,10,0,819,51,0,0,207,207

2017-10-01 17:30:27,#E#,1,10,599,819,51,2458,43,207,207

2017-10-01 17:30:28,#E#,2,10,599,819,51,2458,43,207,207

2017-10-01 17:30:29,#E#,3,10,599,819,51,2457,44,207,207

2017-10-01 17:30:30,#E#,4,10,599,819,51,2457,44,207,207

2017-10-01 17:30:30,#E#,5,10,599,819,51,2457,45,207,207

2017-10-01 17:30:31,#E#,6,10,0,819,51,0,0,207,207

2017-10-01 17:30:32,#E#,7,10,0,819,51,0,0,207,207

2017-10-01 17:30:33,#E#,8,10,0,819,51,0,0,207,207

2017-10-01 17:30:34,#E#,9,10,0,819,51,0,0,207,207

2017-10-01 17:30:35,#E#,10,10,0,819,51,0,0,207,207

2017-10-01 17:30:36,#E#,11,10,599,819,51,2454,47,207,207

2017-10-01 17:30:37,#E#,12,10,599,819,51,2454,47,207,207

2017-10-01 17:30:38,#E#,13,10,599,819,51,2454,47,207,207

2017-10-01 17:30:39,#E#,14,10,599,819,51,2453,47,207,207

2017-10-01 17:30:40,#E#,15,10,599,819,51,2453,47,207,207

2017-10-01 17:30:40,#E#,16,10,0,819,51,0,0,207,207

2017-10-01 17:30:41,#E#,17,10,0,819,51,0,0,207,207

2017-10-01 17:30:42,#E#,18,10,0,819,51,0,0,207,207

2017-10-01 17:30:43,#E#,19,10,0,819,51,0,0,207,207

2017-10-01 17:30:44,#E#,20,10,599,819,51,2452,49,207,207

2017-10-01 17:30:45,#E#,21,10,599,819,51,2452,49,207,207

2017-10-01 17:30:46,#E#,22,10,599,819,51,2451,49,207,207

2017-10-01 17:30:47,#E#,23,10,599,819,51,2451,49,207,207

2017-10-01 17:30:48,#E#,24,10,599,819,51,2451,49,207,207

2017-10-01 17:30:49,#E#,25,10,0,819,51,0,0,207,207

2017-10-01 17:30:50,#E#,26,10,0,819,51,0,0,207,207

2017-10-01 17:30:50,#E#,27,10,0,819,51,0,0,207,207

2017-10-01 17:30:51,#E#,28,10,0,819,51,0,0,207,207

2017-10-01 17:30:52,#E#,29,10,0,819,51,0,0,207,207

2017-10-01 17:30:53,#E#,30,10,599,819,51,2450,50,207,207

2017-10-01 17:30:54,#E#,31,10,599,819,51,2450,50,207,207

2017-10-01 17:30:55,#E#,32,10,599,819,51,2450,50,207,207

2017-10-01 17:30:56,#E#,33,10,599,819,51,2450,51,207,207

2017-10-01 17:30:57,#E#,34,10,599,819,51,2449,51,207,207

2017-10-01 17:30:58,#E#,35,10,0,819,51,0,0,207,207

2017-10-01 17:30:59,#E#,36,10,0,819,51,0,0,207,207

2017-10-01 17:31:00,#E#,37,10,0,819,51,0,0,207,207

2017-10-01 17:31:00,#E#,38,10,0,819,51,0,0,207,207

2017-10-01 17:31:01,#E#,39,10,0,819,51,0,0,207,207

2017-10-01 17:31:02,#E#,40,10,599,819,51,2448,52,207,207

2017-10-01 17:31:03,#E#,41,10,599,819,51,2448,52,207,207

2017-10-01 17:31:04,
2017-10-01 17:31:04,#E#,42,10,599,819,51,2448,52,207,207

2017-10-01 17:31:05,#E#,43,10,599,819,51,2448,52,207,207

2017-10-01 17:31:06,#E#,44,10,599,819,51,2448,52,207,207

2017-10-01 17:31:07,#E#,45,10,0,819,51,0,0,207,207

2017-10-01 17:31:08,
2017-10-01 17:31:09,
2017-10-01 17:31:10,
2017-10-01 17:31:11,
2017-10-01 17:31:12,
2017-10-01 17:31:13,
2017-10-01 17:31:14,
2017-10-01 17:31:15,
2017-10-01 17:31:16, BGO Set:0, GAIN Set:0

2017-10-01 17:31:17,
2017-10-01 17:31:18,
2017-10-01 17:31:19,
2017-10-01 17:31:20,
2017-10-01 17:31:21,
2017-10-01 17:31:22,
2017-10-01 17:31:23,
2017-10-01 17:31:24,
2017-10-01 17:31:25,
2017-10-01 17:31:26,
2017-10-01 17:31:27,
2017-10-01 17:31:28,
2017-10-01 17:31:29,
2017-10-01 17:31:30,
2017-10-01 17:31:31,
2017-10-01 17:31:32,
2017-10-01 17:31:33,
2017-10-01 17:31:34,
