#P0E000000C800AM_RdFreq

2017-10-01 17:34:07, 50,:e,:0,:0,:0,:c8,:0 @

2017-10-01 17:34:07,*******Measure Period per Event & Freq in MHz*******

2017-10-01 17:34:07,****Period_cnt , Freq, SeqNo, Status,..........

2017-10-01 17:34:07,#P#, 0, 0, 0, 1 

2017-10-01 17:34:07,#P#, 0, 0, 1, 1 

2017-10-01 17:34:07,#P#, 0, 0, 2, 1 

2017-10-01 17:34:07,#P#, 0, 0, 3, 1 

2017-10-01 17:34:07,#P#, 0, 0, 4, 1 

2017-10-01 17:34:07,#P#, 0, 0, 5, 1 

2017-10-01 17:34:07,#P#, 0, 0, 6, 1 

2017-10-01 17:34:07,#P#, 0, 0, 7, 1 

2017-10-01 17:34:07,#P#, 0, 0, 8, 1 

2017-10-01 17:34:07,#P#, 0, 0, 9, 1 

2017-10-01 17:34:07,#P#, 0, 0, 10, 1 

2017-10-01 17:34:07,#P#, 0, 0, 11, 1 

2017-10-01 17:34:07,#P#, 0, 0, 12, 1 

2017-10-01 17:34:07,#P#, 0, 0, 13, 1 

2017-10-01 17:34:07,#P#, 0, 0, 14, 1 

2017-10-01 17:34:07,#P#, 0, 0, 15, 1 

2017-10-01 17:34:07,#P#, 0, 0, 16, 1 

2017-10-01 17:34:07,#P#, 0, 0, 17, 1 

2017-10-01 17:34:07,#P#, 0, 0, 18, 1 

2017-10-01 17:34:07,#P#, 0, 0, 19, 1 

2017-10-01 17:34:07,#P#, 0, 0, 20, 1 

2017-10-01 17:34:07,#P#, 0, 0, 21, 1 

2017-10-01 17:34:07,#P#, 0, 0, 22, 1 

2017-10-01 17:34:07,#P#, 0, 0, 23, 1 

2017-10-01 17:34:07,#P#, 0, 0, 24, 1 

2017-10-01 17:34:07,#P#, 0, 0, 25, 1 

2017-10-01 17:34:07,#P#, 0, 0, 26, 1 

2017-10-01 17:34:07,#P#, 0, 0, 27, 1 

2017-10-01 17:34:07,#P#, 0, 0, 28, 1 

2017-10-01 17:34:07,#P#, 0, 0, 29, 1 

2017-10-01 17:34:07,#P#, 0, 0, 30, 1 

2017-10-01 17:34:07,#P#, 0, 0, 31, 1 

2017-10-01 17:34:07,#P#, 0, 0, 32, 1 

2017-10-01 17:34:07,#P#, 0, 0, 33, 1 

2017-10-01 17:34:07,#P#, 0, 0, 34, 1 

2017-10-01 17:34:07,#P#, 0, 0, 35, 1 

2017-10-01 17:34:07,#P#, 0, 0, 36, 1 

2017-10-01 17:34:07,#P#, 0, 0, 37, 1 

2017-10-01 17:34:07,#P#, 0, 0, 38, 1 

2017-10-01 17:34:07,#P#, 0, 0, 39, 1 

2017-10-01 17:34:07,#P#, 0, 0, 40, 1 

2017-10-01 17:34:07,#P#, 0, 0, 41, 1 

2017-10-01 17:34:07,#P#, 0, 0, 42, 1 

2017-10-01 17:34:07,#P#, 0, 0, 43, 1 

2017-10-01 17:34:07,#P#, 0, 0, 44, 1 

2017-10-01 17:34:07,#P#, 0, 0, 45, 1 

2017-10-01 17:34:07,#P#, 0, 0, 46, 1 

2017-10-01 17:34:07,#P#, 0, 0, 47, 1 

2017-10-01 17:34:07,#P#, 0, 0, 48, 1 

2017-10-01 17:34:07,#P#, 0, 0, 49, 1 

2017-10-01 17:34:07,#P#, 0, 0, 50, 1 

2017-10-01 17:34:07,#P#, 0, 0, 51, 1 

2017-10-01 17:34:07,#P#, 0, 0, 52, 1 

2017-10-01 17:34:07,#P#, 0, 0, 53, 1 

2017-10-01 17:34:07,#P#, 0, 0, 54, 1 

2017-10-01 17:34:07,#P#, 0, 0, 55, 1 

2017-10-01 17:34:07,#P#, 0, 0, 56, 1 

2017-10-01 17:34:07,#P#, 0, 0, 57, 1 

2017-10-01 17:34:07,#P#, 0, 0, 58, 1 

2017-10-01 17:34:07,#P#, 0, 0, 59, 1 

2017-10-01 17:34:07,#P#, 0, 0, 60, 1 

2017-10-01 17:34:07,#P#, 0, 0, 61, 1 

2017-10-01 17:34:07,#P#, 0, 0, 62, 1 

2017-10-01 17:34:07,#P#, 0, 0, 63, 1 

2017-10-01 17:34:07,#P#, 0, 0, 64, 1 

2017-10-01 17:34:07,#P#, 0, 0, 65, 1 

2017-10-01 17:34:07,#P#, 0, 0, 66, 1 

2017-10-01 17:34:07,#P#, 0, 0, 67, 1 

2017-10-01 17:34:07,#P#, 0, 0, 68, 1 

2017-10-01 17:34:07,#P#, 0, 0, 69, 1 

2017-10-01 17:34:07,#P#, 0, 0, 70, 1 

2017-10-01 17:34:07,#P#, 0, 0, 71, 1 

2017-10-01 17:34:07,#P#, 0, 0, 72, 1 

2017-10-01 17:34:07,#P#, 0, 0, 73, 1 

2017-10-01 17:34:07,#P#, 0, 0, 74, 1 

2017-10-01 17:34:07,#P#, 0, 0, 75, 1 

2017-10-01 17:34:07,#P#, 0, 0, 76, 1 

2017-10-01 17:34:07,#P#, 0, 0, 77, 1 

2017-10-01 17:34:07,#P#, 0, 0, 78, 1 

2017-10-01 17:34:07,#P#, 0, 0, 79, 1 

2017-10-01 17:34:07,#P#, 0, 0, 80, 1 

2017-10-01 17:34:07,#P#, 0, 0, 81, 1 

2017-10-01 17:34:07,#P#, 0, 0, 82, 1 

2017-10-01 17:34:07,#P#, 0, 0, 83, 1 

2017-10-01 17:34:07,#P#, 0, 0, 84, 1 

2017-10-01 17:34:07,#P#, 0, 0, 85, 1 

2017-10-01 17:34:07,#P#, 0, 0, 86, 1 

2017-10-01 17:34:07,#P#, 0, 0, 87, 1 

2017-10-01 17:34:07,#P#, 0, 0, 88, 1 

2017-10-01 17:34:07,#P#, 0, 0, 89, 1 

2017-10-01 17:34:07,#P#, 0, 0, 90, 1 

2017-10-01 17:34:07,#P#, 0, 0, 91, 1 

2017-10-01 17:34:07,#P#, 0, 0, 92, 1 

2017-10-01 17:34:07,#P#, 0, 0, 93, 1 

2017-10-01 17:34:07,#P#, 0, 0, 94, 1 

2017-10-01 17:34:07,#P#, 0, 0, 95, 1 

2017-10-01 17:34:07,#P#, 0, 0, 96, 1 

2017-10-01 17:34:07,#P#, 0, 0, 97, 1 

2017-10-01 17:34:07,#P#, 0, 0, 98, 1 

2017-10-01 17:34:07,#P#, 0, 0, 99, 1 

2017-10-01 17:34:07,#P#, 0, 0, 100, 1 

2017-10-01 17:34:07,#P#, 0, 0, 101, 1 

2017-10-01 17:34:07,#P#, 0, 0, 102, 1 

2017-10-01 17:34:07,#P#, 0, 0, 103, 1 

2017-10-01 17:34:07,#P#, 0, 0, 104, 1 

2017-10-01 17:34:07,#P#, 0, 0, 105, 1 

2017-10-01 17:34:07,#P#, 0, 0, 106, 1 

2017-10-01 17:34:07,#P#, 0, 0, 107, 1 

2017-10-01 17:34:07,#P#, 0, 0, 108, 1 

2017-10-01 17:34:07,#P#, 0, 0, 109, 1 

2017-10-01 17:34:07,#P#, 0, 0, 110, 1 

2017-10-01 17:34:07,#P#, 0, 0, 111, 1 

2017-10-01 17:34:07,#P#, 0, 0, 112, 1 

2017-10-01 17:34:07,#P#, 0, 0, 113, 1 

2017-10-01 17:34:07,#P#, 0, 0, 114, 1 

2017-10-01 17:34:08,#P#, 0, 0, 115, 1 

2017-10-01 17:34:08,#P#, 0, 0, 116, 1 

2017-10-01 17:34:08,#P#, 0, 0, 117, 1 

2017-10-01 17:34:08,#P#, 0, 0, 118, 1 

2017-10-01 17:34:08,#P#, 0, 0, 119, 1 

2017-10-01 17:34:08,#P#, 0, 0, 120, 1 

2017-10-01 17:34:08,#P#, 0, 0, 121, 1 

2017-10-01 17:34:08,#P#, 0, 0, 122, 1 

2017-10-01 17:34:08,#P#, 0, 0, 123, 1 

2017-10-01 17:34:08,#P#, 0, 0, 124, 1 

2017-10-01 17:34:08,#P#, 0, 0, 125, 1 

2017-10-01 17:34:08,#P#, 0, 0, 126, 1 

2017-10-01 17:34:08,#P#, 0, 0, 127, 1 

2017-10-01 17:34:08,#P#, 0, 0, 128, 1 

2017-10-01 17:34:08,#P#, 0, 0, 129, 1 

2017-10-01 17:34:08,#P#, 0, 0, 130, 1 

2017-10-01 17:34:08,#P#, 0, 0, 131, 1 

2017-10-01 17:34:08,#P#, 0, 0, 132, 1 

2017-10-01 17:34:08,#P#, 0, 0, 133, 1 

2017-10-01 17:34:08,#P#, 0, 0, 134, 1 

2017-10-01 17:34:08,#P#, 0, 0, 135, 1 

2017-10-01 17:34:08,#P#, 0, 0, 136, 1 

2017-10-01 17:34:08,#P#, 0, 0, 137, 1 

2017-10-01 17:34:08,#P#, 0, 0, 138, 1 

2017-10-01 17:34:08,#P#, 0, 0, 139, 1 

2017-10-01 17:34:08,#P#, 0, 0, 140, 1 

2017-10-01 17:34:08,#P#, 0, 0, 141, 1 

2017-10-01 17:34:08,#P#, 0, 0, 142, 1 

2017-10-01 17:34:08,#P#, 0, 0, 143, 1 

2017-10-01 17:34:08,#P#, 0, 0, 144, 1 

2017-10-01 17:34:08,#P#, 0, 0, 145, 1 

2017-10-01 17:34:08,#P#, 0, 0, 146, 1 

2017-10-01 17:34:08,#P#, 0, 0, 147, 1 

2017-10-01 17:34:08,#P#, 0, 0, 148, 1 

2017-10-01 17:34:08,#P#, 0, 0, 149, 1 

2017-10-01 17:34:08,#P#, 0, 0, 150, 1 

2017-10-01 17:34:08,#P#, 0, 0, 151, 1 

2017-10-01 17:34:08,#P#, 0, 0, 152, 1 

2017-10-01 17:34:08,#P#, 0, 0, 153, 1 

2017-10-01 17:34:08,#P#, 0, 0, 154, 1 

2017-10-01 17:34:08,#P#, 0, 0, 155, 1 

2017-10-01 17:34:08,#P#, 0, 0, 156, 1 

2017-10-01 17:34:08,#P#, 0, 0, 157, 1 

2017-10-01 17:34:08,#P#, 0, 0, 158, 1 

2017-10-01 17:34:08,#P#, 0, 0, 159, 1 

2017-10-01 17:34:08,#P#, 0, 0, 160, 1 

2017-10-01 17:34:08,#P#, 0, 0, 161, 1 

2017-10-01 17:34:08,#P#, 0, 0, 162, 1 

2017-10-01 17:34:08,#P#, 0, 0, 163, 1 

2017-10-01 17:34:08,#P#, 0, 0, 164, 1 

2017-10-01 17:34:08,#P#, 0, 0, 165, 1 

2017-10-01 17:34:08,#P#, 0, 0, 166, 1 

2017-10-01 17:34:08,#P#, 0, 0, 167, 1 

2017-10-01 17:34:08,#P#, 0, 0, 168, 1 

2017-10-01 17:34:08,#P#, 0, 0, 169, 1 

2017-10-01 17:34:08,#P#, 0, 0, 170, 1 

2017-10-01 17:34:08,#P#, 0, 0, 171, 1 

2017-10-01 17:34:08,#P#, 0, 0, 172, 1 

2017-10-01 17:34:08,#P#, 0, 0, 173, 1 

2017-10-01 17:34:08,#P#, 0, 0, 174, 1 

2017-10-01 17:34:08,#P#, 0, 0, 175, 1 

2017-10-01 17:34:08,#P#, 0, 0, 176, 1 

2017-10-01 17:34:08,#P#, 0, 0, 177, 1 

2017-10-01 17:34:08,#P#, 0, 0, 178, 1 

2017-10-01 17:34:08,#P#, 0, 0, 179, 1 

2017-10-01 17:34:08,#P#, 0, 0, 180, 1 

2017-10-01 17:34:08,#P#, 0, 0, 181, 1 

2017-10-01 17:34:08,#P#, 0, 0, 182, 1 

2017-10-01 17:34:08,#P#, 0, 0, 183, 1 

2017-10-01 17:34:08,#P#, 0, 0, 184, 1 

2017-10-01 17:34:08,#P#, 0, 0, 185, 1 

2017-10-01 17:34:08,#P#, 0, 0, 186, 1 

2017-10-01 17:34:08,#P#, 0, 0, 187, 1 

2017-10-01 17:34:08,#P#, 0, 0, 188, 1 

2017-10-01 17:34:08,#P#, 0, 0, 189, 1 

2017-10-01 17:34:08,#P#, 0, 0, 190, 1 

2017-10-01 17:34:08,#P#, 0, 0, 191, 1 

2017-10-01 17:34:08,#P#, 0, 0, 192, 1 

2017-10-01 17:34:08,#P#, 0, 0, 193, 1 

2017-10-01 17:34:08,#P#, 0, 0, 194, 1 

2017-10-01 17:34:08,#P#, 0, 0, 195, 1 

2017-10-01 17:34:08,#P#, 0, 0, 196, 1 

2017-10-01 17:34:08,#P#, 0, 0, 197, 1 

2017-10-01 17:34:08,#P#, 0, 0, 198, 1 

2017-10-01 17:34:08,#P#, 0, 0, 199, 1 

2017-10-01 17:34:08,*******DONE*******#

Exiting PsocAmPreRad
#E0E00001A0A00AM_DC_SN.

2017-10-01 17:34:10, 45,:e,:0,:0,:1a,:a,:0 @

2017-10-01 17:34:10,*SeqNo,Samples,DAC_Cnt,BGapReg,GainReg,AM_VCal,BGO,Isense0,Isense1

2017-10-01 17:34:10,#E#,0,10,0,0,0,0,0,0,0

2017-10-01 17:34:11,#E#,1,10,0,0,0,0,0,0,0

2017-10-01 17:34:12,#E#,2,10,0,0,0,0,0,0,0

2017-10-01 17:34:13,#E#,3,10,0,0,0,0,0,0,0

2017-10-01 17:34:14,#E#,4,10,0,0,0,0,0,0,0

2017-10-01 17:34:15,#E#,5,10,599,0,0,27,2472,0,0

2017-10-01 17:34:16,#E#,6,10,599,0,0,27,2472,0,0

2017-10-01 17:34:17,#E#,7,10,599,0,0,27,2472,0,0

2017-10-01 17:34:18,#E#,8,10,599,0,0,27,2472,0,0

2017-10-01 17:34:19,#E#,9,10,599,0,0,27,2472,0,0

2017-10-01 17:34:20,#E#,10,10,0,0,0,0,0,0,0

2017-10-01 17:34:20,#E#,11,10,0,0,0,0,0,0,0

2017-10-01 17:34:21,#E#,12,10,0,0,0,0,0,0,0

2017-10-01 17:34:22,#E#,13,10,0,0,0,0,0,0,0

2017-10-01 17:34:23,#E#,14,10,0,0,0,0,0,0,0

2017-10-01 17:34:24,#E#,15,10,599,0,0,27,2472,0,0

2017-10-01 17:34:25,#E#,16,10,599,0,0,27,2472,0,0

2017-10-01 17:34:26,#E#,17,10,599,0,0,27,2472,0,0

2017-10-01 17:34:27,#E#,18,10,599,0,0,27,2472,0,0

2017-10-01 17:34:28,#E#,19,10,599,0,0,27,2472,0,0

2017-10-01 17:34:29,#E#,20,10,0,0,0,0,0,0,0

2017-10-01 17:34:30,#E#,21,10,0,0,0,0,0,0,0

2017-10-01 17:34:30,#E#,22,10,0,0,0,0,0,0,0

2017-10-01 17:34:31,#E#,23,10,0,0,0,0,0,0,0

2017-10-01 17:34:32,#E#,24,10,0,0,0,0,0,0,0

2017-10-01 17:34:33,#E#,25,10,599,0,0,27,2472,0,0

2017-10-01 17:34:34,#E#,26,10,599,0,0,27,2472,0,0

2017-10-01 17:34:35,#E#,27,10,599,0,0,27,2472,0,0

2017-10-01 17:34:36,#E#,28,10,599,0,0,27,2472,0,0

2017-10-01 17:34:37,#E#,29,10,599,0,0,27,2472,0,0

2017-10-01 17:34:38,#E#,30,10,0,0,0,0,0,0,0

2017-10-01 17:34:39,#E#,31,10,0,0,0,0,0,0,0

2017-10-01 17:34:40,#E#,32,10,0,0,0,0,0,0,0

2017-10-01 17:34:40,#E#,33,10,0,0,0,0,0,0,0

2017-10-01 17:34:41,#E#,34,10,0,0,0,0,0,0,0

2017-10-01 17:34:42,#E#,35,10,599,0,0,27,2472,0,0

2017-10-01 17:34:43,#E#,36,10,599,0,0,27,2472,0,0

2017-10-01 17:34:44,#E#,37,10,599,0,0,27,2472,0,0

2017-10-01 17:34:45,#E#,38,10,599,0,0,27,2472,0,0

2017-10-01 17:34:46,#E#,39,10,599,0,0,26,2472,0,0

2017-10-01 17:34:47,#E#,40,10,0,0,0,0,0,0,0

2017-10-01 17:34:48,#E#,41,10,0,0,0,0,0,0,0

2017-10-01 17:34:49,#E#,42,10,0,0,0,0,0,0,0

2017-10-01 17:34:50,#E#,43,10,0,0,0,0,0,0,0

2017-10-01 17:34:50,#E#,44,10,0,0,0,0,0,0,0

2017-10-01 17:34:51,#E#,45,10,599,0,0,26,2473,0,0

2017-10-01 17:34:52,#E#,46,10,599,0,0,26,2473,0,0

2017-10-01 17:34:53,#E#,47,10,599,0,0,26,2473,0,0

2017-10-01 17:34:54,#E#,48,10,599,0,0,26,2473,0,0

2017-10-01 17:34:55,#E#,49,10,599,0,0,26,2473,0,0

2017-10-01 17:34:56,#E#,50,10,0,0,0,0,0,0,0

2017-10-01 17:34:57,#E#,51,10,0,0,0,0,0,0,0

2017-10-01 17:34:58,#E#,52,10,0,0,0,0,0,0,0

2017-10-01 17:34:59,#E#,53,10,0,0,0,0,0,0,0

2017-10-01 17:35:00,#E#,54,10,0,0,0,0,0,0,0

2017-10-01 17:35:00,#E#,55,10,599,0,0,26,2473,0,0

2017-10-01 17:35:01,#E#,56,10,599,0,0,26,2473,0,0

2017-10-01 17:35:02,#E#,57,10,599,0,0,26,2473,0,0

2017-10-01 17:35:03,#E#,58,10,599,0,0,26,2473,0,0

2017-10-01 17:35:04,#E#,59,10,599,0,0,26,2473,0,0

2017-10-01 17:35:05,#E#,60,10,0,0,0,0,0,0,0

2017-10-01 17:35:06,#E#,61,10,0,0,0,0,0,0,0

2017-10-01 17:35:07,#E#,62,10,0,0,0,0,0,0,0

2017-10-01 17:35:08,#E#,63,10,0,0,0,0,0,0,0

2017-10-01 17:35:09,#E#,64,10,599,0,0,26,2473,0,0

2017-10-01 17:35:10,#E#,65,10,599,0,0,26,2473,0,0

2017-10-01 17:35:10,#E#,66,10,599,0,0,26,2473,0,0

2017-10-01 17:35:11,#E#,67,10,599,0,0,26,2473,0,0

2017-10-01 17:35:12,#E#,68,10,599,0,0,26,2473,0,0

2017-10-01 17:35:13,#E#,69,10,0,0,0,0,0,0,0

2017-10-01 17:35:14,#E#,70,10,0,0,0,0,0,0,0

2017-10-01 17:35:15,#E#,71,10,0,0,0,0,0,0,0

2017-10-01 17:35:16,#E#,72,10,0,0,0,0,0,0,0

2017-10-01 17:35:17,#E#,73,10,0,0,0,0,0,0,0

2017-10-01 17:35:18,#E#,74,10,599,0,0,26,2473,0,0

2017-10-01 17:35:19,#E#,75,10,599,0,0,26,2473,0,0

2017-10-01 17:35:19,#E#,76,10,599,0,0,26,2473,0,0

2017-10-01 17:35:20,#E#,77,10,599,0,0,26,2473,0,0

2017-10-01 17:35:21,#E#,78,10,599,0,0,26,2473,0,0

2017-10-01 17:35:22,#E#,79,10,0,0,0,0,0,0,0

2017-10-01 17:35:23,#E#,80,10,0,0,0,0,0,0,0

2017-10-01 17:35:24,#E#,81,10,0,0,0,0,0,0,0

2017-10-01 17:35:25,#E#,82,10,0,0,0,0,0,0,0

2017-10-01 17:35:26,#E#,83,10,0,0,0,0,0,0,0

2017-10-01 17:35:27,#E#,84,10,599,0,0,26,2473,0,0

2017-10-01 17:35:28,#E#,85,10,599,0,0,26,2473,0,0

2017-10-01 17:35:29,#E#,86,10,599,0,0,26,2473,0,0

2017-10-01 17:35:29,#E#,87,10,599,0,0,26,2473,0,0

2017-10-01 17:35:30,#E#,88,10,599,0,0,26,2473,0,0

2017-10-01 17:35:31,#E#,89,10,0,0,0,0,0,0,0

2017-10-01 17:35:32,#E#,90,10,0,0,0,0,0,0,0

2017-10-01 17:35:33,#E#,91,10,0,0,0,0,0,0,0

2017-10-01 17:35:34,#E#,92,10,0,0,0,0,0,0,0

2017-10-01 17:35:35,#E#,93,10,0,0,0,0,0,0,0

2017-10-01 17:35:36,#E#,94,10,599,0,0,26,2473,0,0

2017-10-01 17:35:37,#E#,95,10,599,0,0,26,2473,0,0

2017-10-01 17:35:38,#E#,96,10,599,0,0,26,2473,0,0

2017-10-01 17:35:39,#E#,97,10,599,0,0,26,2473,0,0

2017-10-01 17:35:39,#E#,98,10,599,0,0,26,2473,0,0

2017-10-01 17:35:40,#E#,99,10,0,0,0,0,0,0,0

2017-10-01 17:35:41,
2017-10-01 17:35:41,#E#,0,10,0,273,17,0,0,69,69

2017-10-01 17:35:42,#E#,1,10,0,273,17,0,0,69,69

2017-10-01 17:35:43,#E#,2,10,0,273,17,0,0,69,69

2017-10-01 17:35:44,#E#,3,10,0,273,17,0,0,69,69

2017-10-01 17:35:45,#E#,4,10,599,273,17,33,2468,69,69

2017-10-01 17:35:46,#E#,5,10,599,273,17,32,2468,69,69

2017-10-01 17:35:47,#E#,6,10,599,273,17,32,2469,69,69

2017-10-01 17:35:48,#E#,7,10,599,273,17,32,2469,69,69

2017-10-01 17:35:49,#E#,8,10,599,273,17,31,2470,69,69

2017-10-01 17:35:50,#E#,9,10,0,273,17,0,0,69,69

2017-10-01 17:35:50,#E#,10,10,0,273,17,0,0,69,69

2017-10-01 17:35:51,#E#,11,10,0,273,17,0,0,69,69

2017-10-01 17:35:52,#E#,12,10,0,273,17,0,0,69,69

2017-10-01 17:35:53,#E#,13,10,0,273,17,0,0,69,69

2017-10-01 17:35:54,#E#,14,10,599,273,17,29,2472,69,69

2017-10-01 17:35:55,#E#,15,10,599,273,17,29,2472,69,69

2017-10-01 17:35:56,#E#,16,10,599,273,17,28,2473,69,69

2017-10-01 17:35:57,#E#,17,10,599,273,17,28,2473,69,69

2017-10-01 17:35:58,#E#,18,10,599,273,17,27,2473,69,69

2017-10-01 17:35:59,#E#,19,10,0,273,17,0,0,69,69

2017-10-01 17:36:00,#E#,20,10,0,273,17,0,0,69,69

2017-10-01 17:36:00,#E#,21,10,0,273,17,0,0,69,69

2017-10-01 17:36:01,#E#,22,10,0,273,17,0,0,69,69

2017-10-01 17:36:02,#E#,23,10,0,273,17,0,0,69,69

2017-10-01 17:36:03,#E#,24,10,599,273,17,25,2476,69,69

2017-10-01 17:36:04,#E#,25,10,599,273,17,25,2476,69,69

2017-10-01 17:36:05,#E#,26,10,599,273,17,24,2476,69,69

2017-10-01 17:36:06,#E#,27,10,599,273,17,24,2477,69,69

2017-10-01 17:36:07,#E#,28,10,0,273,17,0,0,69,69

2017-10-01 17:36:08,#E#,29,10,0,273,17,0,0,69,69

2017-10-01 17:36:09,#E#,30,10,0,273,17,0,0,69,69

2017-10-01 17:36:10,#E#,31,10,0,273,17,0,0,69,69

2017-10-01 17:36:10,#E#,32,10,0,273,17,0,0,69,69

2017-10-01 17:36:11,#E#,33,10,599,273,17,22,2479,69,69

2017-10-01 17:36:12,#E#,34,10,599,273,17,21,2479,69,69

2017-10-01 17:36:13,#E#,35,10,599,273,17,21,2480,69,69

2017-10-01 17:36:14,#E#,36,10,599,273,17,21,2480,69,69

2017-10-01 17:36:15,#E#,37,10,599,273,17,20,2481,69,69

2017-10-01 17:36:16,#E#,38,10,0,273,17,0,0,69,69

2017-10-01 17:36:17,#E#,39,10,0,273,17,0,0,69,69

2017-10-01 17:36:18,#E#,40,10,0,273,17,0,0,69,69

2017-10-01 17:36:19,#E#,41,10,0,273,17,0,0,69,69

2017-10-01 17:36:20,#E#,42,10,0,273,17,0,0,69,69

2017-10-01 17:36:20,#E#,43,10,599,273,17,18,2483,69,69

2017-10-01 17:36:21,#E#,44,10,599,273,17,17,2483,69,69

2017-10-01 17:36:22,#E#,45,10,599,273,17,17,2484,69,69

2017-10-01 17:36:23,#E#,46,10,599,273,17,17,2484,69,69

2017-10-01 17:36:24,#E#,47,10,599,273,17,17,2484,69,69

2017-10-01 17:36:25,#E#,48,10,0,273,17,0,0,69,69

2017-10-01 17:36:26,#E#,49,10,0,273,17,0,0,69,69

2017-10-01 17:36:27,#E#,50,10,0,273,17,0,0,69,69

2017-10-01 17:36:28,#E#,51,10,0,273,17,0,0,69,69

2017-10-01 17:36:29,#E#,52,10,0,273,17,0,0,69,69

2017-10-01 17:36:30,#E#,53,10,599,273,17,14,2487,69,69

2017-10-01 17:36:30,#E#,54,10,599,273,17,14,2487,69,69

2017-10-01 17:36:31,#E#,55,10,599,273,17,14,2487,69,69

2017-10-01 17:36:32,#E#,56,10,599,273,17,13,2488,69,69

2017-10-01 17:36:33,#E#,57,10,599,273,17,13,2488,69,69

2017-10-01 17:36:34,#E#,58,10,0,273,17,0,0,69,69

2017-10-01 17:36:35,#E#,59,10,0,273,17,0,0,69,69

2017-10-01 17:36:36,#E#,60,10,0,273,17,0,0,69,69

2017-10-01 17:36:37,#E#,61,10,0,273,17,0,0,69,69

2017-10-01 17:36:38,#E#,62,10,0,273,17,0,0,69,69

2017-10-01 17:36:39,#E#,63,10,599,273,17,10,2490,69,69

2017-10-01 17:36:40,#E#,64,10,599,273,17,10,2491,69,69

2017-10-01 17:36:40,#E#,65,10,599,273,17,10,2491,69,69

2017-10-01 17:36:41,#E#,66,10,599,273,17,9,2492,69,69

2017-10-01 17:36:42,#E#,67,10,599,273,17,9,2492,69,69

2017-10-01 17:36:43,#E#,68,10,0,273,17,0,0,69,69

2017-10-01 17:36:44,#E#,69,10,0,273,17,0,0,69,69

2017-10-01 17:36:45,#E#,70,10,0,273,17,0,0,69,69

2017-10-01 17:36:46,#E#,71,10,0,273,17,0,0,69,69

2017-10-01 17:36:47,#E#,72,10,0,273,17,0,0,69,69

2017-10-01 17:36:48,#E#,73,10,599,273,17,7,2494,69,69

2017-10-01 17:36:49,#E#,74,10,599,273,17,6,2495,69,69

2017-10-01 17:36:50,#E#,75,10,599,273,17,6,2495,69,69

2017-10-01 17:36:50,#E#,76,10,599,273,17,5,2496,69,69

2017-10-01 17:36:51,#E#,77,10,599,273,17,5,2496,69,69

2017-10-01 17:36:52,#E#,78,10,0,273,17,0,0,69,69

2017-10-01 17:36:53,#E#,79,10,0,273,17,0,0,69,69

2017-10-01 17:36:54,#E#,80,10,0,273,17,0,0,69,69

2017-10-01 17:36:55,#E#,81,10,0,273,17,0,0,69,69

2017-10-01 17:36:56,#E#,82,10,0,273,17,0,0,69,69

2017-10-01 17:36:57,#E#,83,10,599,273,17,3,2498,69,69

2017-10-01 17:36:58,#E#,84,10,599,273,17,2,2499,69,69

2017-10-01 17:36:59,#E#,85,10,599,273,17,2,2499,69,69

2017-10-01 17:37:00,#E#,86,10,599,273,17,2,2499,69,69

2017-10-01 17:37:00,#E#,87,10,599,273,17,1,0,69,69

2017-10-01 17:37:01,#E#,88,10,0,273,17,0,0,69,69

2017-10-01 17:37:02,#E#,89,10,0,273,17,0,0,69,69

2017-10-01 17:37:03,#E#,90,10,0,273,17,0,0,69,69

2017-10-01 17:37:04,#E#,91,10,0,273,17,0,0,69,69

2017-10-01 17:37:05,#E#,92,10,599,273,17,2499,2,69,69

2017-10-01 17:37:06,#E#,93,10,599,273,17,2499,2,69,69

2017-10-01 17:37:07,#E#,94,10,599,273,17,2499,2,69,69

2017-10-01 17:37:08,#E#,95,10,599,273,17,2498,3,69,69

2017-10-01 17:37:09,#E#,96,10,599,273,17,2498,3,69,69

2017-10-01 17:37:09,#E#,97,10,0,273,17,0,0,69,69

2017-10-01 17:37:10,#E#,98,10,0,273,17,0,0,69,69

2017-10-01 17:37:11,#E#,99,10,0,273,17,0,0,69,69

2017-10-01 17:37:12, Bad AMAC Gain amp setting
2017-10-01 17:37:13,
2017-10-01 17:37:14,
2017-10-01 17:37:15,
2017-10-01 17:37:16,
2017-10-01 17:37:17,Watch Interrupt or Reset!! BGO Set:0, GAIN Set:0

2017-10-01 17:37:18,
2017-10-01 17:37:19,
2017-10-01 17:37:20,
2017-10-01 17:37:21,
2017-10-01 17:37:22,
2017-10-01 17:37:23,
2017-10-01 17:37:24,
2017-10-01 17:37:25,
2017-10-01 17:37:26,
2017-10-01 17:37:27,
