#P0E000000C800AM_RdFreq

2017-10-01 17:37:39, 50,:e,:0,:0,:0,:c8,:0 @

2017-10-01 17:37:39,*******Measure Period per Event & Freq in MHz*******

2017-10-01 17:37:39,****Period_cnt , Freq, SeqNo, Status,..........

2017-10-01 17:37:39,#P#, 0, 0, 0, 1 

2017-10-01 17:37:39,#P#, 0, 0, 1, 1 

2017-10-01 17:37:39,#P#, 0, 0, 2, 1 

2017-10-01 17:37:39,#P#, 0, 0, 3, 1 

2017-10-01 17:37:39,#P#, 0, 0, 4, 1 

2017-10-01 17:37:39,#P#, 0, 0, 5, 1 

2017-10-01 17:37:39,#P#, 0, 0, 6, 1 

2017-10-01 17:37:39,#P#, 0, 0, 7, 1 

2017-10-01 17:37:39,#P#, 0, 0, 8, 1 

2017-10-01 17:37:39,#P#, 0, 0, 9, 1 

2017-10-01 17:37:39,#P#, 0, 0, 10, 1 

2017-10-01 17:37:39,#P#, 0, 0, 11, 1 

2017-10-01 17:37:39,#P#, 0, 0, 12, 1 

2017-10-01 17:37:39,#P#, 0, 0, 13, 1 

2017-10-01 17:37:39,#P#, 0, 0, 14, 1 

2017-10-01 17:37:39,#P#, 0, 0, 15, 1 

2017-10-01 17:37:39,#P#, 0, 0, 16, 1 

2017-10-01 17:37:39,#P#, 0, 0, 17, 1 

2017-10-01 17:37:39,#P#, 0, 0, 18, 1 

2017-10-01 17:37:39,#P#, 0, 0, 19, 1 

2017-10-01 17:37:39,#P#, 0, 0, 20, 1 

2017-10-01 17:37:39,#P#, 0, 0, 21, 1 

2017-10-01 17:37:39,#P#, 0, 0, 22, 1 

2017-10-01 17:37:39,#P#, 0, 0, 23, 1 

2017-10-01 17:37:39,#P#, 0, 0, 24, 1 

2017-10-01 17:37:39,#P#, 0, 0, 25, 1 

2017-10-01 17:37:39,#P#, 0, 0, 26, 1 

2017-10-01 17:37:39,#P#, 0, 0, 27, 1 

2017-10-01 17:37:39,#P#, 0, 0, 28, 1 

2017-10-01 17:37:39,#P#, 0, 0, 29, 1 

2017-10-01 17:37:39,#P#, 0, 0, 30, 1 

2017-10-01 17:37:39,#P#, 0, 0, 31, 1 

2017-10-01 17:37:39,#P#, 0, 0, 32, 1 

2017-10-01 17:37:39,#P#, 0, 0, 33, 1 

2017-10-01 17:37:39,#P#, 0, 0, 34, 1 

2017-10-01 17:37:39,#P#, 0, 0, 35, 1 

2017-10-01 17:37:39,#P#, 0, 0, 36, 1 

2017-10-01 17:37:39,#P#, 0, 0, 37, 1 

2017-10-01 17:37:39,#P#, 0, 0, 38, 1 

2017-10-01 17:37:39,#P#, 0, 0, 39, 1 

2017-10-01 17:37:39,#P#, 0, 0, 40, 1 

2017-10-01 17:37:39,#P#, 0, 0, 41, 1 

2017-10-01 17:37:39,#P#, 0, 0, 42, 1 

2017-10-01 17:37:39,#P#, 0, 0, 43, 1 

2017-10-01 17:37:39,#P#, 0, 0, 44, 1 

2017-10-01 17:37:39,#P#, 0, 0, 45, 1 

2017-10-01 17:37:39,#P#, 0, 0, 46, 1 

2017-10-01 17:37:39,#P#, 0, 0, 47, 1 

2017-10-01 17:37:39,#P#, 0, 0, 48, 1 

2017-10-01 17:37:39,#P#, 0, 0, 49, 1 

2017-10-01 17:37:39,#P#, 0, 0, 50, 1 

2017-10-01 17:37:39,#P#, 0, 0, 51, 1 

2017-10-01 17:37:39,#P#, 0, 0, 52, 1 

2017-10-01 17:37:39,#P#, 0, 0, 53, 1 

2017-10-01 17:37:39,#P#, 0, 0, 54, 1 

2017-10-01 17:37:39,#P#, 0, 0, 55, 1 

2017-10-01 17:37:39,#P#, 0, 0, 56, 1 

2017-10-01 17:37:39,#P#, 0, 0, 57, 1 

2017-10-01 17:37:40,#P#, 0, 0, 58, 1 

2017-10-01 17:37:40,#P#, 0, 0, 59, 1 

2017-10-01 17:37:40,#P#, 0, 0, 60, 1 

2017-10-01 17:37:40,#P#, 0, 0, 61, 1 

2017-10-01 17:37:40,#P#, 0, 0, 62, 1 

2017-10-01 17:37:40,#P#, 0, 0, 63, 1 

2017-10-01 17:37:40,#P#, 0, 0, 64, 1 

2017-10-01 17:37:40,#P#, 0, 0, 65, 1 

2017-10-01 17:37:40,#P#, 0, 0, 66, 1 

2017-10-01 17:37:40,#P#, 0, 0, 67, 1 

2017-10-01 17:37:40,#P#, 0, 0, 68, 1 

2017-10-01 17:37:40,#P#, 0, 0, 69, 1 

2017-10-01 17:37:40,#P#, 0, 0, 70, 1 

2017-10-01 17:37:40,#P#, 0, 0, 71, 1 

2017-10-01 17:37:40,#P#, 0, 0, 72, 1 

2017-10-01 17:37:40,#P#, 0, 0, 73, 1 

2017-10-01 17:37:40,#P#, 0, 0, 74, 1 

2017-10-01 17:37:40,#P#, 0, 0, 75, 1 

2017-10-01 17:37:40,#P#, 0, 0, 76, 1 

2017-10-01 17:37:40,#P#, 0, 0, 77, 1 

2017-10-01 17:37:40,#P#, 0, 0, 78, 1 

2017-10-01 17:37:40,#P#, 0, 0, 79, 1 

2017-10-01 17:37:40,#P#, 0, 0, 80, 1 

2017-10-01 17:37:40,#P#, 0, 0, 81, 1 

2017-10-01 17:37:40,#P#, 0, 0, 82, 1 

2017-10-01 17:37:40,#P#, 0, 0, 83, 1 

2017-10-01 17:37:40,#P#, 0, 0, 84, 1 

2017-10-01 17:37:40,#P#, 0, 0, 85, 1 

2017-10-01 17:37:40,#P#, 0, 0, 86, 1 

2017-10-01 17:37:40,#P#, 0, 0, 87, 1 

2017-10-01 17:37:40,#P#, 0, 0, 88, 1 

2017-10-01 17:37:40,#P#, 0, 0, 89, 1 

2017-10-01 17:37:40,#P#, 0, 0, 90, 1 

2017-10-01 17:37:40,#P#, 0, 0, 91, 1 

2017-10-01 17:37:40,#P#, 0, 0, 92, 1 

2017-10-01 17:37:40,#P#, 0, 0, 93, 1 

2017-10-01 17:37:40,#P#, 0, 0, 94, 1 

2017-10-01 17:37:40,#P#, 0, 0, 95, 1 

2017-10-01 17:37:40,#P#, 0, 0, 96, 1 

2017-10-01 17:37:40,#P#, 0, 0, 97, 1 

2017-10-01 17:37:40,#P#, 0, 0, 98, 1 

2017-10-01 17:37:40,#P#, 0, 0, 99, 1 

2017-10-01 17:37:40,#P#, 0, 0, 100, 1 

2017-10-01 17:37:40,#P#, 0, 0, 101, 1 

2017-10-01 17:37:40,#P#, 0, 0, 102, 1 

2017-10-01 17:37:40,#P#, 0, 0, 103, 1 

2017-10-01 17:37:40,#P#, 0, 0, 104, 1 

2017-10-01 17:37:40,#P#, 0, 0, 105, 1 

2017-10-01 17:37:40,#P#, 0, 0, 106, 1 

2017-10-01 17:37:40,#P#, 0, 0, 107, 1 

2017-10-01 17:37:40,#P#, 0, 0, 108, 1 

2017-10-01 17:37:40,#P#, 0, 0, 109, 1 

2017-10-01 17:37:40,#P#, 0, 0, 110, 1 

2017-10-01 17:37:40,#P#, 0, 0, 111, 1 

2017-10-01 17:37:40,#P#, 0, 0, 112, 1 

2017-10-01 17:37:40,#P#, 0, 0, 113, 1 

2017-10-01 17:37:40,#P#, 0, 0, 114, 1 

2017-10-01 17:37:40,#P#, 0, 0, 115, 1 

2017-10-01 17:37:40,#P#, 0, 0, 116, 1 

2017-10-01 17:37:40,#P#, 0, 0, 117, 1 

2017-10-01 17:37:40,#P#, 0, 0, 118, 1 

2017-10-01 17:37:40,#P#, 0, 0, 119, 1 

2017-10-01 17:37:40,#P#, 0, 0, 120, 1 

2017-10-01 17:37:40,#P#, 0, 0, 121, 1 

2017-10-01 17:37:40,#P#, 0, 0, 122, 1 

2017-10-01 17:37:40,#P#, 0, 0, 123, 1 

2017-10-01 17:37:40,#P#, 0, 0, 124, 1 

2017-10-01 17:37:40,#P#, 0, 0, 125, 1 

2017-10-01 17:37:40,#P#, 0, 0, 126, 1 

2017-10-01 17:37:40,#P#, 0, 0, 127, 1 

2017-10-01 17:37:40,#P#, 0, 0, 128, 1 

2017-10-01 17:37:40,#P#, 0, 0, 129, 1 

2017-10-01 17:37:40,#P#, 0, 0, 130, 1 

2017-10-01 17:37:40,#P#, 0, 0, 131, 1 

2017-10-01 17:37:40,#P#, 0, 0, 132, 1 

2017-10-01 17:37:40,#P#, 0, 0, 133, 1 

2017-10-01 17:37:40,#P#, 0, 0, 134, 1 

2017-10-01 17:37:40,#P#, 0, 0, 135, 1 

2017-10-01 17:37:40,#P#, 0, 0, 136, 1 

2017-10-01 17:37:40,#P#, 0, 0, 137, 1 

2017-10-01 17:37:40,#P#, 0, 0, 138, 1 

2017-10-01 17:37:40,#P#, 0, 0, 139, 1 

2017-10-01 17:37:40,#P#, 0, 0, 140, 1 

2017-10-01 17:37:40,#P#, 0, 0, 141, 1 

2017-10-01 17:37:40,#P#, 0, 0, 142, 1 

2017-10-01 17:37:40,#P#, 0, 0, 143, 1 

2017-10-01 17:37:40,#P#, 0, 0, 144, 1 

2017-10-01 17:37:40,#P#, 0, 0, 145, 1 

2017-10-01 17:37:40,#P#, 0, 0, 146, 1 

2017-10-01 17:37:40,#P#, 0, 0, 147, 1 

2017-10-01 17:37:40,#P#, 0, 0, 148, 1 

2017-10-01 17:37:40,#P#, 0, 0, 149, 1 

2017-10-01 17:37:40,#P#, 0, 0, 150, 1 

2017-10-01 17:37:40,#P#, 0, 0, 151, 1 

2017-10-01 17:37:40,#P#, 0, 0, 152, 1 

2017-10-01 17:37:40,#P#, 0, 0, 153, 1 

2017-10-01 17:37:40,#P#, 0, 0, 154, 1 

2017-10-01 17:37:40,#P#, 0, 0, 155, 1 

2017-10-01 17:37:40,#P#, 0, 0, 156, 1 

2017-10-01 17:37:40,#P#, 0, 0, 157, 1 

2017-10-01 17:37:40,#P#, 0, 0, 158, 1 

2017-10-01 17:37:40,#P#, 0, 0, 159, 1 

2017-10-01 17:37:40,#P#, 0, 0, 160, 1 

2017-10-01 17:37:40,#P#, 0, 0, 161, 1 

2017-10-01 17:37:40,#P#, 0, 0, 162, 1 

2017-10-01 17:37:40,#P#, 0, 0, 163, 1 

2017-10-01 17:37:40,#P#, 0, 0, 164, 1 

2017-10-01 17:37:40,#P#, 0, 0, 165, 1 

2017-10-01 17:37:40,#P#, 0, 0, 166, 1 

2017-10-01 17:37:40,#P#, 0, 0, 167, 1 

2017-10-01 17:37:40,#P#, 0, 0, 168, 1 

2017-10-01 17:37:40,#P#, 0, 0, 169, 1 

2017-10-01 17:37:40,#P#, 0, 0, 170, 1 

2017-10-01 17:37:40,#P#, 0, 0, 171, 1 

2017-10-01 17:37:40,#P#, 0, 0, 172, 1 

2017-10-01 17:37:40,#P#, 0, 0, 173, 1 

2017-10-01 17:37:40,#P#, 0, 0, 174, 1 

2017-10-01 17:37:40,#P#, 0, 0, 175, 1 

2017-10-01 17:37:40,#P#, 0, 0, 176, 1 

2017-10-01 17:37:40,#P#, 0, 0, 177, 1 

2017-10-01 17:37:40,#P#, 0, 0, 178, 1 

2017-10-01 17:37:40,#P#, 0, 0, 179, 1 

2017-10-01 17:37:40,#P#, 0, 0, 180, 1 

2017-10-01 17:37:40,#P#, 0, 0, 181, 1 

2017-10-01 17:37:40,#P#, 0, 0, 182, 1 

2017-10-01 17:37:40,#P#, 0, 0, 183, 1 

2017-10-01 17:37:40,#P#, 0, 0, 184, 1 

2017-10-01 17:37:40,#P#, 0, 0, 185, 1 

2017-10-01 17:37:40,#P#, 0, 0, 186, 1 

2017-10-01 17:37:40,#P#, 0, 0, 187, 1 

2017-10-01 17:37:40,#P#, 0, 0, 188, 1 

2017-10-01 17:37:40,#P#, 0, 0, 189, 1 

2017-10-01 17:37:40,#P#, 0, 0, 190, 1 

2017-10-01 17:37:40,#P#, 0, 0, 191, 1 

2017-10-01 17:37:40,#P#, 0, 0, 192, 1 

2017-10-01 17:37:40,#P#, 0, 0, 193, 1 

2017-10-01 17:37:40,#P#, 0, 0, 194, 1 

2017-10-01 17:37:40,#P#, 0, 0, 195, 1 

2017-10-01 17:37:40,#P#, 0, 0, 196, 1 

2017-10-01 17:37:40,#P#, 0, 0, 197, 1 

2017-10-01 17:37:40,#P#, 0, 0, 198, 1 

2017-10-01 17:37:40,#P#, 0, 0, 199, 1 

2017-10-01 17:37:40,*******DONE*******#

Exiting PsocAmPreRad
#E0E00001A0A00AM_DC_SN.

2017-10-01 17:37:42, 45,:e,:0,:0,:1a,:a,:0 @

2017-10-01 17:37:42,*SeqNo,Samples,DAC_Cnt,BGapReg,GainReg,AM_VCal,BGO,Isense0,Isense1

2017-10-01 17:37:43,#E#,0,10,0,0,0,0,0,0,0

2017-10-01 17:37:44,#E#,1,10,0,0,0,0,0,0,0

2017-10-01 17:37:45,#E#,2,10,0,0,0,0,0,0,0

2017-10-01 17:37:46,#E#,3,10,0,0,0,0,0,0,0

2017-10-01 17:37:46,#E#,4,10,0,0,0,0,0,0,0

2017-10-01 17:37:47,#E#,5,10,599,0,0,27,2472,0,0

2017-10-01 17:37:48,#E#,6,10,599,0,0,27,2472,0,0

2017-10-01 17:37:49,#E#,7,10,599,0,0,27,2472,0,0

2017-10-01 17:37:50,#E#,8,10,599,0,0,27,2472,0,0

2017-10-01 17:37:51,#E#,9,10,599,0,0,27,2472,0,0

2017-10-01 17:37:52,#E#,10,10,0,0,0,0,0,0,0

2017-10-01 17:37:53,#E#,11,10,0,0,0,0,0,0,0

2017-10-01 17:37:54,#E#,12,10,0,0,0,0,0,0,0

2017-10-01 17:37:55,#E#,13,10,0,0,0,0,0,0,0

2017-10-01 17:37:56,#E#,14,10,0,0,0,0,0,0,0

2017-10-01 17:37:56,#E#,15,10,599,0,0,27,2472,0,0

2017-10-01 17:37:57,#E#,16,10,599,0,0,27,2472,0,0

2017-10-01 17:37:58,#E#,17,10,599,0,0,27,2472,0,0

2017-10-01 17:37:59,#E#,18,10,599,0,0,27,2472,0,0

2017-10-01 17:38:00,#E#,19,10,599,0,0,27,2472,0,0

2017-10-01 17:38:01,#E#,20,10,0,0,0,0,0,0,0

2017-10-01 17:38:02,#E#,21,10,0,0,0,0,0,0,0

2017-10-01 17:38:03,#E#,22,10,0,0,0,0,0,0,0

2017-10-01 17:38:04,#E#,23,10,0,0,0,0,0,0,0

2017-10-01 17:38:05,#E#,24,10,0,0,0,0,0,0,0

2017-10-01 17:38:05,#E#,25,10,599,0,0,27,2472,0,0

2017-10-01 17:38:06,#E#,26,10,599,0,0,27,2472,0,0

2017-10-01 17:38:07,#E#,27,10,599,0,0,27,2472,0,0

2017-10-01 17:38:08,#E#,28,10,599,0,0,27,2472,0,0

2017-10-01 17:38:09,#E#,29,10,599,0,0,27,2472,0,0

2017-10-01 17:38:10,#E#,30,10,0,0,0,0,0,0,0

2017-10-01 17:38:11,#E#,31,10,0,0,0,0,0,0,0

2017-10-01 17:38:12,#E#,32,10,0,0,0,0,0,0,0

2017-10-01 17:38:13,#E#,33,10,0,0,0,0,0,0,0

2017-10-01 17:38:14,#E#,34,10,0,0,0,0,0,0,0

2017-10-01 17:38:15,#E#,35,10,599,0,0,27,2472,0,0

2017-10-01 17:38:15,#E#,36,10,599,0,0,27,2472,0,0

2017-10-01 17:38:16,#E#,37,10,599,0,0,27,2472,0,0

2017-10-01 17:38:17,#E#,38,10,599,0,0,27,2472,0,0

2017-10-01 17:38:18,#E#,39,10,599,0,0,27,2473,0,0

2017-10-01 17:38:19,#E#,40,10,0,0,0,0,0,0,0

2017-10-01 17:38:20,#E#,41,10,0,0,0,0,0,0,0

2017-10-01 17:38:21,#E#,42,10,0,0,0,0,0,0,0

2017-10-01 17:38:22,#E#,43,10,0,0,0,0,0,0,0

2017-10-01 17:38:23,#E#,44,10,0,0,0,0,0,0,0

2017-10-01 17:38:24,#E#,45,10,599,0,0,26,2473,0,0

2017-10-01 17:38:25,#E#,46,10,599,0,0,26,2473,0,0

2017-10-01 17:38:25,#E#,47,10,599,0,0,26,2473,0,0

2017-10-01 17:38:26,#E#,48,10,599,0,0,26,2473,0,0

2017-10-01 17:38:27,#E#,49,10,599,0,0,26,2473,0,0

2017-10-01 17:38:28,#E#,50,10,0,0,0,0,0,0,0

2017-10-01 17:38:29,#E#,51,10,0,0,0,0,0,0,0

2017-10-01 17:38:30,#E#,52,10,0,0,0,0,0,0,0

2017-10-01 17:38:31,#E#,53,10,0,0,0,0,0,0,0

2017-10-01 17:38:32,#E#,54,10,0,0,0,0,0,0,0

2017-10-01 17:38:33,#E#,55,10,599,0,0,26,2473,0,0

2017-10-01 17:38:34,#E#,56,10,599,0,0,26,2473,0,0

2017-10-01 17:38:35,#E#,57,10,599,0,0,26,2473,0,0

2017-10-01 17:38:35,#E#,58,10,599,0,0,26,2473,0,0

2017-10-01 17:38:36,#E#,59,10,599,0,0,26,2473,0,0

2017-10-01 17:38:37,#E#,60,10,0,0,0,0,0,0,0

2017-10-01 17:38:38,#E#,61,10,0,0,0,0,0,0,0

2017-10-01 17:38:39,#E#,62,10,0,0,0,0,0,0,0

2017-10-01 17:38:40,#E#,63,10,0,0,0,0,0,0,0

2017-10-01 17:38:41,#E#,64,10,599,0,0,26,2473,0,0

2017-10-01 17:38:42,#E#,65,10,599,0,0,26,2473,0,0

2017-10-01 17:38:43,#E#,66,10,599,0,0,26,2473,0,0

2017-10-01 17:38:44,#E#,67,10,599,0,0,26,2473,0,0

2017-10-01 17:38:45,#E#,68,10,599,0,0,26,2473,0,0

2017-10-01 17:38:45,#E#,69,10,0,0,0,0,0,0,0

2017-10-01 17:38:46,#E#,70,10,0,0,0,0,0,0,0

2017-10-01 17:38:47,#E#,71,10,0,0,0,0,0,0,0

2017-10-01 17:38:48,#E#,72,10,0,0,0,0,0,0,0

2017-10-01 17:38:49,#E#,73,10,0,0,0,0,0,0,0

2017-10-01 17:38:50,#E#,74,10,599,0,0,26,2473,0,0

2017-10-01 17:38:51,#E#,75,10,599,0,0,26,2473,0,0

2017-10-01 17:38:52,#E#,76,10,599,0,0,26,2473,0,0

2017-10-01 17:38:53,#E#,77,10,599,0,0,26,2473,0,0

2017-10-01 17:38:54,#E#,78,10,599,0,0,26,2473,0,0

2017-10-01 17:38:55,#E#,79,10,0,0,0,0,0,0,0

2017-10-01 17:38:55,#E#,80,10,0,0,0,0,0,0,0

2017-10-01 17:38:56,#E#,81,10,0,0,0,0,0,0,0

2017-10-01 17:38:57,#E#,82,10,0,0,0,0,0,0,0

2017-10-01 17:38:58,#E#,83,10,0,0,0,0,0,0,0

2017-10-01 17:38:59,#E#,84,10,599,0,0,26,2473,0,0

2017-10-01 17:39:00,
2017-10-01 17:39:00,#E#,85,10,599,0,0,26,2473,0,0

2017-10-01 17:39:01,#E#,86,10,599,0,0,26,2473,0,0

2017-10-01 17:39:02,#E#,87,10,599,0,0,26,2473,0,0

2017-10-01 17:39:03,#E#,88,10,599,0,0,26,2473,0,0

