2017-09-06 12:55:28,
2017-09-06 12:55:28,*SeqNo.,Time,VChan3,DVDD,BGO,NTCPWR,NC,VDD_HV,HV_Is1,HV_Is0
2017-09-06 12:55:28,
2017-09-06 12:55:29, BGO Set:10, AM_RegBuffer:10
2017-09-06 12:55:29,
2017-09-06 12:55:38,0, 283,709,16289,1255,43603,1,21015,21015 
2017-09-06 12:55:38,
2017-09-06 12:55:38,0, 10,27,621,47,1663,0,801,801 
2017-09-06 12:55:38,
2017-09-06 12:55:38, BGO Set:10, AM_RegBuffer:621
2017-09-06 12:55:38,
2017-09-06 12:55:38, BGO Set:11, AM_RegBuffer:11
2017-09-06 12:55:38,
2017-09-06 12:55:48,1, 283,683,15941,1227,43651,65535,21015,21015 
2017-09-06 12:55:48,
2017-09-06 12:55:48,1, 10,26,608,46,1665,2500,801,801 
2017-09-06 12:55:48,
2017-09-06 12:55:48, BGO Set:11, AM_RegBuffer:608
2017-09-06 12:55:48,
2017-09-06 12:55:48, BGO Set:12, AM_RegBuffer:12
2017-09-06 12:55:48,
2017-09-06 12:55:58,2, 283,657,15585,1201,43621,65535,21015,21015 
2017-09-06 12:55:58,
2017-09-06 12:55:58,2, 10,25,594,45,1664,2500,801,801 
2017-09-06 12:55:58,
2017-09-06 12:55:58, BGO Set:12, AM_RegBuffer:594
2017-09-06 12:55:58,
2017-09-06 12:55:58, BGO Set:13, AM_RegBuffer:13
2017-09-06 12:55:58,
2017-09-06 12:56:07,3, 285,633,15233,1173,43685,65535,21015,21015 
2017-09-06 12:56:07,
2017-09-06 12:56:07,3, 10,24,581,44,1666,2500,801,801 
2017-09-06 12:56:07,
2017-09-06 12:56:07, BGO Set:13, AM_RegBuffer:581
2017-09-06 12:56:07,
2017-09-06 12:56:07, BGO Set:14, AM_RegBuffer:14
2017-09-06 12:56:07,
2017-09-06 12:56:17,4, 285,607,14879,1147,43683,65535,21013,21013 
2017-09-06 12:56:17,
2017-09-06 12:56:17,4, 10,23,567,43,1666,2500,801,801 
2017-09-06 12:56:17,
2017-09-06 12:56:17, BGO Set:14, AM_RegBuffer:567
2017-09-06 12:56:17,
2017-09-06 12:56:17, BGO Set:15, AM_RegBuffer:15
2017-09-06 12:56:17,
2017-09-06 12:56:27,5, 285,581,14505,1119,43683,65535,21013,21013 
2017-09-06 12:56:27,
2017-09-06 12:56:27,5, 10,22,553,42,1666,2500,801,801 
2017-09-06 12:56:27,
2017-09-06 12:56:27, BGO Set:15, AM_RegBuffer:553
2017-09-06 12:56:27,
2017-09-06 12:56:27, BGO Set:16, AM_RegBuffer:16
2017-09-06 12:56:27,
2017-09-06 12:56:37,6, 285,557,14147,1091,43655,65535,21015,21015 
2017-09-06 12:56:37,
2017-09-06 12:56:37,6, 10,21,539,41,1665,2500,801,801 
2017-09-06 12:56:37,
2017-09-06 12:56:37, BGO Set:16, AM_RegBuffer:539
2017-09-06 12:56:37,
2017-09-06 12:56:37, BGO Set:17, AM_RegBuffer:17
2017-09-06 12:56:37,
2017-09-06 12:56:46,7, 285,557,14147,1091,43645,1,21017,21017 
2017-09-06 12:56:46,
2017-09-06 12:56:46,7, 10,21,539,41,1664,0,801,801 
2017-09-06 12:56:46,
2017-09-06 12:56:46, BGO Set:17, AM_RegBuffer:539
2017-09-06 12:56:46,
2017-09-06 12:56:46, BGO Set:18, AM_RegBuffer:18
2017-09-06 12:56:46,
2017-09-06 12:56:56,8, 285,557,14145,1091,43647,65535,21019,21019 
2017-09-06 12:56:56,
2017-09-06 12:56:56,8, 10,21,539,41,1665,2500,801,801 
2017-09-06 12:56:56,
2017-09-06 12:56:56, BGO Set:18, AM_RegBuffer:539
2017-09-06 12:56:56,
2017-09-06 12:56:56, BGO Set:19, AM_RegBuffer:19
2017-09-06 12:56:56,
2017-09-06 12:57:06,9, 285,557,14147,1091,43641,1,21021,21021 
2017-09-06 12:57:06,
2017-09-06 12:57:06,9, 10,21,539,41,1664,0,801,801 
2017-09-06 12:57:06,
2017-09-06 12:57:06, BGO Set:19, AM_RegBuffer:539
2017-09-06 12:57:06,
2017-09-06 12:57:06, BGO Set:20, AM_RegBuffer:20
2017-09-06 12:57:06,
2017-09-06 12:57:08,
2017-09-06 12:57:09,
2017-09-06 12:57:09,
2017-09-06 12:57:09,*******Meaure Clk Period:Time, Freq in MHz*******
2017-09-06 12:57:09,****SeqNo.,Time,DAC_Cnt..........
2017-09-06 12:57:09, 38, 30400000, 0, 0 
2017-09-06 12:57:09, 37, 29600000, 1, 0 
2017-09-06 12:57:09, 37, 29600000, 2, 0 
2017-09-06 12:57:09, 37, 29600000, 3, 0 
2017-09-06 12:57:09, 38, 30400000, 4, 0 
2017-09-06 12:57:09, 38, 30400000, 5, 0 
2017-09-06 12:57:09, 38, 30400000, 6, 0 
2017-09-06 12:57:09, 38, 30400000, 7, 0 
2017-09-06 12:57:09, 38, 30400000, 8, 0 
2017-09-06 12:57:09, 37, 29600000, 9, 0 
2017-09-06 12:57:09, 37, 29600000, 10, 0 
2017-09-06 12:57:09, 38, 30400000, 11, 0 
2017-09-06 12:57:09, 38, 30400000, 12, 0 
2017-09-06 12:57:09, 38, 30400000, 13, 0 
2017-09-06 12:57:09, 38, 30400000, 14, 0 
2017-09-06 12:57:09, 38, 30400000, 15, 0 
2017-09-06 12:57:09, 37, 29600000, 16, 0 
2017-09-06 12:57:09, 37, 29600000, 17, 0 
2017-09-06 12:57:09, 38, 30400000, 18, 0 
2017-09-06 12:57:09, 38, 30400000, 19, 0 
2017-09-06 12:57:09, 38, 30400000, 20, 0 
2017-09-06 12:57:09, 38, 30400000, 21, 0 
2017-09-06 12:57:09, 37, 29600000, 22, 0 
2017-09-06 12:57:09, 37, 29600000, 23, 0 
2017-09-06 12:57:09, 37, 29600000, 24, 0 
2017-09-06 12:57:09, 38, 30400000, 25, 0 
2017-09-06 12:57:09, 38, 30400000, 26, 0 
2017-09-06 12:57:09, 38, 30400000, 27, 0 
2017-09-06 12:57:09, 38, 30400000, 28, 0 
2017-09-06 12:57:09, 39, 31200000, 29, 0 
2017-09-06 12:57:09, 38, 30400000, 30, 0 
2017-09-06 12:57:09, 37, 29600000, 31, 0 
2017-09-06 12:57:09, 38, 30400000, 32, 0 
2017-09-06 12:57:09, 38, 30400000, 33, 0 
2017-09-06 12:57:09, 39, 31200000, 34, 0 
2017-09-06 12:57:09, 39, 31200000, 35, 0 
2017-09-06 12:57:09, 38, 30400000, 36, 0 
2017-09-06 12:57:09, 37, 29600000, 37, 0 
2017-09-06 12:57:09, 38, 30400000, 38, 0 
2017-09-06 12:57:09, 39, 31200000, 39, 0 
2017-09-06 12:57:09, 39, 31200000, 40, 0 
2017-09-06 12:57:09, 38, 30400000, 41, 0 
2017-09-06 12:57:09, 38, 30400000, 42, 0 
2017-09-06 12:57:09, 37, 29600000, 43, 0 
2017-09-06 12:57:09, 38, 30400000, 44, 0 
2017-09-06 12:57:09, 37, 29600000, 45, 0 
2017-09-06 12:57:09, 37, 29600000, 46, 0 
2017-09-06 12:57:09, 38, 30400000, 47, 0 
2017-09-06 12:57:09, 39, 31200000, 48, 0 
2017-09-06 12:57:09, 37, 29600000, 49, 0 
2017-09-06 12:57:09, 38, 30400000, 50, 0 
2017-09-06 12:57:09, 39, 31200000, 51, 0 
2017-09-06 12:57:09, 37, 29600000, 52, 0 
2017-09-06 12:57:09, 38, 30400000, 53, 0 
2017-09-06 12:57:09, 38, 30400000, 54, 0 
2017-09-06 12:57:09, 37, 29600000, 55, 0 
2017-09-06 12:57:09, 38, 30400000, 56, 0 
2017-09-06 12:57:09, 38, 30400000, 57, 0 
2017-09-06 12:57:09, 38, 30400000, 58, 0 
2017-09-06 12:57:09, 37, 29600000, 59, 0 
2017-09-06 12:57:09, 38, 30400000, 60, 0 
2017-09-06 12:57:09, 38, 30400000, 61, 0 
2017-09-06 12:57:09, 38, 30400000, 62, 0 
2017-09-06 12:57:09, 38, 30400000, 63, 0 
2017-09-06 12:57:09, 38, 30400000, 64, 0 
2017-09-06 12:57:09, 38, 30400000, 65, 0 
2017-09-06 12:57:09, 38, 30400000, 66, 0 
2017-09-06 12:57:09, 38, 30400000, 67, 0 
2017-09-06 12:57:09, 38, 30400000, 68, 0 
2017-09-06 12:57:09, 38, 30400000, 69, 0 
2017-09-06 12:57:09, 38, 30400000, 70, 0 
2017-09-06 12:57:09, 38, 30400000, 71, 0 
2017-09-06 12:57:09, 39, 31200000, 72, 0 
2017-09-06 12:57:09, 37, 29600000, 73, 0 
2017-09-06 12:57:09, 38, 30400000, 74, 0 
2017-09-06 12:57:09, 38, 30400000, 75, 0 
2017-09-06 12:57:10, 39, 31200000, 76, 0 
2017-09-06 12:57:10, 37, 29600000, 77, 0 
2017-09-06 12:57:10, 38, 30400000, 78, 0 
2017-09-06 12:57:10, 37, 29600000, 79, 0 
2017-09-06 12:57:10, 38, 30400000, 80, 0 
2017-09-06 12:57:10, 38, 30400000, 81, 0 
2017-09-06 12:57:10, 38, 30400000, 82, 0 
2017-09-06 12:57:10, 38, 30400000, 83, 0 
2017-09-06 12:57:10, 39, 31200000, 84, 0 
2017-09-06 12:57:10, 37, 29600000, 85, 0 
2017-09-06 12:57:10, 37, 29600000, 86, 0 
2017-09-06 12:57:10, 38, 30400000, 87, 0 
2017-09-06 12:57:10, 38, 30400000, 88, 0 
2017-09-06 12:57:10, 38, 30400000, 89, 0 
2017-09-06 12:57:10, 38, 30400000, 90, 0 
2017-09-06 12:57:10, 38, 30400000, 91, 0 
2017-09-06 12:57:10, 38, 30400000, 92, 0 
2017-09-06 12:57:10, 38, 30400000, 93, 0 
2017-09-06 12:57:10, 38, 30400000, 94, 0 
2017-09-06 12:57:10, 39, 31200000, 95, 0 
2017-09-06 12:57:10, 37, 29600000, 96, 0 
2017-09-06 12:57:10, 37, 29600000, 97, 0 
2017-09-06 12:57:10, 37, 29600000, 98, 0 
2017-09-06 12:57:10, 38, 30400000, 99, 0 
2017-09-06 12:57:10, 38, 30400000, 100, 0 
2017-09-06 12:57:10, 38, 30400000, 101, 0 
2017-09-06 12:57:10, 37, 29600000, 102, 0 
2017-09-06 12:57:10, 38, 30400000, 103, 0 
2017-09-06 12:57:10, 37, 29600000, 104, 0 
2017-09-06 12:57:10, 38, 30400000, 105, 0 
2017-09-06 12:57:10, 38, 30400000, 106, 0 
2017-09-06 12:57:10, 38, 30400000, 107, 0 
2017-09-06 12:57:10, 38, 30400000, 108, 0 
2017-09-06 12:57:10, 38, 30400000, 109, 0 
2017-09-06 12:57:10, 39, 31200000, 110, 0 
2017-09-06 12:57:10, 38, 30400000, 111, 0 
2017-09-06 12:57:10, 38, 30400000, 112, 0 
2017-09-06 12:57:10, 38, 30400000, 113, 0 
2017-09-06 12:57:10, 38, 30400000, 114, 0 
2017-09-06 12:57:10, 38, 30400000, 115, 0 
2017-09-06 12:57:10, 38, 30400000, 116, 0 
2017-09-06 12:57:10, 38, 30400000, 117, 0 
2017-09-06 12:57:10, 38, 30400000, 118, 0 
2017-09-06 12:57:10, 38, 30400000, 119, 0 
2017-09-06 12:57:10, 38, 30400000, 120, 0 
2017-09-06 12:57:10, 38, 30400000, 121, 0 
2017-09-06 12:57:10, 38, 30400000, 122, 0 
2017-09-06 12:57:10, 38, 30400000, 123, 0 
2017-09-06 12:57:10, 38, 30400000, 124, 0 
2017-09-06 12:57:10, 37, 29600000, 125, 0 
2017-09-06 12:57:10, 38, 30400000, 126, 0 
2017-09-06 12:57:10, 38, 30400000, 127, 0 
2017-09-06 12:57:10, 38, 30400000, 128, 0 
2017-09-06 12:57:10, 37, 29600000, 129, 0 
2017-09-06 12:57:10, 38, 30400000, 130, 0 
2017-09-06 12:57:10, 38, 30400000, 131, 0 
2017-09-06 12:57:10, 38, 30400000, 132, 0 
2017-09-06 12:57:10, 38, 30400000, 133, 0 
2017-09-06 12:57:10, 38, 30400000, 134, 0 
2017-09-06 12:57:10, 37, 29600000, 135, 0 
2017-09-06 12:57:10, 37, 29600000, 136, 0 
2017-09-06 12:57:10, 38, 30400000, 137, 0 
2017-09-06 12:57:10, 38, 30400000, 138, 0 
2017-09-06 12:57:10, 38, 30400000, 139, 0 
2017-09-06 12:57:10, 37, 29600000, 140, 0 
2017-09-06 12:57:10, 38, 30400000, 141, 0 
2017-09-06 12:57:10, 37, 29600000, 142, 0 
2017-09-06 12:57:10, 37, 29600000, 143, 0 
2017-09-06 12:57:10, 38, 30400000, 144, 0 
2017-09-06 12:57:10, 38, 30400000, 145, 0 
2017-09-06 12:57:10, 38, 30400000, 146, 0 
2017-09-06 12:57:10, 38, 30400000, 147, 0 
2017-09-06 12:57:10, 39, 31200000, 148, 0 
2017-09-06 12:57:10, 38, 30400000, 149, 0 
2017-09-06 12:57:10, 39, 31200000, 150, 0 
2017-09-06 12:57:10, 37, 29600000, 151, 0 
2017-09-06 12:57:10, 38, 30400000, 152, 0 
2017-09-06 12:57:10, 37, 29600000, 153, 0 
2017-09-06 12:57:10, 38, 30400000, 154, 0 
2017-09-06 12:57:10, 38, 30400000, 155, 0 
2017-09-06 12:57:10, 37, 29600000, 156, 0 
2017-09-06 12:57:10, 37, 29600000, 157, 0 
2017-09-06 12:57:10, 38, 30400000, 158, 0 
2017-09-06 12:57:10, 38, 30400000, 159, 0 
2017-09-06 12:57:10, 38, 30400000, 160, 0 
2017-09-06 12:57:10, 38, 30400000, 161, 0 
2017-09-06 12:57:10, 38, 30400000, 162, 0 
2017-09-06 12:57:10, 37, 29600000, 163, 0 
2017-09-06 12:57:10, 38, 30400000, 164, 0 
2017-09-06 12:57:10, 39, 31200000, 165, 0 
2017-09-06 12:57:10, 38, 30400000, 166, 0 
2017-09-06 12:57:10, 38, 30400000, 167, 0 
2017-09-06 12:57:10, 38, 30400000, 168, 0 
2017-09-06 12:57:10, 38, 30400000, 169, 0 
2017-09-06 12:57:10, 38, 30400000, 170, 0 
2017-09-06 12:57:10, 37, 29600000, 171, 0 
2017-09-06 12:57:10, 38, 30400000, 172, 0 
2017-09-06 12:57:10, 37, 29600000, 173, 0 
2017-09-06 12:57:10, 38, 30400000, 174, 0 
2017-09-06 12:57:10, 38, 30400000, 175, 0 
2017-09-06 12:57:10, 38, 30400000, 176, 0 
2017-09-06 12:57:10, 37, 29600000, 177, 0 
2017-09-06 12:57:10, 37, 29600000, 178, 0 
2017-09-06 12:57:10, 38, 30400000, 179, 0 
2017-09-06 12:57:10, 38, 30400000, 180, 0 
2017-09-06 12:57:10, 38, 30400000, 181, 0 
2017-09-06 12:57:10, 39, 31200000, 182, 0 
2017-09-06 12:57:10, 38, 30400000, 183, 0 
2017-09-06 12:57:10, 38, 30400000, 184, 0 
2017-09-06 12:57:10, 37, 29600000, 185, 0 
2017-09-06 12:57:10, 38, 30400000, 186, 0 
2017-09-06 12:57:10, 38, 30400000, 187, 0 
2017-09-06 12:57:10, 38, 30400000, 188, 0 
2017-09-06 12:57:10, 38, 30400000, 189, 0 
2017-09-06 12:57:10, 38, 30400000, 190, 0 
2017-09-06 12:57:10, 38, 30400000, 191, 0 
2017-09-06 12:57:10, 38, 30400000, 192, 0 
2017-09-06 12:57:10, 38, 30400000, 193, 0 
2017-09-06 12:57:10, 38, 30400000, 194, 0 
2017-09-06 12:57:10, 38, 30400000, 195, 0 
2017-09-06 12:57:10, 38, 30400000, 196, 0 
2017-09-06 12:57:10, 38, 30400000, 197, 0 
2017-09-06 12:57:10, 38, 30400000, 198, 0 
2017-09-06 12:57:10, 38, 30400000, 199, 0 
2017-09-06 12:57:10,
2017-09-06 12:57:13,
2017-09-06 12:57:14,0, 801, 44, 100, 25, 15, 131, 130, 139, 128, 0 
2017-09-06 12:57:15, 0, 801, 44, 200, 25, 15, 131, 130, 139, 128, 0 
2017-09-06 12:57:15, 0, 801, 55, 100, 58, 32, 298, 296, 329, 294, 0 
2017-09-06 12:57:16, 0, 801, 55, 200, 58, 32, 298, 297, 329, 295, 2 
2017-09-06 12:57:17, 0, 801, 66, 100, 41, 23, 214, 213, 228, 215, 0 
2017-09-06 12:57:17, 0, 801, 66, 200, 41, 23, 214, 214, 228, 215, 1 
2017-09-06 12:57:18, 0, 801, 77, 100, 37, 21, 193, 192, 203, 192, 0 
2017-09-06 12:57:19, 0, 801, 77, 200, 37, 21, 193, 192, 203, 192, 0 
2017-09-06 12:57:20, 1, 733, 44, 100, 32, 18, 164, 164, 172, 164, 0 
2017-09-06 12:57:21, 1, 733, 44, 200, 32, 18, 164, 163, 172, 164, 1 
2017-09-06 12:57:21, 1, 733, 55, 100, 60, 33, 306, 304, 335, 304, 0 
2017-09-06 12:57:22, 1, 733, 55, 200, 60, 33, 306, 304, 336, 304, 1 
2017-09-06 12:57:23, 1, 733, 66, 100, 42, 24, 218, 216, 233, 216, 0 
2017-09-06 12:57:23, 1, 733, 66, 200, 42, 24, 218, 217, 234, 216, 2 
2017-09-06 12:57:24, 1, 733, 77, 100, 38, 22, 196, 195, 207, 193, 0 
2017-09-06 12:57:25, 1, 733, 77, 200, 38, 22, 196, 195, 208, 193, 1 
2017-09-06 12:57:26, 2, 717, 44, 100, 32, 18, 166, 166, 177, 164, 0 
2017-09-06 12:57:27, 2, 717, 44, 200, 32, 18, 166, 165, 177, 164, 1 
2017-09-06 12:57:27, 2, 717, 55, 100, 61, 33, 309, 308, 340, 308, 0 
2017-09-06 12:57:28, 2, 717, 55, 200, 60, 33, 309, 308, 340, 308, 1 
2017-09-06 12:57:29, 2, 717, 66, 100, 43, 24, 220, 219, 234, 221, 0 
2017-09-06 12:57:29, 2, 717, 66, 200, 42, 24, 220, 219, 234, 221, 1 
2017-09-06 12:57:30, 2, 717, 77, 100, 38, 22, 198, 197, 208, 198, 0 
2017-09-06 12:57:31, 2, 717, 77, 200, 38, 22, 198, 197, 208, 198, 0 
2017-09-06 12:57:32, 3, 708, 44, 100, 32, 18, 169, 167, 177, 165, 0 
2017-09-06 12:57:33, 3, 708, 44, 200, 32, 18, 168, 167, 177, 165, 1 
2017-09-06 12:57:33, 3, 708, 55, 100, 61, 33, 312, 310, 344, 308, 0 
2017-09-06 12:57:34, 3, 708, 55, 200, 61, 33, 312, 310, 344, 308, 0 
2017-09-06 12:57:35, 3, 708, 66, 100, 43, 24, 223, 222, 239, 221, 0 
2017-09-06 12:57:35, 3, 708, 66, 200, 43, 24, 223, 222, 239, 221, 0 
2017-09-06 12:57:36, 3, 708, 77, 100, 39, 22, 201, 200, 212, 198, 0 
2017-09-06 12:57:37, 3, 708, 77, 200, 39, 22, 201, 200, 212, 198, 0 
2017-09-06 12:57:38, 4, 699, 44, 100, 33, 19, 171, 170, 182, 169, 0 
2017-09-06 12:57:38, 4, 699, 44, 200, 33, 19, 171, 170, 182, 169, 0 
2017-09-06 12:57:39, 4, 699, 55, 100, 61, 33, 315, 313, 349, 313, 0 
2017-09-06 12:57:40, 4, 699, 55, 200, 61, 33, 315, 314, 349, 313, 1 
2017-09-06 12:57:41, 4, 699, 66, 100, 43, 24, 225, 225, 244, 226, 0 
2017-09-06 12:57:41, 4, 699, 66, 200, 43, 24, 225, 225, 243, 226, 1 
2017-09-06 12:57:42, 4, 699, 77, 100, 39, 22, 203, 202, 214, 203, 0 
2017-09-06 12:57:43, 4, 699, 77, 200, 39, 22, 203, 202, 216, 203, 0 
2017-09-06 12:57:44, 5, 690, 44, 100, 33, 19, 173, 172, 182, 169, 0 
2017-09-06 12:57:44, 5, 690, 44, 200, 33, 19, 173, 172, 183, 169, 1 
2017-09-06 12:57:45, 5, 690, 55, 100, 61, 33, 318, 317, 352, 318, 0 
2017-09-06 12:57:46, 5, 690, 55, 200, 61, 33, 318, 316, 350, 317, 2 
2017-09-06 12:57:46, 5, 690, 66, 100, 44, 24, 228, 227, 244, 227, 0 
2017-09-06 12:57:47, 5, 690, 66, 200, 44, 24, 228, 227, 244, 226, 1 
2017-09-06 12:57:48, 5, 690, 77, 100, 39, 22, 206, 204, 217, 203, 0 
2017-09-06 12:57:49, 5, 690, 77, 200, 39, 22, 206, 204, 217, 203, 0 
2017-09-06 12:57:50, 6, 681, 44, 100, 33, 18, 175, 174, 187, 173, 0 
2017-09-06 12:57:50, 6, 681, 44, 200, 33, 18, 175, 174, 186, 173, 1 
2017-09-06 12:57:51, 6, 681, 55, 100, 62, 33, 321, 320, 354, 318, 0 
2017-09-06 12:57:52, 6, 681, 55, 200, 61, 33, 322, 320, 355, 318, 3 
2017-09-06 12:57:52, 6, 681, 66, 100, 44, 24, 231, 229, 249, 232, 0 
2017-09-06 12:57:53, 6, 681, 66, 200, 44, 24, 231, 230, 249, 232, 1 
2017-09-06 12:57:54, 6, 681, 77, 100, 39, 22, 208, 207, 220, 208, 0 
2017-09-06 12:57:54, 6, 681, 77, 200, 39, 22, 208, 207, 222, 208, 0 
2017-09-06 12:57:56, 7, 671, 44, 100, 33, 18, 177, 177, 187, 174, 0 
2017-09-06 12:57:56, 7, 671, 44, 200, 33, 18, 177, 177, 188, 174, 1 
2017-09-06 12:57:57, 7, 671, 55, 100, 61, 32, 324, 323, 358, 323, 0 
2017-09-06 12:57:58, 7, 671, 55, 200, 62, 32, 324, 323, 358, 323, 1 
2017-09-06 12:57:58, 7, 671, 66, 100, 44, 24, 233, 232, 249, 232, 0 
2017-09-06 12:57:59, 7, 671, 66, 200, 44, 24, 233, 232, 249, 232, 0 
2017-09-06 12:58:00, 7, 671, 77, 100, 39, 22, 210, 209, 222, 208, 0 
2017-09-06 12:58:00, 7, 671, 77, 200, 39, 22, 210, 209, 222, 208, 0 
2017-09-06 12:58:02, 8, 659, 44, 100, 33, 18, 180, 179, 192, 179, 0 
2017-09-06 12:58:02, 8, 659, 44, 200, 33, 18, 180, 179, 192, 179, 0 
2017-09-06 12:58:03, 8, 659, 55, 100, 62, 32, 328, 326, 363, 327, 0 
2017-09-06 12:58:04, 8, 659, 55, 200, 62, 32, 328, 326, 363, 327, 0 
2017-09-06 12:58:04, 8, 659, 66, 100, 44, 24, 236, 235, 254, 237, 0 
2017-09-06 12:58:05, 8, 659, 66, 200, 44, 23, 236, 235, 254, 237, 1 
2017-09-06 12:58:06, 8, 659, 77, 100, 39, 22, 213, 212, 227, 213, 1 
2017-09-06 12:58:06, 8, 659, 77, 200, 39, 21, 213, 212, 227, 213, 1 
2017-09-06 12:58:07, 9, 646, 44, 100, 33, 18, 183, 182, 192, 180, 0 
2017-09-06 12:58:08, 9, 646, 44, 200, 33, 18, 183, 182, 192, 180, 0 
2017-09-06 12:58:09, 9, 646, 55, 100, 62, 32, 332, 331, 368, 332, 0 
2017-09-06 12:58:09, 9, 646, 55, 200, 62, 32, 332, 330, 369, 332, 2 
2017-09-06 12:58:10, 9, 646, 66, 100, 44, 23, 240, 238, 259, 242, 0 
2017-09-06 12:58:11, 9, 646, 66, 200, 44, 23, 239, 238, 259, 242, 1 
2017-09-06 12:58:12, 9, 646, 77, 100, 39, 21, 217, 215, 232, 219, 0 
2017-09-06 12:58:12, 9, 646, 77, 200, 39, 21, 216, 215, 232, 219, 1 
2017-09-06 12:58:13, 10, 633, 44, 100, 33, 18, 186, 185, 197, 185, 0 
2017-09-06 12:58:14, 10, 633, 44, 200, 33, 18, 186, 185, 197, 185, 0 
2017-09-06 12:58:15, 10, 633, 55, 100, 62, 31, 337, 335, 375, 337, 0 
2017-09-06 12:58:15, 10, 633, 55, 200, 62, 31, 337, 335, 375, 337, 0 
2017-09-06 12:58:16, 10, 633, 66, 100, 44, 23, 244, 242, 264, 243, 0 
2017-09-06 12:58:17, 10, 633, 66, 200, 44, 23, 244, 242, 264, 243, 0 
2017-09-06 12:58:18, 10, 633, 77, 100, 40, 20, 220, 219, 233, 219, 0 
2017-09-06 12:58:18, 10, 633, 77, 200, 39, 20, 220, 219, 233, 219, 1 
2017-09-06 12:58:19, 11, 620, 44, 100, 33, 18, 189, 188, 201, 189, 0 
2017-09-06 12:58:20, 11, 620, 44, 200, 33, 18, 189, 188, 201, 189, 0 
2017-09-06 12:58:21, 11, 620, 55, 100, 62, 31, 342, 340, 381, 342, 0 
2017-09-06 12:58:21, 11, 620, 55, 200, 62, 31, 342, 340, 382, 342, 1 
2017-09-06 12:58:22, 11, 620, 66, 100, 44, 23, 248, 246, 269, 248, 0 
2017-09-06 12:58:23, 11, 620, 66, 200, 44, 23, 248, 246, 269, 248, 0 
2017-09-06 12:58:23, 11, 620, 77, 100, 40, 20, 224, 223, 237, 224, 0 
2017-09-06 12:58:24, 11, 620, 77, 200, 40, 20, 224, 223, 237, 224, 0 
2017-09-06 12:58:25, 12, 607, 44, 100, 33, 17, 193, 192, 206, 192, 0 
2017-09-06 12:58:26, 12, 607, 44, 200, 33, 17, 193, 192, 206, 193, 1 
2017-09-06 12:58:27, 12, 607, 55, 100, 62, 30, 349, 347, 389, 347, 0 
2017-09-06 12:58:27, 12, 607, 55, 200, 62, 30, 348, 347, 389, 347, 1 
2017-09-06 12:58:28, 12, 607, 66, 100, 44, 22, 253, 251, 275, 249, 0 
2017-09-06 12:58:29, 12, 607, 66, 200, 44, 22, 252, 251, 275, 249, 1 
2017-09-06 12:58:29, 12, 607, 77, 100, 40, 20, 229, 227, 242, 228, 0 
2017-09-06 12:58:30, 12, 607, 77, 200, 40, 20, 228, 227, 242, 228, 1 
2017-09-06 12:58:31, 13, 593, 44, 100, 33, 17, 197, 195, 211, 195, 0 
2017-09-06 12:58:32, 13, 593, 44, 200, 33, 17, 197, 195, 211, 195, 0 
2017-09-06 12:58:33, 13, 593, 55, 100, 62, 29, 355, 353, 398, 352, 0 
2017-09-06 12:58:33, 13, 593, 55, 200, 62, 29, 355, 353, 398, 352, 0 
2017-09-06 12:58:34, 13, 593, 66, 100, 44, 21, 257, 256, 281, 254, 0 
2017-09-06 12:58:35, 13, 593, 66, 200, 44, 21, 257, 255, 280, 254, 2 
2017-09-06 12:58:35, 13, 593, 77, 100, 40, 20, 232, 231, 247, 233, 1 
2017-09-06 12:58:36, 13, 593, 77, 200, 40, 20, 232, 231, 247, 233, 0 
2017-09-06 12:58:37, 14, 580, 44, 100, 33, 17, 200, 199, 214, 200, 0 
2017-09-06 12:58:38, 14, 580, 44, 200, 33, 17, 200, 200, 214, 200, 1 
2017-09-06 12:58:39, 14, 580, 55, 100, 62, 29, 361, 359, 406, 357, 0 
2017-09-06 12:58:39, 14, 580, 55, 200, 62, 29, 361, 360, 406, 357, 1 
2017-09-06 12:58:40, 14, 580, 66, 100, 44, 21, 262, 260, 286, 259, 0 
2017-09-06 12:58:41, 14, 580, 66, 200, 44, 21, 262, 261, 286, 259, 1 
2017-09-06 12:58:41, 14, 580, 77, 100, 40, 19, 237, 236, 256, 235, 0 
2017-09-06 12:58:42, 14, 580, 77, 200, 40, 19, 237, 236, 256, 235, 0 
2017-09-06 12:58:43, 15, 566, 44, 100, 33, 17, 205, 204, 221, 205, 0 
2017-09-06 12:58:44, 15, 566, 44, 200, 33, 17, 205, 204, 219, 205, 0 
2017-09-06 12:58:44, 15, 566, 55, 100, 62, 28, 369, 367, 417, 366, 0 
2017-09-06 12:58:45, 15, 566, 55, 200, 62, 28, 369, 367, 418, 366, 1 
2017-09-06 12:58:46, 15, 566, 66, 100, 44, 21, 267, 266, 292, 265, 0 
2017-09-06 12:58:46, 15, 566, 66, 200, 44, 21, 268, 266, 292, 265, 1 
2017-09-06 12:58:47, 15, 566, 77, 100, 40, 19, 242, 241, 261, 240, 0 
2017-09-06 12:58:48, 15, 566, 77, 200, 40, 19, 242, 241, 261, 240, 0 
2017-09-06 12:58:49, 16, 552, 44, 100, 33, 16, 209, 208, 226, 210, 0 
2017-09-06 12:58:50, 16, 552, 44, 200, 34, 16, 209, 209, 226, 210, 2 
2017-09-06 12:58:50, 16, 552, 55, 100, 63, 28, 376, 374, 425, 376, 0 
2017-09-06 12:58:51, 16, 552, 55, 200, 63, 28, 376, 374, 428, 376, 0 
2017-09-06 12:58:52, 16, 552, 66, 100, 44, 20, 273, 272, 301, 271, 0 
2017-09-06 12:58:52, 16, 552, 66, 200, 44, 20, 273, 272, 302, 271, 1 
2017-09-06 12:58:53, 16, 552, 77, 100, 40, 19, 247, 246, 267, 245, 1 
2017-09-06 12:58:54, 16, 552, 77, 200, 40, 19, 247, 246, 267, 245, 0 
2017-09-06 12:58:55, 17, 538, 44, 100, 34, 16, 210, 209, 227, 210, 0 
2017-09-06 12:58:56, 17, 538, 44, 200, 33, 16, 210, 209, 227, 210, 1 
2017-09-06 12:58:56, 17, 538, 55, 100, 63, 28, 377, 374, 427, 376, 0 
2017-09-06 12:58:57, 17, 538, 55, 200, 63, 28, 376, 374, 428, 376, 2 
2017-09-06 12:58:58, 17, 538, 66, 100, 44, 20, 273, 272, 302, 271, 0 
2017-09-06 12:58:58, 17, 538, 66, 200, 44, 20, 273, 272, 302, 271, 0 
2017-09-06 12:58:59, 17, 538, 77, 100, 40, 19, 247, 246, 267, 245, 1 
2017-09-06 12:59:00, 17, 538, 77, 200, 40, 19, 247, 246, 267, 245, 0 
2017-09-06 12:59:01, 18, 538, 44, 100, 33, 16, 210, 209, 227, 210, 0 
2017-09-06 12:59:02, 18, 538, 44, 200, 33, 16, 210, 209, 227, 210, 0 
2017-09-06 12:59:02, 18, 538, 55, 100, 62, 28, 377, 374, 427, 376, 0 
2017-09-06 12:59:03, 18, 538, 55, 200, 63, 28, 376, 374, 426, 376, 3 
2017-09-06 12:59:04, 18, 538, 66, 100, 44, 20, 273, 272, 302, 271, 0 
2017-09-06 12:59:04, 18, 538, 66, 200, 44, 20, 273, 272, 302, 271, 0 
2017-09-06 12:59:05, 18, 538, 77, 100, 40, 19, 247, 246, 267, 245, 1 
2017-09-06 12:59:06, 18, 538, 77, 200, 40, 19, 247, 246, 267, 245, 0 
2017-09-06 12:59:07, 19, 538, 44, 100, 33, 16, 210, 209, 227, 210, 0 
2017-09-06 12:59:07, 19, 538, 44, 200, 33, 16, 210, 209, 227, 210, 0 
2017-09-06 12:59:08, 19, 538, 55, 100, 62, 28, 376, 374, 425, 376, 0 
2017-09-06 12:59:09, 19, 538, 55, 200, 63, 28, 376, 374, 426, 376, 2 
2017-09-06 12:59:10, 19, 538, 66, 100, 44, 20, 273, 272, 301, 271, 0 
2017-09-06 12:59:10, 19, 538, 66, 200, 44, 20, 273, 272, 302, 271, 1 
2017-09-06 12:59:11, 19, 538, 77, 100, 40, 19, 247, 246, 267, 245, 1 
2017-09-06 12:59:12, 19, 538, 77, 200, 40, 19, 247, 246, 267, 245, 0 
2017-09-06 12:59:13, 20, 538, 44, 100, 33, 16, 210, 209, 227, 210, 0 
2017-09-06 12:59:13, 20, 538, 44, 200, 34, 16, 210, 209, 227, 210, 1 
2017-09-06 12:59:14, 20, 538, 55, 100, 62, 27, 376, 374, 427, 376, 0 
2017-09-06 12:59:15, 20, 538, 55, 200, 63, 28, 377, 374, 425, 376, 3 
2017-09-06 12:59:16, 20, 538, 66, 100, 44, 20, 273, 272, 302, 271, 0 
2017-09-06 12:59:16, 20, 538, 66, 200, 44, 20, 273, 272, 301, 271, 1 
2017-09-06 12:59:17, 20, 538, 77, 100, 40, 19, 247, 246, 267, 245, 1 
2017-09-06 12:59:18, 20, 538, 77, 200, 40, 19, 247, 246, 267, 245, 0 
2017-09-06 12:59:19, 21, 538, 44, 100, 33, 16, 210, 209, 227, 210, 0 
2017-09-06 12:59:19, 21, 538, 44, 200, 34, 16, 210, 209, 227, 210, 1 
2017-09-06 12:59:20, 21, 538, 55, 100, 62, 28, 376, 374, 426, 376, 0 
2017-09-06 12:59:21, 21, 538, 55, 200, 63, 28, 376, 374, 428, 376, 1 
2017-09-06 12:59:21, 21, 538, 66, 100, 44, 20, 273, 272, 302, 271, 0 
2017-09-06 12:59:22, 21, 538, 66, 200, 44, 20, 273, 272, 302, 271, 0 
2017-09-06 12:59:23, 21, 538, 77, 100, 40, 19, 247, 246, 267, 245, 1 
2017-09-06 12:59:23, 21, 538, 77, 200, 40, 19, 247, 246, 267, 245, 0 
2017-09-06 12:59:25, 22, 538, 44, 100, 33, 16, 210, 209, 227, 210, 0 
2017-09-06 12:59:25, 22, 538, 44, 200, 33, 16, 210, 209, 227, 210, 0 
2017-09-06 12:59:26, 22, 538, 55, 100, 63, 27, 376, 374, 427, 376, 0 
2017-09-06 12:59:27, 22, 538, 55, 200, 63, 27, 376, 374, 426, 376, 1 
2017-09-06 12:59:27, 22, 538, 66, 100, 44, 20, 273, 272, 302, 271, 0 
2017-09-06 12:59:28, 22, 538, 66, 200, 44, 20, 273, 272, 302, 271, 0 
2017-09-06 12:59:29, 22, 538, 77, 100, 40, 19, 247, 246, 267, 245, 1 
2017-09-06 12:59:29, 22, 538, 77, 200, 40, 19, 247, 246, 267, 245, 0 
2017-09-06 12:59:31, 23, 538, 44, 100, 34, 16, 210, 209, 227, 210, 0 
2017-09-06 12:59:31, 23, 538, 44, 200, 34, 16, 210, 209, 227, 210, 0 
2017-09-06 12:59:32, 23, 538, 55, 100, 62, 28, 376, 374, 427, 376, 0 
2017-09-06 12:59:33, 23, 538, 55, 200, 62, 28, 377, 374, 428, 376, 2 
2017-09-06 12:59:33, 23, 538, 66, 100, 44, 20, 273, 272, 302, 271, 0 
2017-09-06 12:59:34, 23, 538, 66, 200, 44, 20, 273, 272, 302, 271, 0 
2017-09-06 12:59:35, 23, 538, 77, 100, 40, 19, 247, 246, 267, 245, 1 
2017-09-06 12:59:35, 23, 538, 77, 200, 40, 19, 247, 246, 267, 245, 0 
2017-09-06 12:59:36, 24, 538, 44, 100, 33, 16, 210, 209, 227, 210, 0 
2017-09-06 12:59:37, 24, 538, 44, 200, 34, 16, 210, 209, 227, 210, 1 
2017-09-06 12:59:38, 24, 538, 55, 100, 62, 28, 377, 374, 428, 376, 0 
2017-09-06 12:59:39, 24, 538, 55, 200, 63, 28, 376, 374, 428, 376, 2 
2017-09-06 12:59:39, 24, 538, 66, 100, 44, 20, 273, 272, 302, 271, 0 
2017-09-06 12:59:40, 24, 538, 66, 200, 44, 20, 273, 272, 302, 271, 0 
2017-09-06 12:59:41, 24, 538, 77, 100, 40, 19, 247, 246, 267, 245, 1 
2017-09-06 12:59:41, 24, 538, 77, 200, 40, 19, 247, 246, 267, 245, 0 
2017-09-06 12:59:42, 25, 538, 44, 100, 34, 16, 210, 209, 227, 210, 0 
2017-09-06 12:59:43, 25, 538, 44, 200, 33, 16, 210, 209, 227, 210, 1 
2017-09-06 12:59:44, 25, 538, 55, 100, 63, 28, 377, 374, 428, 376, 0 
2017-09-06 12:59:44, 25, 538, 55, 200, 62, 28, 376, 374, 428, 376, 2 
2017-09-06 12:59:45, 25, 538, 66, 100, 44, 20, 273, 272, 302, 271, 0 
2017-09-06 12:59:46, 25, 538, 66, 200, 44, 20, 273, 272, 302, 271, 0 
2017-09-06 12:59:47, 25, 538, 77, 100, 40, 19, 247, 246, 267, 245, 1 
2017-09-06 12:59:47, 25, 538, 77, 200, 40, 19, 247, 246, 267, 245, 0 
2017-09-06 12:59:48, 26, 538, 44, 100, 33, 16, 210, 209, 227, 210, 0 
2017-09-06 12:59:49, 26, 538, 44, 200, 33, 16, 210, 209, 227, 210, 0 
2017-09-06 12:59:50, 26, 538, 55, 100, 62, 28, 377, 374, 428, 376, 0 
2017-09-06 12:59:50, 26, 538, 55, 200, 62, 28, 376, 374, 428, 376, 1 
2017-09-06 12:59:51, 26, 538, 66, 100, 44, 20, 273, 272, 302, 271, 0 
2017-09-06 12:59:52, 26, 538, 66, 200, 44, 20, 273, 272, 302, 271, 0 
2017-09-06 12:59:53, 26, 538, 77, 100, 40, 19, 247, 246, 267, 245, 1 
2017-09-06 12:59:53, 26, 538, 77, 200, 40, 19, 247, 246, 267, 245, 0 
2017-09-06 12:59:54, 27, 538, 44, 100, 34, 16, 210, 209, 227, 210, 0 
2017-09-06 12:59:55, 27, 538, 44, 200, 34, 16, 210, 209, 227, 210, 0 
2017-09-06 12:59:56, 27, 538, 55, 100, 63, 28, 377, 374, 428, 376, 0 
2017-09-06 12:59:56, 27, 538, 55, 200, 63, 28, 376, 374, 427, 376, 2 
2017-09-06 12:59:57, 27, 538, 66, 100, 45, 20, 273, 272, 302, 271, 0 
2017-09-06 12:59:58, 27, 538, 66, 200, 44, 20, 273, 272, 302, 271, 1 
2017-09-06 12:59:58, 27, 538, 77, 100, 40, 19, 247, 246, 267, 245, 1 
2017-09-06 12:59:59, 27, 538, 77, 200, 40, 19, 247, 246, 267, 245, 0 
2017-09-06 13:00:00, 28, 538, 44, 100, 34, 16, 210, 209, 227, 210, 0 
2017-09-06 13:00:01, 28, 538, 44, 200, 34, 16, 210, 209, 227, 210, 0 
2017-09-06 13:00:02, 28, 538, 55, 100, 63, 28, 376, 374, 427, 376, 0 
2017-09-06 13:00:02, 28, 538, 55, 200, 63, 28, 377, 374, 426, 376, 2 
2017-09-06 13:00:03, 28, 538, 66, 100, 44, 20, 273, 272, 302, 271, 0 
2017-09-06 13:00:04, 28, 538, 66, 200, 44, 20, 273, 272, 302, 271, 0 
2017-09-06 13:00:04, 28, 538, 77, 100, 40, 19, 247, 246, 267, 245, 1 
2017-09-06 13:00:05, 28, 538, 77, 200, 40, 19, 247, 246, 267, 245, 0 
2017-09-06 13:00:06, 29, 538, 44, 100, 34, 16, 210, 209, 227, 210, 0 
2017-09-06 13:00:07, 29, 538, 44, 200, 34, 16, 210, 209, 227, 210, 0 
2017-09-06 13:00:08, 29, 538, 55, 100, 63, 28, 377, 374, 428, 376, 0 
2017-09-06 13:00:08, 29, 538, 55, 200, 63, 28, 376, 374, 427, 376, 2 
2017-09-06 13:00:09, 29, 538, 66, 100, 44, 20, 273, 272, 302, 271, 0 
2017-09-06 13:00:10, 29, 538, 66, 200, 44, 20, 273, 272, 302, 271, 0 
2017-09-06 13:00:10, 29, 538, 77, 100, 40, 19, 247, 246, 267, 245, 1 
2017-09-06 13:00:11, 29, 538, 77, 200, 40, 19, 247, 246, 267, 245, 0 
2017-09-06 13:00:12, 30, 538, 44, 100, 34, 16, 210, 209, 227, 210, 0 
2017-09-06 13:00:13, 30, 538, 44, 200, 34, 16, 210, 209, 227, 210, 0 
2017-09-06 13:00:13, 30, 538, 55, 100, 63, 27, 376, 374, 425, 376, 0 
2017-09-06 13:00:14, 30, 538, 55, 200, 63, 27, 376, 374, 428, 376, 0 
2017-09-06 13:00:15, 30, 538, 66, 100, 45, 20, 273, 272, 301, 271, 0 
2017-09-06 13:00:16, 30, 538, 66, 200, 44, 20, 273, 272, 302, 271, 2 
2017-09-06 13:00:16, 30, 538, 77, 100, 40, 19, 247, 246, 267, 245, 1 
2017-09-06 13:00:17, 30, 538, 77, 200, 40, 19, 247, 246, 267, 245, 0 
2017-09-06 13:00:18, 31, 538, 44, 100, 34, 16, 210, 209, 227, 210, 0 
2017-09-06 13:00:19, 31, 538, 44, 200, 34, 16, 210, 209, 227, 210, 0 
2017-09-06 13:00:19, 31, 538, 55, 100, 63, 28, 376, 374, 426, 376, 0 
2017-09-06 13:00:20, 31, 538, 55, 200, 63, 28, 376, 374, 428, 376, 0 
2017-09-06 13:00:21, 31, 538, 66, 100, 44, 20, 273, 272, 302, 271, 0 
2017-09-06 13:00:21, 31, 538, 66, 200, 44, 20, 273, 272, 302, 271, 0 
2017-09-06 13:00:22, 31, 538, 77, 100, 40, 19, 247, 246, 267, 245, 1 
2017-09-06 13:00:23, 31, 538, 77, 200, 40, 19, 247, 246, 267, 245, 0 
2017-09-06 13:00:24, 32, 538, 44, 100, 31, 18, 171, 171, 183, 168, 1 
2017-09-06 13:00:25, 32, 538, 44, 200, 31, 18, 172, 171, 183, 168, 1 
2017-09-06 13:00:25, 32, 538, 55, 100, 60, 33, 305, 303, 334, 301, 0 
2017-09-06 13:00:26, 32, 538, 55, 200, 60, 33, 305, 303, 335, 301, 1 
2017-09-06 13:00:27, 32, 538, 66, 100, 42, 23, 215, 214, 229, 216, 0 
2017-09-06 13:00:27, 32, 538, 66, 200, 42, 24, 216, 215, 229, 216, 3 
2017-09-06 13:00:28, 32, 538, 77, 100, 38, 21, 193, 192, 203, 193, 0 
2017-09-06 13:00:29, 32, 538, 77, 200, 38, 22, 194, 193, 203, 193, 3 
2017-09-06 13:00:32,
2017-09-06 13:00:32,*SeqNo.,Time,DAC_Cnt,BGO,AM_LCh0,AM_RCh0,AM_Rch1,AM_RCh2,AM_LCh3,AM_LCh3
2017-09-06 13:00:32,
2017-09-06 13:00:32, BGO Set:0, AM_RegBuffer:0
2017-09-06 13:00:32,
2017-09-06 13:00:34, BGO Set:0,725 
2017-09-06 13:00:34,
2017-09-06 13:00:35, Gain Set:0, AM_RegBuffer:0 
2017-09-06 13:00:35,
2017-09-06 13:00:40,
2017-09-06 13:00:40,*SeqNo.,Time,DAC_Cnt,BGO,AM_LCh0,AM_RCh0,AM_Rch1,AM_RCh2,AM_LCh3,AM_LCh3
2017-09-06 13:00:40,
2017-09-06 13:00:40, BGO Set:0, AM_RegBuffer:0
2017-09-06 13:00:40,
2017-09-06 13:00:43, BGO Set:0,733 
2017-09-06 13:00:43,
2017-09-06 13:00:43, Gain Set:0, AM_RegBuffer:0 
2017-09-06 13:00:43,
