2017-09-06 13:06:24,
2017-09-06 13:06:25,*SeqNo.,Time,VChan3,DVDD,BGO,NTCPWR,NC,VDD_HV,HV_Is1,HV_Is0
2017-09-06 13:06:25,
2017-09-06 13:06:25, BGO Set:10, AM_RegBuffer:10
2017-09-06 13:06:25,
2017-09-06 13:06:34,0, 283,709,16289,1253,43651,1,21011,21011 
2017-09-06 13:06:34,
2017-09-06 13:06:34,0, 10,27,621,47,1665,0,801,801 
2017-09-06 13:06:34,
2017-09-06 13:06:34, BGO Set:10, AM_RegBuffer:621
2017-09-06 13:06:34,
2017-09-06 13:06:34, BGO Set:11, AM_RegBuffer:11
2017-09-06 13:06:34,
2017-09-06 13:06:44,1, 283,683,15941,1227,43653,65535,21011,21011 
2017-09-06 13:06:44,
2017-09-06 13:06:44,1, 10,26,608,46,1665,2500,801,801 
2017-09-06 13:06:44,
2017-09-06 13:06:44, BGO Set:11, AM_RegBuffer:608
2017-09-06 13:06:44,
2017-09-06 13:06:44, BGO Set:12, AM_RegBuffer:12
2017-09-06 13:06:44,
2017-09-06 13:06:54,2, 283,657,15583,1201,43613,1,21013,21013 
2017-09-06 13:06:54,
2017-09-06 13:06:54,2, 10,25,594,45,1663,0,801,801 
2017-09-06 13:06:54,
2017-09-06 13:06:54, BGO Set:12, AM_RegBuffer:594
2017-09-06 13:06:54,
2017-09-06 13:06:54, BGO Set:13, AM_RegBuffer:13
2017-09-06 13:06:54,
2017-09-06 13:07:04,3, 285,633,15233,1173,43601,1,21013,21011 
2017-09-06 13:07:04,
2017-09-06 13:07:04,3, 10,24,581,44,1663,0,801,801 
2017-09-06 13:07:04,
2017-09-06 13:07:04, BGO Set:13, AM_RegBuffer:581
2017-09-06 13:07:04,
2017-09-06 13:07:04, BGO Set:14, AM_RegBuffer:14
2017-09-06 13:07:04,
2017-09-06 13:07:13,4, 285,607,14877,1147,43647,1,21011,21009 
2017-09-06 13:07:13,
2017-09-06 13:07:13,4, 10,23,567,43,1665,0,801,801 
2017-09-06 13:07:13,
2017-09-06 13:07:13, BGO Set:14, AM_RegBuffer:567
2017-09-06 13:07:13,
2017-09-06 13:07:13, BGO Set:15, AM_RegBuffer:15
2017-09-06 13:07:13,
2017-09-06 13:07:23,5, 285,581,14503,1119,43661,65535,21011,21009 
2017-09-06 13:07:23,
2017-09-06 13:07:23,5, 10,22,553,42,1665,2500,801,801 
2017-09-06 13:07:23,
2017-09-06 13:07:23, BGO Set:15, AM_RegBuffer:553
2017-09-06 13:07:23,
2017-09-06 13:07:23, BGO Set:16, AM_RegBuffer:16
2017-09-06 13:07:23,
2017-09-06 13:07:33,6, 285,557,14147,1091,43679,1,21011,21011 
2017-09-06 13:07:33,
2017-09-06 13:07:33,6, 10,21,539,41,1666,0,801,801 
2017-09-06 13:07:33,
2017-09-06 13:07:33, BGO Set:16, AM_RegBuffer:539
2017-09-06 13:07:33,
2017-09-06 13:07:33, BGO Set:17, AM_RegBuffer:17
2017-09-06 13:07:33,
2017-09-06 13:07:42,7, 285,557,14145,1091,43623,1,21013,21013 
2017-09-06 13:07:42,
2017-09-06 13:07:42,7, 10,21,539,41,1664,0,801,801 
2017-09-06 13:07:42,
2017-09-06 13:07:42, BGO Set:17, AM_RegBuffer:539
2017-09-06 13:07:42,
2017-09-06 13:07:43, BGO Set:18, AM_RegBuffer:18
2017-09-06 13:07:43,
2017-09-06 13:07:52,8, 285,557,14147,1091,43573,1,21013,21013 
2017-09-06 13:07:52,
2017-09-06 13:07:52,8, 10,21,539,41,1662,0,801,801 
2017-09-06 13:07:52,
2017-09-06 13:07:52, BGO Set:18, AM_RegBuffer:539
2017-09-06 13:07:52,
2017-09-06 13:07:52, BGO Set:19, AM_RegBuffer:19
2017-09-06 13:07:52,
2017-09-06 13:08:02,9, 285,557,14147,1091,43699,1,21015,21015 
2017-09-06 13:08:02,
2017-09-06 13:08:02,9, 10,21,539,41,1667,0,801,801 
2017-09-06 13:08:02,
2017-09-06 13:08:02, BGO Set:19, AM_RegBuffer:539
2017-09-06 13:08:02,
2017-09-06 13:08:02, BGO Set:20, AM_RegBuffer:20
2017-09-06 13:08:02,
2017-09-06 13:08:05,
2017-09-06 13:08:05,
2017-09-06 13:08:05,
2017-09-06 13:08:05,*******Meaure Clk Period:Time, Freq in MHz*******
2017-09-06 13:08:05,****SeqNo.,Time,DAC_Cnt..........
2017-09-06 13:08:05, 39, 31200000, 0, 0 
2017-09-06 13:08:05, 37, 29600000, 1, 0 
2017-09-06 13:08:05, 38, 30400000, 2, 0 
2017-09-06 13:08:05, 38, 30400000, 3, 0 
2017-09-06 13:08:05, 37, 29600000, 4, 0 
2017-09-06 13:08:05, 37, 29600000, 5, 0 
2017-09-06 13:08:05, 38, 30400000, 6, 0 
2017-09-06 13:08:05, 38, 30400000, 7, 0 
2017-09-06 13:08:05, 38, 30400000, 8, 0 
2017-09-06 13:08:05, 37, 29600000, 9, 0 
2017-09-06 13:08:05, 38, 30400000, 10, 0 
2017-09-06 13:08:05, 38, 30400000, 11, 0 
2017-09-06 13:08:05, 38, 30400000, 12, 0 
2017-09-06 13:08:05, 38, 30400000, 13, 0 
2017-09-06 13:08:05, 39, 31200000, 14, 0 
2017-09-06 13:08:05, 38, 30400000, 15, 0 
2017-09-06 13:08:05, 38, 30400000, 16, 0 
2017-09-06 13:08:05, 38, 30400000, 17, 0 
2017-09-06 13:08:05, 38, 30400000, 18, 0 
2017-09-06 13:08:05, 38, 30400000, 19, 0 
2017-09-06 13:08:05, 38, 30400000, 20, 0 
2017-09-06 13:08:05, 38, 30400000, 21, 0 
2017-09-06 13:08:05, 38, 30400000, 22, 0 
2017-09-06 13:08:05, 38, 30400000, 23, 0 
2017-09-06 13:08:05, 37, 29600000, 24, 0 
2017-09-06 13:08:05, 38, 30400000, 25, 0 
2017-09-06 13:08:05, 38, 30400000, 26, 0 
2017-09-06 13:08:05, 38, 30400000, 27, 0 
2017-09-06 13:08:05, 38, 30400000, 28, 0 
2017-09-06 13:08:05, 38, 30400000, 29, 0 
2017-09-06 13:08:05, 38, 30400000, 30, 0 
2017-09-06 13:08:05, 38, 30400000, 31, 0 
2017-09-06 13:08:05, 39, 31200000, 32, 0 
2017-09-06 13:08:05, 38, 30400000, 33, 0 
2017-09-06 13:08:05, 38, 30400000, 34, 0 
2017-09-06 13:08:05, 38, 30400000, 35, 0 
2017-09-06 13:08:05, 38, 30400000, 36, 0 
2017-09-06 13:08:05, 38, 30400000, 37, 0 
2017-09-06 13:08:05, 37, 29600000, 38, 0 
2017-09-06 13:08:05, 39, 31200000, 39, 0 
2017-09-06 13:08:05, 38, 30400000, 40, 0 
2017-09-06 13:08:05, 38, 30400000, 41, 0 
2017-09-06 13:08:05, 38, 30400000, 42, 0 
2017-09-06 13:08:05, 39, 31200000, 43, 0 
2017-09-06 13:08:05, 37, 29600000, 44, 0 
2017-09-06 13:08:05, 38, 30400000, 45, 0 
2017-09-06 13:08:05, 38, 30400000, 46, 0 
2017-09-06 13:08:05, 38, 30400000, 47, 0 
2017-09-06 13:08:05, 38, 30400000, 48, 0 
2017-09-06 13:08:05, 38, 30400000, 49, 0 
2017-09-06 13:08:05, 37, 29600000, 50, 0 
2017-09-06 13:08:06, 37, 29600000, 51, 0 
2017-09-06 13:08:06, 38, 30400000, 52, 0 
2017-09-06 13:08:06, 38, 30400000, 53, 0 
2017-09-06 13:08:06, 38, 30400000, 54, 0 
2017-09-06 13:08:06, 38, 30400000, 55, 0 
2017-09-06 13:08:06, 38, 30400000, 56, 0 
2017-09-06 13:08:06, 38, 30400000, 57, 0 
2017-09-06 13:08:06, 38, 30400000, 58, 0 
2017-09-06 13:08:06, 38, 30400000, 59, 0 
2017-09-06 13:08:06, 37, 29600000, 60, 0 
2017-09-06 13:08:06, 38, 30400000, 61, 0 
2017-09-06 13:08:06, 38, 30400000, 62, 0 
2017-09-06 13:08:06, 38, 30400000, 63, 0 
2017-09-06 13:08:06, 38, 30400000, 64, 0 
2017-09-06 13:08:06, 38, 30400000, 65, 0 
2017-09-06 13:08:06, 37, 29600000, 66, 0 
2017-09-06 13:08:06, 38, 30400000, 67, 0 
2017-09-06 13:08:06, 38, 30400000, 68, 0 
2017-09-06 13:08:06, 38, 30400000, 69, 0 
2017-09-06 13:08:06, 38, 30400000, 70, 0 
2017-09-06 13:08:06, 38, 30400000, 71, 0 
2017-09-06 13:08:06, 38, 30400000, 72, 0 
2017-09-06 13:08:06, 38, 30400000, 73, 0 
2017-09-06 13:08:06, 39, 31200000, 74, 0 
2017-09-06 13:08:06, 38, 30400000, 75, 0 
2017-09-06 13:08:06, 37, 29600000, 76, 0 
2017-09-06 13:08:06, 38, 30400000, 77, 0 
2017-09-06 13:08:06, 37, 29600000, 78, 0 
2017-09-06 13:08:06, 38, 30400000, 79, 0 
2017-09-06 13:08:06, 38, 30400000, 80, 0 
2017-09-06 13:08:06, 38, 30400000, 81, 0 
2017-09-06 13:08:06, 37, 29600000, 82, 0 
2017-09-06 13:08:06, 37, 29600000, 83, 0 
2017-09-06 13:08:06, 39, 31200000, 84, 0 
2017-09-06 13:08:06, 38, 30400000, 85, 0 
2017-09-06 13:08:06, 38, 30400000, 86, 0 
2017-09-06 13:08:06, 38, 30400000, 87, 0 
2017-09-06 13:08:06, 39, 31200000, 88, 0 
2017-09-06 13:08:06, 38, 30400000, 89, 0 
2017-09-06 13:08:06, 38, 30400000, 90, 0 
2017-09-06 13:08:06, 38, 30400000, 91, 0 
2017-09-06 13:08:06, 38, 30400000, 92, 0 
2017-09-06 13:08:06, 38, 30400000, 93, 0 
2017-09-06 13:08:06, 37, 29600000, 94, 0 
2017-09-06 13:08:06, 38, 30400000, 95, 0 
2017-09-06 13:08:06, 38, 30400000, 96, 0 
2017-09-06 13:08:06, 38, 30400000, 97, 0 
2017-09-06 13:08:06, 38, 30400000, 98, 0 
2017-09-06 13:08:06, 37, 29600000, 99, 0 
2017-09-06 13:08:06, 38, 30400000, 100, 0 
2017-09-06 13:08:06, 38, 30400000, 101, 0 
2017-09-06 13:08:06, 37, 29600000, 102, 0 
2017-09-06 13:08:06, 38, 30400000, 103, 0 
2017-09-06 13:08:06, 37, 29600000, 104, 0 
2017-09-06 13:08:06, 37, 29600000, 105, 0 
2017-09-06 13:08:06, 37, 29600000, 106, 0 
2017-09-06 13:08:06, 38, 30400000, 107, 0 
2017-09-06 13:08:06, 39, 31200000, 108, 0 
2017-09-06 13:08:06, 38, 30400000, 109, 0 
2017-09-06 13:08:06, 37, 29600000, 110, 0 
2017-09-06 13:08:06, 38, 30400000, 111, 0 
2017-09-06 13:08:06, 37, 29600000, 112, 0 
2017-09-06 13:08:06, 38, 30400000, 113, 0 
2017-09-06 13:08:06, 37, 29600000, 114, 0 
2017-09-06 13:08:06, 38, 30400000, 115, 0 
2017-09-06 13:08:06, 38, 30400000, 116, 0 
2017-09-06 13:08:06, 37, 29600000, 117, 0 
2017-09-06 13:08:06, 38, 30400000, 118, 0 
2017-09-06 13:08:06, 39, 31200000, 119, 0 
2017-09-06 13:08:06, 39, 31200000, 120, 0 
2017-09-06 13:08:06, 37, 29600000, 121, 0 
2017-09-06 13:08:06, 38, 30400000, 122, 0 
2017-09-06 13:08:06, 38, 30400000, 123, 0 
2017-09-06 13:08:06, 38, 30400000, 124, 0 
2017-09-06 13:08:06, 38, 30400000, 125, 0 
2017-09-06 13:08:06, 38, 30400000, 126, 0 
2017-09-06 13:08:06, 37, 29600000, 127, 0 
2017-09-06 13:08:06, 38, 30400000, 128, 0 
2017-09-06 13:08:06, 39, 31200000, 129, 0 
2017-09-06 13:08:06, 37, 29600000, 130, 0 
2017-09-06 13:08:06, 37, 29600000, 131, 0 
2017-09-06 13:08:06, 37, 29600000, 132, 0 
2017-09-06 13:08:06, 38, 30400000, 133, 0 
2017-09-06 13:08:06, 38, 30400000, 134, 0 
2017-09-06 13:08:06, 38, 30400000, 135, 0 
2017-09-06 13:08:06, 38, 30400000, 136, 0 
2017-09-06 13:08:06, 38, 30400000, 137, 0 
2017-09-06 13:08:06, 37, 29600000, 138, 0 
2017-09-06 13:08:06, 38, 30400000, 139, 0 
2017-09-06 13:08:06, 38, 30400000, 140, 0 
2017-09-06 13:08:06, 38, 30400000, 141, 0 
2017-09-06 13:08:06, 39, 31200000, 142, 0 
2017-09-06 13:08:06, 38, 30400000, 143, 0 
2017-09-06 13:08:06, 38, 30400000, 144, 0 
2017-09-06 13:08:06, 38, 30400000, 145, 0 
2017-09-06 13:08:06, 38, 30400000, 146, 0 
2017-09-06 13:08:06, 38, 30400000, 147, 0 
2017-09-06 13:08:06, 38, 30400000, 148, 0 
2017-09-06 13:08:06, 38, 30400000, 149, 0 
2017-09-06 13:08:06, 37, 29600000, 150, 0 
2017-09-06 13:08:06, 38, 30400000, 151, 0 
2017-09-06 13:08:06, 38, 30400000, 152, 0 
2017-09-06 13:08:06, 37, 29600000, 153, 0 
2017-09-06 13:08:06, 38, 30400000, 154, 0 
2017-09-06 13:08:06, 38, 30400000, 155, 0 
2017-09-06 13:08:06, 38, 30400000, 156, 0 
2017-09-06 13:08:06, 38, 30400000, 157, 0 
2017-09-06 13:08:06, 39, 31200000, 158, 0 
2017-09-06 13:08:06, 39, 31200000, 159, 0 
2017-09-06 13:08:06, 38, 30400000, 160, 0 
2017-09-06 13:08:06, 37, 29600000, 161, 0 
2017-09-06 13:08:06, 38, 30400000, 162, 0 
2017-09-06 13:08:06, 38, 30400000, 163, 0 
2017-09-06 13:08:06, 37, 29600000, 164, 0 
2017-09-06 13:08:06, 39, 31200000, 165, 0 
2017-09-06 13:08:06, 38, 30400000, 166, 0 
2017-09-06 13:08:06, 38, 30400000, 167, 0 
2017-09-06 13:08:06, 38, 30400000, 168, 0 
2017-09-06 13:08:06, 38, 30400000, 169, 0 
2017-09-06 13:08:06, 38, 30400000, 170, 0 
2017-09-06 13:08:06, 38, 30400000, 171, 0 
2017-09-06 13:08:06, 37, 29600000, 172, 0 
2017-09-06 13:08:06, 38, 30400000, 173, 0 
2017-09-06 13:08:06, 37, 29600000, 174, 0 
2017-09-06 13:08:06, 38, 30400000, 175, 0 
2017-09-06 13:08:06, 38, 30400000, 176, 0 
2017-09-06 13:08:06, 38, 30400000, 177, 0 
2017-09-06 13:08:06, 37, 29600000, 178, 0 
2017-09-06 13:08:06, 38, 30400000, 179, 0 
2017-09-06 13:08:06, 38, 30400000, 180, 0 
2017-09-06 13:08:06, 38, 30400000, 181, 0 
2017-09-06 13:08:06, 37, 29600000, 182, 0 
2017-09-06 13:08:06, 38, 30400000, 183, 0 
2017-09-06 13:08:06, 37, 29600000, 184, 0 
2017-09-06 13:08:07, 38, 30400000, 185, 0 
2017-09-06 13:08:07, 37, 29600000, 186, 0 
2017-09-06 13:08:07, 38, 30400000, 187, 0 
2017-09-06 13:08:07, 38, 30400000, 188, 0 
2017-09-06 13:08:07, 38, 30400000, 189, 0 
2017-09-06 13:08:07, 38, 30400000, 190, 0 
2017-09-06 13:08:07, 37, 29600000, 191, 0 
2017-09-06 13:08:07, 38, 30400000, 192, 0 
2017-09-06 13:08:07, 38, 30400000, 193, 0 
2017-09-06 13:08:07, 37, 29600000, 194, 0 
2017-09-06 13:08:07, 38, 30400000, 195, 0 
2017-09-06 13:08:07, 38, 30400000, 196, 0 
2017-09-06 13:08:07, 38, 30400000, 197, 0 
2017-09-06 13:08:07, 37, 29600000, 198, 0 
2017-09-06 13:08:07, 38, 30400000, 199, 0 
2017-09-06 13:08:07,
2017-09-06 13:08:09,
2017-09-06 13:08:10,0, 801, 44, 100, 25, 15, 131, 130, 139, 128, 0 
2017-09-06 13:08:11, 0, 801, 44, 200, 25, 15, 131, 130, 139, 128, 0 
2017-09-06 13:08:12, 0, 801, 55, 100, 58, 32, 298, 297, 330, 295, 0 
2017-09-06 13:08:12, 0, 801, 55, 200, 59, 32, 298, 296, 330, 294, 3 
2017-09-06 13:08:13, 0, 801, 66, 100, 41, 23, 214, 214, 229, 215, 0 
2017-09-06 13:08:14, 0, 801, 66, 200, 41, 23, 214, 213, 229, 215, 1 
2017-09-06 13:08:14, 0, 801, 77, 100, 37, 21, 193, 192, 203, 192, 0 
2017-09-06 13:08:15, 0, 801, 77, 200, 37, 21, 193, 192, 203, 192, 0 
2017-09-06 13:08:16, 1, 733, 44, 100, 32, 18, 164, 164, 172, 163, 0 
2017-09-06 13:08:17, 1, 733, 44, 200, 32, 18, 164, 164, 172, 164, 1 
2017-09-06 13:08:18, 1, 733, 55, 100, 60, 33, 306, 305, 335, 304, 0 
2017-09-06 13:08:18, 1, 733, 55, 200, 60, 33, 306, 305, 335, 304, 0 
2017-09-06 13:08:19, 1, 733, 66, 100, 42, 24, 218, 216, 233, 216, 0 
2017-09-06 13:08:20, 1, 733, 66, 200, 42, 24, 218, 217, 233, 216, 1 
2017-09-06 13:08:20, 1, 733, 77, 100, 38, 22, 196, 195, 207, 193, 0 
2017-09-06 13:08:21, 1, 733, 77, 200, 38, 22, 196, 195, 207, 193, 0 
2017-09-06 13:08:22, 2, 717, 44, 100, 32, 18, 166, 165, 177, 164, 0 
2017-09-06 13:08:23, 2, 717, 44, 200, 32, 18, 166, 165, 177, 164, 0 
2017-09-06 13:08:23, 2, 717, 55, 100, 61, 33, 309, 307, 340, 308, 0 
2017-09-06 13:08:24, 2, 717, 55, 200, 61, 33, 309, 308, 340, 308, 1 
2017-09-06 13:08:25, 2, 717, 66, 100, 43, 24, 220, 219, 234, 221, 0 
2017-09-06 13:08:25, 2, 717, 66, 200, 43, 24, 220, 219, 234, 221, 0 
2017-09-06 13:08:26, 2, 717, 77, 100, 38, 22, 198, 197, 208, 198, 0 
2017-09-06 13:08:27, 2, 717, 77, 200, 38, 22, 198, 197, 208, 198, 0 
2017-09-06 13:08:28, 3, 708, 44, 100, 32, 18, 169, 167, 177, 165, 0 
2017-09-06 13:08:29, 3, 708, 44, 200, 32, 18, 169, 167, 177, 165, 0 
2017-09-06 13:08:29, 3, 708, 55, 100, 61, 33, 312, 310, 344, 308, 0 
2017-09-06 13:08:30, 3, 708, 55, 200, 61, 33, 312, 310, 344, 308, 0 
2017-09-06 13:08:31, 3, 708, 66, 100, 43, 24, 223, 222, 239, 221, 0 
2017-09-06 13:08:31, 3, 708, 66, 200, 43, 24, 223, 222, 239, 221, 0 
2017-09-06 13:08:32, 3, 708, 77, 100, 39, 22, 201, 200, 212, 198, 0 
2017-09-06 13:08:33, 3, 708, 77, 200, 39, 22, 201, 200, 212, 198, 0 
2017-09-06 13:08:34, 4, 699, 44, 100, 33, 19, 171, 170, 182, 169, 0 
2017-09-06 13:08:35, 4, 699, 44, 200, 33, 19, 171, 170, 182, 169, 0 
2017-09-06 13:08:35, 4, 699, 55, 100, 61, 33, 315, 313, 349, 313, 0 
2017-09-06 13:08:36, 4, 699, 55, 200, 61, 33, 315, 314, 349, 313, 1 
2017-09-06 13:08:37, 4, 699, 66, 100, 43, 24, 226, 224, 244, 226, 0 
2017-09-06 13:08:37, 4, 699, 66, 200, 44, 24, 225, 224, 244, 226, 2 
2017-09-06 13:08:38, 4, 699, 77, 100, 39, 22, 203, 202, 215, 203, 0 
2017-09-06 13:08:39, 4, 699, 77, 200, 39, 22, 203, 202, 215, 203, 0 
2017-09-06 13:08:40, 5, 690, 44, 100, 33, 19, 173, 172, 182, 169, 0 
2017-09-06 13:08:41, 5, 690, 44, 200, 33, 19, 173, 172, 182, 169, 0 
2017-09-06 13:08:41, 5, 690, 55, 100, 61, 33, 318, 316, 352, 318, 0 
2017-09-06 13:08:42, 5, 690, 55, 200, 61, 33, 318, 317, 352, 317, 2 
2017-09-06 13:08:43, 5, 690, 66, 100, 44, 24, 228, 227, 244, 227, 0 
2017-09-06 13:08:43, 5, 690, 66, 200, 44, 24, 228, 227, 244, 226, 1 
2017-09-06 13:08:44, 5, 690, 77, 100, 39, 22, 206, 204, 217, 203, 0 
2017-09-06 13:08:45, 5, 690, 77, 200, 39, 22, 206, 204, 217, 203, 0 
2017-09-06 13:08:46, 6, 681, 44, 100, 33, 19, 175, 174, 187, 173, 0 
2017-09-06 13:08:46, 6, 681, 44, 200, 33, 18, 175, 174, 187, 173, 1 
2017-09-06 13:08:47, 6, 681, 55, 100, 61, 33, 321, 319, 354, 318, 0 
2017-09-06 13:08:48, 6, 681, 55, 200, 62, 32, 321, 319, 354, 318, 2 
2017-09-06 13:08:49, 6, 681, 66, 100, 44, 24, 230, 229, 249, 232, 0 
2017-09-06 13:08:49, 6, 681, 66, 200, 44, 24, 230, 229, 249, 232, 0 
2017-09-06 13:08:50, 6, 681, 77, 100, 39, 22, 208, 207, 221, 208, 0 
2017-09-06 13:08:51, 6, 681, 77, 200, 39, 22, 208, 207, 222, 208, 1 
2017-09-06 13:08:52, 7, 671, 44, 100, 33, 18, 177, 177, 187, 174, 0 
2017-09-06 13:08:52, 7, 671, 44, 200, 33, 18, 177, 176, 188, 174, 2 
2017-09-06 13:08:53, 7, 671, 55, 100, 62, 32, 324, 323, 358, 323, 0 
2017-09-06 13:08:54, 7, 671, 55, 200, 62, 32, 324, 323, 358, 323, 0 
2017-09-06 13:08:55, 7, 671, 66, 100, 44, 24, 233, 232, 249, 232, 0 
2017-09-06 13:08:55, 7, 671, 66, 200, 44, 24, 233, 232, 249, 232, 0 
2017-09-06 13:08:56, 7, 671, 77, 100, 39, 22, 210, 209, 222, 208, 0 
2017-09-06 13:08:57, 7, 671, 77, 200, 39, 22, 210, 209, 222, 208, 0 
2017-09-06 13:08:58, 8, 659, 44, 100, 33, 18, 180, 179, 192, 179, 0 
2017-09-06 13:08:58, 8, 659, 44, 200, 33, 18, 180, 179, 192, 179, 0 
2017-09-06 13:08:59, 8, 659, 55, 100, 62, 32, 328, 326, 363, 327, 0 
2017-09-06 13:09:00, 8, 659, 55, 200, 62, 32, 328, 327, 363, 327, 1 
2017-09-06 13:09:00, 8, 659, 66, 100, 44, 24, 236, 235, 254, 237, 0 
2017-09-06 13:09:01, 8, 659, 66, 200, 44, 23, 236, 235, 254, 237, 1 
2017-09-06 13:09:02, 8, 659, 77, 100, 39, 22, 213, 212, 227, 213, 1 
2017-09-06 13:09:02, 8, 659, 77, 200, 39, 21, 213, 212, 227, 213, 1 
2017-09-06 13:09:04, 9, 646, 44, 100, 33, 18, 183, 182, 192, 180, 0 
2017-09-06 13:09:04, 9, 646, 44, 200, 33, 18, 183, 182, 192, 180, 0 
2017-09-06 13:09:05, 9, 646, 55, 100, 62, 32, 332, 330, 371, 332, 0 
2017-09-06 13:09:06, 9, 646, 55, 200, 62, 32, 332, 330, 370, 332, 1 
2017-09-06 13:09:06, 9, 646, 66, 100, 44, 23, 239, 238, 259, 241, 0 
2017-09-06 13:09:07, 9, 646, 66, 200, 44, 23, 240, 238, 259, 241, 1 
2017-09-06 13:09:08, 9, 646, 77, 100, 39, 21, 216, 215, 232, 219, 0 
2017-09-06 13:09:08, 9, 646, 77, 200, 39, 21, 217, 215, 232, 219, 1 
2017-09-06 13:09:10, 10, 633, 44, 100, 33, 18, 187, 185, 197, 185, 0 
2017-09-06 13:09:10, 10, 633, 44, 200, 33, 18, 187, 185, 197, 185, 0 
2017-09-06 13:09:11, 10, 633, 55, 100, 62, 31, 337, 335, 375, 337, 0 
2017-09-06 13:09:12, 10, 633, 55, 200, 62, 31, 337, 335, 375, 337, 0 
2017-09-06 13:09:12, 10, 633, 66, 100, 44, 23, 244, 242, 264, 243, 0 
2017-09-06 13:09:13, 10, 633, 66, 200, 44, 23, 244, 242, 264, 243, 0 
2017-09-06 13:09:14, 10, 633, 77, 100, 40, 20, 220, 219, 235, 219, 0 
2017-09-06 13:09:14, 10, 633, 77, 200, 40, 20, 220, 219, 233, 219, 0 
2017-09-06 13:09:15, 11, 620, 44, 100, 33, 18, 189, 188, 202, 189, 0 
2017-09-06 13:09:16, 11, 620, 44, 200, 33, 18, 189, 188, 201, 189, 1 
2017-09-06 13:09:17, 11, 620, 55, 100, 62, 31, 342, 341, 383, 342, 0 
2017-09-06 13:09:18, 11, 620, 55, 200, 62, 31, 342, 340, 384, 342, 2 
2017-09-06 13:09:18, 11, 620, 66, 100, 44, 23, 248, 246, 269, 248, 0 
2017-09-06 13:09:19, 11, 620, 66, 200, 44, 23, 248, 246, 270, 248, 1 
2017-09-06 13:09:20, 11, 620, 77, 100, 40, 20, 224, 223, 237, 224, 0 
2017-09-06 13:09:20, 11, 620, 77, 200, 40, 20, 224, 223, 238, 224, 1 
2017-09-06 13:09:21, 12, 606, 44, 100, 33, 17, 193, 192, 206, 191, 0 
2017-09-06 13:09:22, 12, 606, 44, 200, 33, 17, 193, 192, 206, 191, 0 
2017-09-06 13:09:23, 12, 606, 55, 100, 62, 30, 348, 347, 389, 347, 0 
2017-09-06 13:09:23, 12, 606, 55, 200, 62, 30, 348, 347, 389, 347, 0 
2017-09-06 13:09:24, 12, 606, 66, 100, 44, 22, 252, 251, 274, 249, 0 
2017-09-06 13:09:25, 12, 606, 66, 200, 44, 22, 252, 251, 275, 249, 1 
2017-09-06 13:09:26, 12, 606, 77, 100, 40, 20, 229, 227, 242, 228, 0 
2017-09-06 13:09:26, 12, 606, 77, 200, 40, 20, 228, 227, 243, 228, 2 
2017-09-06 13:09:27, 13, 593, 44, 100, 33, 17, 197, 195, 211, 195, 0 
2017-09-06 13:09:28, 13, 593, 44, 200, 33, 17, 197, 195, 211, 195, 0 
2017-09-06 13:09:29, 13, 593, 55, 100, 62, 29, 355, 353, 398, 352, 0 
2017-09-06 13:09:29, 13, 593, 55, 200, 62, 29, 355, 353, 398, 352, 0 
2017-09-06 13:09:30, 13, 593, 66, 100, 44, 21, 257, 255, 281, 254, 0 
2017-09-06 13:09:31, 13, 593, 66, 200, 44, 21, 257, 256, 281, 254, 1 
2017-09-06 13:09:32, 13, 593, 77, 100, 40, 20, 232, 231, 248, 233, 1 
2017-09-06 13:09:32, 13, 593, 77, 200, 40, 20, 232, 231, 248, 233, 0 
2017-09-06 13:09:33, 14, 580, 44, 100, 33, 17, 200, 199, 216, 200, 0 
2017-09-06 13:09:34, 14, 580, 44, 200, 33, 17, 200, 199, 215, 200, 1 
2017-09-06 13:09:35, 14, 580, 55, 100, 62, 29, 362, 359, 407, 357, 0 
2017-09-06 13:09:35, 14, 580, 55, 200, 62, 29, 361, 359, 406, 357, 2 
2017-09-06 13:09:36, 14, 580, 66, 100, 44, 21, 262, 260, 286, 259, 0 
2017-09-06 13:09:37, 14, 580, 66, 200, 44, 21, 262, 260, 286, 259, 0 
2017-09-06 13:09:37, 14, 580, 77, 100, 40, 19, 237, 236, 256, 235, 0 
2017-09-06 13:09:38, 14, 580, 77, 200, 40, 19, 237, 236, 256, 235, 0 
2017-09-06 13:09:39, 15, 566, 44, 100, 33, 17, 205, 204, 221, 205, 0 
2017-09-06 13:09:40, 15, 566, 44, 200, 33, 17, 205, 204, 221, 205, 0 
2017-09-06 13:09:41, 15, 566, 55, 100, 62, 28, 369, 367, 415, 366, 0 
2017-09-06 13:09:41, 15, 566, 55, 200, 62, 28, 369, 367, 419, 366, 0 
2017-09-06 13:09:42, 15, 566, 66, 100, 44, 21, 267, 266, 292, 265, 0 
2017-09-06 13:09:43, 15, 566, 66, 200, 44, 21, 267, 266, 292, 265, 0 
2017-09-06 13:09:43, 15, 566, 77, 100, 40, 19, 242, 241, 261, 240, 0 
2017-09-06 13:09:44, 15, 566, 77, 200, 40, 19, 242, 241, 261, 240, 0 
2017-09-06 13:09:45, 16, 552, 44, 100, 34, 16, 209, 208, 226, 210, 0 
2017-09-06 13:09:46, 16, 552, 44, 200, 33, 16, 209, 209, 226, 210, 2 
2017-09-06 13:09:47, 16, 552, 55, 100, 63, 28, 376, 374, 426, 376, 0 
2017-09-06 13:09:47, 16, 552, 55, 200, 63, 28, 376, 374, 425, 376, 1 
2017-09-06 13:09:48, 16, 552, 66, 100, 44, 20, 273, 272, 302, 271, 0 
2017-09-06 13:09:49, 16, 552, 66, 200, 44, 20, 273, 272, 301, 271, 1 
2017-09-06 13:09:49, 16, 552, 77, 100, 40, 19, 247, 246, 267, 245, 1 
2017-09-06 13:09:50, 16, 552, 77, 200, 40, 19, 247, 246, 267, 245, 0 
2017-09-06 13:09:51, 17, 538, 44, 100, 34, 16, 210, 209, 227, 210, 0 
2017-09-06 13:09:52, 17, 538, 44, 200, 34, 16, 210, 210, 227, 210, 1 
2017-09-06 13:09:52, 17, 538, 55, 100, 63, 28, 377, 374, 427, 376, 0 
2017-09-06 13:09:53, 17, 538, 55, 200, 63, 27, 376, 375, 426, 376, 4 
2017-09-06 13:09:54, 17, 538, 66, 100, 44, 20, 273, 272, 302, 271, 0 
2017-09-06 13:09:55, 17, 538, 66, 200, 45, 20, 273, 272, 302, 271, 1 
2017-09-06 13:09:55, 17, 538, 77, 100, 40, 19, 247, 246, 267, 245, 1 
2017-09-06 13:09:56, 17, 538, 77, 200, 40, 19, 247, 246, 267, 245, 0 
2017-09-06 13:09:57, 18, 538, 44, 100, 34, 16, 210, 209, 227, 210, 0 
2017-09-06 13:09:58, 18, 538, 44, 200, 34, 16, 210, 209, 227, 210, 0 
2017-09-06 13:09:58, 18, 538, 55, 100, 63, 27, 376, 374, 426, 376, 0 
2017-09-06 13:09:59, 18, 538, 55, 200, 63, 27, 377, 374, 427, 376, 2 
2017-09-06 13:10:00, 18, 538, 66, 100, 44, 20, 273, 272, 302, 271, 0 
2017-09-06 13:10:00, 18, 538, 66, 200, 44, 20, 273, 272, 302, 271, 0 
2017-09-06 13:10:01, 18, 538, 77, 100, 40, 19, 247, 246, 267, 245, 1 
2017-09-06 13:10:02, 18, 538, 77, 200, 40, 19, 247, 246, 267, 245, 0 
2017-09-06 13:10:03, 19, 538, 44, 100, 34, 16, 210, 209, 227, 210, 0 
2017-09-06 13:10:04, 19, 538, 44, 200, 34, 16, 210, 209, 227, 210, 0 
2017-09-06 13:10:04, 19, 538, 55, 100, 63, 28, 376, 374, 426, 376, 0 
2017-09-06 13:10:05, 19, 538, 55, 200, 63, 28, 376, 374, 426, 376, 0 
2017-09-06 13:10:06, 19, 538, 66, 100, 44, 20, 273, 272, 302, 271, 0 
2017-09-06 13:10:06, 19, 538, 66, 200, 44, 20, 273, 272, 302, 271, 0 
2017-09-06 13:10:07, 19, 538, 77, 100, 40, 19, 247, 246, 267, 245, 1 
2017-09-06 13:10:08, 19, 538, 77, 200, 40, 19, 247, 246, 267, 245, 0 
2017-09-06 13:10:09, 20, 538, 44, 100, 34, 16, 210, 209, 227, 210, 0 
2017-09-06 13:10:10, 20, 538, 44, 200, 34, 16, 210, 209, 227, 210, 0 
2017-09-06 13:10:10, 20, 538, 55, 100, 63, 28, 376, 374, 425, 376, 0 
2017-09-06 13:10:11, 20, 538, 55, 200, 63, 27, 376, 374, 425, 376, 1 
2017-09-06 13:10:12, 20, 538, 66, 100, 44, 20, 273, 272, 301, 271, 0 
2017-09-06 13:10:12, 20, 538, 66, 200, 44, 20, 273, 272, 301, 271, 0 
2017-09-06 13:10:13, 20, 538, 77, 100, 40, 19, 247, 246, 267, 245, 1 
2017-09-06 13:10:14, 20, 538, 77, 200, 40, 19, 247, 246, 267, 245, 0 
2017-09-06 13:10:15, 21, 538, 44, 100, 34, 16, 210, 209, 227, 210, 0 
2017-09-06 13:10:15, 21, 538, 44, 200, 34, 16, 210, 209, 227, 210, 0 
2017-09-06 13:10:16, 21, 538, 55, 100, 63, 28, 376, 374, 427, 376, 0 
2017-09-06 13:10:17, 21, 538, 55, 200, 63, 28, 376, 374, 426, 376, 1 
2017-09-06 13:10:18, 21, 538, 66, 100, 44, 20, 273, 272, 302, 271, 0 
2017-09-06 13:10:18, 21, 538, 66, 200, 44, 20, 273, 272, 302, 271, 0 
2017-09-06 13:10:19, 21, 538, 77, 100, 40, 19, 247, 246, 267, 245, 1 
2017-09-06 13:10:20, 21, 538, 77, 200, 40, 19, 247, 246, 267, 245, 0 
2017-09-06 13:10:21, 22, 538, 44, 100, 34, 16, 210, 209, 227, 210, 0 
2017-09-06 13:10:21, 22, 538, 44, 200, 34, 16, 210, 209, 227, 210, 0 
2017-09-06 13:10:22, 22, 538, 55, 100, 63, 27, 376, 374, 426, 376, 0 
2017-09-06 13:10:23, 22, 538, 55, 200, 63, 28, 376, 374, 426, 376, 1 
2017-09-06 13:10:24, 22, 538, 66, 100, 44, 20, 273, 272, 302, 271, 0 
2017-09-06 13:10:24, 22, 538, 66, 200, 45, 20, 273, 272, 302, 271, 1 
2017-09-06 13:10:25, 22, 538, 77, 100, 40, 19, 247, 246, 267, 245, 1 
2017-09-06 13:10:26, 22, 538, 77, 200, 40, 19, 247, 246, 267, 245, 0 
2017-09-06 13:10:27, 23, 538, 44, 100, 34, 16, 210, 209, 227, 210, 0 
2017-09-06 13:10:27, 23, 538, 44, 200, 33, 16, 210, 209, 227, 210, 1 
2017-09-06 13:10:28, 23, 538, 55, 100, 63, 28, 376, 374, 426, 376, 0 
2017-09-06 13:10:29, 23, 538, 55, 200, 63, 28, 376, 374, 427, 376, 1 
2017-09-06 13:10:29, 23, 538, 66, 100, 44, 20, 273, 272, 302, 271, 0 
2017-09-06 13:10:30, 23, 538, 66, 200, 44, 20, 273, 272, 302, 271, 0 
2017-09-06 13:10:31, 23, 538, 77, 100, 40, 19, 247, 246, 267, 245, 1 
2017-09-06 13:10:31, 23, 538, 77, 200, 40, 19, 247, 246, 267, 245, 0 
2017-09-06 13:10:33, 24, 538, 44, 100, 34, 16, 210, 209, 227, 210, 0 
2017-09-06 13:10:33, 24, 538, 44, 200, 33, 16, 210, 209, 227, 210, 1 
2017-09-06 13:10:34, 24, 538, 55, 100, 63, 28, 376, 374, 427, 376, 0 
2017-09-06 13:10:35, 24, 538, 55, 200, 63, 28, 376, 374, 427, 376, 0 
2017-09-06 13:10:35, 24, 538, 66, 100, 44, 20, 273, 272, 302, 271, 0 
2017-09-06 13:10:36, 24, 538, 66, 200, 44, 20, 273, 272, 302, 271, 0 
2017-09-06 13:10:37, 24, 538, 77, 100, 40, 19, 247, 246, 267, 245, 1 
2017-09-06 13:10:37, 24, 538, 77, 200, 40, 19, 247, 246, 267, 245, 0 
2017-09-06 13:10:39, 25, 538, 44, 100, 33, 16, 210, 209, 227, 210, 0 
2017-09-06 13:10:39, 25, 538, 44, 200, 33, 16, 210, 209, 227, 210, 0 
2017-09-06 13:10:40, 25, 538, 55, 100, 63, 27, 376, 374, 426, 376, 0 
2017-09-06 13:10:41, 25, 538, 55, 200, 62, 28, 376, 374, 427, 376, 3 
2017-09-06 13:10:41, 25, 538, 66, 100, 44, 20, 273, 272, 302, 271, 0 
2017-09-06 13:10:42, 25, 538, 66, 200, 44, 20, 273, 272, 302, 271, 0 
2017-09-06 13:10:43, 25, 538, 77, 100, 40, 19, 247, 246, 267, 245, 1 
2017-09-06 13:10:43, 25, 538, 77, 200, 40, 19, 247, 246, 267, 245, 0 
2017-09-06 13:10:45, 26, 538, 44, 100, 34, 16, 210, 209, 227, 210, 0 
2017-09-06 13:10:45, 26, 538, 44, 200, 33, 16, 210, 209, 227, 210, 1 
2017-09-06 13:10:46, 26, 538, 55, 100, 62, 28, 376, 374, 427, 376, 0 
2017-09-06 13:10:47, 26, 538, 55, 200, 62, 27, 376, 374, 427, 376, 1 
2017-09-06 13:10:47, 26, 538, 66, 100, 44, 20, 273, 272, 302, 271, 0 
2017-09-06 13:10:48, 26, 538, 66, 200, 44, 20, 273, 272, 302, 271, 0 
2017-09-06 13:10:49, 26, 538, 77, 100, 40, 19, 247, 246, 267, 245, 1 
2017-09-06 13:10:49, 26, 538, 77, 200, 40, 19, 247, 246, 267, 245, 0 
2017-09-06 13:10:50, 27, 538, 44, 100, 33, 16, 210, 209, 227, 210, 0 
2017-09-06 13:10:51, 27, 538, 44, 200, 34, 16, 210, 209, 227, 210, 1 
2017-09-06 13:10:52, 27, 538, 55, 100, 63, 27, 376, 374, 427, 376, 0 
2017-09-06 13:10:52, 27, 538, 55, 200, 63, 27, 376, 374, 426, 376, 1 
2017-09-06 13:10:53, 27, 538, 66, 100, 44, 20, 273, 272, 302, 271, 0 
2017-09-06 13:10:54, 27, 538, 66, 200, 44, 20, 273, 272, 302, 271, 0 
2017-09-06 13:10:55, 27, 538, 77, 100, 40, 19, 247, 246, 267, 245, 1 
2017-09-06 13:10:55, 27, 538, 77, 200, 40, 19, 247, 246, 267, 245, 0 
2017-09-06 13:10:56, 28, 538, 44, 100, 33, 16, 210, 209, 227, 210, 0 
2017-09-06 13:10:57, 28, 538, 44, 200, 33, 16, 210, 209, 227, 210, 0 
2017-09-06 13:10:58, 28, 538, 55, 100, 62, 27, 376, 374, 428, 376, 0 
2017-09-06 13:10:58, 28, 538, 55, 200, 62, 27, 376, 374, 428, 376, 0 
2017-09-06 13:10:59, 28, 538, 66, 100, 44, 20, 273, 272, 302, 271, 0 
2017-09-06 13:11:00, 28, 538, 66, 200, 44, 20, 273, 272, 302, 271, 0 
2017-09-06 13:11:01, 28, 538, 77, 100, 40, 19, 247, 246, 267, 245, 1 
2017-09-06 13:11:01, 28, 538, 77, 200, 40, 19, 247, 246, 267, 245, 0 
2017-09-06 13:11:02, 29, 538, 44, 100, 33, 16, 210, 209, 227, 210, 0 
2017-09-06 13:11:03, 29, 538, 44, 200, 34, 16, 210, 209, 227, 210, 1 
2017-09-06 13:11:04, 29, 538, 55, 100, 62, 28, 376, 374, 428, 376, 0 
2017-09-06 13:11:04, 29, 538, 55, 200, 63, 28, 376, 374, 426, 376, 1 
2017-09-06 13:11:05, 29, 538, 66, 100, 44, 20, 273, 272, 302, 271, 0 
2017-09-06 13:11:06, 29, 538, 66, 200, 44, 20, 273, 272, 302, 271, 0 
2017-09-06 13:11:06, 29, 538, 77, 100, 40, 19, 247, 246, 267, 245, 1 
2017-09-06 13:11:07, 29, 538, 77, 200, 40, 19, 247, 246, 267, 245, 0 
2017-09-06 13:11:08, 30, 538, 44, 100, 34, 16, 210, 209, 227, 210, 0 
2017-09-06 13:11:09, 30, 538, 44, 200, 33, 16, 210, 209, 227, 210, 1 
2017-09-06 13:11:10, 30, 538, 55, 100, 63, 28, 376, 374, 427, 376, 0 
2017-09-06 13:11:10, 30, 538, 55, 200, 63, 28, 376, 374, 426, 376, 1 
2017-09-06 13:11:11, 30, 538, 66, 100, 44, 20, 273, 272, 302, 271, 0 
2017-09-06 13:11:12, 30, 538, 66, 200, 44, 20, 273, 272, 302, 271, 0 
2017-09-06 13:11:12, 30, 538, 77, 100, 40, 19, 247, 246, 267, 245, 1 
2017-09-06 13:11:13, 30, 538, 77, 200, 40, 19, 247, 246, 267, 245, 0 
2017-09-06 13:11:14, 31, 538, 44, 100, 33, 16, 210, 209, 227, 210, 0 
2017-09-06 13:11:15, 31, 538, 44, 200, 33, 16, 210, 209, 226, 210, 1 
2017-09-06 13:11:16, 31, 538, 55, 100, 62, 28, 376, 374, 427, 376, 0 
2017-09-06 13:11:16, 31, 538, 55, 200, 63, 28, 376, 374, 427, 376, 1 
2017-09-06 13:11:17, 31, 538, 66, 100, 44, 20, 273, 272, 302, 271, 0 
2017-09-06 13:11:18, 31, 538, 66, 200, 44, 20, 273, 272, 302, 271, 0 
2017-09-06 13:11:18, 31, 538, 77, 100, 40, 19, 247, 246, 267, 245, 1 
2017-09-06 13:11:19, 31, 538, 77, 200, 40, 19, 247, 246, 267, 245, 0 
2017-09-06 13:11:20, 32, 538, 44, 100, 31, 18, 172, 171, 183, 168, 1 
2017-09-06 13:11:21, 32, 538, 44, 200, 31, 18, 172, 171, 183, 168, 0 
2017-09-06 13:11:22, 32, 538, 55, 100, 59, 33, 305, 303, 336, 301, 0 
2017-09-06 13:11:22, 32, 538, 55, 200, 59, 33, 305, 303, 336, 301, 0 
2017-09-06 13:11:23, 32, 538, 66, 100, 41, 23, 215, 214, 230, 216, 0 
2017-09-06 13:11:24, 32, 538, 66, 200, 41, 23, 215, 214, 230, 216, 0 
2017-09-06 13:11:24, 32, 538, 77, 100, 37, 21, 193, 192, 203, 193, 0 
2017-09-06 13:11:25, 32, 538, 77, 200, 37, 21, 193, 192, 203, 193, 0 
2017-09-06 13:11:26, 33, 725, 44, 100, 32, 18, 164, 163, 172, 163, 0 
2017-09-06 13:11:27, 33, 725, 44, 200, 32, 18, 164, 164, 172, 164, 2 
2017-09-06 13:11:27, 33, 725, 55, 100, 60, 33, 306, 304, 335, 304, 0 
2017-09-06 13:11:28, 33, 725, 55, 200, 60, 33, 306, 305, 335, 304, 1 
2017-09-06 13:11:29, 33, 725, 66, 100, 42, 24, 218, 216, 233, 216, 0 
2017-09-06 13:11:29, 33, 725, 66, 200, 42, 24, 218, 217, 233, 216, 1 
2017-09-06 13:11:30, 33, 725, 77, 100, 38, 22, 196, 195, 207, 193, 0 
2017-09-06 13:11:31, 33, 725, 77, 200, 38, 22, 196, 195, 207, 193, 0 
2017-09-06 13:11:32, 34, 717, 44, 100, 32, 18, 166, 165, 177, 164, 0 
2017-09-06 13:11:33, 34, 717, 44, 200, 32, 18, 166, 165, 177, 164, 0 
2017-09-06 13:11:33, 34, 717, 55, 100, 61, 33, 309, 307, 340, 308, 0 
2017-09-06 13:11:34, 34, 717, 55, 200, 61, 33, 309, 307, 340, 308, 0 
2017-09-06 13:11:35, 34, 717, 66, 100, 43, 24, 220, 219, 234, 221, 0 
2017-09-06 13:11:35, 34, 717, 66, 200, 43, 24, 220, 219, 234, 221, 0 
2017-09-06 13:11:36, 34, 717, 77, 100, 38, 22, 198, 197, 208, 198, 0 
2017-09-06 13:11:37, 34, 717, 77, 200, 38, 22, 198, 197, 208, 198, 0 
2017-09-06 13:11:38, 35, 708, 44, 100, 32, 18, 169, 167, 177, 165, 0 
2017-09-06 13:11:39, 35, 708, 44, 200, 32, 18, 169, 167, 177, 165, 0 
2017-09-06 13:11:39, 35, 708, 55, 100, 61, 33, 312, 310, 344, 308, 0 
2017-09-06 13:11:40, 35, 708, 55, 200, 61, 33, 312, 310, 344, 308, 0 
2017-09-06 13:11:41, 35, 708, 66, 100, 43, 24, 223, 221, 239, 221, 0 
2017-09-06 13:11:41, 35, 708, 66, 200, 43, 24, 223, 222, 239, 221, 1 
2017-09-06 13:11:42, 35, 708, 77, 100, 39, 22, 201, 199, 212, 198, 0 
2017-09-06 13:11:43, 35, 708, 77, 200, 39, 22, 201, 200, 212, 198, 1 
2017-09-06 13:11:44, 36, 699, 44, 100, 33, 19, 171, 170, 182, 169, 0 
2017-09-06 13:11:44, 36, 699, 44, 200, 33, 19, 171, 170, 182, 169, 0 
2017-09-06 13:11:45, 36, 699, 55, 100, 61, 33, 315, 313, 349, 313, 0 
2017-09-06 13:11:46, 36, 699, 55, 200, 61, 33, 315, 313, 348, 313, 1 
2017-09-06 13:11:47, 36, 699, 66, 100, 43, 24, 225, 225, 244, 226, 0 
2017-09-06 13:11:47, 36, 699, 66, 200, 43, 24, 226, 224, 244, 226, 2 
2017-09-06 13:11:48, 36, 699, 77, 100, 39, 22, 203, 202, 214, 203, 0 
2017-09-06 13:11:49, 36, 699, 77, 200, 39, 22, 203, 202, 215, 203, 1 
2017-09-06 13:11:50, 37, 690, 44, 100, 33, 19, 173, 172, 182, 169, 0 
2017-09-06 13:11:50, 37, 690, 44, 200, 33, 19, 173, 172, 182, 169, 0 
2017-09-06 13:11:51, 37, 690, 55, 100, 61, 33, 318, 316, 350, 318, 0 
2017-09-06 13:11:52, 37, 690, 55, 200, 61, 33, 318, 316, 352, 318, 0 
2017-09-06 13:11:53, 37, 690, 66, 100, 44, 24, 228, 227, 244, 227, 0 
2017-09-06 13:11:53, 37, 690, 66, 200, 44, 24, 228, 227, 244, 227, 0 
2017-09-06 13:11:54, 37, 690, 77, 100, 39, 22, 206, 204, 217, 203, 0 
2017-09-06 13:11:55, 37, 690, 77, 200, 39, 22, 206, 204, 217, 203, 0 
2017-09-06 13:11:56, 38, 681, 44, 100, 33, 18, 175, 174, 185, 173, 0 
2017-09-06 13:11:56, 38, 681, 44, 200, 33, 18, 175, 174, 186, 173, 1 
2017-09-06 13:11:57, 38, 681, 55, 100, 61, 33, 321, 319, 353, 318, 0 
2017-09-06 13:11:58, 38, 681, 55, 200, 61, 33, 321, 319, 354, 318, 1 
2017-09-06 13:11:58, 38, 681, 66, 100, 44, 24, 230, 229, 248, 232, 0 
2017-09-06 13:11:59, 38, 681, 66, 200, 44, 24, 230, 229, 249, 232, 1 
2017-09-06 13:12:00, 38, 681, 77, 100, 39, 22, 208, 207, 221, 208, 0 
2017-09-06 13:12:01, 38, 681, 77, 200, 39, 22, 208, 207, 221, 208, 0 
2017-09-06 13:12:02, 39, 671, 44, 100, 33, 18, 177, 177, 187, 174, 0 
2017-09-06 13:12:02, 39, 671, 44, 200, 33, 18, 177, 176, 187, 174, 1 
2017-09-06 13:12:03, 39, 671, 55, 100, 62, 32, 324, 322, 358, 323, 0 
2017-09-06 13:12:04, 39, 671, 55, 200, 61, 32, 324, 323, 358, 323, 2 
2017-09-06 13:12:04, 39, 671, 66, 100, 44, 24, 233, 231, 249, 232, 0 
2017-09-06 13:12:05, 39, 671, 66, 200, 44, 24, 233, 232, 249, 232, 1 
2017-09-06 13:12:06, 39, 671, 77, 100, 39, 22, 210, 209, 222, 208, 0 
2017-09-06 13:12:06, 39, 671, 77, 200, 39, 22, 210, 209, 222, 208, 0 
2017-09-06 13:12:08, 40, 659, 44, 100, 33, 18, 180, 179, 192, 179, 0 
2017-09-06 13:12:08, 40, 659, 44, 200, 33, 18, 180, 179, 192, 179, 0 
2017-09-06 13:12:09, 40, 659, 55, 100, 61, 31, 328, 327, 363, 327, 0 
2017-09-06 13:12:10, 40, 659, 55, 200, 62, 32, 328, 326, 363, 327, 3 
2017-09-06 13:12:10, 40, 659, 66, 100, 44, 23, 236, 235, 254, 237, 0 
2017-09-06 13:12:11, 40, 659, 66, 200, 44, 23, 236, 235, 254, 237, 0 
2017-09-06 13:12:12, 40, 659, 77, 100, 39, 21, 213, 212, 227, 213, 0 
2017-09-06 13:12:12, 40, 659, 77, 200, 39, 21, 213, 212, 227, 213, 0 
2017-09-06 13:12:14, 41, 646, 44, 100, 33, 18, 183, 182, 192, 180, 0 
2017-09-06 13:12:14, 41, 646, 44, 200, 33, 18, 183, 182, 192, 180, 0 
2017-09-06 13:12:15, 41, 646, 55, 100, 62, 32, 332, 330, 369, 332, 0 
2017-09-06 13:12:16, 41, 646, 55, 200, 62, 31, 332, 331, 368, 332, 3 
2017-09-06 13:12:16, 41, 646, 66, 100, 44, 23, 240, 238, 259, 242, 0 
2017-09-06 13:12:17, 41, 646, 66, 200, 44, 23, 239, 238, 259, 242, 1 
2017-09-06 13:12:18, 41, 646, 77, 100, 39, 21, 217, 215, 232, 219, 0 
2017-09-06 13:12:18, 41, 646, 77, 200, 39, 21, 216, 215, 232, 219, 1 
2017-09-06 13:12:19, 42, 633, 44, 100, 33, 18, 186, 185, 197, 185, 0 
2017-09-06 13:12:20, 42, 633, 44, 200, 33, 18, 186, 185, 197, 185, 0 
2017-09-06 13:12:21, 42, 633, 55, 100, 62, 31, 337, 335, 375, 337, 0 
2017-09-06 13:12:21, 42, 633, 55, 200, 62, 31, 337, 335, 375, 337, 0 
2017-09-06 13:12:22, 42, 633, 66, 100, 44, 23, 244, 242, 264, 243, 0 
2017-09-06 13:12:23, 42, 633, 66, 200, 44, 23, 244, 242, 264, 243, 0 
2017-09-06 13:12:24, 42, 633, 77, 100, 40, 20, 220, 219, 233, 219, 0 
2017-09-06 13:12:24, 42, 633, 77, 200, 40, 20, 220, 219, 234, 219, 1 
2017-09-06 13:12:25, 43, 620, 44, 100, 33, 18, 189, 188, 201, 189, 0 
2017-09-06 13:12:26, 43, 620, 44, 200, 33, 18, 189, 188, 202, 189, 1 
2017-09-06 13:12:27, 43, 620, 55, 100, 62, 31, 342, 341, 381, 342, 0 
2017-09-06 13:12:27, 43, 620, 55, 200, 62, 31, 343, 341, 381, 342, 1 
2017-09-06 13:12:28, 43, 620, 66, 100, 44, 23, 248, 246, 269, 248, 0 
2017-09-06 13:12:29, 43, 620, 66, 200, 44, 23, 248, 246, 269, 248, 0 
2017-09-06 13:12:30, 43, 620, 77, 100, 40, 20, 224, 223, 237, 224, 0 
2017-09-06 13:12:30, 43, 620, 77, 200, 40, 20, 224, 223, 237, 224, 0 
2017-09-06 13:12:31, 44, 606, 44, 100, 33, 17, 193, 192, 206, 191, 0 
2017-09-06 13:12:32, 44, 606, 44, 200, 33, 17, 193, 192, 206, 191, 0 
2017-09-06 13:12:33, 44, 606, 55, 100, 62, 30, 348, 347, 389, 347, 0 
2017-09-06 13:12:33, 44, 606, 55, 200, 62, 30, 349, 347, 389, 347, 1 
2017-09-06 13:12:34, 44, 606, 66, 100, 44, 23, 253, 251, 274, 249, 0 
2017-09-06 13:12:35, 44, 606, 66, 200, 44, 22, 253, 251, 274, 249, 1 
2017-09-06 13:12:35, 44, 606, 77, 100, 40, 20, 229, 227, 242, 228, 0 
2017-09-06 13:12:36, 44, 606, 77, 200, 40, 20, 229, 227, 242, 228, 0 
2017-09-06 13:12:37, 45, 593, 44, 100, 33, 17, 197, 195, 211, 195, 0 
2017-09-06 13:12:38, 45, 593, 44, 200, 33, 17, 197, 195, 211, 195, 0 
2017-09-06 13:12:39, 45, 593, 55, 100, 62, 29, 355, 353, 398, 352, 0 
2017-09-06 13:12:39, 45, 593, 55, 200, 62, 29, 354, 352, 398, 352, 2 
2017-09-06 13:12:40, 45, 593, 66, 100, 44, 21, 257, 255, 281, 254, 0 
2017-09-06 13:12:41, 45, 593, 66, 200, 44, 21, 257, 255, 280, 254, 1 
2017-09-06 13:12:41, 45, 593, 77, 100, 40, 20, 232, 231, 247, 233, 1 
2017-09-06 13:12:42, 45, 593, 77, 200, 40, 20, 232, 231, 249, 233, 0 
2017-09-06 13:12:43, 46, 580, 44, 100, 33, 17, 200, 199, 216, 200, 0 
2017-09-06 13:12:44, 46, 580, 44, 200, 33, 17, 200, 200, 215, 200, 2 
2017-09-06 13:12:45, 46, 580, 55, 100, 62, 29, 361, 360, 407, 357, 0 
2017-09-06 13:12:45, 46, 580, 55, 200, 62, 29, 361, 359, 406, 357, 2 
2017-09-06 13:12:46, 46, 580, 66, 100, 44, 21, 262, 261, 286, 259, 0 
2017-09-06 13:12:47, 46, 580, 66, 200, 44, 21, 262, 260, 286, 259, 1 
2017-09-06 13:12:47, 46, 580, 77, 100, 40, 19, 237, 236, 256, 235, 0 
2017-09-06 13:12:48, 46, 580, 77, 200, 40, 19, 237, 236, 256, 235, 0 
2017-09-06 13:12:49, 47, 566, 44, 100, 34, 17, 205, 204, 221, 205, 0 
2017-09-06 13:12:50, 47, 566, 44, 200, 33, 17, 205, 204, 221, 205, 1 
2017-09-06 13:12:51, 47, 566, 55, 100, 62, 28, 369, 367, 419, 366, 0 
2017-09-06 13:12:51, 47, 566, 55, 200, 62, 28, 369, 367, 417, 366, 0 
2017-09-06 13:12:52, 47, 566, 66, 100, 44, 21, 268, 266, 292, 265, 0 
2017-09-06 13:12:53, 47, 566, 66, 200, 44, 21, 267, 266, 292, 265, 1 
2017-09-06 13:12:53, 47, 566, 77, 100, 40, 19, 242, 241, 261, 240, 0 
2017-09-06 13:12:54, 47, 566, 77, 200, 40, 19, 242, 241, 261, 240, 0 
2017-09-06 13:12:55, 48, 552, 44, 100, 33, 16, 209, 208, 226, 210, 0 
2017-09-06 13:12:56, 48, 552, 44, 200, 33, 16, 209, 208, 226, 210, 0 
2017-09-06 13:12:56, 48, 552, 55, 100, 63, 28, 376, 374, 427, 376, 0 
2017-09-06 13:12:57, 48, 552, 55, 200, 63, 27, 376, 374, 426, 376, 2 
2017-09-06 13:12:58, 48, 552, 66, 100, 44, 20, 273, 272, 302, 271, 0 
2017-09-06 13:12:58, 48, 552, 66, 200, 44, 20, 273, 272, 302, 271, 0 
2017-09-06 13:12:59, 48, 552, 77, 100, 40, 19, 247, 246, 267, 245, 1 
2017-09-06 13:13:00, 48, 552, 77, 200, 40, 19, 247, 246, 267, 245, 0 
2017-09-06 13:13:01, 49, 538, 44, 100, 33, 16, 210, 209, 227, 210, 0 
2017-09-06 13:13:02, 49, 538, 44, 200, 33, 16, 210, 209, 227, 210, 0 
2017-09-06 13:13:02, 49, 538, 55, 100, 62, 28, 376, 374, 426, 376, 0 
2017-09-06 13:13:03, 49, 538, 55, 200, 62, 28, 377, 374, 425, 376, 2 
2017-09-06 13:13:04, 49, 538, 66, 100, 44, 20, 273, 272, 302, 271, 0 
2017-09-06 13:13:04, 49, 538, 66, 200, 44, 20, 273, 272, 301, 271, 1 
2017-09-06 13:13:05, 49, 538, 77, 100, 40, 19, 247, 246, 267, 245, 1 
2017-09-06 13:13:06, 49, 538, 77, 200, 40, 19, 247, 246, 267, 245, 0 
2017-09-06 13:13:09,
2017-09-06 13:13:09,*SeqNo.,Time,DAC_Cnt,BGO,AM_LCh0,AM_RCh0,AM_Rch1,AM_RCh2,AM_LCh3,AM_LCh3
2017-09-06 13:13:09,
2017-09-06 13:13:09, BGO Set:0, AM_RegBuffer:0
2017-09-06 13:13:09,
2017-09-06 13:13:12, BGO Set:0,725 
2017-09-06 13:13:12,
2017-09-06 13:13:12, Gain Set:0, AM_RegBuffer:0 
2017-09-06 13:13:12,
2017-09-06 13:13:17,
2017-09-06 13:13:17,*SeqNo.,Time,DAC_Cnt,BGO,AM_LCh0,AM_RCh0,AM_Rch1,AM_RCh2,AM_LCh3,AM_LCh3
2017-09-06 13:13:17,
2017-09-06 13:13:17, BGO Set:0, AM_RegBuffer:0
2017-09-06 13:13:17,
2017-09-06 13:13:20, BGO Set:0,733 
2017-09-06 13:13:20,
2017-09-06 13:13:20, Gain Set:0, AM_RegBuffer:0 
2017-09-06 13:13:20,
