2017-09-06 13:00:56,
2017-09-06 13:00:56,*SeqNo.,Time,VChan3,DVDD,BGO,NTCPWR,NC,VDD_HV,HV_Is1,HV_Is0
2017-09-06 13:00:56,
2017-09-06 13:00:57, BGO Set:10, AM_RegBuffer:10
2017-09-06 13:00:57,
2017-09-06 13:01:06,0, 283,709,16291,1253,43611,1,21017,21017 
2017-09-06 13:01:06,
2017-09-06 13:01:06,0, 10,27,621,47,1663,0,801,801 
2017-09-06 13:01:06,
2017-09-06 13:01:06, BGO Set:10, AM_RegBuffer:621
2017-09-06 13:01:06,
2017-09-06 13:01:06, BGO Set:11, AM_RegBuffer:11
2017-09-06 13:01:06,
2017-09-06 13:01:16,1, 283,683,15939,1227,43625,65535,21015,21015 
2017-09-06 13:01:16,
2017-09-06 13:01:16,1, 10,26,608,46,1664,2500,801,801 
2017-09-06 13:01:16,
2017-09-06 13:01:16, BGO Set:11, AM_RegBuffer:608
2017-09-06 13:01:16,
2017-09-06 13:01:16, BGO Set:12, AM_RegBuffer:12
2017-09-06 13:01:16,
2017-09-06 13:01:26,2, 283,657,15583,1201,43687,1,21015,21013 
2017-09-06 13:01:26,
2017-09-06 13:01:26,2, 10,25,594,45,1666,0,801,801 
2017-09-06 13:01:26,
2017-09-06 13:01:26, BGO Set:12, AM_RegBuffer:594
2017-09-06 13:01:26,
2017-09-06 13:01:26, BGO Set:13, AM_RegBuffer:13
2017-09-06 13:01:26,
2017-09-06 13:01:35,3, 285,633,15233,1173,43575,65535,21015,21015 
2017-09-06 13:01:35,
2017-09-06 13:01:35,3, 10,24,581,44,1662,2500,801,801 
2017-09-06 13:01:35,
2017-09-06 13:01:35, BGO Set:13, AM_RegBuffer:581
2017-09-06 13:01:35,
2017-09-06 13:01:36, BGO Set:14, AM_RegBuffer:14
2017-09-06 13:01:36,
2017-09-06 13:01:45,4, 285,607,14879,1147,43619,65535,21017,21017 
2017-09-06 13:01:45,
2017-09-06 13:01:45,4, 10,23,567,43,1663,2500,801,801 
2017-09-06 13:01:45,
2017-09-06 13:01:45, BGO Set:14, AM_RegBuffer:567
2017-09-06 13:01:45,
2017-09-06 13:01:45, BGO Set:15, AM_RegBuffer:15
2017-09-06 13:01:45,
2017-09-06 13:01:55,5, 285,581,14503,1119,43647,65535,21019,21019 
2017-09-06 13:01:55,
2017-09-06 13:01:55,5, 10,22,553,42,1665,2500,801,801 
2017-09-06 13:01:55,
2017-09-06 13:01:55, BGO Set:15, AM_RegBuffer:553
2017-09-06 13:01:55,
2017-09-06 13:01:55, BGO Set:16, AM_RegBuffer:16
2017-09-06 13:01:55,
2017-09-06 13:02:05,6, 285,557,14145,1091,43637,65535,21021,21019 
2017-09-06 13:02:05,
2017-09-06 13:02:05,6, 10,21,539,41,1664,2500,801,801 
2017-09-06 13:02:05,
2017-09-06 13:02:05, BGO Set:16, AM_RegBuffer:539
2017-09-06 13:02:05,
2017-09-06 13:02:05, BGO Set:17, AM_RegBuffer:17
2017-09-06 13:02:05,
2017-09-06 13:02:14,7, 285,557,14147,1091,43667,65535,21023,21021 
2017-09-06 13:02:14,
2017-09-06 13:02:14,7, 10,21,539,41,1665,2500,801,801 
2017-09-06 13:02:14,
2017-09-06 13:02:14, BGO Set:17, AM_RegBuffer:539
2017-09-06 13:02:14,
2017-09-06 13:02:14, BGO Set:18, AM_RegBuffer:18
2017-09-06 13:02:14,
2017-09-06 13:02:24,8, 285,557,14145,1091,43679,1,21023,21023 
2017-09-06 13:02:24,
2017-09-06 13:02:24,8, 10,21,539,41,1666,0,801,801 
2017-09-06 13:02:24,
2017-09-06 13:02:24, BGO Set:18, AM_RegBuffer:539
2017-09-06 13:02:24,
2017-09-06 13:02:24, BGO Set:19, AM_RegBuffer:19
2017-09-06 13:02:24,
2017-09-06 13:02:34,9, 285,557,14145,1091,43647,65535,21025,21025 
2017-09-06 13:02:34,
2017-09-06 13:02:34,9, 10,21,539,41,1665,2500,802,802 
2017-09-06 13:02:34,
2017-09-06 13:02:34, BGO Set:19, AM_RegBuffer:539
2017-09-06 13:02:34,
2017-09-06 13:02:34, BGO Set:20, AM_RegBuffer:20
2017-09-06 13:02:34,
2017-09-06 13:02:36,
2017-09-06 13:02:37,
2017-09-06 13:02:37,
2017-09-06 13:02:37,*******Meaure Clk Period:Time, Freq in MHz*******
2017-09-06 13:02:37,****SeqNo.,Time,DAC_Cnt..........
2017-09-06 13:02:37, 37, 29600000, 0, 0 
2017-09-06 13:02:37, 38, 30400000, 1, 0 
2017-09-06 13:02:37, 37, 29600000, 2, 0 
2017-09-06 13:02:37, 39, 31200000, 3, 0 
2017-09-06 13:02:37, 38, 30400000, 4, 0 
2017-09-06 13:02:37, 39, 31200000, 5, 0 
2017-09-06 13:02:37, 37, 29600000, 6, 0 
2017-09-06 13:02:37, 37, 29600000, 7, 0 
2017-09-06 13:02:37, 38, 30400000, 8, 0 
2017-09-06 13:02:37, 38, 30400000, 9, 0 
2017-09-06 13:02:37, 38, 30400000, 10, 0 
2017-09-06 13:02:37, 38, 30400000, 11, 0 
2017-09-06 13:02:37, 38, 30400000, 12, 0 
2017-09-06 13:02:37, 37, 29600000, 13, 0 
2017-09-06 13:02:37, 38, 30400000, 14, 0 
2017-09-06 13:02:37, 38, 30400000, 15, 0 
2017-09-06 13:02:37, 38, 30400000, 16, 0 
2017-09-06 13:02:37, 38, 30400000, 17, 0 
2017-09-06 13:02:37, 37, 29600000, 18, 0 
2017-09-06 13:02:37, 38, 30400000, 19, 0 
2017-09-06 13:02:37, 38, 30400000, 20, 0 
2017-09-06 13:02:37, 38, 30400000, 21, 0 
2017-09-06 13:02:37, 38, 30400000, 22, 0 
2017-09-06 13:02:37, 38, 30400000, 23, 0 
2017-09-06 13:02:37, 37, 29600000, 24, 0 
2017-09-06 13:02:37, 37, 29600000, 25, 0 
2017-09-06 13:02:37, 38, 30400000, 26, 0 
2017-09-06 13:02:37, 37, 29600000, 27, 0 
2017-09-06 13:02:37, 37, 29600000, 28, 0 
2017-09-06 13:02:37, 37, 29600000, 29, 0 
2017-09-06 13:02:37, 38, 30400000, 30, 0 
2017-09-06 13:02:37, 37, 29600000, 31, 0 
2017-09-06 13:02:37, 37, 29600000, 32, 0 
2017-09-06 13:02:37, 38, 30400000, 33, 0 
2017-09-06 13:02:37, 38, 30400000, 34, 0 
2017-09-06 13:02:37, 38, 30400000, 35, 0 
2017-09-06 13:02:37, 37, 29600000, 36, 0 
2017-09-06 13:02:37, 37, 29600000, 37, 0 
2017-09-06 13:02:37, 37, 29600000, 38, 0 
2017-09-06 13:02:37, 38, 30400000, 39, 0 
2017-09-06 13:02:37, 38, 30400000, 40, 0 
2017-09-06 13:02:37, 38, 30400000, 41, 0 
2017-09-06 13:02:37, 37, 29600000, 42, 0 
2017-09-06 13:02:37, 38, 30400000, 43, 0 
2017-09-06 13:02:37, 38, 30400000, 44, 0 
2017-09-06 13:02:37, 38, 30400000, 45, 0 
2017-09-06 13:02:37, 38, 30400000, 46, 0 
2017-09-06 13:02:37, 38, 30400000, 47, 0 
2017-09-06 13:02:37, 37, 29600000, 48, 0 
2017-09-06 13:02:37, 38, 30400000, 49, 0 
2017-09-06 13:02:37, 38, 30400000, 50, 0 
2017-09-06 13:02:37, 37, 29600000, 51, 0 
2017-09-06 13:02:37, 38, 30400000, 52, 0 
2017-09-06 13:02:37, 37, 29600000, 53, 0 
2017-09-06 13:02:37, 37, 29600000, 54, 0 
2017-09-06 13:02:37, 37, 29600000, 55, 0 
2017-09-06 13:02:37, 38, 30400000, 56, 0 
2017-09-06 13:02:37, 38, 30400000, 57, 0 
2017-09-06 13:02:37, 38, 30400000, 58, 0 
2017-09-06 13:02:37, 38, 30400000, 59, 0 
2017-09-06 13:02:37, 38, 30400000, 60, 0 
2017-09-06 13:02:37, 37, 29600000, 61, 0 
2017-09-06 13:02:38, 38, 30400000, 62, 0 
2017-09-06 13:02:38, 37, 29600000, 63, 0 
2017-09-06 13:02:38, 38, 30400000, 64, 0 
2017-09-06 13:02:38, 37, 29600000, 65, 0 
2017-09-06 13:02:38, 38, 30400000, 66, 0 
2017-09-06 13:02:38, 38, 30400000, 67, 0 
2017-09-06 13:02:38, 39, 31200000, 68, 0 
2017-09-06 13:02:38, 38, 30400000, 69, 0 
2017-09-06 13:02:38, 38, 30400000, 70, 0 
2017-09-06 13:02:38, 37, 29600000, 71, 0 
2017-09-06 13:02:38, 37, 29600000, 72, 0 
2017-09-06 13:02:38, 38, 30400000, 73, 0 
2017-09-06 13:02:38, 38, 30400000, 74, 0 
2017-09-06 13:02:38, 38, 30400000, 75, 0 
2017-09-06 13:02:38, 38, 30400000, 76, 0 
2017-09-06 13:02:38, 38, 30400000, 77, 0 
2017-09-06 13:02:38, 37, 29600000, 78, 0 
2017-09-06 13:02:38, 37, 29600000, 79, 0 
2017-09-06 13:02:38, 37, 29600000, 80, 0 
2017-09-06 13:02:38, 38, 30400000, 81, 0 
2017-09-06 13:02:38, 38, 30400000, 82, 0 
2017-09-06 13:02:38, 38, 30400000, 83, 0 
2017-09-06 13:02:38, 37, 29600000, 84, 0 
2017-09-06 13:02:38, 38, 30400000, 85, 0 
2017-09-06 13:02:38, 38, 30400000, 86, 0 
2017-09-06 13:02:38, 37, 29600000, 87, 0 
2017-09-06 13:02:38, 38, 30400000, 88, 0 
2017-09-06 13:02:38, 38, 30400000, 89, 0 
2017-09-06 13:02:38, 38, 30400000, 90, 0 
2017-09-06 13:02:38, 39, 31200000, 91, 0 
2017-09-06 13:02:38, 38, 30400000, 92, 0 
2017-09-06 13:02:38, 38, 30400000, 93, 0 
2017-09-06 13:02:38, 37, 29600000, 94, 0 
2017-09-06 13:02:38, 37, 29600000, 95, 0 
2017-09-06 13:02:38, 38, 30400000, 96, 0 
2017-09-06 13:02:38, 38, 30400000, 97, 0 
2017-09-06 13:02:38, 38, 30400000, 98, 0 
2017-09-06 13:02:38, 38, 30400000, 99, 0 
2017-09-06 13:02:38, 38, 30400000, 100, 0 
2017-09-06 13:02:38, 38, 30400000, 101, 0 
2017-09-06 13:02:38, 38, 30400000, 102, 0 
2017-09-06 13:02:38, 39, 31200000, 103, 0 
2017-09-06 13:02:38, 38, 30400000, 104, 0 
2017-09-06 13:02:38, 38, 30400000, 105, 0 
2017-09-06 13:02:38, 38, 30400000, 106, 0 
2017-09-06 13:02:38, 38, 30400000, 107, 0 
2017-09-06 13:02:38, 38, 30400000, 108, 0 
2017-09-06 13:02:38, 38, 30400000, 109, 0 
2017-09-06 13:02:38, 38, 30400000, 110, 0 
2017-09-06 13:02:38, 38, 30400000, 111, 0 
2017-09-06 13:02:38, 38, 30400000, 112, 0 
2017-09-06 13:02:38, 37, 29600000, 113, 0 
2017-09-06 13:02:38, 38, 30400000, 114, 0 
2017-09-06 13:02:38, 38, 30400000, 115, 0 
2017-09-06 13:02:38, 38, 30400000, 116, 0 
2017-09-06 13:02:38, 38, 30400000, 117, 0 
2017-09-06 13:02:38, 38, 30400000, 118, 0 
2017-09-06 13:02:38, 38, 30400000, 119, 0 
2017-09-06 13:02:38, 38, 30400000, 120, 0 
2017-09-06 13:02:38, 38, 30400000, 121, 0 
2017-09-06 13:02:38, 38, 30400000, 122, 0 
2017-09-06 13:02:38, 37, 29600000, 123, 0 
2017-09-06 13:02:38, 38, 30400000, 124, 0 
2017-09-06 13:02:38, 38, 30400000, 125, 0 
2017-09-06 13:02:38, 38, 30400000, 126, 0 
2017-09-06 13:02:38, 38, 30400000, 127, 0 
2017-09-06 13:02:38, 37, 29600000, 128, 0 
2017-09-06 13:02:38, 38, 30400000, 129, 0 
2017-09-06 13:02:38, 37, 29600000, 130, 0 
2017-09-06 13:02:38, 38, 30400000, 131, 0 
2017-09-06 13:02:38, 37, 29600000, 132, 0 
2017-09-06 13:02:38, 38, 30400000, 133, 0 
2017-09-06 13:02:38, 38, 30400000, 134, 0 
2017-09-06 13:02:38, 38, 30400000, 135, 0 
2017-09-06 13:02:38, 38, 30400000, 136, 0 
2017-09-06 13:02:38, 38, 30400000, 137, 0 
2017-09-06 13:02:38, 38, 30400000, 138, 0 
2017-09-06 13:02:38, 38, 30400000, 139, 0 
2017-09-06 13:02:38, 37, 29600000, 140, 0 
2017-09-06 13:02:38, 38, 30400000, 141, 0 
2017-09-06 13:02:38, 37, 29600000, 142, 0 
2017-09-06 13:02:38, 38, 30400000, 143, 0 
2017-09-06 13:02:38, 38, 30400000, 144, 0 
2017-09-06 13:02:38, 38, 30400000, 145, 0 
2017-09-06 13:02:38, 38, 30400000, 146, 0 
2017-09-06 13:02:38, 37, 29600000, 147, 0 
2017-09-06 13:02:38, 38, 30400000, 148, 0 
2017-09-06 13:02:38, 37, 29600000, 149, 0 
2017-09-06 13:02:38, 38, 30400000, 150, 0 
2017-09-06 13:02:38, 38, 30400000, 151, 0 
2017-09-06 13:02:38, 39, 31200000, 152, 0 
2017-09-06 13:02:38, 37, 29600000, 153, 0 
2017-09-06 13:02:38, 38, 30400000, 154, 0 
2017-09-06 13:02:38, 38, 30400000, 155, 0 
2017-09-06 13:02:38, 38, 30400000, 156, 0 
2017-09-06 13:02:38, 38, 30400000, 157, 0 
2017-09-06 13:02:38, 37, 29600000, 158, 0 
2017-09-06 13:02:38, 38, 30400000, 159, 0 
2017-09-06 13:02:38, 37, 29600000, 160, 0 
2017-09-06 13:02:38, 37, 29600000, 161, 0 
2017-09-06 13:02:38, 38, 30400000, 162, 0 
2017-09-06 13:02:38, 38, 30400000, 163, 0 
2017-09-06 13:02:38, 38, 30400000, 164, 0 
2017-09-06 13:02:38, 37, 29600000, 165, 0 
2017-09-06 13:02:38, 37, 29600000, 166, 0 
2017-09-06 13:02:38, 37, 29600000, 167, 0 
2017-09-06 13:02:38, 38, 30400000, 168, 0 
2017-09-06 13:02:38, 38, 30400000, 169, 0 
2017-09-06 13:02:38, 38, 30400000, 170, 0 
2017-09-06 13:02:38, 38, 30400000, 171, 0 
2017-09-06 13:02:38, 38, 30400000, 172, 0 
2017-09-06 13:02:38, 38, 30400000, 173, 0 
2017-09-06 13:02:38, 38, 30400000, 174, 0 
2017-09-06 13:02:38, 37, 29600000, 175, 0 
2017-09-06 13:02:38, 38, 30400000, 176, 0 
2017-09-06 13:02:38, 38, 30400000, 177, 0 
2017-09-06 13:02:38, 38, 30400000, 178, 0 
2017-09-06 13:02:38, 38, 30400000, 179, 0 
2017-09-06 13:02:38, 38, 30400000, 180, 0 
2017-09-06 13:02:38, 38, 30400000, 181, 0 
2017-09-06 13:02:38, 38, 30400000, 182, 0 
2017-09-06 13:02:38, 38, 30400000, 183, 0 
2017-09-06 13:02:38, 38, 30400000, 184, 0 
2017-09-06 13:02:38, 38, 30400000, 185, 0 
2017-09-06 13:02:38, 38, 30400000, 186, 0 
2017-09-06 13:02:38, 38, 30400000, 187, 0 
2017-09-06 13:02:38, 38, 30400000, 188, 0 
2017-09-06 13:02:38, 38, 30400000, 189, 0 
2017-09-06 13:02:38, 38, 30400000, 190, 0 
2017-09-06 13:02:38, 38, 30400000, 191, 0 
2017-09-06 13:02:38, 38, 30400000, 192, 0 
2017-09-06 13:02:38, 38, 30400000, 193, 0 
2017-09-06 13:02:38, 38, 30400000, 194, 0 
2017-09-06 13:02:38, 38, 30400000, 195, 0 
2017-09-06 13:02:38, 37, 29600000, 196, 0 
2017-09-06 13:02:38, 38, 30400000, 197, 0 
2017-09-06 13:02:38, 38, 30400000, 198, 0 
2017-09-06 13:02:38, 39, 31200000, 199, 0 
2017-09-06 13:02:38,
2017-09-06 13:02:41,
2017-09-06 13:02:42,0, 802, 44, 100, 25, 15, 131, 130, 139, 128, 0 
2017-09-06 13:02:43, 0, 802, 44, 200, 25, 15, 131, 130, 139, 128, 0 
2017-09-06 13:02:44, 0, 802, 55, 100, 59, 32, 298, 296, 330, 294, 0 
2017-09-06 13:02:44, 0, 802, 55, 200, 59, 32, 298, 296, 330, 294, 0 
2017-09-06 13:02:45, 0, 802, 66, 100, 41, 23, 214, 213, 229, 215, 0 
2017-09-06 13:02:46, 0, 802, 66, 200, 41, 23, 214, 213, 229, 215, 0 
2017-09-06 13:02:46, 0, 802, 77, 100, 37, 21, 193, 192, 203, 192, 0 
2017-09-06 13:02:47, 0, 802, 77, 200, 37, 21, 193, 192, 203, 192, 0 
2017-09-06 13:02:48, 1, 733, 44, 100, 32, 18, 164, 164, 172, 163, 0 
2017-09-06 13:02:49, 1, 733, 44, 200, 32, 18, 164, 163, 172, 164, 2 
2017-09-06 13:02:49, 1, 733, 55, 100, 60, 33, 306, 305, 335, 304, 0 
2017-09-06 13:02:50, 1, 733, 55, 200, 60, 33, 306, 304, 335, 304, 1 
2017-09-06 13:02:51, 1, 733, 66, 100, 42, 24, 218, 216, 233, 216, 0 
2017-09-06 13:02:51, 1, 733, 66, 200, 42, 24, 218, 216, 233, 216, 0 
2017-09-06 13:02:52, 1, 733, 77, 100, 38, 22, 196, 195, 207, 193, 0 
2017-09-06 13:02:53, 1, 733, 77, 200, 38, 22, 196, 195, 207, 193, 0 
2017-09-06 13:02:54, 2, 717, 44, 100, 32, 18, 166, 166, 177, 164, 0 
2017-09-06 13:02:55, 2, 717, 44, 200, 32, 18, 166, 165, 177, 164, 1 
2017-09-06 13:02:55, 2, 717, 55, 100, 61, 33, 309, 308, 340, 308, 0 
2017-09-06 13:02:56, 2, 717, 55, 200, 61, 33, 309, 308, 340, 308, 0 
2017-09-06 13:02:57, 2, 717, 66, 100, 43, 24, 220, 220, 234, 221, 0 
2017-09-06 13:02:57, 2, 717, 66, 200, 43, 24, 220, 219, 234, 221, 1 
2017-09-06 13:02:58, 2, 717, 77, 100, 38, 22, 198, 197, 208, 198, 0 
2017-09-06 13:02:59, 2, 717, 77, 200, 38, 22, 198, 197, 208, 198, 0 
2017-09-06 13:03:00, 3, 708, 44, 100, 32, 18, 169, 167, 177, 165, 0 
2017-09-06 13:03:01, 3, 708, 44, 200, 32, 18, 169, 167, 177, 165, 0 
2017-09-06 13:03:01, 3, 708, 55, 100, 61, 33, 312, 310, 344, 308, 0 
2017-09-06 13:03:02, 3, 708, 55, 200, 61, 33, 312, 310, 344, 308, 0 
2017-09-06 13:03:03, 3, 708, 66, 100, 43, 24, 223, 222, 239, 221, 0 
2017-09-06 13:03:03, 3, 708, 66, 200, 43, 24, 223, 222, 239, 221, 0 
2017-09-06 13:03:04, 3, 708, 77, 100, 39, 22, 201, 200, 212, 198, 0 
2017-09-06 13:03:05, 3, 708, 77, 200, 39, 22, 201, 200, 212, 198, 0 
2017-09-06 13:03:06, 4, 699, 44, 100, 33, 19, 171, 170, 182, 169, 0 
2017-09-06 13:03:06, 4, 699, 44, 200, 33, 19, 171, 170, 182, 169, 0 
2017-09-06 13:03:07, 4, 699, 55, 100, 61, 33, 315, 313, 349, 313, 0 
2017-09-06 13:03:08, 4, 699, 55, 200, 61, 33, 315, 313, 349, 313, 0 
2017-09-06 13:03:09, 4, 699, 66, 100, 43, 24, 226, 224, 244, 226, 0 
2017-09-06 13:03:09, 4, 699, 66, 200, 43, 24, 226, 224, 244, 226, 0 
2017-09-06 13:03:10, 4, 699, 77, 100, 39, 22, 203, 202, 215, 203, 0 
2017-09-06 13:03:11, 4, 699, 77, 200, 39, 22, 203, 202, 215, 203, 0 
2017-09-06 13:03:12, 5, 690, 44, 100, 33, 19, 173, 172, 182, 169, 0 
2017-09-06 13:03:12, 5, 690, 44, 200, 33, 19, 173, 172, 182, 169, 0 
2017-09-06 13:03:13, 5, 690, 55, 100, 61, 33, 318, 316, 352, 316, 0 
2017-09-06 13:03:14, 5, 690, 55, 200, 61, 33, 318, 316, 352, 318, 0 
2017-09-06 13:03:15, 5, 690, 66, 100, 44, 24, 228, 227, 244, 226, 0 
2017-09-06 13:03:15, 5, 690, 66, 200, 44, 24, 228, 227, 244, 227, 1 
2017-09-06 13:03:16, 5, 690, 77, 100, 39, 22, 206, 204, 217, 203, 0 
2017-09-06 13:03:17, 5, 690, 77, 200, 39, 22, 206, 204, 217, 204, 1 
2017-09-06 13:03:18, 6, 681, 44, 100, 33, 18, 175, 174, 186, 173, 0 
2017-09-06 13:03:18, 6, 681, 44, 200, 33, 18, 175, 174, 186, 174, 1 
2017-09-06 13:03:19, 6, 681, 55, 100, 61, 33, 321, 319, 354, 318, 0 
2017-09-06 13:03:20, 6, 681, 55, 200, 62, 32, 321, 319, 356, 319, 3 
2017-09-06 13:03:20, 6, 681, 66, 100, 44, 24, 230, 230, 249, 232, 0 
2017-09-06 13:03:21, 6, 681, 66, 200, 44, 24, 230, 229, 249, 232, 1 
2017-09-06 13:03:22, 6, 681, 77, 100, 39, 22, 208, 207, 221, 208, 0 
2017-09-06 13:03:23, 6, 681, 77, 200, 39, 22, 208, 207, 222, 208, 1 
2017-09-06 13:03:24, 7, 671, 44, 100, 33, 18, 177, 177, 187, 174, 0 
2017-09-06 13:03:24, 7, 671, 44, 200, 33, 18, 177, 177, 188, 174, 1 
2017-09-06 13:03:25, 7, 671, 55, 100, 62, 32, 324, 323, 358, 323, 0 
2017-09-06 13:03:26, 7, 671, 55, 200, 62, 32, 324, 323, 358, 323, 0 
2017-09-06 13:03:26, 7, 671, 66, 100, 44, 24, 233, 232, 249, 232, 0 
2017-09-06 13:03:27, 7, 671, 66, 200, 44, 24, 233, 232, 249, 232, 0 
2017-09-06 13:03:28, 7, 671, 77, 100, 39, 22, 210, 209, 222, 208, 0 
2017-09-06 13:03:28, 7, 671, 77, 200, 39, 22, 210, 209, 222, 208, 0 
2017-09-06 13:03:30, 8, 659, 44, 100, 33, 18, 180, 179, 192, 179, 0 
2017-09-06 13:03:30, 8, 659, 44, 200, 33, 18, 180, 179, 192, 179, 0 
2017-09-06 13:03:31, 8, 659, 55, 100, 62, 32, 328, 327, 363, 327, 0 
2017-09-06 13:03:32, 8, 659, 55, 200, 62, 32, 328, 326, 363, 327, 1 
2017-09-06 13:03:32, 8, 659, 66, 100, 44, 23, 236, 235, 254, 237, 0 
2017-09-06 13:03:33, 8, 659, 66, 200, 44, 23, 236, 235, 254, 237, 0 
2017-09-06 13:03:34, 8, 659, 77, 100, 39, 21, 213, 212, 227, 213, 0 
2017-09-06 13:03:34, 8, 659, 77, 200, 39, 21, 213, 212, 227, 213, 0 
2017-09-06 13:03:36, 9, 646, 44, 100, 33, 18, 183, 182, 192, 180, 0 
2017-09-06 13:03:36, 9, 646, 44, 200, 33, 18, 183, 182, 192, 180, 0 
2017-09-06 13:03:37, 9, 646, 55, 100, 62, 32, 332, 331, 368, 332, 0 
2017-09-06 13:03:38, 9, 646, 55, 200, 62, 32, 332, 330, 369, 332, 2 
2017-09-06 13:03:38, 9, 646, 66, 100, 44, 23, 239, 238, 259, 242, 0 
2017-09-06 13:03:39, 9, 646, 66, 200, 44, 23, 240, 238, 259, 242, 1 
2017-09-06 13:03:40, 9, 646, 77, 100, 39, 21, 216, 215, 232, 219, 0 
2017-09-06 13:03:40, 9, 646, 77, 200, 39, 21, 217, 215, 232, 219, 1 
2017-09-06 13:03:41, 10, 633, 44, 100, 33, 18, 186, 185, 197, 185, 0 
2017-09-06 13:03:42, 10, 633, 44, 200, 33, 18, 187, 185, 197, 185, 1 
2017-09-06 13:03:43, 10, 633, 55, 100, 62, 31, 337, 335, 375, 337, 0 
2017-09-06 13:03:43, 10, 633, 55, 200, 62, 31, 337, 335, 375, 337, 0 
2017-09-06 13:03:44, 10, 633, 66, 100, 44, 23, 244, 242, 264, 243, 0 
2017-09-06 13:03:45, 10, 633, 66, 200, 44, 23, 244, 242, 264, 243, 0 
2017-09-06 13:03:46, 10, 633, 77, 100, 40, 20, 220, 219, 233, 219, 0 
2017-09-06 13:03:46, 10, 633, 77, 200, 40, 20, 220, 219, 233, 219, 0 
2017-09-06 13:03:47, 11, 620, 44, 100, 33, 18, 189, 189, 201, 189, 0 
2017-09-06 13:03:48, 11, 620, 44, 200, 33, 18, 189, 188, 201, 189, 1 
2017-09-06 13:03:49, 11, 620, 55, 100, 62, 30, 342, 340, 383, 342, 0 
2017-09-06 13:03:49, 11, 620, 55, 200, 62, 31, 343, 341, 383, 342, 3 
2017-09-06 13:03:50, 11, 620, 66, 100, 44, 23, 248, 246, 269, 248, 0 
2017-09-06 13:03:51, 11, 620, 66, 200, 44, 23, 248, 246, 269, 248, 0 
2017-09-06 13:03:52, 11, 620, 77, 100, 40, 20, 224, 223, 237, 224, 0 
2017-09-06 13:03:52, 11, 620, 77, 200, 40, 20, 224, 223, 237, 224, 0 
2017-09-06 13:03:53, 12, 607, 44, 100, 33, 17, 193, 192, 206, 194, 0 
2017-09-06 13:03:54, 12, 607, 44, 200, 33, 17, 193, 192, 206, 193, 1 
2017-09-06 13:03:55, 12, 607, 55, 100, 62, 30, 348, 347, 389, 350, 0 
2017-09-06 13:03:55, 12, 607, 55, 200, 62, 30, 349, 347, 389, 347, 1 
2017-09-06 13:03:56, 12, 607, 66, 100, 44, 22, 252, 251, 274, 250, 0 
2017-09-06 13:03:57, 12, 607, 66, 200, 44, 22, 253, 251, 275, 249, 3 
2017-09-06 13:03:57, 12, 607, 77, 100, 40, 20, 228, 227, 242, 228, 0 
2017-09-06 13:03:58, 12, 607, 77, 200, 40, 20, 228, 227, 242, 228, 0 
2017-09-06 13:03:59, 13, 593, 44, 100, 33, 17, 197, 195, 211, 195, 0 
2017-09-06 13:04:00, 13, 593, 44, 200, 33, 17, 197, 195, 211, 195, 0 
2017-09-06 13:04:01, 13, 593, 55, 100, 62, 29, 355, 353, 398, 352, 0 
2017-09-06 13:04:01, 13, 593, 55, 200, 62, 29, 354, 353, 398, 352, 1 
2017-09-06 13:04:02, 13, 593, 66, 100, 44, 21, 257, 256, 280, 254, 0 
2017-09-06 13:04:03, 13, 593, 66, 200, 44, 21, 257, 255, 280, 254, 1 
2017-09-06 13:04:03, 13, 593, 77, 100, 40, 20, 232, 231, 248, 233, 1 
2017-09-06 13:04:04, 13, 593, 77, 200, 40, 20, 232, 231, 247, 233, 1 
2017-09-06 13:04:05, 14, 580, 44, 100, 33, 17, 200, 199, 214, 200, 0 
2017-09-06 13:04:06, 14, 580, 44, 200, 33, 17, 200, 199, 213, 200, 1 
2017-09-06 13:04:07, 14, 580, 55, 100, 62, 29, 361, 359, 406, 357, 0 
2017-09-06 13:04:07, 14, 580, 55, 200, 62, 29, 361, 359, 406, 357, 0 
2017-09-06 13:04:08, 14, 580, 66, 100, 44, 21, 262, 260, 286, 259, 0 
2017-09-06 13:04:09, 14, 580, 66, 200, 44, 21, 262, 260, 286, 259, 0 
2017-09-06 13:04:09, 14, 580, 77, 100, 40, 19, 237, 236, 256, 235, 0 
2017-09-06 13:04:10, 14, 580, 77, 200, 40, 19, 237, 236, 256, 235, 0 
2017-09-06 13:04:11, 15, 566, 44, 100, 34, 17, 205, 204, 221, 205, 0 
2017-09-06 13:04:12, 15, 566, 44, 200, 33, 17, 205, 204, 220, 205, 2 
2017-09-06 13:04:13, 15, 566, 55, 100, 62, 28, 369, 367, 418, 366, 0 
2017-09-06 13:04:13, 15, 566, 55, 200, 62, 28, 369, 367, 419, 366, 1 
2017-09-06 13:04:14, 15, 566, 66, 100, 44, 21, 268, 266, 292, 265, 0 
2017-09-06 13:04:15, 15, 566, 66, 200, 44, 21, 268, 266, 292, 265, 0 
2017-09-06 13:04:15, 15, 566, 77, 100, 40, 19, 242, 241, 261, 240, 0 
2017-09-06 13:04:16, 15, 566, 77, 200, 40, 19, 242, 241, 261, 240, 0 
2017-09-06 13:04:17, 16, 552, 44, 100, 34, 16, 209, 208, 226, 210, 0 
2017-09-06 13:04:18, 16, 552, 44, 200, 33, 16, 209, 208, 226, 210, 1 
2017-09-06 13:04:18, 16, 552, 55, 100, 63, 28, 376, 374, 426, 376, 0 
2017-09-06 13:04:19, 16, 552, 55, 200, 62, 28, 376, 374, 428, 376, 1 
2017-09-06 13:04:20, 16, 552, 66, 100, 44, 20, 273, 272, 302, 271, 0 
2017-09-06 13:04:20, 16, 552, 66, 200, 44, 20, 273, 272, 302, 271, 0 
2017-09-06 13:04:21, 16, 552, 77, 100, 40, 19, 247, 246, 267, 245, 1 
2017-09-06 13:04:22, 16, 552, 77, 200, 40, 19, 247, 246, 267, 245, 0 
2017-09-06 13:04:23, 17, 538, 44, 100, 33, 16, 210, 209, 227, 210, 0 
2017-09-06 13:04:24, 17, 538, 44, 200, 34, 16, 210, 209, 227, 210, 1 
2017-09-06 13:04:24, 17, 538, 55, 100, 62, 28, 376, 374, 428, 376, 0 
2017-09-06 13:04:25, 17, 538, 55, 200, 62, 28, 377, 374, 428, 376, 1 
2017-09-06 13:04:26, 17, 538, 66, 100, 44, 20, 273, 272, 302, 271, 0 
2017-09-06 13:04:26, 17, 538, 66, 200, 44, 20, 273, 272, 302, 271, 0 
2017-09-06 13:04:27, 17, 538, 77, 100, 40, 19, 247, 246, 267, 245, 1 
2017-09-06 13:04:28, 17, 538, 77, 200, 40, 19, 247, 246, 267, 245, 0 
2017-09-06 13:04:29, 18, 538, 44, 100, 33, 16, 210, 209, 227, 210, 0 
2017-09-06 13:04:30, 18, 538, 44, 200, 33, 16, 210, 209, 227, 210, 0 
2017-09-06 13:04:30, 18, 538, 55, 100, 62, 28, 377, 374, 427, 376, 0 
2017-09-06 13:04:31, 18, 538, 55, 200, 63, 28, 377, 374, 427, 376, 1 
2017-09-06 13:04:32, 18, 538, 66, 100, 44, 20, 273, 272, 302, 271, 0 
2017-09-06 13:04:32, 18, 538, 66, 200, 44, 20, 273, 272, 302, 271, 0 
2017-09-06 13:04:33, 18, 538, 77, 100, 40, 19, 247, 246, 267, 245, 1 
2017-09-06 13:04:34, 18, 538, 77, 200, 40, 19, 247, 246, 267, 245, 0 
2017-09-06 13:04:35, 19, 538, 44, 100, 34, 16, 210, 209, 227, 210, 0 
2017-09-06 13:04:36, 19, 538, 44, 200, 34, 16, 210, 209, 227, 210, 0 
2017-09-06 13:04:36, 19, 538, 55, 100, 62, 28, 376, 374, 427, 376, 0 
2017-09-06 13:04:37, 19, 538, 55, 200, 63, 27, 377, 374, 427, 376, 3 
2017-09-06 13:04:38, 19, 538, 66, 100, 44, 20, 273, 272, 302, 271, 0 
2017-09-06 13:04:38, 19, 538, 66, 200, 44, 20, 273, 272, 302, 271, 0 
2017-09-06 13:04:39, 19, 538, 77, 100, 40, 19, 247, 246, 267, 245, 1 
2017-09-06 13:04:40, 19, 538, 77, 200, 40, 19, 247, 246, 267, 245, 0 
2017-09-06 13:04:41, 20, 538, 44, 100, 33, 16, 210, 209, 227, 210, 0 
2017-09-06 13:04:41, 20, 538, 44, 200, 34, 16, 210, 209, 227, 210, 1 
2017-09-06 13:04:42, 20, 538, 55, 100, 63, 28, 376, 374, 427, 376, 0 
2017-09-06 13:04:43, 20, 538, 55, 200, 63, 28, 376, 374, 427, 376, 0 
2017-09-06 13:04:44, 20, 538, 66, 100, 44, 20, 273, 272, 302, 271, 0 
2017-09-06 13:04:44, 20, 538, 66, 200, 44, 20, 273, 272, 302, 271, 0 
2017-09-06 13:04:45, 20, 538, 77, 100, 40, 19, 247, 246, 267, 245, 1 
2017-09-06 13:04:46, 20, 538, 77, 200, 40, 19, 247, 246, 267, 245, 0 
2017-09-06 13:04:47, 21, 538, 44, 100, 33, 16, 210, 209, 227, 210, 0 
2017-09-06 13:04:47, 21, 538, 44, 200, 33, 16, 210, 209, 227, 210, 0 
2017-09-06 13:04:48, 21, 538, 55, 100, 63, 28, 376, 374, 427, 376, 0 
2017-09-06 13:04:49, 21, 538, 55, 200, 63, 27, 376, 374, 426, 376, 2 
2017-09-06 13:04:50, 21, 538, 66, 100, 44, 20, 273, 272, 302, 271, 0 
2017-09-06 13:04:50, 21, 538, 66, 200, 44, 20, 273, 272, 302, 271, 0 
2017-09-06 13:04:51, 21, 538, 77, 100, 40, 19, 247, 246, 267, 245, 1 
2017-09-06 13:04:52, 21, 538, 77, 200, 40, 19, 247, 246, 267, 245, 0 
2017-09-06 13:04:53, 22, 538, 44, 100, 33, 16, 210, 209, 227, 210, 0 
2017-09-06 13:04:53, 22, 538, 44, 200, 33, 16, 210, 209, 227, 210, 0 
2017-09-06 13:04:54, 22, 538, 55, 100, 62, 27, 376, 374, 428, 376, 0 
2017-09-06 13:04:55, 22, 538, 55, 200, 62, 28, 376, 374, 428, 376, 1 
2017-09-06 13:04:55, 22, 538, 66, 100, 44, 20, 273, 272, 302, 271, 0 
2017-09-06 13:04:56, 22, 538, 66, 200, 44, 20, 273, 272, 302, 271, 0 
2017-09-06 13:04:57, 22, 538, 77, 100, 40, 19, 247, 246, 267, 245, 1 
2017-09-06 13:04:57, 22, 538, 77, 200, 40, 19, 247, 246, 267, 245, 0 
2017-09-06 13:04:59, 23, 538, 44, 100, 33, 16, 210, 209, 226, 210, 0 
2017-09-06 13:04:59, 23, 538, 44, 200, 33, 16, 210, 209, 227, 210, 1 
2017-09-06 13:05:00, 23, 538, 55, 100, 62, 27, 376, 374, 427, 376, 0 
2017-09-06 13:05:01, 23, 538, 55, 200, 62, 27, 377, 374, 427, 376, 1 
2017-09-06 13:05:01, 23, 538, 66, 100, 44, 20, 273, 272, 302, 271, 0 
2017-09-06 13:05:02, 23, 538, 66, 200, 44, 20, 273, 272, 302, 271, 0 
2017-09-06 13:05:03, 23, 538, 77, 100, 40, 19, 247, 246, 267, 245, 1 
2017-09-06 13:05:03, 23, 538, 77, 200, 40, 19, 247, 246, 267, 245, 0 
2017-09-06 13:05:05, 24, 538, 44, 100, 33, 16, 210, 209, 227, 210, 0 
2017-09-06 13:05:05, 24, 538, 44, 200, 34, 16, 210, 209, 227, 210, 1 
2017-09-06 13:05:06, 24, 538, 55, 100, 62, 27, 377, 374, 427, 376, 0 
2017-09-06 13:05:07, 24, 538, 55, 200, 63, 28, 376, 374, 428, 376, 4 
2017-09-06 13:05:07, 24, 538, 66, 100, 44, 20, 273, 272, 302, 271, 0 
2017-09-06 13:05:08, 24, 538, 66, 200, 44, 20, 273, 272, 302, 271, 0 
2017-09-06 13:05:09, 24, 538, 77, 100, 40, 19, 247, 246, 267, 245, 1 
2017-09-06 13:05:09, 24, 538, 77, 200, 40, 19, 247, 246, 267, 245, 0 
2017-09-06 13:05:10, 25, 538, 44, 100, 34, 16, 210, 209, 227, 210, 0 
2017-09-06 13:05:11, 25, 538, 44, 200, 34, 16, 210, 209, 227, 210, 0 
2017-09-06 13:05:12, 25, 538, 55, 100, 63, 28, 376, 374, 428, 376, 0 
2017-09-06 13:05:13, 25, 538, 55, 200, 63, 28, 376, 374, 427, 376, 1 
2017-09-06 13:05:13, 25, 538, 66, 100, 44, 20, 273, 272, 302, 271, 0 
2017-09-06 13:05:14, 25, 538, 66, 200, 44, 20, 273, 272, 302, 271, 0 
2017-09-06 13:05:15, 25, 538, 77, 100, 40, 19, 247, 246, 267, 245, 1 
2017-09-06 13:05:15, 25, 538, 77, 200, 40, 19, 247, 246, 267, 245, 0 
2017-09-06 13:05:16, 26, 538, 44, 100, 33, 16, 210, 209, 227, 210, 0 
2017-09-06 13:05:17, 26, 538, 44, 200, 34, 16, 210, 209, 227, 210, 1 
2017-09-06 13:05:18, 26, 538, 55, 100, 62, 28, 376, 374, 428, 376, 0 
2017-09-06 13:05:18, 26, 538, 55, 200, 62, 28, 376, 374, 428, 376, 0 
2017-09-06 13:05:19, 26, 538, 66, 100, 44, 20, 273, 272, 302, 271, 0 
2017-09-06 13:05:20, 26, 538, 66, 200, 44, 20, 273, 272, 302, 271, 0 
2017-09-06 13:05:21, 26, 538, 77, 100, 40, 19, 247, 246, 267, 245, 1 
2017-09-06 13:05:21, 26, 538, 77, 200, 40, 19, 247, 246, 267, 245, 0 
2017-09-06 13:05:22, 27, 538, 44, 100, 33, 16, 210, 209, 226, 210, 0 
2017-09-06 13:05:23, 27, 538, 44, 200, 33, 16, 210, 209, 227, 210, 1 
2017-09-06 13:05:24, 27, 538, 55, 100, 62, 27, 376, 374, 428, 376, 0 
2017-09-06 13:05:24, 27, 538, 55, 200, 62, 28, 377, 374, 428, 376, 2 
2017-09-06 13:05:25, 27, 538, 66, 100, 44, 20, 273, 272, 302, 271, 0 
2017-09-06 13:05:26, 27, 538, 66, 200, 44, 20, 273, 272, 302, 271, 0 
2017-09-06 13:05:26, 27, 538, 77, 100, 40, 19, 247, 246, 267, 245, 1 
2017-09-06 13:05:27, 27, 538, 77, 200, 40, 19, 247, 246, 267, 245, 0 
2017-09-06 13:05:28, 28, 538, 44, 100, 34, 16, 210, 209, 227, 210, 0 
2017-09-06 13:05:29, 28, 538, 44, 200, 33, 16, 210, 209, 227, 210, 1 
2017-09-06 13:05:30, 28, 538, 55, 100, 63, 28, 376, 374, 428, 376, 0 
2017-09-06 13:05:30, 28, 538, 55, 200, 62, 28, 377, 374, 428, 376, 2 
2017-09-06 13:05:31, 28, 538, 66, 100, 44, 20, 273, 272, 302, 271, 0 
2017-09-06 13:05:32, 28, 538, 66, 200, 44, 20, 273, 272, 302, 271, 0 
2017-09-06 13:05:32, 28, 538, 77, 100, 40, 19, 247, 246, 267, 245, 1 
2017-09-06 13:05:33, 28, 538, 77, 200, 40, 19, 247, 246, 267, 245, 0 
2017-09-06 13:05:34, 29, 538, 44, 100, 34, 16, 210, 209, 227, 210, 0 
2017-09-06 13:05:35, 29, 538, 44, 200, 34, 16, 210, 209, 227, 210, 0 
2017-09-06 13:05:36, 29, 538, 55, 100, 63, 28, 377, 374, 428, 376, 0 
2017-09-06 13:05:36, 29, 538, 55, 200, 63, 28, 377, 374, 426, 376, 0 
2017-09-06 13:05:37, 29, 538, 66, 100, 44, 20, 273, 272, 302, 271, 0 
2017-09-06 13:05:38, 29, 538, 66, 200, 44, 20, 273, 272, 302, 271, 0 
2017-09-06 13:05:38, 29, 538, 77, 100, 40, 19, 247, 246, 267, 245, 1 
2017-09-06 13:05:39, 29, 538, 77, 200, 40, 19, 247, 246, 267, 245, 0 
2017-09-06 13:05:40, 30, 538, 44, 100, 33, 16, 210, 209, 227, 210, 0 
2017-09-06 13:05:41, 30, 538, 44, 200, 34, 16, 210, 209, 227, 210, 1 
2017-09-06 13:05:42, 30, 538, 55, 100, 62, 27, 377, 374, 426, 376, 0 
2017-09-06 13:05:42, 30, 538, 55, 200, 63, 28, 377, 374, 427, 376, 3 
2017-09-06 13:05:43, 30, 538, 66, 100, 44, 20, 273, 272, 302, 271, 0 
2017-09-06 13:05:44, 30, 538, 66, 200, 44, 20, 273, 272, 302, 271, 0 
2017-09-06 13:05:44, 30, 538, 77, 100, 40, 19, 247, 246, 267, 245, 1 
2017-09-06 13:05:45, 30, 538, 77, 200, 40, 19, 247, 246, 267, 245, 0 
2017-09-06 13:05:46, 31, 538, 44, 100, 34, 16, 210, 209, 227, 210, 0 
2017-09-06 13:05:47, 31, 538, 44, 200, 34, 16, 210, 209, 227, 210, 0 
2017-09-06 13:05:47, 31, 538, 55, 100, 63, 27, 376, 374, 426, 376, 0 
2017-09-06 13:05:48, 31, 538, 55, 200, 63, 28, 376, 374, 427, 376, 2 
2017-09-06 13:05:49, 31, 538, 66, 100, 45, 20, 273, 272, 302, 271, 0 
2017-09-06 13:05:49, 31, 538, 66, 200, 44, 20, 273, 272, 302, 271, 1 
2017-09-06 13:05:50, 31, 538, 77, 100, 40, 19, 247, 246, 267, 245, 1 
2017-09-06 13:05:51, 31, 538, 77, 200, 40, 19, 247, 246, 267, 245, 0 
2017-09-06 13:05:52, 32, 538, 44, 100, 31, 18, 172, 171, 183, 168, 1 
2017-09-06 13:05:53, 32, 538, 44, 200, 31, 18, 171, 171, 183, 168, 1 
2017-09-06 13:05:53, 32, 538, 55, 100, 59, 33, 305, 303, 335, 301, 0 
2017-09-06 13:05:54, 32, 538, 55, 200, 60, 33, 305, 303, 336, 301, 2 
2017-09-06 13:05:55, 32, 538, 66, 100, 41, 23, 215, 215, 229, 216, 0 
2017-09-06 13:05:55, 32, 538, 66, 200, 42, 23, 216, 214, 230, 216, 4 
2017-09-06 13:05:56, 32, 538, 77, 100, 37, 21, 193, 193, 203, 193, 0 
2017-09-06 13:05:57, 32, 538, 77, 200, 38, 21, 194, 192, 203, 193, 3 
2017-09-06 13:06:00,
2017-09-06 13:06:00,*SeqNo.,Time,DAC_Cnt,BGO,AM_LCh0,AM_RCh0,AM_Rch1,AM_RCh2,AM_LCh3,AM_LCh3
2017-09-06 13:06:00,
2017-09-06 13:06:00, BGO Set:0, AM_RegBuffer:0
2017-09-06 13:06:00,
2017-09-06 13:06:03, BGO Set:0,725 
2017-09-06 13:06:03,
2017-09-06 13:06:03, Gain Set:0, AM_RegBuffer:0 
2017-09-06 13:06:03,
2017-09-06 13:06:08,
2017-09-06 13:06:08,*SeqNo.,Time,DAC_Cnt,BGO,AM_LCh0,AM_RCh0,AM_Rch1,AM_RCh2,AM_LCh3,AM_LCh3
2017-09-06 13:06:08,
2017-09-06 13:06:08, BGO Set:0, AM_RegBuffer:0
2017-09-06 13:06:08,
2017-09-06 13:06:11, BGO Set:0,733 
2017-09-06 13:06:11,
2017-09-06 13:06:11, Gain Set:0, AM_RegBuffer:0 
2017-09-06 13:06:11,
