#P0E000000C800AM_RdFreq

2017-09-29 19:15:18, 50,:e,:0,:0,:0,:c8,:0 @

2017-09-29 19:15:18,*******Measure Period per Event & Freq in MHz*******

2017-09-29 19:15:18,****Period_cnt , Freq, SeqNo, Status,..........

2017-09-29 19:15:19,#P#, 38, 30400000, 0, 0 

2017-09-29 19:15:19,#P#, 38, 30400000, 1, 0 

2017-09-29 19:15:19,#P#, 37, 29600000, 2, 0 

2017-09-29 19:15:19,#P#, 38, 30400000, 3, 0 

2017-09-29 19:15:19,#P#, 38, 30400000, 4, 0 

2017-09-29 19:15:19,#P#, 38, 30400000, 5, 0 

2017-09-29 19:15:19,#P#, 38, 30400000, 6, 0 

2017-09-29 19:15:19,#P#, 37, 29600000, 7, 0 

2017-09-29 19:15:19,#P#, 37, 29600000, 8, 0 

2017-09-29 19:15:19,#P#, 37, 29600000, 9, 0 

2017-09-29 19:15:19,#P#, 37, 29600000, 10, 0 

2017-09-29 19:15:19,#P#, 37, 29600000, 11, 0 

2017-09-29 19:15:19,#P#, 37, 29600000, 12, 0 

2017-09-29 19:15:19,#P#, 37, 29600000, 13, 0 

2017-09-29 19:15:19,#P#, 37, 29600000, 14, 0 

2017-09-29 19:15:19,#P#, 37, 29600000, 15, 0 

2017-09-29 19:15:19,#P#, 37, 29600000, 16, 0 

2017-09-29 19:15:19,#P#, 37, 29600000, 17, 0 

2017-09-29 19:15:19,#P#, 38, 30400000, 18, 0 

2017-09-29 19:15:19,#P#, 37, 29600000, 19, 0 

2017-09-29 19:15:19,#P#, 38, 30400000, 20, 0 

2017-09-29 19:15:19,#P#, 38, 30400000, 21, 0 

2017-09-29 19:15:19,#P#, 38, 30400000, 22, 0 

2017-09-29 19:15:19,#P#, 37, 29600000, 23, 0 

2017-09-29 19:15:19,#P#, 38, 30400000, 24, 0 

2017-09-29 19:15:19,#P#, 38, 30400000, 25, 0 

2017-09-29 19:15:19,#P#, 37, 29600000, 26, 0 

2017-09-29 19:15:19,#P#, 37, 29600000, 27, 0 

2017-09-29 19:15:19,#P#, 37, 29600000, 28, 0 

2017-09-29 19:15:19,#P#, 37, 29600000, 29, 0 

2017-09-29 19:15:19,#P#, 37, 29600000, 30, 0 

2017-09-29 19:15:19,#P#, 37, 29600000, 31, 0 

2017-09-29 19:15:19,#P#, 36, 28800000, 32, 0 

2017-09-29 19:15:19,#P#, 38, 30400000, 33, 0 

2017-09-29 19:15:19,#P#, 38, 30400000, 34, 0 

2017-09-29 19:15:19,#P#, 38, 30400000, 35, 0 

2017-09-29 19:15:19,#P#, 37, 29600000, 36, 0 

2017-09-29 19:15:19,#P#, 38, 30400000, 37, 0 

2017-09-29 19:15:19,#P#, 38, 30400000, 38, 0 

2017-09-29 19:15:19,#P#, 37, 29600000, 39, 0 

2017-09-29 19:15:19,#P#, 37, 29600000, 40, 0 

2017-09-29 19:15:19,#P#, 37, 29600000, 41, 0 

2017-09-29 19:15:19,#P#, 38, 30400000, 42, 0 

2017-09-29 19:15:19,#P#, 37, 29600000, 43, 0 

2017-09-29 19:15:19,#P#, 37, 29600000, 44, 0 

2017-09-29 19:15:19,#P#, 37, 29600000, 45, 0 

2017-09-29 19:15:19,#P#, 37, 29600000, 46, 0 

2017-09-29 19:15:19,#P#, 38, 30400000, 47, 0 

2017-09-29 19:15:19,#P#, 38, 30400000, 48, 0 

2017-09-29 19:15:19,#P#, 39, 31200000, 49, 0 

2017-09-29 19:15:19,#P#, 37, 29600000, 50, 0 

2017-09-29 19:15:19,#P#, 39, 31200000, 51, 0 

2017-09-29 19:15:19,#P#, 38, 30400000, 52, 0 

2017-09-29 19:15:19,#P#, 39, 31200000, 53, 0 

2017-09-29 19:15:19,#P#, 38, 30400000, 54, 0 

2017-09-29 19:15:19,#P#, 38, 30400000, 55, 0 

2017-09-29 19:15:19,#P#, 39, 31200000, 56, 0 

2017-09-29 19:15:19,#P#, 37, 29600000, 57, 0 

2017-09-29 19:15:19,#P#, 37, 29600000, 58, 0 

2017-09-29 19:15:19,#P#, 37, 29600000, 59, 0 

2017-09-29 19:15:19,#P#, 38, 30400000, 60, 0 

2017-09-29 19:15:19,#P#, 38, 30400000, 61, 0 

2017-09-29 19:15:19,#P#, 38, 30400000, 62, 0 

2017-09-29 19:15:19,#P#, 38, 30400000, 63, 0 

2017-09-29 19:15:19,#P#, 38, 30400000, 64, 0 

2017-09-29 19:15:19,#P#, 37, 29600000, 65, 0 

2017-09-29 19:15:19,#P#, 37, 29600000, 66, 0 

2017-09-29 19:15:19,#P#, 37, 29600000, 67, 0 

2017-09-29 19:15:19,#P#, 39, 31200000, 68, 0 

2017-09-29 19:15:19,#P#, 37, 29600000, 69, 0 

2017-09-29 19:15:19,#P#, 38, 30400000, 70, 0 

2017-09-29 19:15:19,#P#, 37, 29600000, 71, 0 

2017-09-29 19:15:19,#P#, 36, 28800000, 72, 0 

2017-09-29 19:15:19,#P#, 38, 30400000, 73, 0 

2017-09-29 19:15:19,#P#, 39, 31200000, 74, 0 

2017-09-29 19:15:19,#P#, 37, 29600000, 75, 0 

2017-09-29 19:15:19,#P#, 39, 31200000, 76, 0 

2017-09-29 19:15:19,#P#, 38, 30400000, 77, 0 

2017-09-29 19:15:19,#P#, 38, 30400000, 78, 0 

2017-09-29 19:15:19,#P#, 38, 30400000, 79, 0 

2017-09-29 19:15:19,#P#, 39, 31200000, 80, 0 

2017-09-29 19:15:19,#P#, 37, 29600000, 81, 0 

2017-09-29 19:15:19,#P#, 37, 29600000, 82, 0 

2017-09-29 19:15:19,#P#, 37, 29600000, 83, 0 

2017-09-29 19:15:19,#P#, 38, 30400000, 84, 0 

2017-09-29 19:15:19,#P#, 39, 31200000, 85, 0 

2017-09-29 19:15:19,#P#, 38, 30400000, 86, 0 

2017-09-29 19:15:19,#P#, 37, 29600000, 87, 0 

2017-09-29 19:15:19,#P#, 37, 29600000, 88, 0 

2017-09-29 19:15:19,#P#, 37, 29600000, 89, 0 

2017-09-29 19:15:19,#P#, 37, 29600000, 90, 0 

2017-09-29 19:15:19,#P#, 38, 30400000, 91, 0 

2017-09-29 19:15:19,#P#, 39, 31200000, 92, 0 

2017-09-29 19:15:19,#P#, 38, 30400000, 93, 0 

2017-09-29 19:15:19,#P#, 37, 29600000, 94, 0 

2017-09-29 19:15:19,#P#, 38, 30400000, 95, 0 

2017-09-29 19:15:19,#P#, 37, 29600000, 96, 0 

2017-09-29 19:15:19,#P#, 37, 29600000, 97, 0 

2017-09-29 19:15:19,#P#, 38, 30400000, 98, 0 

2017-09-29 19:15:19,#P#, 37, 29600000, 99, 0 

2017-09-29 19:15:19,#P#, 38, 30400000, 100, 0 

2017-09-29 19:15:19,#P#, 38, 30400000, 101, 0 

2017-09-29 19:15:19,#P#, 39, 31200000, 102, 0 

2017-09-29 19:15:19,#P#, 37, 29600000, 103, 0 

2017-09-29 19:15:19,#P#, 37, 29600000, 104, 0 

2017-09-29 19:15:19,#P#, 37, 29600000, 105, 0 

2017-09-29 19:15:19,#P#, 38, 30400000, 106, 0 

2017-09-29 19:15:19,#P#, 37, 29600000, 107, 0 

2017-09-29 19:15:19,#P#, 37, 29600000, 108, 0 

2017-09-29 19:15:19,#P#, 38, 30400000, 109, 0 

2017-09-29 19:15:19,#P#, 38, 30400000, 110, 0 

2017-09-29 19:15:19,#P#, 37, 29600000, 111, 0 

2017-09-29 19:15:19,#P#, 37, 29600000, 112, 0 

2017-09-29 19:15:19,#P#, 38, 30400000, 113, 0 

2017-09-29 19:15:19,#P#, 37, 29600000, 114, 0 

2017-09-29 19:15:19,#P#, 37, 29600000, 115, 0 

2017-09-29 19:15:19,#P#, 37, 29600000, 116, 0 

2017-09-29 19:15:19,#P#, 38, 30400000, 117, 0 

2017-09-29 19:15:19,#P#, 38, 30400000, 118, 0 

2017-09-29 19:15:19,#P#, 37, 29600000, 119, 0 

2017-09-29 19:15:19,#P#, 38, 30400000, 120, 0 

2017-09-29 19:15:19,#P#, 37, 29600000, 121, 0 

2017-09-29 19:15:20,#P#, 37, 29600000, 122, 0 

2017-09-29 19:15:20,#P#, 38, 30400000, 123, 0 

2017-09-29 19:15:20,#P#, 38, 30400000, 124, 0 

2017-09-29 19:15:20,#P#, 38, 30400000, 125, 0 

2017-09-29 19:15:20,#P#, 37, 29600000, 126, 0 

2017-09-29 19:15:20,#P#, 38, 30400000, 127, 0 

2017-09-29 19:15:20,#P#, 38, 30400000, 128, 0 

2017-09-29 19:15:20,#P#, 37, 29600000, 129, 0 

2017-09-29 19:15:20,#P#, 37, 29600000, 130, 0 

2017-09-29 19:15:20,#P#, 37, 29600000, 131, 0 

2017-09-29 19:15:20,#P#, 38, 30400000, 132, 0 

2017-09-29 19:15:20,#P#, 39, 31200000, 133, 0 

2017-09-29 19:15:20,#P#, 38, 30400000, 134, 0 

2017-09-29 19:15:20,#P#, 37, 29600000, 135, 0 

2017-09-29 19:15:20,#P#, 38, 30400000, 136, 0 

2017-09-29 19:15:20,#P#, 37, 29600000, 137, 0 

2017-09-29 19:15:20,#P#, 38, 30400000, 138, 0 

2017-09-29 19:15:20,#P#, 38, 30400000, 139, 0 

2017-09-29 19:15:20,#P#, 38, 30400000, 140, 0 

2017-09-29 19:15:20,#P#, 38, 30400000, 141, 0 

2017-09-29 19:15:20,#P#, 37, 29600000, 142, 0 

2017-09-29 19:15:20,#P#, 38, 30400000, 143, 0 

2017-09-29 19:15:20,#P#, 37, 29600000, 144, 0 

2017-09-29 19:15:20,#P#, 38, 30400000, 145, 0 

2017-09-29 19:15:20,#P#, 37, 29600000, 146, 0 

2017-09-29 19:15:20,#P#, 39, 31200000, 147, 0 

2017-09-29 19:15:20,#P#, 38, 30400000, 148, 0 

2017-09-29 19:15:20,#P#, 38, 30400000, 149, 0 

2017-09-29 19:15:20,#P#, 37, 29600000, 150, 0 

2017-09-29 19:15:20,#P#, 38, 30400000, 151, 0 

2017-09-29 19:15:20,#P#, 38, 30400000, 152, 0 

2017-09-29 19:15:20,#P#, 38, 30400000, 153, 0 

2017-09-29 19:15:20,#P#, 37, 29600000, 154, 0 

2017-09-29 19:15:20,#P#, 37, 29600000, 155, 0 

2017-09-29 19:15:20,#P#, 37, 29600000, 156, 0 

2017-09-29 19:15:20,#P#, 38, 30400000, 157, 0 

2017-09-29 19:15:20,#P#, 37, 29600000, 158, 0 

2017-09-29 19:15:20,#P#, 38, 30400000, 159, 0 

2017-09-29 19:15:20,#P#, 37, 29600000, 160, 0 

2017-09-29 19:15:20,#P#, 37, 29600000, 161, 0 

2017-09-29 19:15:20,#P#, 38, 30400000, 162, 0 

2017-09-29 19:15:20,#P#, 38, 30400000, 163, 0 

2017-09-29 19:15:20,#P#, 38, 30400000, 164, 0 

2017-09-29 19:15:20,#P#, 38, 30400000, 165, 0 

2017-09-29 19:15:20,#P#, 38, 30400000, 166, 0 

2017-09-29 19:15:20,#P#, 37, 29600000, 167, 0 

2017-09-29 19:15:20,#P#, 38, 30400000, 168, 0 

2017-09-29 19:15:20,#P#, 37, 29600000, 169, 0 

2017-09-29 19:15:20,#P#, 37, 29600000, 170, 0 

2017-09-29 19:15:20,#P#, 38, 30400000, 171, 0 

2017-09-29 19:15:20,#P#, 37, 29600000, 172, 0 

2017-09-29 19:15:20,#P#, 39, 31200000, 173, 0 

2017-09-29 19:15:20,#P#, 38, 30400000, 174, 0 

2017-09-29 19:15:20,#P#, 38, 30400000, 175, 0 

2017-09-29 19:15:20,#P#, 38, 30400000, 176, 0 

2017-09-29 19:15:20,#P#, 38, 30400000, 177, 0 

2017-09-29 19:15:20,#P#, 38, 30400000, 178, 0 

2017-09-29 19:15:20,#P#, 37, 29600000, 179, 0 

2017-09-29 19:15:20,#P#, 37, 29600000, 180, 0 

2017-09-29 19:15:20,#P#, 37, 29600000, 181, 0 

2017-09-29 19:15:20,#P#, 38, 30400000, 182, 0 

2017-09-29 19:15:20,#P#, 38, 30400000, 183, 0 

2017-09-29 19:15:20,#P#, 38, 30400000, 184, 0 

2017-09-29 19:15:20,#P#, 37, 29600000, 185, 0 

2017-09-29 19:15:20,#P#, 38, 30400000, 186, 0 

2017-09-29 19:15:20,#P#, 38, 30400000, 187, 0 

2017-09-29 19:15:20,#P#, 37, 29600000, 188, 0 

2017-09-29 19:15:20,#P#, 38, 30400000, 189, 0 

2017-09-29 19:15:20,#P#, 38, 30400000, 190, 0 

2017-09-29 19:15:20,#P#, 39, 31200000, 191, 0 

2017-09-29 19:15:20,#P#, 38, 30400000, 192, 0 

2017-09-29 19:15:20,#P#, 37, 29600000, 193, 0 

2017-09-29 19:15:20,#P#, 38, 30400000, 194, 0 

2017-09-29 19:15:20,#P#, 38, 30400000, 195, 0 

2017-09-29 19:15:20,#P#, 37, 29600000, 196, 0 

2017-09-29 19:15:20,#P#, 37, 29600000, 197, 0 

2017-09-29 19:15:20,#P#, 37, 29600000, 198, 0 

2017-09-29 19:15:20,#P#, 37, 29600000, 199, 0 

2017-09-29 19:15:20,*******DONE*******#

Exiting PsocAmPreRad
#E0E01001A0A00IS_RAMP .

2017-09-29 19:15:22, 45,:e,:1,:0,:1a,:a,:0 @

2017-09-29 19:15:22,*SeqNo,Samples,DAC_Cnt,BGapReg,GainReg,AM_VCal,BGO,Isense0,Isense1

2017-09-29 19:15:23,
2017-09-29 19:15:24,#E#,0,10,0,519,0,0,0,150,155

2017-09-29 19:15:25,
2017-09-29 19:15:25,#E#,1,10,0,519,0,0,0,150,155

2017-09-29 19:15:26,
2017-09-29 19:15:26,#E#,2,10,0,520,0,0,0,150,155

2017-09-29 19:15:27,
2017-09-29 19:15:27,#E#,3,10,0,520,0,0,0,150,155

2017-09-29 19:15:28,
2017-09-29 19:15:28,#E#,4,10,603,519,0,27,2472,150,155

2017-09-29 19:15:29,
2017-09-29 19:15:29,#E#,5,10,603,520,0,27,2472,150,155

2017-09-29 19:15:30,
2017-09-29 19:15:30,#E#,6,10,603,520,0,27,2472,150,155

2017-09-29 19:15:31,
2017-09-29 19:15:31,#E#,7,10,603,520,0,27,2472,150,155

2017-09-29 19:15:32,
2017-09-29 19:15:32,#E#,8,10,603,520,0,27,2472,150,155

2017-09-29 19:15:33,
2017-09-29 19:15:33,#E#,9,10,0,519,0,0,0,150,155

2017-09-29 19:15:34,
2017-09-29 19:15:34,#E#,10,10,0,520,0,0,0,150,155

2017-09-29 19:15:35,
2017-09-29 19:15:35,#E#,11,10,0,520,0,0,0,150,155

2017-09-29 19:15:36,
2017-09-29 19:15:36,#E#,12,10,0,519,0,0,0,150,155

2017-09-29 19:15:37,
2017-09-29 19:15:37,#E#,13,10,0,519,0,0,0,150,155

2017-09-29 19:15:38,
2017-09-29 19:15:38,#E#,14,10,603,519,0,27,2472,150,155

2017-09-29 19:15:39,
2017-09-29 19:15:39,#E#,15,10,603,520,0,27,2472,150,155

2017-09-29 19:15:40,
2017-09-29 19:15:40,#E#,16,10,603,520,0,27,2472,150,155

2017-09-29 19:15:41,
2017-09-29 19:15:41,#E#,17,10,603,519,0,27,2472,150,155

2017-09-29 19:15:42,
2017-09-29 19:15:42,#E#,18,10,603,519,0,27,2472,150,155

2017-09-29 19:15:43,
2017-09-29 19:15:43,#E#,19,10,0,519,0,0,0,150,155

2017-09-29 19:15:44,
2017-09-29 19:15:45,#E#,20,10,0,520,0,0,0,150,155

2017-09-29 19:15:46,
2017-09-29 19:15:46,#E#,21,10,0,519,0,0,0,150,155

2017-09-29 19:15:47,
2017-09-29 19:15:47,#E#,22,10,0,519,0,0,0,150,155

2017-09-29 19:15:48,
2017-09-29 19:15:48,#E#,23,10,0,519,0,0,0,150,155

2017-09-29 19:15:49,
2017-09-29 19:15:49,#E#,24,10,603,519,0,27,2472,150,155

2017-09-29 19:15:50,
2017-09-29 19:15:50,#E#,25,10,603,519,0,27,2472,150,155

2017-09-29 19:15:51,
2017-09-29 19:15:51,#E#,26,10,603,520,0,27,2472,150,155

2017-09-29 19:15:52,
2017-09-29 19:15:52,#E#,27,10,603,520,0,27,2472,150,155

2017-09-29 19:15:53,
2017-09-29 19:15:53,#E#,28,10,603,520,0,27,2472,150,155

2017-09-29 19:15:54,
2017-09-29 19:15:54,#E#,29,10,0,519,0,0,0,150,155

2017-09-29 19:15:55,
2017-09-29 19:15:55,#E#,30,10,0,520,0,0,0,150,155

2017-09-29 19:15:56,
2017-09-29 19:15:56,#E#,31,10,0,519,0,0,0,150,155

2017-09-29 19:15:57,
2017-09-29 19:15:57,#E#,32,10,0,520,0,0,0,150,155

2017-09-29 19:15:58,
2017-09-29 19:15:58,#E#,33,10,0,519,0,0,0,150,155

2017-09-29 19:15:59,
2017-09-29 19:15:59,#E#,34,10,603,519,0,27,2472,150,155

2017-09-29 19:16:00,
2017-09-29 19:16:00,#E#,35,10,603,520,0,27,2472,150,155

2017-09-29 19:16:01,
2017-09-29 19:16:01,#E#,36,10,603,519,0,27,2472,150,155

2017-09-29 19:16:02,
2017-09-29 19:16:02,#E#,37,10,603,519,0,27,2472,150,155

2017-09-29 19:16:03,
2017-09-29 19:16:03,#E#,38,10,603,519,0,27,2472,150,155

2017-09-29 19:16:04,
2017-09-29 19:16:04,#E#,39,10,0,519,0,0,0,150,155

2017-09-29 19:16:05,
2017-09-29 19:16:06,#E#,40,10,0,519,0,0,0,150,155

2017-09-29 19:16:07,
2017-09-29 19:16:07,#E#,41,10,0,519,0,0,0,150,155

2017-09-29 19:16:08,
2017-09-29 19:16:08,#E#,42,10,0,519,0,0,0,150,155

2017-09-29 19:16:09,
2017-09-29 19:16:09,#E#,43,10,0,519,0,0,0,150,155

2017-09-29 19:16:10,
2017-09-29 19:16:10,#E#,44,10,603,519,0,27,2472,150,155

2017-09-29 19:16:11,
2017-09-29 19:16:11,#E#,45,10,603,519,0,27,2472,150,155

2017-09-29 19:16:12,
2017-09-29 19:16:12,#E#,46,10,603,519,0,27,2472,150,155

2017-09-29 19:16:13,
2017-09-29 19:16:13,#E#,47,10,603,519,0,27,2472,150,155

2017-09-29 19:16:14,
2017-09-29 19:16:14,#E#,48,10,603,519,0,27,2472,150,155

2017-09-29 19:16:15,
2017-09-29 19:16:15,#E#,49,10,0,518,0,0,0,150,155

2017-09-29 19:16:16,
2017-09-29 19:16:16,#E#,50,10,0,519,0,0,0,150,155

2017-09-29 19:16:17,
2017-09-29 19:16:17,#E#,51,10,0,519,0,0,0,150,155

2017-09-29 19:16:18,
2017-09-29 19:16:18,#E#,52,10,0,519,0,0,0,150,155

2017-09-29 19:16:19,
2017-09-29 19:16:19,#E#,53,10,0,519,0,0,0,150,155

2017-09-29 19:16:20,
2017-09-29 19:16:20,#E#,54,10,603,520,0,27,2472,150,155

2017-09-29 19:16:21,
2017-09-29 19:16:21,#E#,55,10,603,520,0,27,2472,150,155

2017-09-29 19:16:22,
2017-09-29 19:16:22,#E#,56,10,603,519,0,27,2472,150,155

2017-09-29 19:16:23,
2017-09-29 19:16:23,#E#,57,10,603,519,0,27,2472,150,155

2017-09-29 19:16:24,
2017-09-29 19:16:24,#E#,58,10,603,519,0,27,2472,150,155

2017-09-29 19:16:25,
2017-09-29 19:16:25,#E#,59,10,0,519,0,0,0,150,155

2017-09-29 19:16:26,
2017-09-29 19:16:27,#E#,60,10,0,519,0,0,0,150,155

2017-09-29 19:16:28,
2017-09-29 19:16:28,#E#,61,10,0,519,0,0,0,150,155

2017-09-29 19:16:29,
2017-09-29 19:16:29,#E#,62,10,0,519,0,0,0,150,155

2017-09-29 19:16:30,
2017-09-29 19:16:30,#E#,63,10,603,520,0,27,2472,150,155

2017-09-29 19:16:31,
2017-09-29 19:16:31,#E#,64,10,603,519,0,27,2472,150,155

2017-09-29 19:16:32,
2017-09-29 19:16:32,#E#,65,10,603,519,0,27,2472,150,155

2017-09-29 19:16:33,
2017-09-29 19:16:33,#E#,66,10,603,519,0,27,2472,150,155

2017-09-29 19:16:34,
2017-09-29 19:16:34,#E#,67,10,603,519,0,27,2472,150,155

2017-09-29 19:16:35,
2017-09-29 19:16:35,#E#,68,10,0,519,0,0,0,150,155

2017-09-29 19:16:36,
2017-09-29 19:16:36,#E#,69,10,0,519,0,0,0,150,155

2017-09-29 19:16:37,
2017-09-29 19:16:37,#E#,70,10,0,519,0,0,0,150,155

2017-09-29 19:16:38,
2017-09-29 19:16:38,#E#,71,10,0,519,0,0,0,150,155

2017-09-29 19:16:39,
2017-09-29 19:16:39,#E#,72,10,0,519,0,0,0,150,155

2017-09-29 19:16:40,
2017-09-29 19:16:40,#E#,73,10,603,519,0,27,2472,150,155

2017-09-29 19:16:41,
2017-09-29 19:16:41,#E#,74,10,603,519,0,27,2472,150,155

2017-09-29 19:16:42,
2017-09-29 19:16:42,#E#,75,10,603,520,0,27,2472,150,155

2017-09-29 19:16:43,
2017-09-29 19:16:43,#E#,76,10,603,520,0,27,2472,150,155

2017-09-29 19:16:44,
2017-09-29 19:16:44,#E#,77,10,603,520,0,27,2472,150,155

2017-09-29 19:16:45,
2017-09-29 19:16:45,#E#,78,10,0,519,0,0,0,150,155

2017-09-29 19:16:46,
2017-09-29 19:16:46,#E#,79,10,0,519,0,0,0,150,155

2017-09-29 19:16:47,
2017-09-29 19:16:48,#E#,80,10,0,519,0,0,0,150,155

2017-09-29 19:16:49,
2017-09-29 19:16:49,#E#,81,10,0,519,0,0,0,150,155

2017-09-29 19:16:50,
2017-09-29 19:16:50,#E#,82,10,0,520,0,0,0,150,155

2017-09-29 19:16:51,
2017-09-29 19:16:51,#E#,83,10,603,519,0,27,2472,150,155

2017-09-29 19:16:52,
2017-09-29 19:16:52,#E#,84,10,603,519,0,27,2472,150,155

2017-09-29 19:16:53,
2017-09-29 19:16:53,#E#,85,10,603,519,0,27,2472,150,155

2017-09-29 19:16:54,
2017-09-29 19:16:54,#E#,86,10,603,519,0,27,2472,150,155

2017-09-29 19:16:55,
2017-09-29 19:16:55,#E#,87,10,603,519,0,27,2472,150,155

2017-09-29 19:16:56,
2017-09-29 19:16:56,#E#,88,10,0,519,0,0,0,150,155

2017-09-29 19:16:57,
2017-09-29 19:16:57,#E#,89,10,0,520,0,0,0,150,155

2017-09-29 19:16:58,
2017-09-29 19:16:58,#E#,90,10,0,519,0,0,0,150,155

2017-09-29 19:16:59,
2017-09-29 19:16:59,#E#,91,10,0,520,0,0,0,150,155

2017-09-29 19:17:00,
2017-09-29 19:17:00,#E#,92,10,0,520,0,0,0,150,155

2017-09-29 19:17:01,
2017-09-29 19:17:01,#E#,93,10,603,519,0,27,2472,150,155

2017-09-29 19:17:02,
2017-09-29 19:17:02,#E#,94,10,603,519,0,27,2472,150,155

2017-09-29 19:17:03,
2017-09-29 19:17:03,#E#,95,10,603,519,0,27,2472,150,155

2017-09-29 19:17:04,
2017-09-29 19:17:04,#E#,96,10,603,519,0,27,2472,150,155

2017-09-29 19:17:05,
2017-09-29 19:17:05,#E#,97,10,603,520,0,27,2472,150,155

2017-09-29 19:17:06,
2017-09-29 19:17:06,#E#,98,10,0,520,0,0,0,150,155

2017-09-29 19:17:07,
2017-09-29 19:17:07,#E#,99,10,0,519,0,0,0,150,155

2017-09-29 19:17:09,
2017-09-29 19:17:09,#E#,0,10,0,519,11,0,0,190,199

2017-09-29 19:17:10,
2017-09-29 19:17:10,#E#,1,10,0,519,11,0,0,190,199

2017-09-29 19:17:11,
2017-09-29 19:17:11,#E#,2,10,0,519,11,0,0,190,199

2017-09-29 19:17:12,
2017-09-29 19:17:12,#E#,3,10,603,519,11,58,2441,190,199

2017-09-29 19:17:13,
2017-09-29 19:17:13,#E#,4,10,603,519,11,58,2441,190,199

2017-09-29 19:17:14,
2017-09-29 19:17:14,#E#,5,10,603,519,11,58,2441,190,199

2017-09-29 19:17:15,
2017-09-29 19:17:15,#E#,6,10,603,519,11,58,2441,190,199

2017-09-29 19:17:16,
2017-09-29 19:17:16,#E#,7,10,603,519,11,58,2441,190,199

2017-09-29 19:17:17,
2017-09-29 19:17:17,#E#,8,10,0,520,11,0,0,190,195

2017-09-29 19:17:18,
2017-09-29 19:17:18,#E#,9,10,0,519,11,0,0,190,199

2017-09-29 19:17:19,
2017-09-29 19:17:19,#E#,10,10,0,519,11,0,0,190,195

2017-09-29 19:17:20,
2017-09-29 19:17:20,#E#,11,10,0,519,11,0,0,190,195

2017-09-29 19:17:21,
2017-09-29 19:17:21,#E#,12,10,0,519,11,0,0,190,195

2017-09-29 19:17:22,
2017-09-29 19:17:22,#E#,13,10,603,519,11,58,2441,194,199

2017-09-29 19:17:23,
2017-09-29 19:17:23,#E#,14,10,603,519,11,58,2441,190,199

2017-09-29 19:17:24,
2017-09-29 19:17:24,#E#,15,10,603,519,11,57,2441,190,199

2017-09-29 19:17:25,
2017-09-29 19:17:25,#E#,16,10,603,519,11,57,2441,190,199

2017-09-29 19:17:26,
2017-09-29 19:17:27,#E#,17,10,603,519,11,57,2441,190,199

2017-09-29 19:17:28,
2017-09-29 19:17:28,#E#,18,10,0,519,11,0,0,186,195

2017-09-29 19:17:29,
2017-09-29 19:17:29,#E#,19,10,0,519,11,0,0,186,199

2017-09-29 19:17:30,
2017-09-29 19:17:30,#E#,20,10,0,520,11,0,0,190,195

2017-09-29 19:17:31,
2017-09-29 19:17:31,#E#,21,10,0,519,11,0,0,186,195

2017-09-29 19:17:32,
2017-09-29 19:17:32,#E#,22,10,0,519,11,0,0,186,195

2017-09-29 19:17:33,
2017-09-29 19:17:33,#E#,23,10,603,519,11,57,2442,190,199

2017-09-29 19:17:34,
2017-09-29 19:17:34,#E#,24,10,603,519,11,57,2442,186,199

2017-09-29 19:17:35,
2017-09-29 19:17:35,#E#,25,10,603,519,11,57,2442,190,199

2017-09-29 19:17:36,
2017-09-29 19:17:36,#E#,26,10,603,519,11,57,2442,190,199

2017-09-29 19:17:37,
2017-09-29 19:17:37,#E#,27,10,0,519,11,0,0,186,195

2017-09-29 19:17:38,
2017-09-29 19:17:38,#E#,28,10,0,519,11,0,0,186,195

2017-09-29 19:17:39,
2017-09-29 19:17:39,#E#,29,10,0,519,11,0,0,186,195

2017-09-29 19:17:40,
2017-09-29 19:17:40,#E#,30,10,0,519,11,0,0,182,195

2017-09-29 19:17:41,
2017-09-29 19:17:41,#E#,31,10,0,519,11,0,0,186,195

2017-09-29 19:17:42,
2017-09-29 19:17:42,#E#,32,10,603,519,11,57,2442,186,195

2017-09-29 19:17:43,
2017-09-29 19:17:43,#E#,33,10,603,519,11,57,2442,186,195

2017-09-29 19:17:44,
2017-09-29 19:17:45,#E#,34,10,603,520,11,57,2442,186,195

2017-09-29 19:17:46,
2017-09-29 19:17:46,#E#,35,10,603,520,11,57,2442,190,195

2017-09-29 19:17:47,
2017-09-29 19:17:47,#E#,36,10,603,520,11,57,2442,190,195

2017-09-29 19:17:48,
2017-09-29 19:17:48,#E#,37,10,0,520,11,0,0,186,191

2017-09-29 19:17:49,
2017-09-29 19:17:49,#E#,38,10,0,519,11,0,0,182,195

2017-09-29 19:17:50,
2017-09-29 19:17:50,#E#,39,10,0,520,11,0,0,186,191

2017-09-29 19:17:51,
2017-09-29 19:17:51,#E#,40,10,0,519,11,0,0,186,191

2017-09-29 19:17:52,
2017-09-29 19:17:53,
2017-09-29 19:17:54,
