#P0E000000C800AM_RdFreq

2017-09-29 14:29:21, 50,:e,:0,:0,:0,:c8,:0 @

2017-09-29 14:29:22,*******Measure Period per Event & Freq in MHz*******

2017-09-29 14:29:22,****Period_cnt , Freq, SeqNo, Status,..........

2017-09-29 14:29:22,#P#, 38, 30400000, 0, 0 

2017-09-29 14:29:22,#P#, 38, 30400000, 1, 0 

2017-09-29 14:29:22,#P#, 38, 30400000, 2, 0 

2017-09-29 14:29:22,#P#, 54, 43200000, 3, 1 

2017-09-29 14:29:22,#P#, 40, 32000000, 4, 1 

2017-09-29 14:29:22,#P#, 38, 30400000, 5, 0 

2017-09-29 14:29:22,#P#, 39, 31200000, 6, 0 

2017-09-29 14:29:22,#P#, 38, 30400000, 7, 0 

2017-09-29 14:29:22,#P#, 39, 31200000, 8, 0 

2017-09-29 14:29:22,#P#, 48, 38400000, 9, 1 

2017-09-29 14:29:22,#P#, 52, 41600000, 10, 1 

2017-09-29 14:29:22,#P#, 38, 30400000, 11, 0 

2017-09-29 14:29:22,#P#, 38, 30400000, 12, 0 

2017-09-29 14:29:22,#P#, 39, 31200000, 13, 0 

2017-09-29 14:29:22,#P#, 52, 41600000, 14, 1 

2017-09-29 14:29:22,#P#, 37, 29600000, 15, 0 

2017-09-29 14:29:22,#P#, 38, 30400000, 16, 0 

2017-09-29 14:29:22,#P#, 40, 32000000, 17, 1 

2017-09-29 14:29:22,#P#, 55, 44000000, 18, 1 

2017-09-29 14:29:22,#P#, 39, 31200000, 19, 0 

2017-09-29 14:29:22,#P#, 43, 34400000, 20, 1 

2017-09-29 14:29:22,#P#, 38, 30400000, 21, 0 

2017-09-29 14:29:22,#P#, 50, 40000000, 22, 1 

2017-09-29 14:29:22,#P#, 41, 32800000, 23, 1 

2017-09-29 14:29:22,#P#, 55, 44000000, 24, 1 

2017-09-29 14:29:22,#P#, 37, 29600000, 25, 0 

2017-09-29 14:29:22,#P#, 38, 30400000, 26, 0 

2017-09-29 14:29:22,#P#, 38, 30400000, 27, 0 

2017-09-29 14:29:22,#P#, 54, 43200000, 28, 1 

2017-09-29 14:29:22,#P#, 45, 36000000, 29, 1 

2017-09-29 14:29:22,#P#, 44, 35200000, 30, 1 

2017-09-29 14:29:22,#P#, 39, 31200000, 31, 0 

2017-09-29 14:29:22,#P#, 54, 43200000, 32, 1 

2017-09-29 14:29:22,#P#, 38, 30400000, 33, 0 

2017-09-29 14:29:22,#P#, 53, 42400000, 34, 1 

2017-09-29 14:29:22,#P#, 39, 31200000, 35, 0 

2017-09-29 14:29:22,#P#, 52, 41600000, 36, 1 

2017-09-29 14:29:22,#P#, 44, 35200000, 37, 1 

2017-09-29 14:29:22,#P#, 44, 35200000, 38, 1 

2017-09-29 14:29:22,#P#, 37, 29600000, 39, 0 

2017-09-29 14:29:22,#P#, 52, 41600000, 40, 1 

2017-09-29 14:29:22,#P#, 51, 40800000, 41, 1 

2017-09-29 14:29:22,#P#, 39, 31200000, 42, 0 

2017-09-29 14:29:22,#P#, 39, 31200000, 43, 0 

2017-09-29 14:29:22,#P#, 46, 36800000, 44, 1 

2017-09-29 14:29:22,#P#, 53, 42400000, 45, 1 

2017-09-29 14:29:22,#P#, 47, 37600000, 46, 1 

2017-09-29 14:29:22,#P#, 38, 30400000, 47, 0 

2017-09-29 14:29:22,#P#, 40, 32000000, 48, 1 

2017-09-29 14:29:22,#P#, 39, 31200000, 49, 0 

2017-09-29 14:29:22,#P#, 55, 44000000, 50, 1 

2017-09-29 14:29:22,#P#, 36, 28800000, 51, 0 

2017-09-29 14:29:22,#P#, 38, 30400000, 52, 0 

2017-09-29 14:29:22,#P#, 38, 30400000, 53, 0 

2017-09-29 14:29:22,#P#, 48, 38400000, 54, 1 

2017-09-29 14:29:22,#P#, 37, 29600000, 55, 0 

2017-09-29 14:29:22,#P#, 38, 30400000, 56, 0 

2017-09-29 14:29:22,#P#, 40, 32000000, 57, 1 

2017-09-29 14:29:22,#P#, 54, 43200000, 58, 1 

2017-09-29 14:29:22,#P#, 37, 29600000, 59, 0 

2017-09-29 14:29:22,#P#, 40, 32000000, 60, 1 

2017-09-29 14:29:22,#P#, 37, 29600000, 61, 0 

2017-09-29 14:29:22,#P#, 52, 41600000, 62, 1 

2017-09-29 14:29:22,#P#, 38, 30400000, 63, 0 

2017-09-29 14:29:22,#P#, 40, 32000000, 64, 1 

2017-09-29 14:29:22,#P#, 38, 30400000, 65, 0 

2017-09-29 14:29:22,#P#, 53, 42400000, 66, 1 

2017-09-29 14:29:22,#P#, 38, 30400000, 67, 0 

2017-09-29 14:29:22,#P#, 38, 30400000, 68, 0 

2017-09-29 14:29:22,#P#, 38, 30400000, 69, 0 

2017-09-29 14:29:22,#P#, 38, 30400000, 70, 0 

2017-09-29 14:29:22,#P#, 39, 31200000, 71, 0 

2017-09-29 14:29:22,#P#, 53, 42400000, 72, 1 

2017-09-29 14:29:22,#P#, 37, 29600000, 73, 0 

2017-09-29 14:29:22,#P#, 40, 32000000, 74, 1 

2017-09-29 14:29:22,#P#, 39, 31200000, 75, 0 

2017-09-29 14:29:22,#P#, 51, 40800000, 76, 1 

2017-09-29 14:29:22,#P#, 38, 30400000, 77, 0 

2017-09-29 14:29:22,#P#, 39, 31200000, 78, 0 

2017-09-29 14:29:22,#P#, 39, 31200000, 79, 0 

2017-09-29 14:29:22,#P#, 45, 36000000, 80, 1 

2017-09-29 14:29:22,#P#, 37, 29600000, 81, 0 

2017-09-29 14:29:22,#P#, 38, 30400000, 82, 0 

2017-09-29 14:29:22,#P#, 39, 31200000, 83, 0 

2017-09-29 14:29:22,#P#, 50, 40000000, 84, 1 

2017-09-29 14:29:22,#P#, 38, 30400000, 85, 0 

2017-09-29 14:29:22,#P#, 39, 31200000, 86, 0 

2017-09-29 14:29:22,#P#, 38, 30400000, 87, 0 

2017-09-29 14:29:22,#P#, 54, 43200000, 88, 1 

2017-09-29 14:29:22,#P#, 43, 34400000, 89, 1 

2017-09-29 14:29:22,#P#, 41, 32800000, 90, 1 

2017-09-29 14:29:22,#P#, 39, 31200000, 91, 0 

2017-09-29 14:29:22,#P#, 47, 37600000, 92, 1 

2017-09-29 14:29:22,#P#, 48, 38400000, 93, 1 

2017-09-29 14:29:22,#P#, 43, 34400000, 94, 1 

2017-09-29 14:29:22,#P#, 37, 29600000, 95, 0 

2017-09-29 14:29:22,#P#, 37, 29600000, 96, 0 

2017-09-29 14:29:23,#P#, 45, 36000000, 97, 1 

2017-09-29 14:29:23,#P#, 41, 32800000, 98, 1 

2017-09-29 14:29:23,#P#, 37, 29600000, 99, 0 

2017-09-29 14:29:23,#P#, 38, 30400000, 100, 0 

2017-09-29 14:29:23,#P#, 54, 43200000, 101, 1 

2017-09-29 14:29:23,#P#, 38, 30400000, 102, 0 

2017-09-29 14:29:23,#P#, 37, 29600000, 103, 0 

2017-09-29 14:29:23,#P#, 53, 42400000, 104, 1 

2017-09-29 14:29:23,#P#, 38, 30400000, 105, 0 

2017-09-29 14:29:23,#P#, 37, 29600000, 106, 0 

2017-09-29 14:29:23,#P#, 52, 41600000, 107, 1 

2017-09-29 14:29:23,#P#, 37, 29600000, 108, 0 

2017-09-29 14:29:23,#P#, 40, 32000000, 109, 1 

2017-09-29 14:29:23,#P#, 47, 37600000, 110, 1 

2017-09-29 14:29:23,#P#, 49, 39200000, 111, 1 

2017-09-29 14:29:23,#P#, 37, 29600000, 112, 0 

2017-09-29 14:29:23,#P#, 48, 38400000, 113, 1 

2017-09-29 14:29:23,#P#, 43, 34400000, 114, 1 

2017-09-29 14:29:23,#P#, 40, 32000000, 115, 1 

2017-09-29 14:29:23,#P#, 37, 29600000, 116, 0 

2017-09-29 14:29:23,#P#, 47, 37600000, 117, 1 

2017-09-29 14:29:23,#P#, 38, 30400000, 118, 0 

2017-09-29 14:29:23,#P#, 37, 29600000, 119, 0 

2017-09-29 14:29:23,#P#, 55, 44000000, 120, 1 

2017-09-29 14:29:23,#P#, 37, 29600000, 121, 0 

2017-09-29 14:29:23,#P#, 38, 30400000, 122, 0 

2017-09-29 14:29:23,#P#, 50, 40000000, 123, 1 

2017-09-29 14:29:23,#P#, 38, 30400000, 124, 0 

2017-09-29 14:29:23,#P#, 38, 30400000, 125, 0 

2017-09-29 14:29:23,#P#, 52, 41600000, 126, 1 

2017-09-29 14:29:23,#P#, 37, 29600000, 127, 0 

2017-09-29 14:29:23,#P#, 38, 30400000, 128, 0 

2017-09-29 14:29:23,#P#, 54, 43200000, 129, 1 

2017-09-29 14:29:23,#P#, 37, 29600000, 130, 0 

2017-09-29 14:29:23,#P#, 38, 30400000, 131, 0 

2017-09-29 14:29:23,#P#, 50, 40000000, 132, 1 

2017-09-29 14:29:23,#P#, 38, 30400000, 133, 0 

2017-09-29 14:29:23,#P#, 39, 31200000, 134, 0 

2017-09-29 14:29:23,#P#, 50, 40000000, 135, 1 

2017-09-29 14:29:23,#P#, 38, 30400000, 136, 0 

2017-09-29 14:29:23,#P#, 38, 30400000, 137, 0 

2017-09-29 14:29:23,#P#, 51, 40800000, 138, 1 

2017-09-29 14:29:23,#P#, 37, 29600000, 139, 0 

2017-09-29 14:29:23,#P#, 38, 30400000, 140, 0 

2017-09-29 14:29:23,#P#, 50, 40000000, 141, 1 

2017-09-29 14:29:23,#P#, 38, 30400000, 142, 0 

2017-09-29 14:29:23,#P#, 41, 32800000, 143, 1 

2017-09-29 14:29:23,#P#, 52, 41600000, 144, 1 

2017-09-29 14:29:23,#P#, 51, 40800000, 145, 1 

2017-09-29 14:29:23,#P#, 39, 31200000, 146, 0 

2017-09-29 14:29:23,#P#, 48, 38400000, 147, 1 

2017-09-29 14:29:23,#P#, 41, 32800000, 148, 1 

2017-09-29 14:29:23,#P#, 38, 30400000, 149, 0 

2017-09-29 14:29:23,#P#, 48, 38400000, 150, 1 

2017-09-29 14:29:23,#P#, 41, 32800000, 151, 1 

2017-09-29 14:29:23,#P#, 42, 33600000, 152, 1 

2017-09-29 14:29:23,#P#, 38, 30400000, 153, 0 

2017-09-29 14:29:23,#P#, 49, 39200000, 154, 1 

2017-09-29 14:29:23,#P#, 41, 32800000, 155, 1 

2017-09-29 14:29:23,#P#, 43, 34400000, 156, 1 

2017-09-29 14:29:23,#P#, 45, 36000000, 157, 1 

2017-09-29 14:29:23,#P#, 45, 36000000, 158, 1 

2017-09-29 14:29:23,#P#, 47, 37600000, 159, 1 

2017-09-29 14:29:23,#P#, 37, 29600000, 160, 0 

2017-09-29 14:29:23,#P#, 40, 32000000, 161, 1 

2017-09-29 14:29:23,#P#, 47, 37600000, 162, 1 

2017-09-29 14:29:23,#P#, 52, 41600000, 163, 1 

2017-09-29 14:29:23,#P#, 38, 30400000, 164, 0 

2017-09-29 14:29:23,#P#, 47, 37600000, 165, 1 

2017-09-29 14:29:23,#P#, 46, 36800000, 166, 1 

2017-09-29 14:29:23,#P#, 39, 31200000, 167, 0 

2017-09-29 14:29:23,#P#, 50, 40000000, 168, 1 

2017-09-29 14:29:23,#P#, 44, 35200000, 169, 1 

2017-09-29 14:29:23,#P#, 43, 34400000, 170, 1 

2017-09-29 14:29:23,#P#, 44, 35200000, 171, 1 

2017-09-29 14:29:23,#P#, 55, 44000000, 172, 1 

2017-09-29 14:29:23,#P#, 42, 33600000, 173, 1 

2017-09-29 14:29:23,#P#, 49, 39200000, 174, 1 

2017-09-29 14:29:23,#P#, 50, 40000000, 175, 1 

2017-09-29 14:29:23,#P#, 48, 38400000, 176, 1 

2017-09-29 14:29:23,#P#, 42, 33600000, 177, 1 

2017-09-29 14:29:23,#P#, 46, 36800000, 178, 1 

2017-09-29 14:29:23,#P#, 42, 33600000, 179, 1 

2017-09-29 14:29:23,#P#, 39, 31200000, 180, 0 

2017-09-29 14:29:23,#P#, 49, 39200000, 181, 1 

2017-09-29 14:29:23,#P#, 41, 32800000, 182, 1 

2017-09-29 14:29:23,#P#, 38, 30400000, 183, 0 

2017-09-29 14:29:23,#P#, 48, 38400000, 184, 1 

2017-09-29 14:29:23,#P#, 51, 40800000, 185, 1 

2017-09-29 14:29:23,#P#, 45, 36000000, 186, 1 

2017-09-29 14:29:23,#P#, 50, 40000000, 187, 1 

2017-09-29 14:29:23,#P#, 40, 32000000, 188, 1 

2017-09-29 14:29:23,#P#, 38, 30400000, 189, 0 

2017-09-29 14:29:23,#P#, 52, 41600000, 190, 1 

2017-09-29 14:29:23,#P#, 39, 31200000, 191, 0 

2017-09-29 14:29:23,#P#, 38, 30400000, 192, 0 

2017-09-29 14:29:23,#P#, 49, 39200000, 193, 1 

2017-09-29 14:29:23,#P#, 38, 30400000, 194, 0 

2017-09-29 14:29:23,#P#, 39, 31200000, 195, 0 

2017-09-29 14:29:23,#P#, 51, 40800000, 196, 1 

2017-09-29 14:29:23,#P#, 38, 30400000, 197, 0 

2017-09-29 14:29:23,#P#, 38, 30400000, 198, 0 

2017-09-29 14:29:23,#P#, 54, 43200000, 199, 1 

2017-09-29 14:29:23,*******DONE*******#

Exiting PsocAmPreRad
#D0E0100340A00AM Ramp .

2017-09-29 14:29:25, 44,:e,:1,:0,:34,:a,:0 @

2017-09-29 14:29:25,*SeqNo,Samples,DAC_Cnt,BGapReg,GainReg,AM_VCal,BGO,Isense0,Isense1

2017-09-29 14:29:25,Vsense,AM_LCh0,AM_RCh0,AM_Rch1,AM_RCh2,AM_LCh3,AM_RCh3

2017-09-29 14:29:26,
2017-09-29 14:29:27,
2017-09-29 14:29:27, Bad AMAC BandGap setting*******DONE*******#

Exiting PsocAmPreRad
#E0E00001A0A00IS_RAMP .

2017-09-29 14:29:29, 45,:e,:0,:0,:1a,:a,:0 @

2017-09-29 14:29:29,*SeqNo,Samples,DAC_Cnt,BGapReg,GainReg,AM_VCal,BGO,Isense0,Isense1

2017-09-29 14:29:30,
2017-09-29 14:29:31,
2017-09-29 14:29:32,
2017-09-29 14:29:33,
2017-09-29 14:29:34,
2017-09-29 14:29:35,
2017-09-29 14:29:36,
2017-09-29 14:29:37,
2017-09-29 14:29:38,
2017-09-29 14:29:39,
2017-09-29 14:29:40,
2017-09-29 14:29:41,
2017-09-29 14:29:42,
2017-09-29 14:29:43,
2017-09-29 14:29:44,
2017-09-29 14:29:45,
2017-09-29 14:29:46,
