#P0E000000C800AM_RdFreq

2017-09-29 14:50:53, 50,:e,:0,:0,:0,:c8,:0 @

2017-09-29 14:50:53,*******Measure Period per Event & Freq in MHz*******

2017-09-29 14:50:53,****Period_cnt , Freq, SeqNo, Status,..........

2017-09-29 14:50:53,#P#, 37, 29600000, 0, 0 

2017-09-29 14:50:53,#P#, 36, 28800000, 1, 0 

2017-09-29 14:50:53,#P#, 39, 31200000, 2, 0 

2017-09-29 14:50:53,#P#, 40, 32000000, 3, 1 

2017-09-29 14:50:53,#P#, 47, 37600000, 4, 1 

2017-09-29 14:50:53,#P#, 37, 29600000, 5, 0 

2017-09-29 14:50:53,#P#, 46, 36800000, 6, 1 

2017-09-29 14:50:53,#P#, 38, 30400000, 7, 0 

2017-09-29 14:50:53,#P#, 39, 31200000, 8, 0 

2017-09-29 14:50:53,#P#, 49, 39200000, 9, 1 

2017-09-29 14:50:53,#P#, 40, 32000000, 10, 1 

2017-09-29 14:50:53,#P#, 37, 29600000, 11, 0 

2017-09-29 14:50:53,#P#, 38, 30400000, 12, 0 

2017-09-29 14:50:53,#P#, 42, 33600000, 13, 1 

2017-09-29 14:50:53,#P#, 44, 35200000, 14, 1 

2017-09-29 14:50:53,#P#, 42, 33600000, 15, 1 

2017-09-29 14:50:53,#P#, 45, 36000000, 16, 1 

2017-09-29 14:50:53,#P#, 38, 30400000, 17, 0 

2017-09-29 14:50:53,#P#, 47, 37600000, 18, 1 

2017-09-29 14:50:53,#P#, 40, 32000000, 19, 1 

2017-09-29 14:50:53,#P#, 49, 39200000, 20, 1 

2017-09-29 14:50:53,#P#, 38, 30400000, 21, 0 

2017-09-29 14:50:53,#P#, 42, 33600000, 22, 1 

2017-09-29 14:50:54,#P#, 47, 37600000, 23, 1 

2017-09-29 14:50:54,#P#, 42, 33600000, 24, 1 

2017-09-29 14:50:54,#P#, 43, 34400000, 25, 1 

2017-09-29 14:50:54,#P#, 40, 32000000, 26, 1 

2017-09-29 14:50:54,#P#, 39, 31200000, 27, 0 

2017-09-29 14:50:54,#P#, 46, 36800000, 28, 1 

2017-09-29 14:50:54,#P#, 40, 32000000, 29, 1 

2017-09-29 14:50:54,#P#, 45, 36000000, 30, 1 

2017-09-29 14:50:54,#P#, 38, 30400000, 31, 0 

2017-09-29 14:50:54,#P#, 49, 39200000, 32, 1 

2017-09-29 14:50:54,#P#, 40, 32000000, 33, 1 

2017-09-29 14:50:54,#P#, 48, 38400000, 34, 1 

2017-09-29 14:50:54,#P#, 39, 31200000, 35, 0 

2017-09-29 14:50:54,#P#, 41, 32800000, 36, 1 

2017-09-29 14:50:54,#P#, 47, 37600000, 37, 1 

2017-09-29 14:50:54,#P#, 42, 33600000, 38, 1 

2017-09-29 14:50:54,#P#, 43, 34400000, 39, 1 

2017-09-29 14:50:54,#P#, 43, 34400000, 40, 1 

2017-09-29 14:50:54,#P#, 46, 36800000, 41, 1 

2017-09-29 14:50:54,#P#, 37, 29600000, 42, 0 

2017-09-29 14:50:54,#P#, 40, 32000000, 43, 1 

2017-09-29 14:50:54,#P#, 45, 36000000, 44, 1 

2017-09-29 14:50:54,#P#, 40, 32000000, 45, 1 

2017-09-29 14:50:54,#P#, 46, 36800000, 46, 1 

2017-09-29 14:50:54,#P#, 37, 29600000, 47, 0 

2017-09-29 14:50:54,#P#, 40, 32000000, 48, 1 

2017-09-29 14:50:54,#P#, 39, 31200000, 49, 0 

2017-09-29 14:50:54,#P#, 44, 35200000, 50, 1 

2017-09-29 14:50:54,#P#, 36, 28800000, 51, 0 

2017-09-29 14:50:54,#P#, 41, 32800000, 52, 1 

2017-09-29 14:50:54,#P#, 40, 32000000, 53, 1 

2017-09-29 14:50:54,#P#, 43, 34400000, 54, 1 

2017-09-29 14:50:54,#P#, 39, 31200000, 55, 0 

2017-09-29 14:50:54,#P#, 49, 39200000, 56, 1 

2017-09-29 14:50:54,#P#, 39, 31200000, 57, 0 

2017-09-29 14:50:54,#P#, 47, 37600000, 58, 1 

2017-09-29 14:50:54,#P#, 40, 32000000, 59, 1 

2017-09-29 14:50:54,#P#, 50, 40000000, 60, 1 

2017-09-29 14:50:54,#P#, 39, 31200000, 61, 0 

2017-09-29 14:50:54,#P#, 43, 34400000, 62, 1 

2017-09-29 14:50:54,#P#, 46, 36800000, 63, 1 

2017-09-29 14:50:54,#P#, 43, 34400000, 64, 1 

2017-09-29 14:50:54,#P#, 41, 32800000, 65, 1 

2017-09-29 14:50:54,#P#, 45, 36000000, 66, 1 

2017-09-29 14:50:54,#P#, 46, 36800000, 67, 1 

2017-09-29 14:50:54,#P#, 37, 29600000, 68, 0 

2017-09-29 14:50:54,#P#, 38, 30400000, 69, 0 

2017-09-29 14:50:54,#P#, 41, 32800000, 70, 1 

2017-09-29 14:50:54,#P#, 40, 32000000, 71, 1 

2017-09-29 14:50:54,#P#, 47, 37600000, 72, 1 

2017-09-29 14:50:54,#P#, 37, 29600000, 73, 0 

2017-09-29 14:50:54,#P#, 39, 31200000, 74, 0 

2017-09-29 14:50:54,#P#, 40, 32000000, 75, 1 

2017-09-29 14:50:54,#P#, 42, 33600000, 76, 1 

2017-09-29 14:50:54,#P#, 37, 29600000, 77, 0 

2017-09-29 14:50:54,#P#, 39, 31200000, 78, 0 

2017-09-29 14:50:54,#P#, 39, 31200000, 79, 0 

2017-09-29 14:50:54,#P#, 41, 32800000, 80, 1 

2017-09-29 14:50:54,#P#, 40, 32000000, 81, 1 

2017-09-29 14:50:54,#P#, 44, 35200000, 82, 1 

2017-09-29 14:50:54,#P#, 38, 30400000, 83, 0 

2017-09-29 14:50:54,#P#, 47, 37600000, 84, 1 

2017-09-29 14:50:54,#P#, 41, 32800000, 85, 1 

2017-09-29 14:50:54,#P#, 50, 40000000, 86, 1 

2017-09-29 14:50:54,#P#, 36, 28800000, 87, 0 

2017-09-29 14:50:54,#P#, 44, 35200000, 88, 1 

2017-09-29 14:50:54,#P#, 43, 34400000, 89, 1 

2017-09-29 14:50:54,#P#, 38, 30400000, 90, 0 

2017-09-29 14:50:54,#P#, 41, 32800000, 91, 1 

2017-09-29 14:50:54,#P#, 40, 32000000, 92, 1 

2017-09-29 14:50:54,#P#, 43, 34400000, 93, 1 

2017-09-29 14:50:54,#P#, 43, 34400000, 94, 1 

2017-09-29 14:50:54,#P#, 40, 32000000, 95, 1 

2017-09-29 14:50:54,#P#, 39, 31200000, 96, 0 

2017-09-29 14:50:54,#P#, 42, 33600000, 97, 1 

2017-09-29 14:50:54,#P#, 49, 39200000, 98, 1 

2017-09-29 14:50:54,#P#, 39, 31200000, 99, 0 

2017-09-29 14:50:54,#P#, 39, 31200000, 100, 0 

2017-09-29 14:50:54,#P#, 45, 36000000, 101, 1 

2017-09-29 14:50:54,#P#, 37, 29600000, 102, 0 

2017-09-29 14:50:54,#P#, 43, 34400000, 103, 1 

2017-09-29 14:50:54,#P#, 45, 36000000, 104, 1 

2017-09-29 14:50:54,#P#, 37, 29600000, 105, 0 

2017-09-29 14:50:54,#P#, 39, 31200000, 106, 0 

2017-09-29 14:50:54,#P#, 46, 36800000, 107, 1 

2017-09-29 14:50:54,#P#, 41, 32800000, 108, 1 

2017-09-29 14:50:54,#P#, 39, 31200000, 109, 0 

2017-09-29 14:50:54,#P#, 44, 35200000, 110, 1 

2017-09-29 14:50:54,#P#, 39, 31200000, 111, 0 

2017-09-29 14:50:54,#P#, 42, 33600000, 112, 1 

2017-09-29 14:50:54,#P#, 45, 36000000, 113, 1 

2017-09-29 14:50:54,#P#, 42, 33600000, 114, 1 

2017-09-29 14:50:54,#P#, 38, 30400000, 115, 0 

2017-09-29 14:50:54,#P#, 43, 34400000, 116, 1 

2017-09-29 14:50:54,#P#, 41, 32800000, 117, 1 

2017-09-29 14:50:54,#P#, 41, 32800000, 118, 1 

2017-09-29 14:50:54,#P#, 36, 28800000, 119, 0 

2017-09-29 14:50:54,#P#, 42, 33600000, 120, 1 

2017-09-29 14:50:54,#P#, 50, 40000000, 121, 1 

2017-09-29 14:50:54,#P#, 41, 32800000, 122, 1 

2017-09-29 14:50:54,#P#, 45, 36000000, 123, 1 

2017-09-29 14:50:54,#P#, 44, 35200000, 124, 1 

2017-09-29 14:50:54,#P#, 39, 31200000, 125, 0 

2017-09-29 14:50:54,#P#, 42, 33600000, 126, 1 

2017-09-29 14:50:54,#P#, 43, 34400000, 127, 1 

2017-09-29 14:50:54,#P#, 37, 29600000, 128, 0 

2017-09-29 14:50:54,#P#, 40, 32000000, 129, 1 

2017-09-29 14:50:54,#P#, 50, 40000000, 130, 1 

2017-09-29 14:50:54,#P#, 37, 29600000, 131, 0 

2017-09-29 14:50:54,#P#, 44, 35200000, 132, 1 

2017-09-29 14:50:54,#P#, 38, 30400000, 133, 0 

2017-09-29 14:50:54,#P#, 40, 32000000, 134, 1 

2017-09-29 14:50:54,#P#, 42, 33600000, 135, 1 

2017-09-29 14:50:54,#P#, 38, 30400000, 136, 0 

2017-09-29 14:50:54,#P#, 45, 36000000, 137, 1 

2017-09-29 14:50:54,#P#, 39, 31200000, 138, 0 

2017-09-29 14:50:54,#P#, 48, 38400000, 139, 1 

2017-09-29 14:50:54,#P#, 38, 30400000, 140, 0 

2017-09-29 14:50:54,#P#, 46, 36800000, 141, 1 

2017-09-29 14:50:54,#P#, 39, 31200000, 142, 0 

2017-09-29 14:50:54,#P#, 39, 31200000, 143, 0 

2017-09-29 14:50:54,#P#, 42, 33600000, 144, 1 

2017-09-29 14:50:54,#P#, 38, 30400000, 145, 0 

2017-09-29 14:50:54,#P#, 40, 32000000, 146, 1 

2017-09-29 14:50:54,#P#, 42, 33600000, 147, 1 

2017-09-29 14:50:54,#P#, 39, 31200000, 148, 0 

2017-09-29 14:50:54,#P#, 38, 30400000, 149, 0 

2017-09-29 14:50:54,#P#, 46, 36800000, 150, 1 

2017-09-29 14:50:54,#P#, 37, 29600000, 151, 0 

2017-09-29 14:50:54,#P#, 37, 29600000, 152, 0 

2017-09-29 14:50:54,#P#, 43, 34400000, 153, 1 

2017-09-29 14:50:54,#P#, 37, 29600000, 154, 0 

2017-09-29 14:50:54,#P#, 40, 32000000, 155, 1 

2017-09-29 14:50:54,#P#, 42, 33600000, 156, 1 

2017-09-29 14:50:54,#P#, 37, 29600000, 157, 0 

2017-09-29 14:50:54,#P#, 40, 32000000, 158, 1 

2017-09-29 14:50:55,#P#, 41, 32800000, 159, 1 

2017-09-29 14:50:55,#P#, 41, 32800000, 160, 1 

2017-09-29 14:50:55,#P#, 38, 30400000, 161, 0 

2017-09-29 14:50:55,#P#, 43, 34400000, 162, 1 

2017-09-29 14:50:55,#P#, 38, 30400000, 163, 0 

2017-09-29 14:50:55,#P#, 39, 31200000, 164, 0 

2017-09-29 14:50:55,#P#, 42, 33600000, 165, 1 

2017-09-29 14:50:55,#P#, 39, 31200000, 166, 0 

2017-09-29 14:50:55,#P#, 40, 32000000, 167, 1 

2017-09-29 14:50:55,#P#, 47, 37600000, 168, 1 

2017-09-29 14:50:55,#P#, 37, 29600000, 169, 0 

2017-09-29 14:50:55,#P#, 38, 30400000, 170, 0 

2017-09-29 14:50:55,#P#, 45, 36000000, 171, 1 

2017-09-29 14:50:55,#P#, 37, 29600000, 172, 0 

2017-09-29 14:50:55,#P#, 41, 32800000, 173, 1 

2017-09-29 14:50:55,#P#, 43, 34400000, 174, 1 

2017-09-29 14:50:55,#P#, 38, 30400000, 175, 0 

2017-09-29 14:50:55,#P#, 38, 30400000, 176, 0 

2017-09-29 14:50:55,#P#, 46, 36800000, 177, 1 

2017-09-29 14:50:55,#P#, 37, 29600000, 178, 0 

2017-09-29 14:50:55,#P#, 38, 30400000, 179, 0 

2017-09-29 14:50:55,#P#, 45, 36000000, 180, 1 

2017-09-29 14:50:55,#P#, 39, 31200000, 181, 0 

2017-09-29 14:50:55,#P#, 44, 35200000, 182, 1 

2017-09-29 14:50:55,#P#, 41, 32800000, 183, 1 

2017-09-29 14:50:55,#P#, 38, 30400000, 184, 0 

2017-09-29 14:50:55,#P#, 39, 31200000, 185, 0 

2017-09-29 14:50:55,#P#, 47, 37600000, 186, 1 

2017-09-29 14:50:55,#P#, 38, 30400000, 187, 0 

2017-09-29 14:50:55,#P#, 37, 29600000, 188, 0 

2017-09-29 14:50:55,#P#, 46, 36800000, 189, 1 

2017-09-29 14:50:55,#P#, 38, 30400000, 190, 0 

2017-09-29 14:50:55,#P#, 42, 33600000, 191, 1 

2017-09-29 14:50:55,#P#, 42, 33600000, 192, 1 

2017-09-29 14:50:55,#P#, 38, 30400000, 193, 0 

2017-09-29 14:50:55,#P#, 41, 32800000, 194, 1 

2017-09-29 14:50:55,#P#, 48, 38400000, 195, 1 

2017-09-29 14:50:55,#P#, 38, 30400000, 196, 0 

2017-09-29 14:50:55,#P#, 40, 32000000, 197, 1 

2017-09-29 14:50:55,#P#, 46, 36800000, 198, 1 

2017-09-29 14:50:55,#P#, 37, 29600000, 199, 0 

2017-09-29 14:50:55,*******DONE*******#

Exiting PsocAmPreRad
#D0E0100340A00AM Ramp .

2017-09-29 14:50:56, 44,:e,:1,:0,:34,:a,:0 @

2017-09-29 14:50:56,*SeqNo,Samples,DAC_Cnt,BGapReg,GainReg,AM_VCal,BGO,Isense0,Isense1

2017-09-29 14:50:56,Vsense,AM_LCh0,AM_RCh0,AM_Rch1,AM_RCh2,AM_LCh3,AM_RCh3

2017-09-29 14:50:57,
2017-09-29 14:50:58,
2017-09-29 14:50:59, Bad AMAC BandGap setting*******DONE*******#

Exiting PsocAmPreRad
#E0E00001A0A00IS_RAMP .

2017-09-29 14:51:00, 45,:e,:0,:0,:1a,:a,:0 @

2017-09-29 14:51:00,*SeqNo,Samples,DAC_Cnt,BGapReg,GainReg,AM_VCal,BGO,Isense0,Isense1

2017-09-29 14:51:01,
2017-09-29 14:51:02,
2017-09-29 14:51:03,
2017-09-29 14:51:04,
2017-09-29 14:51:05,
2017-09-29 14:51:06,
2017-09-29 14:51:07,
2017-09-29 14:51:08,
2017-09-29 14:51:09,
2017-09-29 14:51:10,
