#E0E01001A0200IS_RAMP .

2017-09-29 18:58:25, 45,:e,:1,:0,:1a,:2,:0 @

2017-09-29 18:58:25,*SeqNo,Samples,DAC_Cnt,BGapReg,GainReg,AM_VCal,BGO,Isense0,Isense1

2017-09-29 18:58:26,
2017-09-29 18:58:27,#E#,0,2,0,520,0,0,0,2,3

2017-09-29 18:58:28,#E#,1,2,0,519,0,0,0,2,3

2017-09-29 18:58:29,#E#,2,2,0,520,0,0,0,2,3

2017-09-29 18:58:29,#E#,3,2,0,520,0,0,0,2,3

2017-09-29 18:58:30,#E#,4,2,603,519,0,27,2472,2,3

2017-09-29 18:58:31,#E#,5,2,603,520,0,27,2472,2,3

2017-09-29 18:58:32,#E#,6,2,603,519,0,27,2472,2,3

2017-09-29 18:58:33,#E#,7,2,603,519,0,27,2472,2,3

2017-09-29 18:58:34,#E#,8,2,603,519,0,27,2472,2,3

2017-09-29 18:58:35,#E#,9,2,0,520,0,0,0,2,3

2017-09-29 18:58:36,#E#,10,2,0,519,0,0,0,2,3

2017-09-29 18:58:37,#E#,11,2,0,520,0,0,0,2,3

2017-09-29 18:58:38,#E#,12,2,0,519,0,0,0,2,3

2017-09-29 18:58:39,#E#,13,2,0,520,0,0,0,2,3

2017-09-29 18:58:40,#E#,14,2,603,520,0,27,2472,2,3

2017-09-29 18:58:41,#E#,15,2,603,520,0,27,2472,2,3

2017-09-29 18:58:42,#E#,16,2,603,520,0,27,2472,2,3

2017-09-29 18:58:43,#E#,17,2,603,520,0,27,2472,2,3

2017-09-29 18:58:44,#E#,18,2,603,519,0,27,2472,2,3

2017-09-29 18:58:44,#E#,19,2,0,520,0,0,0,2,3

2017-09-29 18:58:45,#E#,20,2,0,519,0,0,0,2,3

2017-09-29 18:58:46,#E#,21,2,0,519,0,0,0,2,3

2017-09-29 18:58:47,#E#,22,2,0,519,0,0,0,2,3

2017-09-29 18:58:48,#E#,23,2,0,519,0,0,0,2,3

2017-09-29 18:58:49,#E#,24,2,604,519,0,27,2472,2,3

2017-09-29 18:58:50,#E#,25,2,603,519,0,27,2472,2,3

2017-09-29 18:58:51,#E#,26,2,603,519,0,27,2472,2,3

2017-09-29 18:58:52,#E#,27,2,603,519,0,27,2472,2,3

2017-09-29 18:58:53,#E#,28,2,603,519,0,27,2472,2,3

2017-09-29 18:58:54,#E#,29,2,0,519,0,0,0,2,3

2017-09-29 18:58:55,#E#,30,2,0,519,0,0,0,2,3

2017-09-29 18:58:56,#E#,31,2,0,519,0,0,0,2,3

2017-09-29 18:58:57,#E#,32,2,0,520,0,0,0,2,3

2017-09-29 18:58:58,#E#,33,2,0,520,0,0,0,2,3

2017-09-29 18:58:58,#E#,34,2,603,519,0,27,2472,2,3

2017-09-29 18:58:59,#E#,35,2,603,519,0,27,2472,2,3

2017-09-29 18:59:00,#E#,36,2,603,520,0,27,2472,2,3

2017-09-29 18:59:01,#E#,37,2,603,519,0,27,2472,2,3

2017-09-29 18:59:02,#E#,38,2,603,520,0,27,2472,2,3

2017-09-29 18:59:03,#E#,39,2,0,519,0,0,0,2,3

2017-09-29 18:59:04,#E#,40,2,0,519,0,0,0,2,3

2017-09-29 18:59:05,#E#,41,2,0,519,0,0,0,2,3

2017-09-29 18:59:06,#E#,42,2,0,520,0,0,0,2,3

2017-09-29 18:59:07,#E#,43,2,0,520,0,0,0,2,3

2017-09-29 18:59:08,#E#,44,2,604,520,0,27,2472,2,3

2017-09-29 18:59:09,#E#,45,2,604,519,0,27,2472,2,3

2017-09-29 18:59:10,#E#,46,2,603,520,0,27,2472,2,3

2017-09-29 18:59:11,#E#,47,2,603,520,0,27,2472,2,3

2017-09-29 18:59:12,#E#,48,2,604,520,0,27,2472,2,3

2017-09-29 18:59:12,#E#,49,2,0,519,0,0,0,2,3

2017-09-29 18:59:13,#E#,50,2,0,520,0,0,0,2,3

2017-09-29 18:59:14,#E#,51,2,0,520,0,0,0,2,3

2017-09-29 18:59:15,#E#,52,2,0,520,0,0,0,2,3

2017-09-29 18:59:16,#E#,53,2,0,519,0,0,0,2,3

2017-09-29 18:59:17,#E#,54,2,603,520,0,27,2472,2,3

2017-09-29 18:59:18,#E#,55,2,603,519,0,27,2472,2,3

2017-09-29 18:59:19,
2017-09-29 18:59:19,#E#,56,2,603,520,0,27,2472,2,3

2017-09-29 18:59:20,#E#,57,2,603,519,0,27,2472,2,3

2017-09-29 18:59:21,#E#,58,2,603,520,0,27,2472,2,3

2017-09-29 18:59:22,#E#,59,2,0,520,0,0,0,2,3

2017-09-29 18:59:23,#E#,60,2,0,520,0,0,0,2,3

2017-09-29 18:59:24,#E#,61,2,0,519,0,0,0,2,3

2017-09-29 18:59:25,#E#,62,2,0,519,0,0,0,2,3

2017-09-29 18:59:26,#E#,63,2,603,520,0,27,2472,2,3

2017-09-29 18:59:27,#E#,64,2,603,520,0,27,2472,2,3

2017-09-29 18:59:28,#E#,65,2,603,519,0,27,2472,2,3

2017-09-29 18:59:29,
2017-09-29 18:59:30,
2017-09-29 18:59:31,
2017-09-29 18:59:32,
2017-09-29 18:59:33,
2017-09-29 18:59:34,
2017-09-29 18:59:35,
2017-09-29 18:59:36,
2017-09-29 18:59:37,
2017-09-29 18:59:37, BGO Set:0, GAIN Set:0

2017-09-29 18:59:38,
2017-09-29 18:59:39,
2017-09-29 18:59:40,
2017-09-29 18:59:41,
2017-09-29 18:59:42,
2017-09-29 18:59:43,
2017-09-29 18:59:44,
2017-09-29 18:59:45,
2017-09-29 18:59:46,
2017-09-29 18:59:47,
2017-09-29 18:59:48,
2017-09-29 18:59:49,
2017-09-29 18:59:50,
2017-09-29 18:59:51,
2017-09-29 18:59:52,
2017-09-29 18:59:53,
2017-09-29 18:59:54,
2017-09-29 18:59:55,
2017-09-29 18:59:56,
2017-09-29 18:59:57,
2017-09-29 18:59:58,
2017-09-29 18:59:59,
2017-09-29 19:00:00,
2017-09-29 19:00:01,
2017-09-29 19:00:02,
