2017-09-05 13:52:46,
2017-09-05 13:52:46,*******Meaure Clk Period:Time, Freq in MHz*******
2017-09-05 13:52:46,****SeqNo.,Time,DAC_Cnt.......... 38, 30400000, 0, 0 
2017-09-05 13:52:46, 37, 29600000, 1, 0 
2017-09-05 13:52:46, 38, 30400000, 2, 0 
2017-09-05 13:52:46, 37, 29600000, 3, 0 
2017-09-05 13:52:46, 38, 30400000, 4, 0 
2017-09-05 13:52:46, 38, 30400000, 5, 0 
2017-09-05 13:52:46, 39, 31200000, 6, 0 
2017-09-05 13:52:46, 38, 30400000, 7, 0 
2017-09-05 13:52:46, 38, 30400000, 8, 0 
2017-09-05 13:52:46, 38, 30400000, 9, 0 
2017-09-05 13:52:46, 38, 30400000, 10, 0 
2017-09-05 13:52:46, 38, 30400000, 11, 0 
2017-09-05 13:52:46, 38, 30400000, 12, 0 
2017-09-05 13:52:46, 38, 30400000, 13, 0 
2017-09-05 13:52:46, 38, 30400000, 14, 0 
2017-09-05 13:52:46, 39, 31200000, 15, 0 
2017-09-05 13:52:46, 38, 30400000, 16, 0 
2017-09-05 13:52:46, 39, 31200000, 17, 0 
2017-09-05 13:52:46, 38, 30400000, 18, 0 
2017-09-05 13:52:46, 38, 30400000, 19, 0 
2017-09-05 13:52:46, 37, 29600000, 20, 0 
2017-09-05 13:52:46, 37, 29600000, 21, 0 
2017-09-05 13:52:46, 38, 30400000, 22, 0 
2017-09-05 13:52:46, 38, 30400000, 23, 0 
2017-09-05 13:52:46, 39, 31200000, 24, 0 
2017-09-05 13:52:46, 37, 29600000, 25, 0 
2017-09-05 13:52:46, 39, 31200000, 26, 0 
2017-09-05 13:52:46, 38, 30400000, 27, 0 
2017-09-05 13:52:46, 37, 29600000, 28, 0 
2017-09-05 13:52:46, 37, 29600000, 29, 0 
2017-09-05 13:52:46, 39, 31200000, 30, 0 
2017-09-05 13:52:46, 38, 30400000, 31, 0 
2017-09-05 13:52:46, 39, 31200000, 32, 0 
2017-09-05 13:52:46, 37, 29600000, 33, 0 
2017-09-05 13:52:46, 38, 30400000, 34, 0 
2017-09-05 13:52:46, 37, 29600000, 35, 0 
2017-09-05 13:52:46, 38, 30400000, 36, 0 
2017-09-05 13:52:46, 37, 29600000, 37, 0 
2017-09-05 13:52:46, 38, 30400000, 38, 0 
2017-09-05 13:52:46, 38, 30400000, 39, 0 
2017-09-05 13:52:46, 38, 30400000, 40, 0 
2017-09-05 13:52:46, 38, 30400000, 41, 0 
2017-09-05 13:52:46, 38, 30400000, 42, 0 
2017-09-05 13:52:46, 38, 30400000, 43, 0 
2017-09-05 13:52:46, 37, 29600000, 44, 0 
2017-09-05 13:52:46, 38, 30400000, 45, 0 
2017-09-05 13:52:46, 38, 30400000, 46, 0 
2017-09-05 13:52:46, 38, 30400000, 47, 0 
2017-09-05 13:52:46, 37, 29600000, 48, 0 
2017-09-05 13:52:46, 37, 29600000, 49, 0 
2017-09-05 13:52:46, 37, 29600000, 50, 0 
2017-09-05 13:52:46, 38, 30400000, 51, 0 
2017-09-05 13:52:46, 37, 29600000, 52, 0 
2017-09-05 13:52:46, 38, 30400000, 53, 0 
2017-09-05 13:52:46, 38, 30400000, 54, 0 
2017-09-05 13:52:46, 39, 31200000, 55, 0 
2017-09-05 13:52:46, 39, 31200000, 56, 0 
2017-09-05 13:52:46, 38, 30400000, 57, 0 
2017-09-05 13:52:46, 38, 30400000, 58, 0 
2017-09-05 13:52:46, 38, 30400000, 59, 0 
2017-09-05 13:52:46, 37, 29600000, 60, 0 
2017-09-05 13:52:46, 37, 29600000, 61, 0 
2017-09-05 13:52:47, 38, 30400000, 62, 0 
2017-09-05 13:52:47, 38, 30400000, 63, 0 
2017-09-05 13:52:47, 38, 30400000, 64, 0 
2017-09-05 13:52:47, 39, 31200000, 65, 0 
2017-09-05 13:52:47, 39, 31200000, 66, 0 
2017-09-05 13:52:47, 38, 30400000, 67, 0 
2017-09-05 13:52:47, 38, 30400000, 68, 0 
2017-09-05 13:52:47, 37, 29600000, 69, 0 
2017-09-05 13:52:47, 38, 30400000, 70, 0 
2017-09-05 13:52:47, 38, 30400000, 71, 0 
2017-09-05 13:52:47, 38, 30400000, 72, 0 
2017-09-05 13:52:47, 39, 31200000, 73, 0 
2017-09-05 13:52:47, 38, 30400000, 74, 0 
2017-09-05 13:52:47, 38, 30400000, 75, 0 
2017-09-05 13:52:47, 38, 30400000, 76, 0 
2017-09-05 13:52:47, 38, 30400000, 77, 0 
2017-09-05 13:52:47, 39, 31200000, 78, 0 
2017-09-05 13:52:47, 38, 30400000, 79, 0 
2017-09-05 13:52:47, 38, 30400000, 80, 0 
2017-09-05 13:52:47, 37, 29600000, 81, 0 
2017-09-05 13:52:47, 38, 30400000, 82, 0 
2017-09-05 13:52:47, 38, 30400000, 83, 0 
2017-09-05 13:52:47, 38, 30400000, 84, 0 
2017-09-05 13:52:47, 38, 30400000, 85, 0 
2017-09-05 13:52:47, 38, 30400000, 86, 0 
2017-09-05 13:52:47, 38, 30400000, 87, 0 
2017-09-05 13:52:47, 37, 29600000, 88, 0 
2017-09-05 13:52:47, 37, 29600000, 89, 0 
2017-09-05 13:52:47, 38, 30400000, 90, 0 
2017-09-05 13:52:47, 37, 29600000, 91, 0 
2017-09-05 13:52:47, 38, 30400000, 92, 0 
2017-09-05 13:52:47, 38, 30400000, 93, 0 
2017-09-05 13:52:47, 38, 30400000, 94, 0 
2017-09-05 13:52:47, 38, 30400000, 95, 0 
2017-09-05 13:52:47, 37, 29600000, 96, 0 
2017-09-05 13:52:47, 38, 30400000, 97, 0 
2017-09-05 13:52:47, 38, 30400000, 98, 0 
2017-09-05 13:52:47, 38, 30400000, 99, 0 
2017-09-05 13:52:47, 38, 30400000, 100, 0 
2017-09-05 13:52:47, 37, 29600000, 101, 0 
2017-09-05 13:52:47, 38, 30400000, 102, 0 
2017-09-05 13:52:47, 38, 30400000, 103, 0 
2017-09-05 13:52:47, 39, 31200000, 104, 0 
2017-09-05 13:52:47, 38, 30400000, 105, 0 
2017-09-05 13:52:47, 37, 29600000, 106, 0 
2017-09-05 13:52:47, 37, 29600000, 107, 0 
2017-09-05 13:52:47, 37, 29600000, 108, 0 
2017-09-05 13:52:47, 38, 30400000, 109, 0 
2017-09-05 13:52:47, 38, 30400000, 110, 0 
2017-09-05 13:52:47, 37, 29600000, 111, 0 
2017-09-05 13:52:47, 38, 30400000, 112, 0 
2017-09-05 13:52:47, 38, 30400000, 113, 0 
2017-09-05 13:52:47, 38, 30400000, 114, 0 
2017-09-05 13:52:47, 38, 30400000, 115, 0 
2017-09-05 13:52:47, 38, 30400000, 116, 0 
2017-09-05 13:52:47, 38, 30400000, 117, 0 
2017-09-05 13:52:47, 38, 30400000, 118, 0 
2017-09-05 13:52:47, 37, 29600000, 119, 0 
2017-09-05 13:52:47, 38, 30400000, 120, 0 
2017-09-05 13:52:47, 37, 29600000, 121, 0 
2017-09-05 13:52:47, 38, 30400000, 122, 0 
2017-09-05 13:52:47, 38, 30400000, 123, 0 
2017-09-05 13:52:47, 38, 30400000, 124, 0 
2017-09-05 13:52:47, 37, 29600000, 125, 0 
2017-09-05 13:52:47, 38, 30400000, 126, 0 
2017-09-05 13:52:47, 38, 30400000, 127, 0 
2017-09-05 13:52:47, 38, 30400000, 128, 0 
2017-09-05 13:52:47, 38, 30400000, 129, 0 
2017-09-05 13:52:47, 37, 29600000, 130, 0 
2017-09-05 13:52:47, 38, 30400000, 131, 0 
2017-09-05 13:52:47, 38, 30400000, 132, 0 
2017-09-05 13:52:47, 39, 31200000, 133, 0 
2017-09-05 13:52:47, 38, 30400000, 134, 0 
2017-09-05 13:52:47, 37, 29600000, 135, 0 
2017-09-05 13:52:47, 39, 31200000, 136, 0 
2017-09-05 13:52:47, 38, 30400000, 137, 0 
2017-09-05 13:52:47, 38, 30400000, 138, 0 
2017-09-05 13:52:47, 38, 30400000, 139, 0 
2017-09-05 13:52:47, 38, 30400000, 140, 0 
2017-09-05 13:52:47, 38, 30400000, 141, 0 
2017-09-05 13:52:47, 37, 29600000, 142, 0 
2017-09-05 13:52:47, 37, 29600000, 143, 0 
2017-09-05 13:52:47, 37, 29600000, 144, 0 
2017-09-05 13:52:47, 38, 30400000, 145, 0 
2017-09-05 13:52:47, 38, 30400000, 146, 0 
2017-09-05 13:52:47, 38, 30400000, 147, 0 
2017-09-05 13:52:47, 39, 31200000, 148, 0 
2017-09-05 13:52:47, 38, 30400000, 149, 0 
2017-09-05 13:52:47, 38, 30400000, 150, 0 
2017-09-05 13:52:47, 37, 29600000, 151, 0 
2017-09-05 13:52:47, 38, 30400000, 152, 0 
2017-09-05 13:52:47, 37, 29600000, 153, 0 
2017-09-05 13:52:47, 38, 30400000, 154, 0 
2017-09-05 13:52:47, 38, 30400000, 155, 0 
2017-09-05 13:52:47, 37, 29600000, 156, 0 
2017-09-05 13:52:47, 38, 30400000, 157, 0 
2017-09-05 13:52:47, 38, 30400000, 158, 0 
2017-09-05 13:52:47, 37, 29600000, 159, 0 
2017-09-05 13:52:47, 37, 29600000, 160, 0 
2017-09-05 13:52:47, 38, 30400000, 161, 0 
2017-09-05 13:52:47, 38, 30400000, 162, 0 
2017-09-05 13:52:47, 39, 31200000, 163, 0 
2017-09-05 13:52:47, 38, 30400000, 164, 0 
2017-09-05 13:52:47, 38, 30400000, 165, 0 
2017-09-05 13:52:47, 38, 30400000, 166, 0 
2017-09-05 13:52:47, 38, 30400000, 167, 0 
2017-09-05 13:52:47, 38, 30400000, 168, 0 
2017-09-05 13:52:47, 38, 30400000, 169, 0 
2017-09-05 13:52:47, 38, 30400000, 170, 0 
2017-09-05 13:52:47, 39, 31200000, 171, 0 
2017-09-05 13:52:47, 38, 30400000, 172, 0 
2017-09-05 13:52:47, 37, 29600000, 173, 0 
2017-09-05 13:52:47, 37, 29600000, 174, 0 
2017-09-05 13:52:47, 39, 31200000, 175, 0 
2017-09-05 13:52:47, 38, 30400000, 176, 0 
2017-09-05 13:52:47, 38, 30400000, 177, 0 
2017-09-05 13:52:47, 38, 30400000, 178, 0 
2017-09-05 13:52:47, 38, 30400000, 179, 0 
2017-09-05 13:52:47, 38, 30400000, 180, 0 
2017-09-05 13:52:47, 38, 30400000, 181, 0 
2017-09-05 13:52:47, 38, 30400000, 182, 0 
2017-09-05 13:52:47, 38, 30400000, 183, 0 
2017-09-05 13:52:47, 37, 29600000, 184, 0 
2017-09-05 13:52:47, 38, 30400000, 185, 0 
2017-09-05 13:52:47, 38, 30400000, 186, 0 
2017-09-05 13:52:47, 38, 30400000, 187, 0 
2017-09-05 13:52:47, 38, 30400000, 188, 0 
2017-09-05 13:52:47, 38, 30400000, 189, 0 
2017-09-05 13:52:47, 38, 30400000, 190, 0 
2017-09-05 13:52:47, 39, 31200000, 191, 0 
2017-09-05 13:52:47, 37, 29600000, 192, 0 
2017-09-05 13:52:47, 38, 30400000, 193, 0 
2017-09-05 13:52:47, 37, 29600000, 194, 0 
2017-09-05 13:52:47, 38, 30400000, 195, 0 
2017-09-05 13:52:47, 38, 30400000, 196, 0 
2017-09-05 13:52:47, 37, 29600000, 197, 0 
2017-09-05 13:52:47, 37, 29600000, 198, 0 
2017-09-05 13:52:47, 38, 30400000, 199, 0 
2017-09-05 13:52:51,0, 733, 44, 100, 25, 15, 131, 130, 139, 128, 0 
2017-09-05 13:52:52, 0, 733, 44, 200, 25, 15, 131, 130, 139, 128, 0 
2017-09-05 13:52:53, 0, 733, 55, 100, 59, 32, 298, 297, 330, 295, 0 
2017-09-05 13:52:53, 0, 733, 55, 200, 59, 32, 298, 297, 330, 297, 0 
2017-09-05 13:52:54, 0, 733, 66, 100, 41, 23, 214, 214, 229, 215, 0 
2017-09-05 13:52:55, 0, 733, 66, 200, 41, 23, 214, 213, 229, 215, 1 
2017-09-05 13:52:55, 0, 733, 77, 100, 37, 21, 193, 192, 203, 192, 0 
2017-09-05 13:52:56, 0, 733, 77, 200, 37, 21, 193, 192, 203, 192, 0 
2017-09-05 13:52:57, 1, 733, 44, 100, 32, 18, 164, 164, 172, 164, 0 
2017-09-05 13:52:58, 1, 733, 44, 200, 32, 18, 164, 164, 172, 164, 0 
2017-09-05 13:52:58, 1, 733, 55, 100, 60, 33, 306, 305, 337, 304, 0 
2017-09-05 13:52:59, 1, 733, 55, 200, 60, 33, 306, 305, 336, 304, 1 
2017-09-05 13:53:00, 1, 733, 66, 100, 42, 24, 218, 217, 234, 216, 0 
2017-09-05 13:53:00, 1, 733, 66, 200, 42, 24, 218, 217, 234, 216, 0 
2017-09-05 13:53:01, 1, 733, 77, 100, 38, 22, 196, 195, 208, 193, 0 
2017-09-05 13:53:02, 1, 733, 77, 200, 38, 22, 196, 195, 208, 193, 0 
2017-09-05 13:53:03, 2, 717, 44, 100, 32, 18, 166, 166, 177, 164, 0 
2017-09-05 13:53:04, 2, 717, 44, 200, 32, 18, 166, 165, 177, 164, 1 
2017-09-05 13:53:04, 2, 717, 55, 100, 61, 33, 309, 308, 340, 308, 0 
2017-09-05 13:53:05, 2, 717, 55, 200, 61, 33, 309, 308, 340, 308, 0 
2017-09-05 13:53:06, 2, 717, 66, 100, 43, 24, 220, 219, 234, 221, 0 
2017-09-05 13:53:06, 2, 717, 66, 200, 43, 24, 220, 220, 234, 221, 1 
2017-09-05 13:53:07, 2, 717, 77, 100, 38, 22, 198, 197, 208, 198, 0 
2017-09-05 13:53:08, 2, 717, 77, 200, 38, 22, 198, 197, 208, 198, 0 
2017-09-05 13:53:09, 3, 708, 44, 100, 32, 18, 169, 167, 177, 165, 0 
2017-09-05 13:53:10, 3, 708, 44, 200, 32, 18, 169, 167, 177, 165, 0 
2017-09-05 13:53:10, 3, 708, 55, 100, 61, 33, 312, 311, 344, 309, 0 
2017-09-05 13:53:11, 3, 708, 55, 200, 61, 33, 312, 311, 344, 309, 0 
2017-09-05 13:53:12, 3, 708, 66, 100, 43, 24, 223, 222, 239, 221, 0 
2017-09-05 13:53:12, 3, 708, 66, 200, 43, 24, 223, 222, 239, 221, 0 
2017-09-05 13:53:13, 3, 708, 77, 100, 39, 22, 201, 200, 212, 199, 0 
2017-09-05 13:53:14, 3, 708, 77, 200, 39, 22, 201, 200, 212, 198, 1 
2017-09-05 13:53:15, 4, 699, 44, 100, 33, 19, 171, 170, 182, 169, 0 
2017-09-05 13:53:16, 4, 699, 44, 200, 33, 19, 171, 170, 182, 169, 0 
2017-09-05 13:53:16, 4, 699, 55, 100, 61, 33, 316, 314, 349, 313, 0 
2017-09-05 13:53:17, 4, 699, 55, 200, 61, 33, 315, 314, 349, 313, 1 
2017-09-05 13:53:18, 4, 699, 66, 100, 44, 24, 226, 224, 244, 226, 0 
2017-09-05 13:53:18, 4, 699, 66, 200, 43, 24, 226, 225, 244, 226, 2 
2017-09-05 13:53:19, 4, 699, 77, 100, 39, 22, 203, 202, 216, 203, 0 
2017-09-05 13:53:20, 4, 699, 77, 200, 39, 22, 203, 203, 216, 203, 1 
2017-09-05 13:53:21, 5, 690, 44, 100, 33, 19, 173, 172, 183, 169, 0 
2017-09-05 13:53:21, 5, 690, 44, 200, 33, 19, 173, 172, 183, 169, 0 
2017-09-05 13:53:22, 5, 690, 55, 100, 62, 33, 318, 317, 352, 318, 0 
2017-09-05 13:53:23, 5, 690, 55, 200, 62, 33, 318, 314, 352, 318, 0 
2017-09-05 13:53:24, 5, 690, 66, 100, 44, 24, 228, 227, 244, 227, 0 
2017-09-05 13:53:24, 5, 690, 66, 200, 44, 24, 228, 227, 244, 227, 0 
2017-09-05 13:53:25, 5, 690, 77, 100, 39, 22, 206, 205, 217, 204, 0 
2017-09-05 13:53:26, 5, 690, 77, 200, 39, 22, 206, 205, 217, 203, 1 
2017-09-05 13:53:27, 6, 681, 44, 100, 33, 18, 175, 174, 187, 174, 0 
2017-09-05 13:53:27, 6, 681, 44, 200, 33, 18, 175, 174, 187, 173, 1 
2017-09-05 13:53:28, 6, 681, 55, 100, 62, 33, 321, 320, 356, 320, 0 
2017-09-05 13:53:29, 6, 681, 55, 200, 62, 32, 322, 319, 356, 318, 3 
2017-09-05 13:53:29, 6, 681, 66, 100, 44, 24, 230, 229, 249, 232, 0 
2017-09-05 13:53:30, 6, 681, 66, 200, 44, 24, 231, 229, 249, 232, 1 
2017-09-05 13:53:31, 6, 681, 77, 100, 39, 21, 208, 207, 222, 208, 0 
2017-09-05 13:53:32, 6, 681, 77, 200, 39, 22, 208, 207, 222, 208, 1 
2017-09-05 13:53:33, 7, 671, 44, 100, 33, 18, 177, 177, 188, 174, 0 
2017-09-05 13:53:33, 7, 671, 44, 200, 33, 18, 177, 177, 188, 174, 0 
2017-09-05 13:53:34, 7, 671, 55, 100, 62, 32, 325, 323, 359, 323, 0 
2017-09-05 13:53:35, 7, 671, 55, 200, 62, 32, 325, 323, 359, 323, 0 
2017-09-05 13:53:35, 7, 671, 66, 100, 44, 24, 233, 232, 249, 232, 0 
2017-09-05 13:53:36, 7, 671, 66, 200, 44, 24, 233, 232, 249, 232, 0 
2017-09-05 13:53:37, 7, 671, 77, 100, 39, 22, 210, 209, 222, 208, 0 
2017-09-05 13:53:37, 7, 671, 77, 200, 39, 22, 210, 209, 222, 208, 0 
2017-09-05 13:53:39, 8, 659, 44, 100, 33, 18, 180, 179, 192, 179, 0 
2017-09-05 13:53:39, 8, 659, 44, 200, 33, 18, 180, 179, 192, 179, 0 
2017-09-05 13:53:40, 8, 659, 55, 100, 62, 32, 328, 327, 363, 327, 0 
2017-09-05 13:53:41, 8, 659, 55, 200, 62, 32, 328, 327, 363, 327, 0 
2017-09-05 13:53:41, 8, 659, 66, 100, 44, 24, 236, 235, 254, 237, 0 
2017-09-05 13:53:42, 8, 659, 66, 200, 44, 24, 236, 235, 254, 237, 0 
2017-09-05 13:53:43, 8, 659, 77, 100, 39, 22, 213, 212, 227, 213, 0 
2017-09-05 13:53:43, 8, 659, 77, 200, 39, 22, 213, 212, 227, 213, 0 
2017-09-05 13:53:45, 9, 646, 44, 100, 33, 18, 183, 182, 192, 180, 0 
2017-09-05 13:53:45, 9, 646, 44, 200, 33, 18, 183, 182, 192, 180, 0 
2017-09-05 13:53:46, 9, 646, 55, 100, 62, 32, 332, 331, 371, 332, 0 
2017-09-05 13:53:47, 9, 646, 55, 200, 62, 32, 332, 331, 371, 332, 0 
2017-09-05 13:53:47, 9, 646, 66, 100, 44, 23, 240, 239, 259, 242, 0 
2017-09-05 13:53:48, 9, 646, 66, 200, 44, 23, 240, 239, 259, 241, 1 
2017-09-05 13:53:49, 9, 646, 77, 100, 39, 21, 217, 215, 232, 219, 0 
2017-09-05 13:53:49, 9, 646, 77, 200, 39, 21, 217, 215, 232, 219, 0 
2017-09-05 13:53:50, 10, 633, 44, 100, 33, 18, 187, 185, 197, 185, 0 
2017-09-05 13:53:51, 10, 633, 44, 200, 33, 18, 187, 185, 197, 185, 0 
2017-09-05 13:53:52, 10, 633, 55, 100, 62, 32, 337, 335, 375, 337, 0 
2017-09-05 13:53:52, 10, 633, 55, 200, 62, 31, 338, 335, 375, 337, 2 
2017-09-05 13:53:53, 10, 633, 66, 100, 44, 23, 244, 242, 264, 243, 0 
2017-09-05 13:53:54, 10, 633, 66, 200, 44, 23, 244, 242, 264, 243, 0 
2017-09-05 13:53:55, 10, 633, 77, 100, 40, 20, 220, 219, 234, 219, 0 
2017-09-05 13:53:55, 10, 633, 77, 200, 40, 20, 220, 219, 234, 219, 0 
2017-09-05 13:53:56, 11, 620, 44, 100, 33, 18, 190, 189, 202, 189, 0 
2017-09-05 13:53:57, 11, 620, 44, 200, 33, 18, 190, 189, 202, 189, 0 
2017-09-05 13:53:58, 11, 620, 55, 100, 62, 31, 343, 341, 383, 342, 0 
2017-09-05 13:53:58, 11, 620, 55, 200, 62, 31, 343, 341, 384, 342, 1 
2017-09-05 13:53:59, 11, 620, 66, 100, 44, 23, 248, 246, 269, 248, 0 
2017-09-05 13:54:00, 11, 620, 66, 200, 44, 23, 248, 246, 270, 248, 1 
2017-09-05 13:54:01, 11, 620, 77, 100, 40, 20, 224, 223, 237, 224, 0 
2017-09-05 13:54:01, 11, 620, 77, 200, 40, 20, 224, 223, 238, 224, 1 
2017-09-05 13:54:02, 12, 606, 44, 100, 33, 17, 193, 192, 206, 194, 0 
2017-09-05 13:54:03, 12, 606, 44, 200, 33, 17, 193, 192, 206, 194, 0 
2017-09-05 13:54:04, 12, 606, 55, 100, 62, 30, 349, 347, 389, 351, 0 
2017-09-05 13:54:04, 12, 606, 55, 200, 62, 30, 349, 347, 389, 351, 0 
2017-09-05 13:54:05, 12, 606, 66, 100, 44, 22, 253, 251, 275, 250, 0 
2017-09-05 13:54:06, 12, 606, 66, 200, 44, 22, 253, 251, 275, 250, 0 
2017-09-05 13:54:06, 12, 606, 77, 100, 40, 20, 229, 227, 242, 228, 0 
2017-09-05 13:54:07, 12, 606, 77, 200, 40, 20, 229, 227, 242, 228, 0 
2017-09-05 13:54:08, 13, 593, 44, 100, 33, 17, 197, 196, 211, 195, 0 
2017-09-05 13:54:09, 13, 593, 44, 200, 33, 17, 197, 195, 211, 195, 1 
2017-09-05 13:54:10, 13, 593, 55, 100, 62, 29, 355, 353, 398, 352, 0 
2017-09-05 13:54:10, 13, 593, 55, 200, 62, 29, 355, 353, 398, 352, 0 
2017-09-05 13:54:11, 13, 593, 66, 100, 44, 21, 257, 256, 281, 254, 0 
2017-09-05 13:54:12, 13, 593, 66, 200, 44, 21, 257, 256, 281, 254, 0 
2017-09-05 13:54:12, 13, 593, 77, 100, 40, 20, 233, 231, 249, 233, 1 
2017-09-05 13:54:13, 13, 593, 77, 200, 40, 20, 233, 231, 250, 233, 1 
2017-09-05 13:54:14, 14, 580, 44, 100, 34, 17, 200, 200, 215, 200, 0 
2017-09-05 13:54:15, 14, 580, 44, 200, 33, 17, 201, 200, 216, 200, 3 
2017-09-05 13:54:16, 14, 580, 55, 100, 63, 29, 362, 360, 406, 358, 0 
2017-09-05 13:54:16, 14, 580, 55, 200, 62, 29, 362, 360, 407, 358, 2 
2017-09-05 13:54:17, 14, 580, 66, 100, 44, 21, 262, 261, 286, 259, 0 
2017-09-05 13:54:18, 14, 580, 66, 200, 44, 21, 262, 261, 286, 259, 0 
2017-09-05 13:54:18, 14, 580, 77, 100, 40, 19, 237, 236, 256, 235, 0 
2017-09-05 13:54:19, 14, 580, 77, 200, 40, 19, 237, 236, 256, 235, 0 
2017-09-05 13:54:20, 15, 566, 44, 100, 34, 17, 205, 204, 221, 205, 0 
2017-09-05 13:54:21, 15, 566, 44, 200, 33, 17, 205, 204, 221, 205, 1 
2017-09-05 13:54:22, 15, 566, 55, 100, 63, 28, 369, 367, 419, 366, 0 
2017-09-05 13:54:22, 15, 566, 55, 200, 63, 28, 369, 368, 419, 366, 1 
2017-09-05 13:54:23, 15, 566, 66, 100, 44, 21, 268, 267, 292, 265, 0 
2017-09-05 13:54:24, 15, 566, 66, 200, 44, 21, 268, 267, 292, 265, 0 
2017-09-05 13:54:24, 15, 566, 77, 100, 40, 19, 242, 241, 261, 240, 0 
2017-09-05 13:54:25, 15, 566, 77, 200, 40, 19, 242, 241, 261, 240, 0 
2017-09-05 13:54:26, 16, 552, 44, 100, 34, 16, 210, 209, 226, 210, 0 
2017-09-05 13:54:27, 16, 552, 44, 200, 34, 16, 210, 209, 226, 210, 0 
2017-09-05 13:54:27, 16, 552, 55, 100, 63, 28, 377, 375, 425, 376, 0 
2017-09-05 13:54:28, 16, 552, 55, 200, 63, 28, 377, 375, 425, 376, 0 
2017-09-05 13:54:29, 16, 552, 66, 100, 45, 20, 273, 272, 301, 271, 0 
2017-09-05 13:54:29, 16, 552, 66, 200, 44, 20, 273, 272, 301, 271, 1 
2017-09-05 13:54:30, 16, 552, 77, 100, 40, 19, 247, 246, 267, 245, 1 
2017-09-05 13:54:31, 16, 552, 77, 200, 40, 19, 248, 247, 267, 245, 2 
2017-09-05 13:54:32, 17, 538, 44, 100, 34, 16, 210, 210, 227, 210, 0 
2017-09-05 13:54:33, 17, 538, 44, 200, 33, 16, 210, 210, 227, 210, 1 
2017-09-05 13:54:33, 17, 538, 55, 100, 63, 28, 377, 375, 425, 376, 0 
2017-09-05 13:54:34, 17, 538, 55, 200, 63, 28, 377, 375, 425, 376, 0 
2017-09-05 13:54:35, 17, 538, 66, 100, 44, 20, 273, 272, 301, 271, 0 
2017-09-05 13:54:35, 17, 538, 66, 200, 44, 20, 273, 272, 301, 271, 0 
2017-09-05 13:54:36, 17, 538, 77, 100, 40, 19, 248, 246, 267, 245, 1 
2017-09-05 13:54:37, 17, 538, 77, 200, 40, 19, 247, 247, 267, 245, 2 
2017-09-05 13:54:38, 18, 538, 44, 100, 34, 16, 210, 210, 227, 210, 0 
2017-09-05 13:54:39, 18, 538, 44, 200, 34, 16, 211, 210, 227, 210, 1 
2017-09-05 13:54:39, 18, 538, 55, 100, 63, 28, 377, 375, 425, 376, 0 
2017-09-05 13:54:40, 18, 538, 55, 200, 63, 28, 377, 375, 425, 376, 0 
2017-09-05 13:54:41, 18, 538, 66, 100, 44, 20, 273, 272, 301, 271, 0 
2017-09-05 13:54:41, 18, 538, 66, 200, 45, 20, 273, 272, 301, 271, 1 
2017-09-05 13:54:42, 18, 538, 77, 100, 40, 19, 248, 246, 267, 245, 1 
2017-09-05 13:54:43, 18, 538, 77, 200, 40, 19, 247, 246, 267, 245, 1 
2017-09-05 13:54:44, 19, 538, 44, 100, 34, 16, 211, 210, 227, 210, 0 
2017-09-05 13:54:45, 19, 538, 44, 200, 34, 16, 210, 210, 227, 210, 1 
2017-09-05 13:54:45, 19, 538, 55, 100, 63, 28, 377, 375, 425, 376, 0 
2017-09-05 13:54:46, 19, 538, 55, 200, 63, 28, 377, 375, 425, 376, 0 
2017-09-05 13:54:47, 19, 538, 66, 100, 44, 20, 273, 272, 301, 271, 0 
2017-09-05 13:54:47, 19, 538, 66, 200, 45, 20, 273, 272, 301, 271, 1 
2017-09-05 13:54:48, 19, 538, 77, 100, 40, 19, 248, 246, 267, 245, 1 
2017-09-05 13:54:49, 19, 538, 77, 200, 40, 19, 247, 246, 267, 245, 1 
2017-09-05 13:54:50, 20, 538, 44, 100, 33, 16, 211, 210, 227, 210, 0 
2017-09-05 13:54:50, 20, 538, 44, 200, 34, 16, 210, 210, 227, 210, 2 
2017-09-05 13:54:51, 20, 538, 55, 100, 63, 28, 377, 375, 425, 376, 0 
2017-09-05 13:54:52, 20, 538, 55, 200, 63, 28, 377, 375, 425, 376, 0 
2017-09-05 13:54:53, 20, 538, 66, 100, 45, 20, 273, 272, 301, 271, 0 
2017-09-05 13:54:53, 20, 538, 66, 200, 44, 20, 273, 272, 301, 271, 1 
2017-09-05 13:54:54, 20, 538, 77, 100, 40, 19, 247, 246, 267, 245, 1 
2017-09-05 13:54:55, 20, 538, 77, 200, 40, 19, 247, 246, 267, 245, 0 
2017-09-05 13:54:56, 21, 538, 44, 100, 34, 16, 210, 210, 227, 210, 0 
2017-09-05 13:54:56, 21, 538, 44, 200, 34, 16, 210, 209, 227, 210, 1 
2017-09-05 13:54:57, 21, 538, 55, 100, 63, 28, 377, 375, 425, 376, 0 
2017-09-05 13:54:58, 21, 538, 55, 200, 63, 28, 377, 375, 425, 376, 0 
2017-09-05 13:54:59, 21, 538, 66, 100, 45, 20, 273, 272, 301, 271, 0 
2017-09-05 13:54:59, 21, 538, 66, 200, 44, 20, 273, 272, 301, 271, 1 
2017-09-05 13:55:00, 21, 538, 77, 100, 40, 19, 247, 247, 267, 245, 1 
2017-09-05 13:55:01, 21, 538, 77, 200, 40, 19, 247, 246, 267, 245, 1 
2017-09-05 13:55:02, 22, 538, 44, 100, 34, 16, 210, 210, 227, 210, 0 
2017-09-05 13:55:02, 22, 538, 44, 200, 34, 16, 211, 210, 227, 210, 1 
2017-09-05 13:55:03, 22, 538, 55, 100, 63, 28, 377, 375, 425, 376, 0 
2017-09-05 13:55:04, 22, 538, 55, 200, 63, 28, 377, 375, 425, 376, 0 
2017-09-05 13:55:04, 22, 538, 66, 100, 45, 20, 273, 272, 301, 271, 0 
2017-09-05 13:55:05, 22, 538, 66, 200, 45, 20, 273, 272, 301, 271, 0 
2017-09-05 13:55:09, 22, 538, 77, 100, 40, 19, 247, 246, 267, 245, 1 
2017-09-05 13:55:09, 22, 538, 77, 200, 40, 19, 247, 246, 267, 245, 0 
2017-09-05 13:55:09, 23, 538, 44, 100, 34, 16, 210, 210, 227, 210, 0 
2017-09-05 13:55:09, 23, 538, 44, 200, 34, 16, 210, 210, 227, 210, 0 
2017-09-05 13:55:09, 23, 538, 55, 100, 63, 28, 377, 375, 425, 376, 0 
2017-09-05 13:55:10, 23, 538, 55, 200, 63, 28, 377, 375, 425, 376, 0 
2017-09-05 13:55:10, 23, 538, 66, 100, 45, 20, 273, 272, 301, 271, 0 
2017-09-05 13:55:11, 23, 538, 66, 200, 44, 20, 273, 272, 301, 271, 1 
2017-09-05 13:55:12, 23, 538, 77, 100, 40, 19, 247, 246, 267, 245, 1 
2017-09-05 13:55:12, 23, 538, 77, 200, 40, 19, 247, 246, 267, 245, 0 
2017-09-05 13:55:16, 24, 538, 44, 100, 34, 16, 210, 209, 227, 210, 0 
2017-09-05 13:55:16, 24, 538, 44, 200, 33, 16, 211, 210, 227, 210, 3 
2017-09-05 13:55:16, 24, 538, 55, 100, 63, 28, 377, 375, 425, 376, 0 
2017-09-05 13:55:16, 24, 538, 55, 200, 63, 28, 377, 375, 425, 376, 0 
2017-09-05 13:55:16, 24, 538, 66, 100, 45, 20, 273, 272, 301, 271, 0 
2017-09-05 13:55:17, 24, 538, 66, 200, 44, 20, 273, 272, 301, 271, 1 
2017-09-05 13:55:18, 24, 538, 77, 100, 40, 19, 247, 246, 267, 245, 1 
2017-09-05 13:55:18, 24, 538, 77, 200, 40, 19, 247, 246, 267, 245, 0 
2017-09-05 13:55:19, 25, 538, 44, 100, 34, 16, 210, 209, 227, 210, 0 
2017-09-05 13:55:20, 25, 538, 44, 200, 34, 16, 210, 210, 227, 210, 1 
2017-09-05 13:55:21, 25, 538, 55, 100, 63, 28, 377, 375, 425, 376, 0 
2017-09-05 13:55:22, 25, 538, 55, 200, 63, 28, 377, 375, 425, 376, 0 
2017-09-05 13:55:22, 25, 538, 66, 100, 45, 20, 273, 272, 301, 271, 0 
2017-09-05 13:55:23, 25, 538, 66, 200, 44, 20, 273, 272, 301, 271, 1 
2017-09-05 13:55:24, 25, 538, 77, 100, 40, 19, 247, 246, 267, 245, 1 
2017-09-05 13:55:24, 25, 538, 77, 200, 40, 19, 247, 246, 267, 245, 0 
2017-09-05 13:55:25, 26, 538, 44, 100, 34, 16, 210, 210, 227, 210, 0 
2017-09-05 13:55:26, 26, 538, 44, 200, 34, 16, 210, 209, 227, 210, 1 
2017-09-05 13:55:27, 26, 538, 55, 100, 63, 28, 377, 375, 425, 376, 0 
2017-09-05 13:55:27, 26, 538, 55, 200, 63, 28, 377, 375, 425, 376, 0 
2017-09-05 13:55:28, 26, 538, 66, 100, 44, 20, 273, 272, 301, 271, 0 
2017-09-05 13:55:29, 26, 538, 66, 200, 44, 20, 273, 272, 301, 271, 0 
2017-09-05 13:55:30, 26, 538, 77, 100, 40, 19, 248, 246, 267, 245, 1 
2017-09-05 13:55:30, 26, 538, 77, 200, 40, 19, 247, 246, 267, 245, 1 
2017-09-05 13:55:31, 27, 538, 44, 100, 34, 16, 211, 210, 227, 210, 0 
2017-09-05 13:55:32, 27, 538, 44, 200, 34, 16, 210, 210, 227, 210, 1 
2017-09-05 13:55:33, 27, 538, 55, 100, 63, 28, 377, 375, 425, 376, 0 
2017-09-05 13:55:33, 27, 538, 55, 200, 63, 28, 377, 375, 425, 376, 0 
2017-09-05 13:55:34, 27, 538, 66, 100, 45, 20, 273, 272, 301, 271, 0 
2017-09-05 13:55:35, 27, 538, 66, 200, 44, 20, 273, 272, 301, 271, 1 
2017-09-05 13:55:36, 27, 538, 77, 100, 40, 19, 247, 246, 267, 245, 1 
2017-09-05 13:55:36, 27, 538, 77, 200, 40, 19, 247, 246, 267, 245, 0 
2017-09-05 13:55:37, 28, 538, 44, 100, 34, 16, 210, 209, 227, 210, 0 
2017-09-05 13:55:38, 28, 538, 44, 200, 34, 16, 210, 210, 227, 210, 1 
2017-09-05 13:55:39, 28, 538, 55, 100, 63, 28, 377, 374, 425, 376, 0 
2017-09-05 13:55:39, 28, 538, 55, 200, 63, 28, 377, 375, 425, 376, 1 
2017-09-05 13:55:40, 28, 538, 66, 100, 44, 20, 273, 272, 301, 271, 0 
2017-09-05 13:55:41, 28, 538, 66, 200, 44, 20, 273, 272, 301, 271, 0 
2017-09-05 13:55:41, 28, 538, 77, 100, 40, 19, 247, 246, 267, 245, 1 
2017-09-05 13:55:42, 28, 538, 77, 200, 40, 19, 247, 246, 267, 245, 0 
2017-09-05 13:55:43, 29, 538, 44, 100, 34, 16, 210, 210, 227, 210, 0 
2017-09-05 13:55:44, 29, 538, 44, 200, 34, 16, 210, 209, 227, 210, 1 
2017-09-05 13:55:45, 29, 538, 55, 100, 63, 28, 377, 375, 425, 376, 0 
2017-09-05 13:55:45, 29, 538, 55, 200, 63, 28, 377, 375, 425, 376, 0 
2017-09-05 13:55:46, 29, 538, 66, 100, 45, 20, 273, 272, 301, 271, 0 
2017-09-05 13:55:49, 29, 538, 66, 200, 44, 20, 273, 272, 301, 271, 1 
2017-09-05 13:55:49, 29, 538, 77, 100, 40, 19, 247, 246, 267, 245, 1 
2017-09-05 13:55:49, 29, 538, 77, 200, 40, 19, 247, 246, 267, 245, 0 
2017-09-05 13:55:49, 30, 538, 44, 100, 34, 16, 210, 210, 227, 210, 0 
2017-09-05 13:55:50, 30, 538, 44, 200, 34, 16, 211, 210, 227, 210, 1 
2017-09-05 13:55:51, 30, 538, 55, 100, 63, 28, 377, 375, 425, 376, 0 
2017-09-05 13:55:51, 30, 538, 55, 200, 63, 28, 377, 375, 425, 376, 0 
2017-09-05 13:55:52, 30, 538, 66, 100, 45, 20, 273, 272, 301, 271, 0 
2017-09-05 13:55:53, 30, 538, 66, 200, 44, 20, 273, 272, 301, 271, 1 
2017-09-05 13:55:53, 30, 538, 77, 100, 40, 19, 247, 246, 267, 245, 1 
2017-09-05 13:55:54, 30, 538, 77, 200, 40, 19, 247, 246, 267, 245, 0 
2017-09-05 13:55:55, 31, 538, 44, 100, 34, 16, 211, 209, 227, 210, 0 
2017-09-05 13:55:56, 31, 538, 44, 200, 34, 16, 210, 209, 227, 210, 1 
2017-09-05 13:55:56, 31, 538, 55, 100, 63, 28, 377, 375, 425, 376, 0 
2017-09-05 13:55:57, 31, 538, 55, 200, 63, 28, 377, 375, 425, 376, 0 
2017-09-05 13:55:58, 31, 538, 66, 100, 45, 20, 273, 272, 301, 271, 0 
2017-09-05 13:55:59, 31, 538, 66, 200, 45, 20, 273, 272, 301, 271, 0 
2017-09-05 13:55:59, 31, 538, 77, 100, 40, 19, 247, 246, 267, 245, 1 
2017-09-05 13:56:00, 31, 538, 77, 200, 40, 19, 247, 246, 267, 245, 0 
2017-09-05 13:56:01, 32, 538, 44, 100, 31, 18, 172, 171, 183, 168, 1 
2017-09-05 13:56:02, 32, 538, 44, 200, 31, 18, 172, 171, 183, 168, 0 
2017-09-05 13:56:02, 32, 538, 55, 100, 59, 33, 305, 304, 336, 303, 0 
2017-09-05 13:56:03, 32, 538, 55, 200, 60, 33, 305, 303, 337, 303, 3 
2017-09-05 13:56:04, 32, 538, 66, 100, 41, 24, 216, 215, 230, 216, 0 
2017-09-05 13:56:04, 32, 538, 66, 200, 42, 23, 216, 214, 230, 216, 3 
2017-09-05 13:56:05, 32, 538, 77, 100, 37, 22, 194, 193, 203, 193, 1 
2017-09-05 13:56:06, 32, 538, 77, 200, 38, 21, 194, 193, 203, 193, 2 
2017-09-05 13:56:07, 33, 725, 44, 100, 32, 18, 164, 164, 172, 164, 0 
2017-09-05 13:56:08, 33, 725, 44, 200, 32, 18, 164, 164, 172, 164, 0 
2017-09-05 13:56:08, 33, 725, 55, 100, 60, 33, 306, 305, 337, 304, 0 
2017-09-05 13:56:09, 33, 725, 55, 200, 60, 33, 306, 305, 337, 304, 0 
2017-09-05 13:56:10, 33, 725, 66, 100, 42, 24, 218, 217, 234, 216, 0 
2017-09-05 13:56:10, 33, 725, 66, 200, 42, 24, 218, 217, 234, 216, 0 
2017-09-05 13:56:11, 33, 725, 77, 100, 38, 22, 196, 192, 208, 193, 0 
2017-09-05 13:56:12, 33, 725, 77, 200, 38, 22, 196, 197, 208, 193, 0 
2017-09-05 13:56:13, 34, 717, 44, 100, 32, 18, 166, 165, 177, 164, 0 
2017-09-05 13:56:14, 34, 717, 44, 200, 32, 18, 166, 166, 177, 164, 1 
2017-09-05 13:56:14, 34, 717, 55, 100, 61, 33, 309, 308, 340, 308, 0 
2017-09-05 13:56:15, 34, 717, 55, 200, 61, 33, 309, 308, 340, 308, 0 
2017-09-05 13:56:16, 34, 717, 66, 100, 43, 24, 220, 219, 234, 221, 0 
2017-09-05 13:56:16, 34, 717, 66, 200, 43, 24, 220, 219, 234, 221, 0 
2017-09-05 13:56:17, 34, 717, 77, 100, 38, 22, 198, 197, 208, 198, 0 
2017-09-05 13:56:18, 34, 717, 77, 200, 38, 21, 198, 197, 208, 198, 1 
2017-09-05 13:56:19, 35, 708, 44, 100, 32, 18, 169, 167, 177, 165, 0 
2017-09-05 13:56:19, 35, 708, 44, 200, 32, 18, 169, 167, 177, 165, 0 
2017-09-05 13:56:20, 35, 708, 55, 100, 61, 33, 312, 310, 344, 308, 0 
2017-09-05 13:56:21, 35, 708, 55, 200, 61, 33, 312, 310, 344, 309, 1 
2017-09-05 13:56:22, 35, 708, 66, 100, 43, 24, 223, 222, 239, 221, 0 
2017-09-05 13:56:22, 35, 708, 66, 200, 43, 24, 223, 222, 239, 221, 0 
2017-09-05 13:56:23, 35, 708, 77, 100, 39, 22, 201, 200, 212, 199, 0 
2017-09-05 13:56:24, 35, 708, 77, 200, 39, 22, 201, 200, 212, 199, 0 
2017-09-05 13:56:25, 36, 699, 44, 100, 33, 19, 171, 170, 182, 169, 0 
2017-09-05 13:56:25, 36, 699, 44, 200, 33, 19, 171, 170, 182, 169, 0 
2017-09-05 13:56:26, 36, 699, 55, 100, 61, 33, 315, 313, 349, 313, 0 
2017-09-05 13:56:27, 36, 699, 55, 200, 61, 33, 315, 313, 349, 313, 0 
2017-09-05 13:56:28, 36, 699, 66, 100, 44, 24, 226, 225, 244, 226, 0 
2017-09-05 13:56:28, 36, 699, 66, 200, 43, 24, 226, 225, 244, 226, 1 
2017-09-05 13:56:29, 36, 699, 77, 100, 39, 22, 203, 202, 214, 203, 0 
2017-09-05 13:56:30, 36, 699, 77, 200, 39, 22, 203, 202, 217, 203, 0 
2017-09-05 13:56:31, 37, 690, 44, 100, 33, 19, 173, 172, 182, 169, 0 
2017-09-05 13:56:31, 37, 690, 44, 200, 33, 19, 173, 172, 183, 169, 1 
2017-09-05 13:56:32, 37, 690, 55, 100, 61, 33, 318, 317, 353, 318, 0 
2017-09-05 13:56:33, 37, 690, 55, 200, 61, 33, 318, 316, 352, 318, 2 
2017-09-05 13:56:33, 37, 690, 66, 100, 44, 24, 228, 227, 244, 227, 0 
2017-09-05 13:56:34, 37, 690, 66, 200, 44, 24, 228, 227, 244, 227, 0 
2017-09-05 13:56:35, 37, 690, 77, 100, 39, 22, 206, 204, 217, 203, 0 
2017-09-05 13:56:35, 37, 690, 77, 200, 39, 22, 206, 204, 217, 203, 0 
2017-09-05 13:56:37, 38, 681, 44, 100, 33, 18, 175, 174, 187, 173, 0 
2017-09-05 13:56:37, 38, 681, 44, 200, 33, 19, 175, 174, 187, 173, 1 
2017-09-05 13:56:38, 38, 681, 55, 100, 62, 33, 321, 320, 354, 318, 0 
2017-09-05 13:56:39, 38, 681, 55, 200, 61, 33, 321, 319, 355, 318, 3 
2017-09-05 13:56:39, 38, 681, 66, 100, 44, 24, 230, 229, 249, 232, 0 
2017-09-05 13:56:40, 38, 681, 66, 200, 44, 24, 230, 229, 249, 232, 0 
2017-09-05 13:56:41, 38, 681, 77, 100, 39, 22, 208, 207, 222, 208, 0 
2017-09-05 13:56:41, 38, 681, 77, 200, 39, 22, 208, 207, 222, 208, 0 
2017-09-05 13:56:43, 39, 671, 44, 100, 33, 18, 177, 176, 188, 174, 0 
2017-09-05 13:56:43, 39, 671, 44, 200, 33, 18, 177, 177, 188, 174, 1 
2017-09-05 13:56:44, 39, 671, 55, 100, 62, 32, 325, 323, 359, 323, 0 
2017-09-05 13:56:45, 39, 671, 55, 200, 62, 32, 325, 323, 358, 323, 1 
2017-09-05 13:56:45, 39, 671, 66, 100, 44, 24, 233, 232, 249, 232, 0 
2017-09-05 13:56:46, 39, 671, 66, 200, 44, 24, 233, 232, 249, 232, 0 
2017-09-05 13:56:47, 39, 671, 77, 100, 39, 22, 210, 209, 222, 208, 0 
2017-09-05 13:56:47, 39, 671, 77, 200, 39, 22, 210, 209, 222, 208, 0 
2017-09-05 13:56:49, 40, 659, 44, 100, 33, 18, 180, 179, 192, 179, 0 
2017-09-05 13:56:49, 40, 659, 44, 200, 33, 18, 180, 179, 192, 179, 0 
2017-09-05 13:56:50, 40, 659, 55, 100, 62, 32, 328, 327, 365, 327, 0 
2017-09-05 13:56:51, 40, 659, 55, 200, 62, 32, 328, 326, 363, 327, 1 
2017-09-05 13:56:51, 40, 659, 66, 100, 44, 23, 236, 235, 254, 237, 0 
2017-09-05 13:56:52, 40, 659, 66, 200, 44, 23, 236, 235, 254, 237, 0 
2017-09-05 13:56:53, 40, 659, 77, 100, 39, 21, 213, 212, 227, 213, 0 
2017-09-05 13:56:53, 40, 659, 77, 200, 39, 21, 213, 212, 227, 213, 0 
2017-09-05 13:56:54, 41, 646, 44, 100, 33, 18, 183, 182, 192, 180, 0 
2017-09-05 13:56:55, 41, 646, 44, 200, 33, 18, 183, 182, 192, 180, 0 
2017-09-05 13:56:56, 41, 646, 55, 100, 62, 32, 332, 330, 371, 332, 0 
2017-09-05 13:56:56, 41, 646, 55, 200, 62, 32, 333, 331, 371, 332, 2 
2017-09-05 13:56:57, 41, 646, 66, 100, 44, 23, 240, 239, 259, 242, 0 
2017-09-05 13:56:58, 41, 646, 66, 200, 44, 23, 240, 238, 259, 241, 2 
2017-09-05 13:56:59, 41, 646, 77, 100, 40, 21, 217, 215, 232, 219, 0 
2017-09-05 13:56:59, 41, 646, 77, 200, 40, 21, 217, 215, 232, 219, 0 
2017-09-05 13:57:00, 42, 633, 44, 100, 33, 18, 186, 185, 197, 185, 0 
2017-09-05 13:57:01, 42, 633, 44, 200, 33, 18, 187, 185, 197, 185, 1 
2017-09-05 13:57:02, 42, 633, 55, 100, 62, 31, 337, 335, 375, 337, 0 
2017-09-05 13:57:02, 42, 633, 55, 200, 62, 31, 338, 336, 375, 337, 2 
2017-09-05 13:57:03, 42, 633, 66, 100, 44, 23, 244, 242, 264, 243, 0 
2017-09-05 13:57:04, 42, 633, 66, 200, 44, 23, 244, 243, 264, 243, 1 
2017-09-05 13:57:05, 42, 633, 77, 100, 40, 20, 220, 219, 235, 219, 0 
2017-09-05 13:57:05, 42, 633, 77, 200, 40, 20, 220, 219, 234, 219, 1 
2017-09-05 13:57:06, 43, 620, 44, 100, 33, 18, 189, 188, 202, 189, 0 
2017-09-05 13:57:07, 43, 620, 44, 200, 33, 18, 189, 188, 202, 189, 0 
2017-09-05 13:57:08, 43, 620, 55, 100, 62, 30, 342, 341, 384, 342, 0 
2017-09-05 13:57:08, 43, 620, 55, 200, 62, 31, 343, 341, 384, 342, 2 
2017-09-05 13:57:09, 43, 620, 66, 100, 44, 23, 248, 246, 270, 248, 0 
2017-09-05 13:57:10, 43, 620, 66, 200, 44, 23, 248, 246, 270, 248, 0 
2017-09-05 13:57:10, 43, 620, 77, 100, 40, 20, 224, 223, 238, 224, 0 
2017-09-05 13:57:11, 43, 620, 77, 200, 40, 20, 224, 223, 238, 224, 0 
2017-09-05 13:57:12, 44, 606, 44, 100, 33, 17, 193, 192, 206, 193, 0 
2017-09-05 13:57:13, 44, 606, 44, 200, 33, 17, 193, 192, 206, 194, 1 
2017-09-05 13:57:14, 44, 606, 55, 100, 62, 30, 349, 347, 390, 350, 0 
2017-09-05 13:57:14, 44, 606, 55, 200, 62, 30, 349, 347, 389, 350, 1 
2017-09-05 13:57:15, 44, 606, 66, 100, 44, 22, 253, 251, 275, 250, 0 
2017-09-05 13:57:16, 44, 606, 66, 200, 44, 22, 253, 251, 275, 250, 0 
2017-09-05 13:57:16, 44, 606, 77, 100, 40, 20, 229, 227, 243, 228, 0 
2017-09-05 13:57:17, 44, 606, 77, 200, 40, 20, 229, 227, 242, 228, 1 
2017-09-05 13:57:18, 45, 593, 44, 100, 33, 17, 197, 196, 211, 195, 0 
2017-09-05 13:57:19, 45, 593, 44, 200, 33, 17, 197, 196, 211, 195, 0 
2017-09-05 13:57:20, 45, 593, 55, 100, 62, 29, 355, 353, 398, 352, 0 
2017-09-05 13:57:20, 45, 593, 55, 200, 62, 29, 355, 353, 398, 352, 0 
2017-09-05 13:57:21, 45, 593, 66, 100, 44, 21, 257, 256, 281, 254, 0 
2017-09-05 13:57:22, 45, 593, 66, 200, 44, 21, 257, 256, 281, 254, 0 
2017-09-05 13:57:22, 45, 593, 77, 100, 40, 20, 232, 231, 248, 233, 1 
2017-09-05 13:57:23, 45, 593, 77, 200, 40, 20, 232, 231, 249, 233, 1 
2017-09-05 13:57:24, 46, 580, 44, 100, 33, 17, 200, 200, 216, 200, 0 
2017-09-05 13:57:25, 46, 580, 44, 200, 33, 17, 200, 200, 215, 200, 1 
2017-09-05 13:57:25, 46, 580, 55, 100, 62, 29, 361, 360, 407, 357, 0 
2017-09-05 13:57:26, 46, 580, 55, 200, 62, 29, 362, 360, 406, 357, 2 
2017-09-05 13:57:27, 46, 580, 66, 100, 44, 21, 262, 261, 286, 259, 0 
2017-09-05 13:57:28, 46, 580, 66, 200, 44, 21, 262, 261, 286, 259, 0 
2017-09-05 13:57:28, 46, 580, 77, 100, 40, 19, 237, 236, 256, 235, 0 
2017-09-05 13:57:29, 46, 580, 77, 200, 40, 19, 237, 236, 256, 235, 0 
2017-09-05 13:57:30, 47, 566, 44, 100, 33, 17, 205, 204, 221, 205, 0 
2017-09-05 13:57:31, 47, 566, 44, 200, 34, 17, 205, 204, 221, 205, 1 
2017-09-05 13:57:31, 47, 566, 55, 100, 63, 28, 369, 368, 419, 366, 0 
2017-09-05 13:57:32, 47, 566, 55, 200, 63, 28, 369, 367, 419, 366, 1 
2017-09-05 13:57:33, 47, 566, 66, 100, 44, 21, 268, 267, 292, 265, 0 
2017-09-05 13:57:33, 47, 566, 66, 200, 44, 21, 268, 267, 292, 265, 0 
2017-09-05 13:57:34, 47, 566, 77, 100, 40, 19, 242, 241, 261, 240, 0 
2017-09-05 13:57:35, 47, 566, 77, 200, 40, 19, 242, 241, 261, 240, 0 
2017-09-05 13:57:36, 48, 552, 44, 100, 34, 16, 209, 209, 226, 210, 0 
2017-09-05 13:57:37, 48, 552, 44, 200, 34, 16, 209, 209, 226, 210, 0 
2017-09-05 13:57:37, 48, 552, 55, 100, 63, 28, 376, 375, 425, 376, 0 
2017-09-05 13:57:38, 48, 552, 55, 200, 63, 28, 376, 375, 425, 376, 0 
2017-09-05 13:57:39, 48, 552, 66, 100, 44, 20, 273, 272, 301, 271, 0 
2017-09-05 13:57:39, 48, 552, 66, 200, 45, 20, 273, 272, 301, 271, 1 
2017-09-05 13:57:40, 48, 552, 77, 100, 40, 19, 247, 246, 267, 245, 1 
2017-09-05 13:57:41, 48, 552, 77, 200, 40, 19, 247, 246, 267, 245, 0 
2017-09-05 13:57:42, 49, 538, 44, 100, 34, 16, 210, 209, 227, 210, 0 
2017-09-05 13:57:43, 49, 538, 44, 200, 34, 16, 210, 210, 227, 210, 1 
2017-09-05 13:57:43, 49, 538, 55, 100, 63, 28, 377, 374, 425, 376, 0 
2017-09-05 13:57:44, 49, 538, 55, 200, 63, 28, 377, 375, 425, 376, 1 
2017-09-05 13:57:45, 49, 538, 66, 100, 45, 20, 273, 272, 301, 271, 0 
2017-09-05 13:57:45, 49, 538, 66, 200, 45, 20, 273, 272, 301, 271, 0 
2017-09-05 13:57:46, 49, 538, 77, 100, 40, 19, 247, 246, 267, 245, 1 
2017-09-05 13:57:47, 49, 538, 77, 200, 40, 19, 247, 246, 267, 245, 0 
2017-09-05 13:57:50,*SeqNo.,Time,DAC_Cnt,BGO,AM_LCh0,AM_RCh0,AM_Rch1,AM_RCh2,AM_LCh3,AM_LCh3
2017-09-05 13:57:50, BGO Set:0, AM_RegBuffer:0
2017-09-05 13:57:52, BGO Set:0,725 
2017-09-05 13:57:53, Gain Set:0, AM_RegBuffer:0 
2017-09-05 13:57:58,*SeqNo.,Time,DAC_Cnt,BGO,AM_LCh0,AM_RCh0,AM_Rch1,AM_RCh2,AM_LCh3,AM_LCh3
2017-09-05 13:57:58, BGO Set:0, AM_RegBuffer:0
2017-09-05 13:58:00, BGO Set:0,733 
2017-09-05 13:58:01, Gain Set:0, AM_RegBuffer:0 
