2017-09-05 13:46:37,
2017-09-05 13:46:37,*******Meaure Clk Period:Time, Freq in MHz*******
2017-09-05 13:46:38,****SeqNo.,Time,DAC_Cnt.......... 39, 31200000, 0, 0 
2017-09-05 13:46:38, 38, 30400000, 1, 0 
2017-09-05 13:46:38, 37, 29600000, 2, 0 
2017-09-05 13:46:38, 37, 29600000, 3, 0 
2017-09-05 13:46:38, 37, 29600000, 4, 0 
2017-09-05 13:46:38, 39, 31200000, 5, 0 
2017-09-05 13:46:38, 38, 30400000, 6, 0 
2017-09-05 13:46:38, 38, 30400000, 7, 0 
2017-09-05 13:46:38, 38, 30400000, 8, 0 
2017-09-05 13:46:38, 37, 29600000, 9, 0 
2017-09-05 13:46:38, 38, 30400000, 10, 0 
2017-09-05 13:46:38, 38, 30400000, 11, 0 
2017-09-05 13:46:38, 38, 30400000, 12, 0 
2017-09-05 13:46:38, 37, 29600000, 13, 0 
2017-09-05 13:46:38, 37, 29600000, 14, 0 
2017-09-05 13:46:38, 38, 30400000, 15, 0 
2017-09-05 13:46:38, 37, 29600000, 16, 0 
2017-09-05 13:46:38, 39, 31200000, 17, 0 
2017-09-05 13:46:38, 37, 29600000, 18, 0 
2017-09-05 13:46:38, 39, 31200000, 19, 0 
2017-09-05 13:46:38, 38, 30400000, 20, 0 
2017-09-05 13:46:38, 38, 30400000, 21, 0 
2017-09-05 13:46:38, 38, 30400000, 22, 0 
2017-09-05 13:46:38, 38, 30400000, 23, 0 
2017-09-05 13:46:38, 37, 29600000, 24, 0 
2017-09-05 13:46:38, 39, 31200000, 25, 0 
2017-09-05 13:46:38, 38, 30400000, 26, 0 
2017-09-05 13:46:38, 37, 29600000, 27, 0 
2017-09-05 13:46:38, 37, 29600000, 28, 0 
2017-09-05 13:46:38, 38, 30400000, 29, 0 
2017-09-05 13:46:38, 39, 31200000, 30, 0 
2017-09-05 13:46:38, 39, 31200000, 31, 0 
2017-09-05 13:46:38, 37, 29600000, 32, 0 
2017-09-05 13:46:38, 38, 30400000, 33, 0 
2017-09-05 13:46:38, 39, 31200000, 34, 0 
2017-09-05 13:46:38, 37, 29600000, 35, 0 
2017-09-05 13:46:38, 37, 29600000, 36, 0 
2017-09-05 13:46:38, 38, 30400000, 37, 0 
2017-09-05 13:46:38, 38, 30400000, 38, 0 
2017-09-05 13:46:38, 38, 30400000, 39, 0 
2017-09-05 13:46:38, 37, 29600000, 40, 0 
2017-09-05 13:46:38, 39, 31200000, 41, 0 
2017-09-05 13:46:38, 38, 30400000, 42, 0 
2017-09-05 13:46:38, 37, 29600000, 43, 0 
2017-09-05 13:46:38, 38, 30400000, 44, 0 
2017-09-05 13:46:38, 38, 30400000, 45, 0 
2017-09-05 13:46:38, 37, 29600000, 46, 0 
2017-09-05 13:46:38, 38, 30400000, 47, 0 
2017-09-05 13:46:38, 38, 30400000, 48, 0 
2017-09-05 13:46:38, 39, 31200000, 49, 0 
2017-09-05 13:46:38, 38, 30400000, 50, 0 
2017-09-05 13:46:38, 37, 29600000, 51, 0 
2017-09-05 13:46:38, 38, 30400000, 52, 0 
2017-09-05 13:46:38, 37, 29600000, 53, 0 
2017-09-05 13:46:38, 38, 30400000, 54, 0 
2017-09-05 13:46:38, 39, 31200000, 55, 0 
2017-09-05 13:46:38, 37, 29600000, 56, 0 
2017-09-05 13:46:38, 37, 29600000, 57, 0 
2017-09-05 13:46:38, 39, 31200000, 58, 0 
2017-09-05 13:46:38, 38, 30400000, 59, 0 
2017-09-05 13:46:38, 38, 30400000, 60, 0 
2017-09-05 13:46:38, 38, 30400000, 61, 0 
2017-09-05 13:46:38, 38, 30400000, 62, 0 
2017-09-05 13:46:38, 38, 30400000, 63, 0 
2017-09-05 13:46:38, 38, 30400000, 64, 0 
2017-09-05 13:46:38, 38, 30400000, 65, 0 
2017-09-05 13:46:38, 37, 29600000, 66, 0 
2017-09-05 13:46:38, 38, 30400000, 67, 0 
2017-09-05 13:46:38, 38, 30400000, 68, 0 
2017-09-05 13:46:38, 39, 31200000, 69, 0 
2017-09-05 13:46:38, 39, 31200000, 70, 0 
2017-09-05 13:46:38, 38, 30400000, 71, 0 
2017-09-05 13:46:38, 39, 31200000, 72, 0 
2017-09-05 13:46:38, 37, 29600000, 73, 0 
2017-09-05 13:46:38, 38, 30400000, 74, 0 
2017-09-05 13:46:38, 37, 29600000, 75, 0 
2017-09-05 13:46:38, 38, 30400000, 76, 0 
2017-09-05 13:46:38, 37, 29600000, 77, 0 
2017-09-05 13:46:38, 37, 29600000, 78, 0 
2017-09-05 13:46:38, 37, 29600000, 79, 0 
2017-09-05 13:46:38, 38, 30400000, 80, 0 
2017-09-05 13:46:38, 38, 30400000, 81, 0 
2017-09-05 13:46:38, 38, 30400000, 82, 0 
2017-09-05 13:46:38, 38, 30400000, 83, 0 
2017-09-05 13:46:38, 38, 30400000, 84, 0 
2017-09-05 13:46:38, 38, 30400000, 85, 0 
2017-09-05 13:46:38, 38, 30400000, 86, 0 
2017-09-05 13:46:38, 38, 30400000, 87, 0 
2017-09-05 13:46:38, 38, 30400000, 88, 0 
2017-09-05 13:46:38, 38, 30400000, 89, 0 
2017-09-05 13:46:38, 38, 30400000, 90, 0 
2017-09-05 13:46:38, 37, 29600000, 91, 0 
2017-09-05 13:46:38, 38, 30400000, 92, 0 
2017-09-05 13:46:38, 38, 30400000, 93, 0 
2017-09-05 13:46:38, 37, 29600000, 94, 0 
2017-09-05 13:46:38, 38, 30400000, 95, 0 
2017-09-05 13:46:38, 39, 31200000, 96, 0 
2017-09-05 13:46:38, 38, 30400000, 97, 0 
2017-09-05 13:46:38, 38, 30400000, 98, 0 
2017-09-05 13:46:38, 38, 30400000, 99, 0 
2017-09-05 13:46:38, 39, 31200000, 100, 0 
2017-09-05 13:46:38, 38, 30400000, 101, 0 
2017-09-05 13:46:38, 37, 29600000, 102, 0 
2017-09-05 13:46:38, 37, 29600000, 103, 0 
2017-09-05 13:46:38, 37, 29600000, 104, 0 
2017-09-05 13:46:38, 37, 29600000, 105, 0 
2017-09-05 13:46:38, 37, 29600000, 106, 0 
2017-09-05 13:46:38, 38, 30400000, 107, 0 
2017-09-05 13:46:38, 38, 30400000, 108, 0 
2017-09-05 13:46:38, 37, 29600000, 109, 0 
2017-09-05 13:46:38, 37, 29600000, 110, 0 
2017-09-05 13:46:38, 38, 30400000, 111, 0 
2017-09-05 13:46:38, 38, 30400000, 112, 0 
2017-09-05 13:46:38, 38, 30400000, 113, 0 
2017-09-05 13:46:38, 38, 30400000, 114, 0 
2017-09-05 13:46:38, 38, 30400000, 115, 0 
2017-09-05 13:46:38, 38, 30400000, 116, 0 
2017-09-05 13:46:38, 38, 30400000, 117, 0 
2017-09-05 13:46:38, 37, 29600000, 118, 0 
2017-09-05 13:46:38, 38, 30400000, 119, 0 
2017-09-05 13:46:38, 38, 30400000, 120, 0 
2017-09-05 13:46:38, 37, 29600000, 121, 0 
2017-09-05 13:46:38, 38, 30400000, 122, 0 
2017-09-05 13:46:38, 37, 29600000, 123, 0 
2017-09-05 13:46:38, 37, 29600000, 124, 0 
2017-09-05 13:46:38, 37, 29600000, 125, 0 
2017-09-05 13:46:38, 39, 31200000, 126, 0 
2017-09-05 13:46:38, 38, 30400000, 127, 0 
2017-09-05 13:46:38, 37, 29600000, 128, 0 
2017-09-05 13:46:38, 37, 29600000, 129, 0 
2017-09-05 13:46:38, 37, 29600000, 130, 0 
2017-09-05 13:46:38, 38, 30400000, 131, 0 
2017-09-05 13:46:38, 38, 30400000, 132, 0 
2017-09-05 13:46:38, 38, 30400000, 133, 0 
2017-09-05 13:46:38, 38, 30400000, 134, 0 
2017-09-05 13:46:38, 38, 30400000, 135, 0 
2017-09-05 13:46:38, 38, 30400000, 136, 0 
2017-09-05 13:46:38, 38, 30400000, 137, 0 
2017-09-05 13:46:38, 38, 30400000, 138, 0 
2017-09-05 13:46:38, 38, 30400000, 139, 0 
2017-09-05 13:46:38, 38, 30400000, 140, 0 
2017-09-05 13:46:38, 38, 30400000, 141, 0 
2017-09-05 13:46:38, 38, 30400000, 142, 0 
2017-09-05 13:46:38, 38, 30400000, 143, 0 
2017-09-05 13:46:38, 38, 30400000, 144, 0 
2017-09-05 13:46:39, 37, 29600000, 145, 0 
2017-09-05 13:46:39, 38, 30400000, 146, 0 
2017-09-05 13:46:39, 38, 30400000, 147, 0 
2017-09-05 13:46:39, 38, 30400000, 148, 0 
2017-09-05 13:46:39, 37, 29600000, 149, 0 
2017-09-05 13:46:39, 37, 29600000, 150, 0 
2017-09-05 13:46:39, 38, 30400000, 151, 0 
2017-09-05 13:46:39, 39, 31200000, 152, 0 
2017-09-05 13:46:39, 37, 29600000, 153, 0 
2017-09-05 13:46:39, 37, 29600000, 154, 0 
2017-09-05 13:46:39, 38, 30400000, 155, 0 
2017-09-05 13:46:39, 37, 29600000, 156, 0 
2017-09-05 13:46:39, 38, 30400000, 157, 0 
2017-09-05 13:46:39, 38, 30400000, 158, 0 
2017-09-05 13:46:39, 39, 31200000, 159, 0 
2017-09-05 13:46:39, 39, 31200000, 160, 0 
2017-09-05 13:46:39, 38, 30400000, 161, 0 
2017-09-05 13:46:39, 37, 29600000, 162, 0 
2017-09-05 13:46:39, 38, 30400000, 163, 0 
2017-09-05 13:46:39, 38, 30400000, 164, 0 
2017-09-05 13:46:39, 38, 30400000, 165, 0 
2017-09-05 13:46:39, 37, 29600000, 166, 0 
2017-09-05 13:46:39, 39, 31200000, 167, 0 
2017-09-05 13:46:39, 38, 30400000, 168, 0 
2017-09-05 13:46:39, 38, 30400000, 169, 0 
2017-09-05 13:46:39, 39, 31200000, 170, 0 
2017-09-05 13:46:39, 38, 30400000, 171, 0 
2017-09-05 13:46:39, 37, 29600000, 172, 0 
2017-09-05 13:46:39, 38, 30400000, 173, 0 
2017-09-05 13:46:39, 38, 30400000, 174, 0 
2017-09-05 13:46:39, 37, 29600000, 175, 0 
2017-09-05 13:46:39, 37, 29600000, 176, 0 
2017-09-05 13:46:39, 38, 30400000, 177, 0 
2017-09-05 13:46:39, 38, 30400000, 178, 0 
2017-09-05 13:46:39, 38, 30400000, 179, 0 
2017-09-05 13:46:39, 39, 31200000, 180, 0 
2017-09-05 13:46:39, 37, 29600000, 181, 0 
2017-09-05 13:46:39, 37, 29600000, 182, 0 
2017-09-05 13:46:39, 38, 30400000, 183, 0 
2017-09-05 13:46:39, 38, 30400000, 184, 0 
2017-09-05 13:46:39, 38, 30400000, 185, 0 
2017-09-05 13:46:39, 38, 30400000, 186, 0 
2017-09-05 13:46:39, 37, 29600000, 187, 0 
2017-09-05 13:46:39, 37, 29600000, 188, 0 
2017-09-05 13:46:39, 38, 30400000, 189, 0 
2017-09-05 13:46:39, 38, 30400000, 190, 0 
2017-09-05 13:46:39, 38, 30400000, 191, 0 
2017-09-05 13:46:39, 38, 30400000, 192, 0 
2017-09-05 13:46:39, 37, 29600000, 193, 0 
2017-09-05 13:46:39, 38, 30400000, 194, 0 
2017-09-05 13:46:39, 37, 29600000, 195, 0 
2017-09-05 13:46:39, 38, 30400000, 196, 0 
2017-09-05 13:46:39, 37, 29600000, 197, 0 
2017-09-05 13:46:39, 37, 29600000, 198, 0 
2017-09-05 13:46:39, 37, 29600000, 199, 0 
2017-09-05 13:46:43,0, 733, 44, 100, 25, 15, 131, 130, 139, 128, 0 
2017-09-05 13:46:43, 0, 733, 44, 200, 25, 15, 130, 130, 139, 128, 1 
2017-09-05 13:46:44, 0, 733, 55, 100, 59, 32, 298, 297, 330, 295, 0 
2017-09-05 13:46:45, 0, 733, 55, 200, 59, 32, 298, 296, 330, 295, 1 
2017-09-05 13:46:45, 0, 733, 66, 100, 41, 23, 214, 214, 229, 215, 0 
2017-09-05 13:46:46, 0, 733, 66, 200, 41, 23, 214, 213, 229, 215, 1 
2017-09-05 13:46:47, 0, 733, 77, 100, 37, 21, 193, 193, 203, 192, 0 
2017-09-05 13:46:47, 0, 733, 77, 200, 37, 21, 193, 192, 203, 192, 1 
2017-09-05 13:46:48, 1, 733, 44, 100, 32, 18, 164, 164, 172, 164, 0 
2017-09-05 13:46:49, 1, 733, 44, 200, 32, 18, 164, 163, 172, 164, 1 
2017-09-05 13:46:50, 1, 733, 55, 100, 60, 33, 306, 305, 335, 304, 0 
2017-09-05 13:46:51, 1, 733, 55, 200, 60, 33, 306, 305, 335, 304, 0 
2017-09-05 13:46:51, 1, 733, 66, 100, 42, 24, 218, 217, 233, 216, 0 
2017-09-05 13:46:52, 1, 733, 66, 200, 42, 24, 218, 216, 233, 216, 1 
2017-09-05 13:46:53, 1, 733, 77, 100, 38, 22, 196, 195, 207, 193, 0 
2017-09-05 13:46:53, 1, 733, 77, 200, 38, 22, 196, 195, 208, 193, 1 
2017-09-05 13:46:54, 2, 717, 44, 100, 32, 18, 166, 165, 177, 164, 0 
2017-09-05 13:46:55, 2, 717, 44, 200, 32, 18, 166, 165, 177, 164, 0 
2017-09-05 13:46:56, 2, 717, 55, 100, 61, 33, 310, 308, 340, 308, 0 
2017-09-05 13:46:56, 2, 717, 55, 200, 61, 33, 309, 308, 340, 308, 1 
2017-09-05 13:46:57, 2, 717, 66, 100, 43, 24, 220, 220, 234, 221, 0 
2017-09-05 13:46:58, 2, 717, 66, 200, 43, 24, 220, 219, 234, 221, 1 
2017-09-05 13:46:59, 2, 717, 77, 100, 38, 22, 198, 197, 208, 198, 0 
2017-09-05 13:46:59, 2, 717, 77, 200, 38, 22, 198, 197, 208, 198, 0 
2017-09-05 13:47:00, 3, 708, 44, 100, 32, 18, 169, 167, 177, 165, 0 
2017-09-05 13:47:01, 3, 708, 44, 200, 32, 19, 169, 167, 177, 166, 2 
2017-09-05 13:47:02, 3, 708, 55, 100, 61, 33, 313, 311, 344, 308, 0 
2017-09-05 13:47:02, 3, 708, 55, 200, 61, 33, 313, 310, 344, 308, 1 
2017-09-05 13:47:03, 3, 708, 66, 100, 43, 24, 223, 222, 239, 221, 0 
2017-09-05 13:47:04, 3, 708, 66, 200, 43, 24, 223, 222, 239, 221, 0 
2017-09-05 13:47:05, 3, 708, 77, 100, 39, 22, 201, 200, 212, 199, 0 
2017-09-05 13:47:05, 3, 708, 77, 200, 39, 22, 201, 200, 212, 198, 1 
2017-09-05 13:47:06, 4, 699, 44, 100, 33, 19, 171, 170, 182, 169, 0 
2017-09-05 13:47:07, 4, 699, 44, 200, 33, 19, 171, 170, 182, 169, 0 
2017-09-05 13:47:08, 4, 699, 55, 100, 61, 33, 315, 314, 349, 313, 0 
2017-09-05 13:47:08, 4, 699, 55, 200, 61, 33, 315, 313, 349, 313, 1 
2017-09-05 13:47:09, 4, 699, 66, 100, 43, 24, 226, 225, 244, 226, 0 
2017-09-05 13:47:10, 4, 699, 66, 200, 43, 24, 226, 224, 244, 226, 1 
2017-09-05 13:47:10, 4, 699, 77, 100, 39, 22, 203, 202, 215, 203, 0 
2017-09-05 13:47:11, 4, 699, 77, 200, 39, 22, 203, 202, 214, 203, 1 
2017-09-05 13:47:12, 5, 690, 44, 100, 33, 19, 173, 172, 182, 169, 0 
2017-09-05 13:47:13, 5, 690, 44, 200, 33, 19, 173, 172, 182, 169, 0 
2017-09-05 13:47:14, 5, 690, 55, 100, 61, 33, 318, 317, 350, 318, 0 
2017-09-05 13:47:14, 5, 690, 55, 200, 61, 33, 318, 317, 352, 318, 0 
2017-09-05 13:47:15, 5, 690, 66, 100, 44, 24, 228, 227, 244, 227, 0 
2017-09-05 13:47:16, 5, 690, 66, 200, 44, 24, 228, 227, 244, 227, 0 
2017-09-05 13:47:16, 5, 690, 77, 100, 39, 22, 206, 204, 217, 203, 0 
2017-09-05 13:47:17, 5, 690, 77, 200, 39, 22, 206, 204, 217, 203, 0 
2017-09-05 13:47:18, 6, 681, 44, 100, 33, 19, 175, 174, 187, 173, 0 
2017-09-05 13:47:19, 6, 681, 44, 200, 33, 18, 175, 174, 186, 173, 2 
2017-09-05 13:47:20, 6, 681, 55, 100, 61, 33, 321, 320, 354, 320, 0 
2017-09-05 13:47:20, 6, 681, 55, 200, 61, 33, 321, 320, 354, 319, 1 
2017-09-05 13:47:21, 6, 681, 66, 100, 44, 24, 231, 229, 249, 232, 0 
2017-09-05 13:47:22, 6, 681, 66, 200, 44, 24, 231, 229, 249, 232, 0 
2017-09-05 13:47:22, 6, 681, 77, 100, 39, 22, 208, 207, 221, 208, 0 
2017-09-05 13:47:23, 6, 681, 77, 200, 39, 22, 208, 207, 220, 208, 1 
2017-09-05 13:47:24, 7, 671, 44, 100, 33, 18, 177, 177, 187, 174, 0 
2017-09-05 13:47:25, 7, 671, 44, 200, 33, 18, 177, 177, 187, 174, 0 
2017-09-05 13:47:25, 7, 671, 55, 100, 62, 32, 325, 323, 358, 323, 0 
2017-09-05 13:47:26, 7, 671, 55, 200, 62, 32, 325, 323, 358, 323, 0 
2017-09-05 13:47:27, 7, 671, 66, 100, 44, 24, 233, 232, 249, 232, 0 
2017-09-05 13:47:27, 7, 671, 66, 200, 44, 24, 233, 232, 249, 232, 0 
2017-09-05 13:47:28, 7, 671, 77, 100, 39, 22, 210, 209, 222, 208, 0 
2017-09-05 13:47:29, 7, 671, 77, 200, 39, 22, 210, 209, 222, 208, 0 
2017-09-05 13:47:30, 8, 659, 44, 100, 33, 18, 180, 179, 192, 179, 0 
2017-09-05 13:47:31, 8, 659, 44, 200, 33, 18, 180, 179, 192, 179, 0 
2017-09-05 13:47:31, 8, 659, 55, 100, 62, 32, 328, 327, 363, 327, 0 
2017-09-05 13:47:32, 8, 659, 55, 200, 62, 32, 328, 326, 363, 327, 1 
2017-09-05 13:47:33, 8, 659, 66, 100, 44, 24, 236, 235, 254, 237, 0 
2017-09-05 13:47:33, 8, 659, 66, 200, 44, 24, 236, 235, 254, 237, 0 
2017-09-05 13:47:34, 8, 659, 77, 100, 39, 21, 213, 212, 227, 213, 0 
2017-09-05 13:47:35, 8, 659, 77, 200, 39, 22, 213, 212, 227, 213, 1 
2017-09-05 13:47:36, 9, 646, 44, 100, 33, 18, 183, 182, 192, 180, 0 
2017-09-05 13:47:37, 9, 646, 44, 200, 33, 18, 183, 182, 192, 180, 0 
2017-09-05 13:47:37, 9, 646, 55, 100, 62, 32, 333, 331, 371, 332, 0 
2017-09-05 13:47:38, 9, 646, 55, 200, 62, 32, 332, 330, 370, 332, 3 
2017-09-05 13:47:39, 9, 646, 66, 100, 44, 23, 240, 239, 259, 242, 0 
2017-09-05 13:47:39, 9, 646, 66, 200, 44, 23, 240, 239, 259, 242, 0 
2017-09-05 13:47:40, 9, 646, 77, 100, 40, 21, 217, 215, 232, 219, 0 
2017-09-05 13:47:41, 9, 646, 77, 200, 39, 21, 217, 215, 232, 219, 1 
2017-09-05 13:47:42, 10, 633, 44, 100, 33, 18, 186, 185, 197, 185, 0 
2017-09-05 13:47:43, 10, 633, 44, 200, 33, 18, 186, 185, 197, 185, 0 
2017-09-05 13:47:43, 10, 633, 55, 100, 62, 31, 337, 336, 375, 337, 0 
2017-09-05 13:47:44, 10, 633, 55, 200, 62, 31, 337, 336, 375, 337, 0 
2017-09-05 13:47:45, 10, 633, 66, 100, 44, 23, 244, 243, 264, 243, 0 
2017-09-05 13:47:45, 10, 633, 66, 200, 44, 23, 244, 242, 264, 243, 1 
2017-09-05 13:47:46, 10, 633, 77, 100, 40, 20, 220, 219, 235, 220, 0 
2017-09-05 13:47:47, 10, 633, 77, 200, 40, 20, 220, 219, 234, 220, 1 
2017-09-05 13:47:48, 11, 620, 44, 100, 33, 18, 189, 189, 202, 189, 0 
2017-09-05 13:47:48, 11, 620, 44, 200, 33, 17, 189, 188, 202, 189, 2 
2017-09-05 13:47:49, 11, 620, 55, 100, 62, 31, 343, 341, 384, 342, 0 
2017-09-05 13:47:50, 11, 620, 55, 200, 62, 30, 342, 341, 384, 342, 2 
2017-09-05 13:47:51, 11, 620, 66, 100, 44, 23, 248, 246, 270, 248, 0 
2017-09-05 13:47:51, 11, 620, 66, 200, 44, 23, 248, 246, 270, 248, 0 
2017-09-05 13:47:52, 11, 620, 77, 100, 40, 20, 224, 223, 238, 224, 0 
2017-09-05 13:47:53, 11, 620, 77, 200, 40, 20, 224, 223, 238, 224, 0 
2017-09-05 13:47:54, 12, 606, 44, 100, 33, 17, 193, 192, 206, 193, 0 
2017-09-05 13:47:54, 12, 606, 44, 200, 33, 17, 193, 192, 206, 193, 0 
2017-09-05 13:47:55, 12, 606, 55, 100, 62, 30, 349, 347, 389, 349, 0 
2017-09-05 13:47:56, 12, 606, 55, 200, 62, 30, 349, 347, 389, 349, 0 
2017-09-05 13:47:57, 12, 606, 66, 100, 44, 22, 253, 251, 275, 250, 0 
2017-09-05 13:47:57, 12, 606, 66, 200, 44, 22, 253, 251, 275, 250, 0 
2017-09-05 13:47:58, 12, 606, 77, 100, 40, 20, 229, 227, 242, 228, 0 
2017-09-05 13:47:59, 12, 606, 77, 200, 40, 20, 229, 227, 243, 228, 1 
2017-09-05 13:48:00, 13, 593, 44, 100, 33, 17, 197, 195, 211, 195, 0 
2017-09-05 13:48:00, 13, 593, 44, 200, 33, 17, 197, 195, 211, 195, 0 
2017-09-05 13:48:01, 13, 593, 55, 100, 62, 29, 355, 353, 398, 352, 0 
2017-09-05 13:48:02, 13, 593, 55, 200, 62, 29, 355, 353, 398, 352, 0 
2017-09-05 13:48:02, 13, 593, 66, 100, 44, 21, 257, 256, 281, 254, 0 
2017-09-05 13:48:03, 13, 593, 66, 200, 44, 21, 257, 256, 281, 254, 0 
2017-09-05 13:48:04, 13, 593, 77, 100, 40, 20, 233, 231, 249, 233, 1 
2017-09-05 13:48:04, 13, 593, 77, 200, 40, 20, 233, 231, 248, 233, 1 
2017-09-05 13:48:06, 14, 580, 44, 100, 33, 17, 201, 200, 216, 200, 0 
2017-09-05 13:48:06, 14, 580, 44, 200, 33, 17, 201, 200, 215, 200, 1 
2017-09-05 13:48:07, 14, 580, 55, 100, 62, 29, 362, 360, 407, 358, 0 
2017-09-05 13:48:08, 14, 580, 55, 200, 63, 29, 362, 360, 406, 359, 3 
2017-09-05 13:48:08, 14, 580, 66, 100, 44, 21, 262, 261, 286, 259, 0 
2017-09-05 13:48:09, 14, 580, 66, 200, 44, 21, 262, 261, 286, 259, 0 
2017-09-05 13:48:10, 14, 580, 77, 100, 40, 19, 237, 236, 256, 235, 0 
2017-09-05 13:48:10, 14, 580, 77, 200, 40, 19, 237, 236, 256, 235, 0 
2017-09-05 13:48:12, 15, 566, 44, 100, 33, 17, 205, 204, 221, 205, 0 
2017-09-05 13:48:12, 15, 566, 44, 200, 34, 17, 205, 204, 221, 205, 1 
2017-09-05 13:48:13, 15, 566, 55, 100, 63, 28, 369, 367, 419, 366, 0 
2017-09-05 13:48:14, 15, 566, 55, 200, 63, 28, 369, 368, 419, 366, 1 
2017-09-05 13:48:14, 15, 566, 66, 100, 44, 21, 268, 266, 292, 265, 0 
2017-09-05 13:48:15, 15, 566, 66, 200, 44, 21, 268, 267, 292, 265, 1 
2017-09-05 13:48:16, 15, 566, 77, 100, 40, 19, 242, 241, 261, 240, 0 
2017-09-05 13:48:16, 15, 566, 77, 200, 40, 19, 242, 241, 261, 240, 0 
2017-09-05 13:48:17, 16, 552, 44, 100, 34, 16, 209, 209, 226, 210, 0 
2017-09-05 13:48:18, 16, 552, 44, 200, 34, 16, 210, 209, 226, 210, 1 
2017-09-05 13:48:19, 16, 552, 55, 100, 63, 28, 377, 375, 426, 376, 0 
2017-09-05 13:48:20, 16, 552, 55, 200, 63, 28, 377, 375, 426, 376, 0 
2017-09-05 13:48:20, 16, 552, 66, 100, 44, 20, 273, 272, 302, 271, 0 
2017-09-05 13:48:21, 16, 552, 66, 200, 44, 20, 273, 272, 302, 271, 0 
2017-09-05 13:48:22, 16, 552, 77, 100, 40, 19, 248, 247, 267, 245, 1 
2017-09-05 13:48:22, 16, 552, 77, 200, 40, 19, 247, 246, 267, 245, 2 
2017-09-05 13:48:23, 17, 538, 44, 100, 34, 16, 211, 210, 227, 210, 0 
2017-09-05 13:48:24, 17, 538, 44, 200, 34, 16, 210, 210, 227, 210, 1 
2017-09-05 13:48:25, 17, 538, 55, 100, 63, 28, 377, 375, 425, 376, 0 
2017-09-05 13:48:25, 17, 538, 55, 200, 63, 27, 377, 375, 425, 376, 1 
2017-09-05 13:48:26, 17, 538, 66, 100, 44, 20, 273, 272, 301, 271, 0 
2017-09-05 13:48:27, 17, 538, 66, 200, 44, 20, 273, 272, 301, 271, 0 
2017-09-05 13:48:28, 17, 538, 77, 100, 40, 19, 247, 246, 267, 245, 1 
2017-09-05 13:48:28, 17, 538, 77, 200, 40, 19, 247, 246, 267, 245, 0 
2017-09-05 13:48:29, 18, 538, 44, 100, 34, 16, 211, 210, 227, 210, 0 
2017-09-05 13:48:30, 18, 538, 44, 200, 34, 16, 210, 210, 227, 210, 1 
2017-09-05 13:48:31, 18, 538, 55, 100, 63, 28, 377, 375, 425, 376, 0 
2017-09-05 13:48:31, 18, 538, 55, 200, 63, 28, 377, 375, 425, 376, 0 
2017-09-05 13:48:32, 18, 538, 66, 100, 44, 20, 273, 272, 301, 271, 0 
2017-09-05 13:48:33, 18, 538, 66, 200, 44, 20, 273, 272, 301, 271, 0 
2017-09-05 13:48:34, 18, 538, 77, 100, 40, 19, 247, 246, 267, 245, 1 
2017-09-05 13:48:34, 18, 538, 77, 200, 40, 19, 247, 246, 267, 245, 0 
2017-09-05 13:48:35, 19, 538, 44, 100, 34, 16, 210, 210, 227, 210, 0 
2017-09-05 13:48:36, 19, 538, 44, 200, 34, 16, 211, 209, 227, 210, 2 
2017-09-05 13:48:37, 19, 538, 55, 100, 63, 28, 377, 375, 425, 376, 0 
2017-09-05 13:48:37, 19, 538, 55, 200, 63, 28, 377, 375, 425, 376, 0 
2017-09-05 13:48:38, 19, 538, 66, 100, 44, 20, 273, 272, 301, 271, 0 
2017-09-05 13:48:39, 19, 538, 66, 200, 44, 20, 273, 272, 301, 271, 0 
2017-09-05 13:48:39, 19, 538, 77, 100, 40, 19, 247, 246, 267, 245, 1 
2017-09-05 13:48:40, 19, 538, 77, 200, 40, 19, 248, 246, 267, 245, 1 
2017-09-05 13:48:41, 20, 538, 44, 100, 34, 16, 210, 210, 227, 210, 0 
2017-09-05 13:48:42, 20, 538, 44, 200, 34, 16, 211, 210, 227, 210, 1 
2017-09-05 13:48:43, 20, 538, 55, 100, 63, 28, 377, 375, 425, 376, 0 
2017-09-05 13:48:43, 20, 538, 55, 200, 63, 28, 377, 376, 425, 376, 1 
2017-09-05 13:48:44, 20, 538, 66, 100, 45, 20, 273, 272, 301, 271, 0 
2017-09-05 13:48:45, 20, 538, 66, 200, 44, 20, 273, 272, 301, 271, 1 
2017-09-05 13:48:45, 20, 538, 77, 100, 40, 19, 247, 246, 267, 245, 1 
2017-09-05 13:48:46, 20, 538, 77, 200, 40, 19, 248, 246, 267, 245, 1 
2017-09-05 13:48:47, 21, 538, 44, 100, 33, 16, 210, 209, 227, 210, 0 
2017-09-05 13:48:48, 21, 538, 44, 200, 34, 16, 211, 209, 227, 210, 2 
2017-09-05 13:48:49, 21, 538, 55, 100, 63, 28, 377, 375, 425, 376, 0 
2017-09-05 13:48:49, 21, 538, 55, 200, 63, 28, 377, 375, 425, 376, 0 
2017-09-05 13:48:50, 21, 538, 66, 100, 44, 20, 273, 272, 301, 271, 0 
2017-09-05 13:48:51, 21, 538, 66, 200, 44, 20, 274, 272, 301, 271, 1 
2017-09-05 13:48:51, 21, 538, 77, 100, 40, 19, 248, 246, 267, 245, 1 
2017-09-05 13:48:52, 21, 538, 77, 200, 40, 19, 247, 246, 267, 245, 1 
2017-09-05 13:48:53, 22, 538, 44, 100, 34, 16, 210, 210, 227, 210, 0 
2017-09-05 13:48:54, 22, 538, 44, 200, 33, 16, 210, 210, 227, 210, 1 
2017-09-05 13:48:54, 22, 538, 55, 100, 63, 28, 377, 375, 425, 376, 0 
2017-09-05 13:48:55, 22, 538, 55, 200, 63, 28, 377, 375, 425, 376, 0 
2017-09-05 13:48:56, 22, 538, 66, 100, 44, 20, 273, 272, 301, 271, 0 
2017-09-05 13:48:57, 22, 538, 66, 200, 45, 20, 273, 272, 301, 271, 1 
2017-09-05 13:48:57, 22, 538, 77, 100, 40, 19, 247, 246, 267, 245, 1 
2017-09-05 13:48:58, 22, 538, 77, 200, 40, 19, 247, 246, 267, 245, 0 
2017-09-05 13:48:59, 23, 538, 44, 100, 33, 16, 210, 210, 227, 210, 0 
2017-09-05 13:49:00, 23, 538, 44, 200, 33, 16, 210, 209, 227, 210, 1 
2017-09-05 13:49:00, 23, 538, 55, 100, 63, 27, 377, 375, 425, 376, 0 
2017-09-05 13:49:01, 23, 538, 55, 200, 63, 28, 377, 375, 425, 376, 1 
2017-09-05 13:49:02, 23, 538, 66, 100, 44, 20, 273, 272, 301, 271, 0 
2017-09-05 13:49:02, 23, 538, 66, 200, 44, 20, 273, 272, 301, 271, 0 
2017-09-05 13:49:03, 23, 538, 77, 100, 40, 19, 247, 246, 267, 245, 1 
2017-09-05 13:49:04, 23, 538, 77, 200, 40, 19, 247, 246, 267, 245, 0 
2017-09-05 13:49:05, 24, 538, 44, 100, 33, 16, 210, 210, 227, 210, 0 
2017-09-05 13:49:06, 24, 538, 44, 200, 34, 16, 211, 209, 227, 210, 3 
2017-09-05 13:49:06, 24, 538, 55, 100, 63, 27, 377, 375, 426, 376, 0 
2017-09-05 13:49:07, 24, 538, 55, 200, 63, 27, 377, 375, 425, 376, 1 
2017-09-05 13:49:08, 24, 538, 66, 100, 45, 20, 273, 272, 302, 271, 0 
2017-09-05 13:49:08, 24, 538, 66, 200, 45, 20, 273, 272, 301, 271, 1 
2017-09-05 13:49:09, 24, 538, 77, 100, 40, 19, 247, 246, 267, 245, 1 
2017-09-05 13:49:10, 24, 538, 77, 200, 40, 19, 247, 246, 267, 245, 0 
2017-09-05 13:49:11, 25, 538, 44, 100, 34, 16, 210, 210, 227, 210, 0 
2017-09-05 13:49:12, 25, 538, 44, 200, 34, 16, 210, 210, 227, 210, 0 
2017-09-05 13:49:12, 25, 538, 55, 100, 63, 28, 377, 375, 425, 376, 0 
2017-09-05 13:49:13, 25, 538, 55, 200, 63, 28, 377, 375, 425, 376, 0 
2017-09-05 13:49:14, 25, 538, 66, 100, 44, 20, 273, 272, 301, 271, 0 
2017-09-05 13:49:14, 25, 538, 66, 200, 44, 20, 273, 272, 301, 271, 0 
2017-09-05 13:49:15, 25, 538, 77, 100, 40, 19, 247, 246, 267, 245, 1 
2017-09-05 13:49:16, 25, 538, 77, 200, 40, 19, 247, 246, 267, 245, 0 
2017-09-05 13:49:17, 26, 538, 44, 100, 34, 16, 210, 210, 227, 210, 0 
2017-09-05 13:49:17, 26, 538, 44, 200, 34, 16, 210, 210, 227, 210, 0 
2017-09-05 13:49:18, 26, 538, 55, 100, 63, 27, 377, 375, 425, 376, 0 
2017-09-05 13:49:19, 26, 538, 55, 200, 63, 28, 377, 375, 425, 376, 1 
2017-09-05 13:49:20, 26, 538, 66, 100, 44, 20, 273, 272, 301, 271, 0 
2017-09-05 13:49:20, 26, 538, 66, 200, 45, 20, 273, 272, 301, 271, 1 
2017-09-05 13:49:21, 26, 538, 77, 100, 40, 19, 247, 246, 267, 245, 1 
2017-09-05 13:49:22, 26, 538, 77, 200, 40, 19, 247, 246, 267, 245, 0 
2017-09-05 13:49:23, 27, 538, 44, 100, 34, 16, 210, 209, 227, 210, 0 
2017-09-05 13:49:23, 27, 538, 44, 200, 34, 16, 210, 210, 227, 210, 1 
2017-09-05 13:49:24, 27, 538, 55, 100, 63, 28, 376, 374, 425, 376, 0 
2017-09-05 13:49:25, 27, 538, 55, 200, 63, 27, 377, 375, 425, 376, 3 
2017-09-05 13:49:26, 27, 538, 66, 100, 44, 20, 273, 272, 301, 271, 0 
2017-09-05 13:49:26, 27, 538, 66, 200, 44, 20, 273, 272, 301, 271, 0 
2017-09-05 13:49:27, 27, 538, 77, 100, 40, 19, 247, 246, 267, 245, 1 
2017-09-05 13:49:28, 27, 538, 77, 200, 40, 19, 247, 246, 267, 245, 0 
2017-09-05 13:49:29, 28, 538, 44, 100, 34, 16, 210, 210, 227, 210, 0 
2017-09-05 13:49:29, 28, 538, 44, 200, 34, 16, 210, 209, 227, 210, 1 
2017-09-05 13:49:30, 28, 538, 55, 100, 63, 28, 377, 375, 425, 376, 0 
2017-09-05 13:49:31, 28, 538, 55, 200, 63, 27, 377, 375, 425, 376, 1 
2017-09-05 13:49:31, 28, 538, 66, 100, 44, 20, 273, 272, 301, 271, 0 
2017-09-05 13:49:32, 28, 538, 66, 200, 44, 20, 273, 272, 301, 271, 0 
2017-09-05 13:49:33, 28, 538, 77, 100, 40, 19, 247, 246, 267, 245, 1 
2017-09-05 13:49:34, 28, 538, 77, 200, 40, 19, 248, 246, 267, 245, 1 
2017-09-05 13:49:35, 29, 538, 44, 100, 34, 16, 210, 209, 227, 210, 0 
2017-09-05 13:49:35, 29, 538, 44, 200, 34, 16, 210, 210, 227, 210, 1 
2017-09-05 13:49:36, 29, 538, 55, 100, 62, 28, 377, 375, 425, 376, 0 
2017-09-05 13:49:37, 29, 538, 55, 200, 63, 27, 377, 375, 425, 376, 2 
2017-09-05 13:49:37, 29, 538, 66, 100, 44, 20, 273, 272, 301, 271, 0 
2017-09-05 13:49:38, 29, 538, 66, 200, 44, 20, 273, 272, 301, 271, 0 
2017-09-05 13:49:39, 29, 538, 77, 100, 40, 19, 247, 246, 267, 245, 1 
2017-09-05 13:49:39, 29, 538, 77, 200, 40, 19, 247, 246, 267, 245, 0 
2017-09-05 13:49:41, 30, 538, 44, 100, 34, 16, 210, 209, 227, 210, 0 
2017-09-05 13:49:41, 30, 538, 44, 200, 34, 16, 210, 210, 227, 210, 1 
2017-09-05 13:49:42, 30, 538, 55, 100, 63, 28, 377, 374, 425, 376, 0 
2017-09-05 13:49:43, 30, 538, 55, 200, 63, 28, 377, 375, 425, 376, 1 
2017-09-05 13:49:43, 30, 538, 66, 100, 45, 20, 273, 272, 301, 271, 0 
2017-09-05 13:49:44, 30, 538, 66, 200, 44, 20, 273, 272, 301, 271, 1 
2017-09-05 13:49:45, 30, 538, 77, 100, 40, 19, 247, 246, 267, 245, 1 
2017-09-05 13:49:45, 30, 538, 77, 200, 40, 19, 247, 246, 267, 245, 0 
2017-09-05 13:49:47, 31, 538, 44, 100, 34, 16, 211, 210, 227, 210, 0 
2017-09-05 13:49:47, 31, 538, 44, 200, 34, 16, 210, 210, 227, 210, 1 
2017-09-05 13:49:48, 31, 538, 55, 100, 63, 28, 377, 375, 425, 376, 0 
2017-09-05 13:49:49, 31, 538, 55, 200, 63, 28, 377, 375, 425, 376, 0 
2017-09-05 13:49:49, 31, 538, 66, 100, 44, 20, 273, 272, 301, 271, 0 
2017-09-05 13:49:50, 31, 538, 66, 200, 44, 20, 273, 272, 301, 271, 0 
2017-09-05 13:49:51, 31, 538, 77, 100, 40, 19, 247, 246, 267, 245, 1 
2017-09-05 13:49:51, 31, 538, 77, 200, 40, 19, 247, 246, 267, 245, 0 
2017-09-05 13:49:52, 32, 538, 44, 100, 31, 18, 172, 171, 183, 168, 1 
2017-09-05 13:49:53, 32, 538, 44, 200, 31, 18, 172, 171, 183, 168, 0 
2017-09-05 13:49:54, 32, 538, 55, 100, 59, 33, 305, 303, 336, 301, 0 
2017-09-05 13:49:54, 32, 538, 55, 200, 60, 33, 305, 303, 336, 301, 1 
2017-09-05 13:49:55, 32, 538, 66, 100, 41, 23, 215, 215, 230, 216, 0 
2017-09-05 13:49:56, 32, 538, 66, 200, 42, 23, 215, 215, 230, 216, 1 
2017-09-05 13:49:57, 32, 538, 77, 100, 37, 21, 193, 193, 203, 193, 0 
2017-09-05 13:49:57, 32, 538, 77, 200, 38, 21, 193, 193, 203, 193, 1 
2017-09-05 13:49:58, 33, 725, 44, 100, 32, 18, 164, 164, 172, 164, 0 
2017-09-05 13:49:59, 33, 725, 44, 200, 32, 18, 164, 164, 172, 164, 0 
2017-09-05 13:50:00, 33, 725, 55, 100, 60, 33, 306, 305, 335, 304, 0 
2017-09-05 13:50:00, 33, 725, 55, 200, 60, 33, 306, 304, 335, 304, 1 
2017-09-05 13:50:01, 33, 725, 66, 100, 42, 24, 218, 217, 233, 216, 0 
2017-09-05 13:50:02, 33, 725, 66, 200, 42, 24, 218, 216, 233, 216, 1 
2017-09-05 13:50:03, 33, 725, 77, 100, 38, 22, 196, 195, 207, 193, 0 
2017-09-05 13:50:03, 33, 725, 77, 200, 38, 22, 196, 195, 207, 193, 0 
2017-09-05 13:50:04, 34, 717, 44, 100, 32, 18, 166, 165, 177, 164, 0 
2017-09-05 13:50:05, 34, 717, 44, 200, 32, 18, 166, 165, 177, 164, 0 
2017-09-05 13:50:06, 34, 717, 55, 100, 61, 33, 309, 308, 340, 308, 0 
2017-09-05 13:50:06, 34, 717, 55, 200, 61, 33, 309, 308, 340, 308, 0 
2017-09-05 13:50:07, 34, 717, 66, 100, 43, 24, 220, 219, 234, 221, 0 
2017-09-05 13:50:08, 34, 717, 66, 200, 43, 24, 220, 219, 234, 221, 0 
2017-09-05 13:50:08, 34, 717, 77, 100, 38, 22, 198, 197, 208, 198, 0 
2017-09-05 13:50:09, 34, 717, 77, 200, 38, 22, 198, 197, 208, 198, 0 
2017-09-05 13:50:10, 35, 708, 44, 100, 32, 18, 168, 167, 177, 165, 0 
2017-09-05 13:50:11, 35, 708, 44, 200, 32, 18, 168, 167, 177, 165, 0 
2017-09-05 13:50:12, 35, 708, 55, 100, 61, 33, 312, 311, 344, 309, 0 
2017-09-05 13:50:12, 35, 708, 55, 200, 61, 33, 312, 310, 344, 308, 2 
2017-09-05 13:50:13, 35, 708, 66, 100, 43, 24, 223, 222, 239, 221, 0 
2017-09-05 13:50:14, 35, 708, 66, 200, 43, 24, 223, 222, 239, 221, 0 
2017-09-05 13:50:14, 35, 708, 77, 100, 39, 22, 201, 200, 212, 198, 0 
2017-09-05 13:50:15, 35, 708, 77, 200, 39, 22, 201, 200, 212, 198, 0 
2017-09-05 13:50:16, 36, 699, 44, 100, 33, 19, 171, 170, 182, 169, 0 
2017-09-05 13:50:17, 36, 699, 44, 200, 33, 19, 171, 170, 182, 169, 0 
2017-09-05 13:50:18, 36, 699, 55, 100, 61, 33, 315, 314, 349, 313, 0 
2017-09-05 13:50:18, 36, 699, 55, 200, 61, 33, 315, 313, 349, 313, 1 
2017-09-05 13:50:19, 36, 699, 66, 100, 44, 24, 225, 225, 244, 226, 0 
2017-09-05 13:50:20, 36, 699, 66, 200, 44, 24, 226, 225, 244, 226, 1 
2017-09-05 13:50:20, 36, 699, 77, 100, 39, 22, 203, 202, 216, 203, 0 
2017-09-05 13:50:21, 36, 699, 77, 200, 39, 22, 203, 202, 217, 203, 1 
2017-09-05 13:50:22, 37, 690, 44, 100, 33, 19, 173, 172, 183, 169, 0 
2017-09-05 13:50:23, 37, 690, 44, 200, 33, 19, 173, 172, 183, 169, 0 
2017-09-05 13:50:24, 37, 690, 55, 100, 61, 33, 318, 316, 353, 318, 0 
2017-09-05 13:50:24, 37, 690, 55, 200, 61, 33, 318, 317, 352, 318, 2 
2017-09-05 13:50:25, 37, 690, 66, 100, 44, 24, 228, 227, 244, 227, 0 
2017-09-05 13:50:26, 37, 690, 66, 200, 44, 24, 228, 227, 244, 227, 0 
2017-09-05 13:50:26, 37, 690, 77, 100, 39, 22, 206, 204, 217, 203, 0 
2017-09-05 13:50:27, 37, 690, 77, 200, 39, 22, 206, 204, 217, 203, 0 
2017-09-05 13:50:28, 38, 681, 44, 100, 33, 18, 175, 174, 187, 173, 0 
2017-09-05 13:50:29, 38, 681, 44, 200, 33, 18, 175, 175, 187, 173, 1 
2017-09-05 13:50:29, 38, 681, 55, 100, 62, 33, 322, 320, 358, 318, 0 
2017-09-05 13:50:30, 38, 681, 55, 200, 62, 32, 321, 319, 357, 318, 4 
2017-09-05 13:50:31, 38, 681, 66, 100, 44, 24, 230, 229, 249, 232, 0 
2017-09-05 13:50:31, 38, 681, 66, 200, 44, 24, 230, 229, 249, 232, 0 
2017-09-05 13:50:32, 38, 681, 77, 100, 39, 22, 208, 207, 222, 208, 0 
2017-09-05 13:50:33, 38, 681, 77, 200, 39, 21, 208, 207, 222, 208, 1 
2017-09-05 13:50:34, 39, 671, 44, 100, 33, 18, 177, 177, 188, 174, 0 
2017-09-05 13:50:35, 39, 671, 44, 200, 33, 18, 177, 177, 188, 174, 0 
2017-09-05 13:50:35, 39, 671, 55, 100, 62, 32, 324, 323, 358, 323, 0 
2017-09-05 13:50:36, 39, 671, 55, 200, 62, 32, 325, 323, 361, 323, 1 
2017-09-05 13:50:37, 39, 671, 66, 100, 44, 24, 233, 232, 249, 232, 0 
2017-09-05 13:50:37, 39, 671, 66, 200, 44, 24, 233, 232, 250, 232, 1 
2017-09-05 13:50:38, 39, 671, 77, 100, 39, 22, 210, 209, 222, 208, 0 
2017-09-05 13:50:39, 39, 671, 77, 200, 39, 22, 210, 209, 222, 208, 0 
2017-09-05 13:50:40, 40, 659, 44, 100, 33, 18, 181, 179, 192, 179, 0 
2017-09-05 13:50:41, 40, 659, 44, 200, 33, 18, 180, 179, 192, 179, 1 
2017-09-05 13:50:41, 40, 659, 55, 100, 62, 32, 329, 326, 364, 327, 0 
2017-09-05 13:50:42, 40, 659, 55, 200, 62, 32, 329, 326, 365, 327, 1 
2017-09-05 13:50:43, 40, 659, 66, 100, 44, 23, 236, 235, 254, 237, 0 
2017-09-05 13:50:43, 40, 659, 66, 200, 44, 24, 236, 235, 254, 237, 1 
2017-09-05 13:50:44, 40, 659, 77, 100, 39, 21, 213, 212, 227, 213, 0 
2017-09-05 13:50:45, 40, 659, 77, 200, 39, 22, 213, 212, 227, 213, 1 
2017-09-05 13:50:46, 41, 646, 44, 100, 33, 18, 183, 182, 192, 180, 0 
2017-09-05 13:50:47, 41, 646, 44, 200, 33, 18, 183, 182, 192, 180, 0 
2017-09-05 13:50:47, 41, 646, 55, 100, 62, 32, 332, 330, 371, 332, 0 
2017-09-05 13:50:48, 41, 646, 55, 200, 62, 32, 332, 330, 371, 332, 0 
2017-09-05 13:50:49, 41, 646, 66, 100, 44, 23, 240, 238, 259, 242, 0 
2017-09-05 13:50:49, 41, 646, 66, 200, 44, 23, 240, 239, 259, 242, 1 
2017-09-05 13:50:50, 41, 646, 77, 100, 39, 21, 217, 215, 232, 219, 0 
2017-09-05 13:50:51, 41, 646, 77, 200, 40, 21, 217, 215, 232, 219, 1 
2017-09-05 13:50:52, 42, 633, 44, 100, 33, 18, 186, 185, 197, 185, 0 
2017-09-05 13:50:52, 42, 633, 44, 200, 33, 18, 186, 185, 197, 185, 0 
2017-09-05 13:50:53, 42, 633, 55, 100, 62, 31, 337, 335, 375, 337, 0 
2017-09-05 13:50:54, 42, 633, 55, 200, 62, 31, 337, 336, 375, 337, 1 
2017-09-05 13:50:55, 42, 633, 66, 100, 44, 23, 244, 242, 264, 243, 0 
2017-09-05 13:50:55, 42, 633, 66, 200, 44, 23, 244, 243, 264, 243, 1 
2017-09-05 13:50:56, 42, 633, 77, 100, 40, 20, 220, 219, 235, 219, 0 
2017-09-05 13:50:57, 42, 633, 77, 200, 40, 20, 220, 219, 237, 220, 1 
2017-09-05 13:50:58, 43, 620, 44, 100, 33, 18, 190, 189, 202, 189, 0 
2017-09-05 13:50:58, 43, 620, 44, 200, 33, 18, 189, 188, 202, 189, 2 
2017-09-05 13:50:59, 43, 620, 55, 100, 62, 31, 343, 341, 384, 342, 0 
2017-09-05 13:51:00, 43, 620, 55, 200, 62, 31, 343, 341, 384, 342, 0 
2017-09-05 13:51:00, 43, 620, 66, 100, 44, 23, 248, 246, 270, 248, 0 
2017-09-05 13:51:01, 43, 620, 66, 200, 44, 23, 248, 246, 270, 248, 0 
2017-09-05 13:51:02, 43, 620, 77, 100, 40, 20, 224, 223, 238, 224, 0 
2017-09-05 13:51:03, 43, 620, 77, 200, 40, 20, 224, 223, 238, 224, 0 
2017-09-05 13:51:04, 44, 606, 44, 100, 33, 17, 193, 192, 206, 193, 0 
2017-09-05 13:51:04, 44, 606, 44, 200, 33, 17, 193, 192, 206, 194, 1 
2017-09-05 13:51:05, 44, 606, 55, 100, 62, 30, 349, 347, 389, 349, 0 
2017-09-05 13:51:06, 44, 606, 55, 200, 62, 30, 349, 347, 391, 350, 1 
2017-09-05 13:51:06, 44, 606, 66, 100, 44, 22, 252, 251, 275, 250, 0 
2017-09-05 13:51:07, 44, 606, 66, 200, 44, 22, 252, 251, 276, 250, 1 
2017-09-05 13:51:08, 44, 606, 77, 100, 40, 20, 228, 227, 244, 228, 0 
2017-09-05 13:51:08, 44, 606, 77, 200, 40, 20, 228, 227, 243, 228, 1 
2017-09-05 13:51:10, 45, 593, 44, 100, 33, 17, 197, 195, 211, 195, 0 
2017-09-05 13:51:10, 45, 593, 44, 200, 33, 17, 197, 196, 211, 195, 1 
2017-09-05 13:51:11, 45, 593, 55, 100, 62, 29, 355, 353, 398, 352, 0 
2017-09-05 13:51:12, 45, 593, 55, 200, 62, 29, 355, 353, 398, 352, 0 
2017-09-05 13:51:12, 45, 593, 66, 100, 44, 21, 257, 256, 281, 254, 0 
2017-09-05 13:51:13, 45, 593, 66, 200, 44, 21, 257, 255, 281, 254, 1 
2017-09-05 13:51:14, 45, 593, 77, 100, 40, 20, 232, 231, 249, 233, 1 
2017-09-05 13:51:14, 45, 593, 77, 200, 40, 20, 232, 231, 249, 233, 0 
2017-09-05 13:51:16, 46, 580, 44, 100, 33, 17, 200, 200, 216, 200, 0 
2017-09-05 13:51:16, 46, 580, 44, 200, 33, 17, 200, 200, 216, 200, 0 
2017-09-05 13:51:17, 46, 580, 55, 100, 62, 29, 362, 360, 407, 358, 0 
2017-09-05 13:51:18, 46, 580, 55, 200, 62, 29, 361, 360, 407, 357, 2 
2017-09-05 13:51:18, 46, 580, 66, 100, 44, 21, 262, 261, 286, 259, 0 
2017-09-05 13:51:19, 46, 580, 66, 200, 44, 21, 262, 261, 286, 259, 0 
2017-09-05 13:51:20, 46, 580, 77, 100, 40, 19, 237, 236, 256, 235, 0 
2017-09-05 13:51:20, 46, 580, 77, 200, 40, 19, 237, 236, 256, 235, 0 
2017-09-05 13:51:21, 47, 566, 44, 100, 33, 17, 205, 204, 221, 205, 0 
2017-09-05 13:51:22, 47, 566, 44, 200, 34, 17, 205, 204, 221, 205, 1 
2017-09-05 13:51:23, 47, 566, 55, 100, 63, 28, 369, 367, 419, 366, 0 
2017-09-05 13:51:23, 47, 566, 55, 200, 63, 28, 369, 367, 419, 366, 0 
2017-09-05 13:51:24, 47, 566, 66, 100, 44, 21, 268, 266, 292, 265, 0 
2017-09-05 13:51:25, 47, 566, 66, 200, 44, 21, 268, 267, 292, 265, 1 
2017-09-05 13:51:26, 47, 566, 77, 100, 40, 19, 242, 241, 261, 240, 0 
2017-09-05 13:51:26, 47, 566, 77, 200, 40, 19, 242, 241, 261, 240, 0 
2017-09-05 13:51:27, 48, 552, 44, 100, 34, 16, 210, 209, 226, 210, 0 
2017-09-05 13:51:28, 48, 552, 44, 200, 34, 16, 210, 209, 226, 210, 0 
2017-09-05 13:51:29, 48, 552, 55, 100, 63, 28, 377, 375, 425, 376, 0 
2017-09-05 13:51:29, 48, 552, 55, 200, 63, 28, 377, 375, 425, 376, 0 
2017-09-05 13:51:30, 48, 552, 66, 100, 44, 20, 273, 272, 301, 271, 0 
2017-09-05 13:51:31, 48, 552, 66, 200, 44, 20, 273, 272, 301, 271, 0 
2017-09-05 13:51:32, 48, 552, 77, 100, 40, 19, 248, 246, 267, 245, 1 
2017-09-05 13:51:32, 48, 552, 77, 200, 40, 19, 247, 246, 267, 245, 1 
2017-09-05 13:51:33, 49, 538, 44, 100, 34, 16, 210, 210, 227, 210, 0 
2017-09-05 13:51:34, 49, 538, 44, 200, 34, 16, 210, 210, 227, 210, 0 
2017-09-05 13:51:35, 49, 538, 55, 100, 63, 27, 377, 375, 425, 376, 0 
2017-09-05 13:51:35, 49, 538, 55, 200, 63, 28, 377, 375, 425, 376, 1 
2017-09-05 13:51:36, 49, 538, 66, 100, 44, 20, 273, 272, 301, 271, 0 
2017-09-05 13:51:37, 49, 538, 66, 200, 44, 20, 273, 272, 301, 271, 0 
2017-09-05 13:51:37, 49, 538, 77, 100, 40, 19, 247, 246, 267, 245, 1 
2017-09-05 13:51:38, 49, 538, 77, 200, 40, 19, 247, 246, 267, 245, 0 
2017-09-05 13:51:41,*SeqNo.,Time,DAC_Cnt,BGO,AM_LCh0,AM_RCh0,AM_Rch1,AM_RCh2,AM_LCh3,AM_LCh3
2017-09-05 13:51:41, BGO Set:0, AM_RegBuffer:0
2017-09-05 13:51:44, BGO Set:0,725 
2017-09-05 13:51:44, Gain Set:0, AM_RegBuffer:0 
2017-09-05 13:51:49,*SeqNo.,Time,DAC_Cnt,BGO,AM_LCh0,AM_RCh0,AM_Rch1,AM_RCh2,AM_LCh3,AM_LCh3
2017-09-05 13:51:49, BGO Set:0, AM_RegBuffer:0
2017-09-05 13:51:52, BGO Set:0,733 
2017-09-05 13:51:52, Gain Set:0, AM_RegBuffer:0 
