2017-09-05 13:36:54,
2017-09-05 13:36:54,*******Meaure Clk Period:Time, Freq in MHz*******
2017-09-05 13:36:54,****SeqNo.,Time,DAC_Cnt.......... 38, 30400000, 0, 0 
2017-09-05 13:36:54, 39, 31200000, 1, 0 
2017-09-05 13:36:54, 37, 29600000, 2, 0 
2017-09-05 13:36:54, 39, 31200000, 3, 0 
2017-09-05 13:36:54, 37, 29600000, 4, 0 
2017-09-05 13:36:54, 38, 30400000, 5, 0 
2017-09-05 13:36:54, 38, 30400000, 6, 0 
2017-09-05 13:36:54, 37, 29600000, 7, 0 
2017-09-05 13:36:54, 38, 30400000, 8, 0 
2017-09-05 13:36:54, 37, 29600000, 9, 0 
2017-09-05 13:36:54, 38, 30400000, 10, 0 
2017-09-05 13:36:54, 38, 30400000, 11, 0 
2017-09-05 13:36:54, 38, 30400000, 12, 0 
2017-09-05 13:36:54, 39, 31200000, 13, 0 
2017-09-05 13:36:54, 38, 30400000, 14, 0 
2017-09-05 13:36:54, 38, 30400000, 15, 0 
2017-09-05 13:36:54, 37, 29600000, 16, 0 
2017-09-05 13:36:54, 38, 30400000, 17, 0 
2017-09-05 13:36:54, 38, 30400000, 18, 0 
2017-09-05 13:36:54, 38, 30400000, 19, 0 
2017-09-05 13:36:54, 38, 30400000, 20, 0 
2017-09-05 13:36:54, 38, 30400000, 21, 0 
2017-09-05 13:36:54, 37, 29600000, 22, 0 
2017-09-05 13:36:54, 37, 29600000, 23, 0 
2017-09-05 13:36:54, 37, 29600000, 24, 0 
2017-09-05 13:36:54, 39, 31200000, 25, 0 
2017-09-05 13:36:54, 39, 31200000, 26, 0 
2017-09-05 13:36:54, 38, 30400000, 27, 0 
2017-09-05 13:36:54, 37, 29600000, 28, 0 
2017-09-05 13:36:54, 38, 30400000, 29, 0 
2017-09-05 13:36:54, 37, 29600000, 30, 0 
2017-09-05 13:36:54, 37, 29600000, 31, 0 
2017-09-05 13:36:54, 37, 29600000, 32, 0 
2017-09-05 13:36:54, 39, 31200000, 33, 0 
2017-09-05 13:36:54, 39, 31200000, 34, 0 
2017-09-05 13:36:54, 39, 31200000, 35, 0 
2017-09-05 13:36:54, 37, 29600000, 36, 0 
2017-09-05 13:36:54, 38, 30400000, 37, 0 
2017-09-05 13:36:54, 38, 30400000, 38, 0 
2017-09-05 13:36:54, 38, 30400000, 39, 0 
2017-09-05 13:36:54, 37, 29600000, 40, 0 
2017-09-05 13:36:54, 37, 29600000, 41, 0 
2017-09-05 13:36:54, 38, 30400000, 42, 0 
2017-09-05 13:36:54, 38, 30400000, 43, 0 
2017-09-05 13:36:54, 38, 30400000, 44, 0 
2017-09-05 13:36:54, 38, 30400000, 45, 0 
2017-09-05 13:36:55, 37, 29600000, 46, 0 
2017-09-05 13:36:55, 39, 31200000, 47, 0 
2017-09-05 13:36:55, 38, 30400000, 48, 0 
2017-09-05 13:36:55, 38, 30400000, 49, 0 
2017-09-05 13:36:55, 38, 30400000, 50, 0 
2017-09-05 13:36:55, 38, 30400000, 51, 0 
2017-09-05 13:36:55, 38, 30400000, 52, 0 
2017-09-05 13:36:55, 38, 30400000, 53, 0 
2017-09-05 13:36:55, 39, 31200000, 54, 0 
2017-09-05 13:36:55, 38, 30400000, 55, 0 
2017-09-05 13:36:55, 38, 30400000, 56, 0 
2017-09-05 13:36:55, 38, 30400000, 57, 0 
2017-09-05 13:36:55, 37, 29600000, 58, 0 
2017-09-05 13:36:55, 38, 30400000, 59, 0 
2017-09-05 13:36:55, 38, 30400000, 60, 0 
2017-09-05 13:36:55, 38, 30400000, 61, 0 
2017-09-05 13:36:55, 37, 29600000, 62, 0 
2017-09-05 13:36:55, 38, 30400000, 63, 0 
2017-09-05 13:36:55, 37, 29600000, 64, 0 
2017-09-05 13:36:55, 38, 30400000, 65, 0 
2017-09-05 13:36:55, 38, 30400000, 66, 0 
2017-09-05 13:36:55, 39, 31200000, 67, 0 
2017-09-05 13:36:55, 38, 30400000, 68, 0 
2017-09-05 13:36:55, 38, 30400000, 69, 0 
2017-09-05 13:36:55, 38, 30400000, 70, 0 
2017-09-05 13:36:55, 37, 29600000, 71, 0 
2017-09-05 13:36:55, 38, 30400000, 72, 0 
2017-09-05 13:36:55, 38, 30400000, 73, 0 
2017-09-05 13:36:55, 38, 30400000, 74, 0 
2017-09-05 13:36:55, 38, 30400000, 75, 0 
2017-09-05 13:36:55, 39, 31200000, 76, 0 
2017-09-05 13:36:55, 39, 31200000, 77, 0 
2017-09-05 13:36:55, 37, 29600000, 78, 0 
2017-09-05 13:36:55, 38, 30400000, 79, 0 
2017-09-05 13:36:55, 38, 30400000, 80, 0 
2017-09-05 13:36:55, 38, 30400000, 81, 0 
2017-09-05 13:36:55, 38, 30400000, 82, 0 
2017-09-05 13:36:55, 38, 30400000, 83, 0 
2017-09-05 13:36:55, 38, 30400000, 84, 0 
2017-09-05 13:36:55, 37, 29600000, 85, 0 
2017-09-05 13:36:55, 38, 30400000, 86, 0 
2017-09-05 13:36:55, 38, 30400000, 87, 0 
2017-09-05 13:36:55, 37, 29600000, 88, 0 
2017-09-05 13:36:55, 37, 29600000, 89, 0 
2017-09-05 13:36:55, 38, 30400000, 90, 0 
2017-09-05 13:36:55, 38, 30400000, 91, 0 
2017-09-05 13:36:55, 39, 31200000, 92, 0 
2017-09-05 13:36:55, 38, 30400000, 93, 0 
2017-09-05 13:36:55, 38, 30400000, 94, 0 
2017-09-05 13:36:55, 38, 30400000, 95, 0 
2017-09-05 13:36:55, 37, 29600000, 96, 0 
2017-09-05 13:36:55, 38, 30400000, 97, 0 
2017-09-05 13:36:55, 38, 30400000, 98, 0 
2017-09-05 13:36:55, 39, 31200000, 99, 0 
2017-09-05 13:36:55, 37, 29600000, 100, 0 
2017-09-05 13:36:55, 38, 30400000, 101, 0 
2017-09-05 13:36:55, 37, 29600000, 102, 0 
2017-09-05 13:36:55, 38, 30400000, 103, 0 
2017-09-05 13:36:55, 37, 29600000, 104, 0 
2017-09-05 13:36:55, 38, 30400000, 105, 0 
2017-09-05 13:36:55, 39, 31200000, 106, 0 
2017-09-05 13:36:55, 38, 30400000, 107, 0 
2017-09-05 13:36:55, 39, 31200000, 108, 0 
2017-09-05 13:36:55, 37, 29600000, 109, 0 
2017-09-05 13:36:55, 38, 30400000, 110, 0 
2017-09-05 13:36:55, 37, 29600000, 111, 0 
2017-09-05 13:36:55, 38, 30400000, 112, 0 
2017-09-05 13:36:55, 37, 29600000, 113, 0 
2017-09-05 13:36:55, 38, 30400000, 114, 0 
2017-09-05 13:36:55, 37, 29600000, 115, 0 
2017-09-05 13:36:55, 38, 30400000, 116, 0 
2017-09-05 13:36:55, 38, 30400000, 117, 0 
2017-09-05 13:36:55, 38, 30400000, 118, 0 
2017-09-05 13:36:55, 38, 30400000, 119, 0 
2017-09-05 13:36:55, 39, 31200000, 120, 0 
2017-09-05 13:36:55, 37, 29600000, 121, 0 
2017-09-05 13:36:55, 39, 31200000, 122, 0 
2017-09-05 13:36:55, 38, 30400000, 123, 0 
2017-09-05 13:36:55, 38, 30400000, 124, 0 
2017-09-05 13:36:55, 37, 29600000, 125, 0 
2017-09-05 13:36:55, 38, 30400000, 126, 0 
2017-09-05 13:36:55, 37, 29600000, 127, 0 
2017-09-05 13:36:55, 38, 30400000, 128, 0 
2017-09-05 13:36:55, 38, 30400000, 129, 0 
2017-09-05 13:36:55, 39, 31200000, 130, 0 
2017-09-05 13:36:55, 39, 31200000, 131, 0 
2017-09-05 13:36:55, 37, 29600000, 132, 0 
2017-09-05 13:36:55, 39, 31200000, 133, 0 
2017-09-05 13:36:55, 39, 31200000, 134, 0 
2017-09-05 13:36:55, 38, 30400000, 135, 0 
2017-09-05 13:36:55, 37, 29600000, 136, 0 
2017-09-05 13:36:55, 39, 31200000, 137, 0 
2017-09-05 13:36:55, 38, 30400000, 138, 0 
2017-09-05 13:36:55, 37, 29600000, 139, 0 
2017-09-05 13:36:55, 38, 30400000, 140, 0 
2017-09-05 13:36:55, 38, 30400000, 141, 0 
2017-09-05 13:36:55, 38, 30400000, 142, 0 
2017-09-05 13:36:55, 37, 29600000, 143, 0 
2017-09-05 13:36:55, 38, 30400000, 144, 0 
2017-09-05 13:36:55, 38, 30400000, 145, 0 
2017-09-05 13:36:55, 38, 30400000, 146, 0 
2017-09-05 13:36:55, 37, 29600000, 147, 0 
2017-09-05 13:36:55, 38, 30400000, 148, 0 
2017-09-05 13:36:55, 38, 30400000, 149, 0 
2017-09-05 13:36:55, 38, 30400000, 150, 0 
2017-09-05 13:36:55, 38, 30400000, 151, 0 
2017-09-05 13:36:55, 38, 30400000, 152, 0 
2017-09-05 13:36:55, 38, 30400000, 153, 0 
2017-09-05 13:36:55, 38, 30400000, 154, 0 
2017-09-05 13:36:55, 38, 30400000, 155, 0 
2017-09-05 13:36:55, 37, 29600000, 156, 0 
2017-09-05 13:36:55, 37, 29600000, 157, 0 
2017-09-05 13:36:55, 37, 29600000, 158, 0 
2017-09-05 13:36:55, 37, 29600000, 159, 0 
2017-09-05 13:36:55, 38, 30400000, 160, 0 
2017-09-05 13:36:55, 38, 30400000, 161, 0 
2017-09-05 13:36:55, 39, 31200000, 162, 0 
2017-09-05 13:36:55, 38, 30400000, 163, 0 
2017-09-05 13:36:55, 38, 30400000, 164, 0 
2017-09-05 13:36:55, 37, 29600000, 165, 0 
2017-09-05 13:36:55, 37, 29600000, 166, 0 
2017-09-05 13:36:55, 38, 30400000, 167, 0 
2017-09-05 13:36:55, 38, 30400000, 168, 0 
2017-09-05 13:36:55, 38, 30400000, 169, 0 
2017-09-05 13:36:55, 38, 30400000, 170, 0 
2017-09-05 13:36:55, 37, 29600000, 171, 0 
2017-09-05 13:36:55, 38, 30400000, 172, 0 
2017-09-05 13:36:55, 38, 30400000, 173, 0 
2017-09-05 13:36:55, 38, 30400000, 174, 0 
2017-09-05 13:36:56, 37, 29600000, 175, 0 
2017-09-05 13:36:56, 38, 30400000, 176, 0 
2017-09-05 13:36:56, 37, 29600000, 177, 0 
2017-09-05 13:36:56, 37, 29600000, 178, 0 
2017-09-05 13:36:56, 37, 29600000, 179, 0 
2017-09-05 13:36:56, 38, 30400000, 180, 0 
2017-09-05 13:36:56, 37, 29600000, 181, 0 
2017-09-05 13:36:56, 37, 29600000, 182, 0 
2017-09-05 13:36:56, 38, 30400000, 183, 0 
2017-09-05 13:36:56, 38, 30400000, 184, 0 
2017-09-05 13:36:56, 38, 30400000, 185, 0 
2017-09-05 13:36:56, 37, 29600000, 186, 0 
2017-09-05 13:36:56, 38, 30400000, 187, 0 
2017-09-05 13:36:56, 38, 30400000, 188, 0 
2017-09-05 13:36:56, 38, 30400000, 189, 0 
2017-09-05 13:36:56, 37, 29600000, 190, 0 
2017-09-05 13:36:56, 38, 30400000, 191, 0 
2017-09-05 13:36:56, 37, 29600000, 192, 0 
2017-09-05 13:36:56, 37, 29600000, 193, 0 
2017-09-05 13:36:56, 38, 30400000, 194, 0 
2017-09-05 13:36:56, 37, 29600000, 195, 0 
2017-09-05 13:36:56, 39, 31200000, 196, 0 
2017-09-05 13:36:56, 37, 29600000, 197, 0 
2017-09-05 13:36:56, 37, 29600000, 198, 0 
2017-09-05 13:36:56, 37, 29600000, 199, 0 
2017-09-05 13:36:59,0, 733, 44, 100, 25, 15, 131, 130, 139, 128, 0 
2017-09-05 13:37:00, 0, 733, 44, 200, 25, 15, 131, 130, 139, 128, 0 
2017-09-05 13:37:01, 0, 733, 55, 100, 58, 32, 298, 296, 330, 295, 0 
2017-09-05 13:37:01, 0, 733, 55, 200, 59, 32, 298, 297, 330, 296, 3 
2017-09-05 13:37:02, 0, 733, 66, 100, 41, 23, 214, 213, 229, 215, 0 
2017-09-05 13:37:03, 0, 733, 66, 200, 41, 23, 214, 214, 229, 215, 1 
2017-09-05 13:37:03, 0, 733, 77, 100, 37, 21, 193, 192, 203, 192, 0 
2017-09-05 13:37:04, 0, 733, 77, 200, 37, 21, 193, 192, 203, 192, 0 
2017-09-05 13:37:05, 1, 733, 44, 100, 32, 18, 164, 164, 172, 164, 0 
2017-09-05 13:37:06, 1, 733, 44, 200, 32, 18, 164, 164, 172, 164, 0 
2017-09-05 13:37:07, 1, 733, 55, 100, 60, 33, 306, 305, 336, 304, 0 
2017-09-05 13:37:07, 1, 733, 55, 200, 60, 33, 306, 305, 336, 304, 0 
2017-09-05 13:37:08, 1, 733, 66, 100, 42, 24, 218, 217, 234, 216, 0 
2017-09-05 13:37:09, 1, 733, 66, 200, 42, 24, 218, 217, 234, 216, 0 
2017-09-05 13:37:09, 1, 733, 77, 100, 38, 22, 196, 195, 208, 193, 0 
2017-09-05 13:37:10, 1, 733, 77, 200, 38, 22, 196, 195, 208, 193, 0 
2017-09-05 13:37:11, 2, 717, 44, 100, 32, 18, 166, 166, 177, 164, 0 
2017-09-05 13:37:12, 2, 717, 44, 200, 32, 18, 166, 166, 177, 164, 0 
2017-09-05 13:37:13, 2, 717, 55, 100, 61, 33, 309, 308, 340, 308, 0 
2017-09-05 13:37:13, 2, 717, 55, 200, 61, 33, 309, 308, 340, 308, 0 
2017-09-05 13:37:14, 2, 717, 66, 100, 43, 24, 220, 219, 234, 221, 0 
2017-09-05 13:37:15, 2, 717, 66, 200, 43, 24, 220, 220, 234, 221, 1 
2017-09-05 13:37:15, 2, 717, 77, 100, 38, 22, 198, 197, 208, 198, 0 
2017-09-05 13:37:16, 2, 717, 77, 200, 38, 22, 198, 197, 208, 198, 0 
2017-09-05 13:37:17, 3, 708, 44, 100, 32, 18, 169, 167, 177, 165, 0 
2017-09-05 13:37:18, 3, 708, 44, 200, 32, 18, 169, 167, 177, 165, 0 
2017-09-05 13:37:18, 3, 708, 55, 100, 61, 33, 312, 311, 344, 309, 0 
2017-09-05 13:37:19, 3, 708, 55, 200, 61, 33, 313, 310, 344, 308, 3 
2017-09-05 13:37:20, 3, 708, 66, 100, 43, 24, 223, 222, 239, 221, 0 
2017-09-05 13:37:20, 3, 708, 66, 200, 43, 24, 223, 222, 239, 221, 0 
2017-09-05 13:37:21, 3, 708, 77, 100, 39, 22, 201, 200, 212, 198, 0 
2017-09-05 13:37:22, 3, 708, 77, 200, 39, 22, 201, 200, 212, 198, 0 
2017-09-05 13:37:23, 4, 699, 44, 100, 33, 19, 171, 170, 182, 169, 0 
2017-09-05 13:37:24, 4, 699, 44, 200, 33, 19, 171, 170, 182, 169, 0 
2017-09-05 13:37:24, 4, 699, 55, 100, 61, 33, 315, 314, 349, 313, 0 
2017-09-05 13:37:25, 4, 699, 55, 200, 61, 33, 315, 314, 349, 313, 0 
2017-09-05 13:37:26, 4, 699, 66, 100, 43, 24, 226, 225, 244, 226, 0 
2017-09-05 13:37:26, 4, 699, 66, 200, 43, 24, 225, 224, 244, 226, 2 
2017-09-05 13:37:27, 4, 699, 77, 100, 39, 22, 203, 202, 216, 203, 0 
2017-09-05 13:37:28, 4, 699, 77, 200, 39, 22, 203, 202, 215, 203, 1 
2017-09-05 13:37:29, 5, 690, 44, 100, 33, 19, 173, 172, 183, 169, 0 
2017-09-05 13:37:30, 5, 690, 44, 200, 33, 19, 173, 172, 182, 169, 1 
2017-09-05 13:37:30, 5, 690, 55, 100, 61, 33, 318, 317, 351, 318, 0 
